%!PS-Adobe-3.0 EPSF-3.0
%%For: bperera
%%Title: PGPLOT PostScript plot
%%Creator: PGPLOT [PSDRIV 6.6]
%%CreationDate: 26-May-2016 15:18
%%BoundingBox: (atend)
%%DocumentFonts: (atend)
%%LanguageLevel: 1
%%Orientation: Landscape
%%Pages: (atend)
%%EndComments
%%BeginProlog
/L {moveto rlineto currentpoint stroke moveto} bind def
/C {rlineto currentpoint stroke moveto} bind def
/D {moveto 0 0 rlineto currentpoint stroke moveto} bind def
/LW {5 mul setlinewidth} bind def
/BP {newpath moveto} bind def
/LP /rlineto load def
/EP {rlineto closepath eofill} bind def
/MB {gsave translate MFAC dup scale 1 setlinewidth 2 setlinecap 0 setlinejoin newpath} bind def
/ME /grestore load def
/CC {0 360 arc stroke} bind def
/FC {0 360 arc fill} bind def
/G {1024 div setgray} bind def
/K {3 -1 roll 1024 div 3 -1 roll 1024 div 3 -1 roll 1024 div setrgbcolor} bind def
% Uncomment next line to convert color to grey shades
%/K {3 -1 roll 3413 div 3 -1 roll 1739 div 3 -1 roll 9309 div add add setgray} bind def
%%EndProlog
%%BeginSetup
/#copies 1 def
%%EndSetup
 
%%Page: 1 1
%%BeginPageSetup
/PGPLOT save def
0.072 0.072 scale
8149 250 translate 90 rotate
1 setlinejoin 1 setlinecap 1 LW 1
%%EndPageSetup
%%PageBoundingBox: (atend)
1024 1024 1024 K 1 LW 0 0 BP 9749 0 LP 0 7799 LP -9749 0 EP 0 0 0 K
8286 0 975 1170 L -8286 0 9261 6629 L 0 -5459 C 0 45 982 1170 L 0 90 1358 1170 L 0 45 1734 1170 L 0 45 2110 1170 L 0 45 2486 1170 L
0 45 2862 1170 L 0 90 3238 1170 L 0 45 3614 1170 L 0 45 3990 1170 L 0 45 4366 1170 L 0 45 4742 1170 L 0 90 5118 1170 L
0 45 5494 1170 L 0 45 5870 1170 L 0 45 6246 1170 L 0 45 6622 1170 L 0 90 6998 1170 L 0 45 7374 1170 L 0 45 7750 1170 L
0 45 8126 1170 L 0 45 8502 1170 L 0 90 8878 1170 L 0 45 9254 1170 L 0 45 982 6584 L 0 90 1358 6539 L 0 45 1734 6584 L
0 45 2110 6584 L 0 45 2486 6584 L 0 45 2862 6584 L 0 90 3238 6539 L 0 45 3614 6584 L 0 45 3990 6584 L 0 45 4366 6584 L
0 45 4742 6584 L 0 90 5118 6539 L 0 45 5494 6584 L 0 45 5870 6584 L 0 45 6246 6584 L 0 45 6622 6584 L 0 90 6998 6539 L
0 45 7374 6584 L 0 45 7750 6584 L 0 45 8126 6584 L 0 45 8502 6584 L 0 90 8878 6539 L 0 45 9254 6584 L 108 0 1064 990 L
0 6 1220 1032 L 6 12 C 6 6 C 12 6 C 24 0 C 12 -6 C 6 -6 C 6 -12 C 0 -12 C -6 -12 C -12 -18 C -60 -60 C 84 0 C -18 -6 1370 1062 L
-12 -18 C -6 -30 C 0 -18 C 6 -30 C 12 -18 C 18 -6 C 12 0 C 18 6 C 12 18 C 6 30 C 0 18 C -6 30 C -12 18 C -18 6 C -12 0 C
-18 -6 1490 1062 L -12 -18 C -6 -30 C 0 -18 C 6 -30 C 12 -18 C 18 -6 C 12 0 C 18 6 C 12 18 C 6 30 C 0 18 C -6 30 C -12 18 C -18 6 C
-12 0 C -18 -6 1610 1062 L -12 -18 C -6 -30 C 0 -18 C 6 -30 C 12 -18 C 18 -6 C 12 0 C 18 6 C 12 18 C 6 30 C 0 18 C -6 30 C -12 18 C
-18 6 C -12 0 C 108 0 2944 990 L 12 6 3112 1038 L 18 18 C 0 -126 C -18 -6 3250 1062 L -12 -18 C -6 -30 C 0 -18 C 6 -30 C 12 -18 C
18 -6 C 12 0 C 18 6 C 12 18 C 6 30 C 0 18 C -6 30 C -12 18 C -18 6 C -12 0 C -18 -6 3370 1062 L -12 -18 C -6 -30 C 0 -18 C 6 -30 C
12 -18 C 18 -6 C 12 0 C 18 6 C 12 18 C 6 30 C 0 18 C -6 30 C -12 18 C -18 6 C -12 0 C -18 -6 3490 1062 L -12 -18 C -6 -30 C 0 -18 C
6 -30 C 12 -18 C 18 -6 C 12 0 C 18 6 C 12 18 C 6 30 C 0 18 C -6 30 C -12 18 C -18 6 C -12 0 C -18 -6 5112 1062 L -12 -18 C -6 -30 C
0 -18 C 6 -30 C 12 -18 C 18 -6 C 12 0 C 18 6 C 12 18 C 6 30 C 0 18 C -6 30 C -12 18 C -18 6 C -12 0 C 12 6 6794 1038 L 18 18 C
0 -126 C -18 -6 6932 1062 L -12 -18 C -6 -30 C 0 -18 C 6 -30 C 12 -18 C 18 -6 C 12 0 C 18 6 C 12 18 C 6 30 C 0 18 C -6 30 C -12 18 C
-18 6 C -12 0 C -18 -6 7052 1062 L -12 -18 C -6 -30 C 0 -18 C 6 -30 C 12 -18 C 18 -6 C 12 0 C 18 6 C 12 18 C 6 30 C 0 18 C -6 30 C
-12 18 C -18 6 C -12 0 C -18 -6 7172 1062 L -12 -18 C -6 -30 C 0 -18 C 6 -30 C 12 -18 C 18 -6 C 12 0 C 18 6 C 12 18 C 6 30 C 0 18 C
-6 30 C -12 18 C -18 6 C -12 0 C 0 6 8662 1032 L 6 12 C 6 6 C 12 6 C 24 0 C 12 -6 C 6 -6 C 6 -12 C 0 -12 C -6 -12 C -12 -18 C
-60 -60 C 84 0 C -18 -6 8812 1062 L -12 -18 C -6 -30 C 0 -18 C 6 -30 C 12 -18 C 18 -6 C 12 0 C 18 6 C 12 18 C 6 30 C 0 18 C -6 30 C
-12 18 C -18 6 C -12 0 C -18 -6 8932 1062 L -12 -18 C -6 -30 C 0 -18 C 6 -30 C 12 -18 C 18 -6 C 12 0 C 18 6 C 12 18 C 6 30 C 0 18 C
-6 30 C -12 18 C -18 6 C -12 0 C -18 -6 9052 1062 L -12 -18 C -6 -30 C 0 -18 C 6 -30 C 12 -18 C 18 -6 C 12 0 C 18 6 C 12 18 C 6 30 C
0 18 C -6 30 C -12 18 C -18 6 C -12 0 C 45 0 975 1269 L 45 0 975 1483 L 45 0 975 1697 L 90 0 975 1911 L 45 0 975 2125 L
45 0 975 2339 L 45 0 975 2553 L 45 0 975 2767 L 90 0 975 2981 L 45 0 975 3195 L 45 0 975 3409 L 45 0 975 3623 L 45 0 975 3837 L
90 0 975 4052 L 45 0 975 4266 L 45 0 975 4480 L 45 0 975 4694 L 45 0 975 4908 L 90 0 975 5122 L 45 0 975 5336 L 45 0 975 5550 L
45 0 975 5764 L 45 0 975 5978 L 90 0 975 6192 L 45 0 975 6406 L 45 0 975 6620 L 0 108 784 1528 L -6 0 742 1684 L -12 6 C -6 6 C
-6 12 C 0 24 C 6 12 C 6 6 C 12 6 C 12 0 C 12 -6 C 18 -12 C 60 -60 C 0 84 C 84 84 742 1804 L 84 -84 742 1888 L -6 12 736 1948 L
-18 18 C 126 0 C 6 -18 712 2086 L 18 -12 C 30 -6 C 18 0 C 30 6 C 18 12 C 6 18 C 0 12 C -6 18 C -18 12 C -30 6 C -18 0 C -30 -6 C
-18 -12 C -6 -18 C 0 -12 C 0 81 702 2170 L 0 -45 648 2337 L 40 -5 C -4 5 C -5 13 C 0 14 C 5 13 C 9 9 C 13 5 C 9 0 C 14 -5 C 9 -9 C
4 -13 C 0 -14 C -4 -13 C -5 -5 C -9 -4 C 0 108 784 2724 L -6 12 736 2892 L -18 18 C 126 0 C 6 -18 712 3030 L 18 -12 C 30 -6 C 18 0 C
30 6 C 18 12 C 6 18 C 0 12 C -6 18 C -18 12 C -30 6 C -18 0 C -30 -6 C -18 -12 C -6 -18 C 0 -12 C 0 81 702 3114 L 0 -45 648 3281 L
40 -5 C -4 5 C -5 13 C 0 14 C 5 13 C 9 9 C 13 5 C 9 0 C 14 -5 C 9 -9 C 4 -13 C 0 -14 C -4 -13 C -5 -5 C -9 -4 C 6 -18 712 4046 L
18 -12 C 30 -6 C 18 0 C 30 6 C 18 12 C 6 18 C 0 12 C -6 18 C -18 12 C -30 6 C -18 0 C -30 -6 C -18 -12 C -6 -18 C 0 -12 C
-6 12 736 4955 L -18 18 C 126 0 C 6 -18 712 5093 L 18 -12 C 30 -6 C 18 0 C 30 6 C 18 12 C 6 18 C 0 12 C -6 18 C -18 12 C -30 6 C
-18 0 C -30 -6 C -18 -12 C -6 -18 C 0 -12 C 0 81 702 5177 L 0 -45 648 5344 L 40 -5 C -4 5 C -5 13 C 0 14 C 5 13 C 9 9 C 13 5 C 9 0 C
14 -5 C 9 -9 C 4 -13 C 0 -14 C -4 -13 C -5 -5 C -9 -4 C -6 0 742 5887 L -12 6 C -6 6 C -6 12 C 0 24 C 6 12 C 6 6 C 12 6 C 12 0 C
12 -6 C 18 -12 C 60 -60 C 0 84 C 84 84 742 6007 L 84 -84 742 6091 L -6 12 736 6151 L -18 18 C 126 0 C 6 -18 712 6289 L 18 -12 C
30 -6 C 18 0 C 30 6 C 18 12 C 6 18 C 0 12 C -6 18 C -18 12 C -30 6 C -18 0 C -30 -6 C -18 -12 C -6 -18 C 0 -12 C 0 81 702 6373 L
0 -45 648 6540 L 40 -5 C -4 5 C -5 13 C 0 14 C 5 13 C 9 9 C 13 5 C 9 0 C 14 -5 C 9 -9 C 4 -13 C 0 -14 C -4 -13 C -5 -5 C -9 -4 C
0 5459 9261 1170 L -48 0 9261 1286 L -48 0 9261 1681 L -97 0 9261 2076 L 0 108 9461 1812 L 6 -18 9389 1998 L 18 -12 C 30 -6 C 18 0 C
30 6 C 18 12 C 6 18 C 0 12 C -6 18 C -18 12 C -30 6 C -18 0 C -30 -6 C -18 -12 C -6 -18 C 0 -12 C 6 -6 9503 2094 L 6 6 C -6 6 C
-6 -6 C 6 -18 9389 2178 L 18 -12 C 30 -6 C 18 0 C 30 6 C 18 12 C 6 18 C 0 12 C -6 18 C -18 12 C -30 6 C -18 0 C -30 -6 C -18 -12 C
-6 -18 C 0 -12 C -6 12 9413 2280 L -18 18 C 126 0 C -48 0 9261 2471 L -48 0 9261 2866 L -48 0 9261 3261 L -48 0 9261 3656 L
-97 0 9261 4052 L 6 -18 9389 4046 L 18 -12 C 30 -6 C 18 0 C 30 6 C 18 12 C 6 18 C 0 12 C -6 18 C -18 12 C -30 6 C -18 0 C -30 -6 C
-18 -12 C -6 -18 C 0 -12 C -48 0 9261 4447 L -48 0 9261 4842 L -48 0 9261 5237 L -48 0 9261 5632 L -97 0 9261 6027 L
6 -18 9389 5871 L 18 -12 C 30 -6 C 18 0 C 30 6 C 18 12 C 6 18 C 0 12 C -6 18 C -18 12 C -30 6 C -18 0 C -30 -6 C -18 -12 C -6 -18 C
0 -12 C 6 -6 9503 5967 L 6 6 C -6 6 C -6 -6 C 6 -18 9389 6051 L 18 -12 C 30 -6 C 18 0 C 30 6 C 18 12 C 6 18 C 0 12 C -6 18 C
-18 12 C -30 6 C -18 0 C -30 -6 C -18 -12 C -6 -18 C 0 -12 C -6 12 9413 6153 L -18 18 C 126 0 C -48 0 9261 6422 L
61 0 9688 2730 L 0 54 9688 2730 L 6 18 C 6 6 C 12 6 C 12 0 C 12 -6 C 6 -6 C 6 -18 C 0 -54 C 1 0 9748 2772 L -7 -3 9749 2919 L
-6 -6 C -6 -12 C 0 -18 C 6 -12 C 12 -12 C 1 -1 C -12 -6 9748 3024 L -6 -18 C 0 -18 C 6 -18 C 12 -6 C 1 0 C 6 6 9688 3060 L -6 6 C
-6 -6 C 6 -6 C 19 0 9730 3066 L 61 0 9688 3180 L -12 -12 9748 3180 L -6 -12 C 0 -18 C 6 -12 C 12 -12 C 1 -1 C 19 0 9730 3228 L
19 0 9730 3294 L 19 0 9730 3408 L -12 -12 9748 3408 L -6 -12 C 0 -18 C 6 -12 C 12 -12 C 1 -1 C 61 0 9688 3456 L 6 6 9688 3594 L
-6 6 C -6 -6 C 6 -6 C 19 0 9730 3600 L 19 0 9730 3648 L -13 14 9749 3652 L -6 12 C 0 18 C 6 12 C 13 4 C 19 0 9730 3858 L
-12 12 9748 3858 L -6 12 C 0 18 C 6 11 C 12 12 C 1 1 C 19 0 9730 3971 L 19 0 9730 4037 L 61 0 9688 4085 L -12 -6 9748 4193 L
-6 -18 C 0 -18 C 6 -18 C 12 -6 C 1 1 C -7 -4 9749 4299 L -6 -6 C -6 -12 C 0 -18 C 6 -12 C 12 -12 C 1 0 C 19 0 9730 4439 L
-12 12 9748 4439 L -6 12 C 0 18 C 6 12 C 12 12 C 1 1 C -7 -4 9749 4617 L -6 -6 C -6 -12 C 0 -18 C 6 -12 C 12 -12 C 1 0 C
19 0 9730 4661 L -1 0 9749 4667 L -12 12 C -6 12 C 0 18 C 6 6 9688 4733 L -6 6 C -6 -6 C 6 -6 C 19 0 9730 4739 L 6 -12 9730 4811 L
12 -12 C 1 0 C -1 -1 9749 4854 L -12 -12 C -6 -12 C 0 -18 C 61 0 9688 4967 L -12 -12 9748 4967 L -6 -12 C 0 -18 C 6 -12 C 12 -12 C
1 0 C -12 -6 9748 5075 L -6 -18 C 0 -18 C 6 -18 C 12 -6 C 1 1 C
0 -96 3171 7145 L -6 -18 C -6 -6 C -12 -6 C -12 0 C -12 6 C -6 6 C -6 18 C 0 12 C 12 6 3231 7121 L 18 18 C 0 -126 C
-18 -6 3363 7145 L -6 -12 C 0 -12 C 6 -12 C 12 -6 C 24 -6 C 18 -6 C 12 -12 C 6 -12 C 0 -18 C -6 -12 C -6 -6 C -18 -6 C -24 0 C
-18 6 C -6 6 C -6 12 C 0 18 C 6 12 C 12 12 C 18 6 C 24 6 C 12 6 C 6 12 C 0 12 C -6 12 C -18 6 C -24 0 C -60 -84 3513 7145 L 90 0 C
0 -126 3513 7145 L 66 0 3585 7145 L -36 -48 C 18 0 C 12 -6 C 6 -6 C 6 -18 C 0 -12 C -6 -18 C -12 -12 C -18 -6 C -18 0 C -18 6 C
-6 6 C -6 12 C 108 0 3699 7073 L 12 6 3867 7121 L 18 18 C 0 -126 C 12 6 3987 7121 L 18 18 C 0 -126 C 12 6 4107 7121 L 18 18 C
0 -126 C 66 0 4221 7145 L -36 -48 C 18 0 C 12 -6 C 6 -6 C 6 -18 C 0 -12 C -6 -18 C -12 -12 C -18 -6 C -18 0 C -18 6 C -6 6 C -6 12 C
-12 -12 4473 7169 L -12 -18 C -12 -24 C -6 -30 C 0 -24 C 6 -30 C 12 -24 C 12 -18 C 12 -12 C 30 -126 4503 7145 L -30 -126 4563 7145 L
30 -126 4563 7145 L -30 -126 4623 7145 L 0 -84 4659 7103 L 6 18 4659 7067 L 12 12 C 12 6 C 18 0 C 0 -84 4737 7103 L
18 18 4737 7079 L 12 6 C 18 0 C 12 -6 C 6 -18 C 0 -60 C 18 18 4803 7079 L 12 6 C 18 0 C 12 -6 C 6 -18 C 0 -60 C -6 12 4977 7085 L
-18 6 C -18 0 C -18 -6 C -6 -12 C 6 -12 C 12 -6 C 30 -6 C 12 -6 C 6 -12 C 0 -6 C -6 -12 C -18 -6 C -18 0 C -18 6 C -6 12 C
108 0 5115 7091 L 108 0 5115 7055 L 12 6 5379 7121 L 18 18 C 0 -126 C -6 -6 5493 7031 L 6 -6 C 6 6 C -6 6 C 66 0 5553 7145 L
-36 -48 C 18 0 C 12 -6 C 6 -6 C 6 -18 C 0 -12 C -6 -18 C -12 -12 C -18 -6 C -18 0 C -18 6 C -6 6 C -6 12 C 12 6 5679 7121 L 18 18 C
0 -126 C 66 0 5793 7145 L -36 -48 C 18 0 C 12 -6 C 6 -6 C 6 -18 C 0 -12 C -6 -18 C -12 -12 C -18 -6 C -18 0 C -18 6 C -6 6 C -6 12 C
-36 -126 6021 7103 L -6 -30 6015 7079 L 0 -18 C 12 -12 C 12 0 C 12 6 C 12 12 C 12 24 C -12 -42 6081 7103 L -6 -24 C 0 -12 C 6 -6 C
12 0 C 12 12 C 6 12 C -6 12 6189 7085 L -18 6 C -18 0 C -18 -6 C -6 -12 C 6 -12 C 12 -6 C 30 -6 C 12 -6 C 6 -12 C 0 -6 C -6 -12 C
-18 -6 C -18 0 C -18 6 C -6 12 C 12 -12 6225 7169 L 12 -18 C 12 -24 C 6 -30 C 0 -24 C -6 -30 C -12 -24 C -12 -18 C -12 -12 C
0 -126 6411 7103 L 12 12 6411 7085 L 12 6 C 18 0 C 12 -6 C 12 -12 C 6 -18 C 0 -12 C -6 -18 C -12 -12 C -12 -6 C -18 0 C -12 6 C
-12 12 C -12 -6 6549 7103 L -12 -12 C -6 -18 C 0 -12 C 6 -18 C 12 -12 C 12 -6 C 18 0 C 12 6 C 12 12 C 6 18 C 0 12 C -6 18 C -12 12 C
-12 6 C -18 0 C -6 12 6699 7085 L -18 6 C -18 0 C -18 -6 C -6 -12 C 6 -12 C 12 -6 C 30 -6 C 12 -6 C 6 -12 C 0 -6 C -6 -12 C -18 -6 C
-18 0 C -18 6 C -6 12 C 0 -102 6747 7145 L 6 -18 C 12 -6 C 12 0 C 42 0 6729 7103 L 108 0 6813 7073 L -12 0 7005 7145 L -12 -6 C
-6 -18 C 0 -102 C 42 0 6957 7103 L 6 -6 7035 7145 L 6 6 C -6 6 C -6 -6 C 0 -84 7041 7103 L 0 -102 7095 7145 L 6 -18 C 12 -6 C 12 0 C
42 0 7077 7103 L 0 -126 4491 672 L 48 -126 4491 672 L -48 -126 4587 672 L 0 -126 4587 672 L 0 -96 4683 672 L -6 -18 C -6 -6 C
-12 -6 C -12 0 C -12 6 C -6 6 C -6 18 C 0 12 C 0 -126 4731 672 L 42 0 4731 672 L 18 -6 C 12 -12 C 6 -12 C 6 -18 C 0 -30 C -6 -18 C
-6 -12 C -12 -12 C -18 -6 C -42 0 C 108 0 4857 600 L -60 0 5079 672 L -6 -54 C 6 6 C 18 6 C 18 0 C 18 -6 C 12 -12 C 6 -18 C 0 -12 C
-6 -18 C -12 -12 C -18 -6 C -18 0 C -18 6 C -6 6 C -6 12 C -60 -84 5187 672 L 90 0 C 0 -126 5187 672 L -6 -18 5325 630 L -12 -12 C
-18 -6 C -6 0 C -18 6 C -12 12 C -6 18 C 0 6 C 6 18 C 12 12 C 18 6 C 6 0 C 18 -6 C 12 -12 C 6 -24 C 0 -30 C -6 -30 C -12 -18 C
-18 -6 C -12 0 C -18 6 C -6 12 C -6 -18 5445 630 L -12 -12 C -18 -6 C -6 0 C -18 6 C -12 12 C -6 18 C 0 6 C 6 18 C 12 12 C 18 6 C
6 0 C 18 -6 C 12 -12 C 6 -24 C 0 -30 C -6 -30 C -12 -18 C -18 -6 C -12 0 C -18 6 C -6 12 C 0 6 5493 642 L 6 12 C 6 6 C 12 6 C 24 0 C
12 -6 C 6 -6 C 6 -12 C 0 -12 C -6 -12 C -12 -18 C -60 -60 C 84 0 C -6 -6 5619 558 L 6 -6 C 6 6 C -6 6 C -60 -126 5751 672 L
84 0 5667 672 L 126 0 420 2895 L 0 54 420 2895 L 6 18 C 6 6 C 12 6 C 18 0 C 12 -6 C 6 -6 C 6 -18 C 0 -54 C 6 -12 462 3045 L 12 -12 C
18 -6 C 12 0 C 18 6 C 12 12 C 6 12 C 0 18 C -6 12 C -12 12 C -18 6 C -12 0 C -18 -6 C -12 -12 C -6 -12 C 0 -18 C -12 -6 480 3195 L
-6 -18 C 0 -18 C 6 -18 C 12 -6 C 12 6 C 6 12 C 6 30 C 6 12 C 12 6 C 6 0 C 12 -6 C 6 -18 C 0 -18 C -6 -18 C -12 -6 C 102 0 420 3243 L
18 6 C 6 12 C 0 12 C 0 42 462 3225 L 0 -12 420 3345 L 6 -12 C 18 -6 C 102 0 C 0 42 462 3297 L 6 6 420 3375 L -6 6 C -6 -6 C 6 -6 C
84 0 462 3381 L 102 0 420 3435 L 18 6 C 6 12 C 0 12 C 0 42 462 3417 L 126 0 420 3597 L 0 54 420 3597 L 6 18 C 6 6 C 12 6 C 12 0 C
12 -6 C 6 -6 C 6 -18 C 0 -54 C 66 42 480 3639 L 0 72 498 3717 L -12 0 C -12 -6 C -6 -6 C -6 -12 C 0 -18 C 6 -12 C 12 -12 C 18 -6 C
12 0 C 18 6 C 12 12 C 6 12 C 0 18 C -6 12 C -12 12 C -12 -6 480 3891 L -6 -18 C 0 -18 C 6 -18 C 12 -6 C 12 6 C 6 12 C 6 30 C 6 12 C
12 6 C 6 0 C 12 -6 C 6 -18 C 0 -18 C -6 -18 C -12 -6 C 6 6 420 3926 L -6 6 C -6 -6 C 6 -6 C 84 0 462 3932 L 126 0 420 4046 L
-12 -12 480 4046 L -6 -12 C 0 -18 C 6 -12 C 12 -12 C 18 -6 C 12 0 C 18 6 C 12 12 C 6 12 C 0 18 C -6 12 C -12 12 C 60 0 462 4094 L
18 6 C 6 12 C 0 18 C -6 12 C -18 18 C 84 0 462 4160 L 84 0 462 4274 L -12 -12 480 4274 L -6 -12 C 0 -18 C 6 -12 C 12 -12 C 18 -6 C
12 0 C 18 6 C 12 12 C 6 12 C 0 18 C -6 12 C -12 12 C 126 0 420 4322 L 12 -12 396 4508 L 18 -12 C 24 -12 C 30 -6 C 24 0 C 30 6 C
24 12 C 18 12 C 12 12 C -12 -6 480 4610 L -6 -18 C 0 -18 C 6 -18 C 12 -6 C 12 6 C 6 12 C 6 30 C 6 12 C 12 6 C 6 0 C 12 -6 C 6 -18 C
0 -18 C -6 -18 C -12 -6 C 0 72 498 4646 L -12 0 C -12 -6 C -6 -6 C -6 -12 C 0 -18 C 6 -12 C 12 -12 C 18 -6 C 12 0 C 18 6 C 12 12 C
6 12 C 0 18 C -6 12 C -12 12 C -12 -12 480 4826 L -6 -12 C 0 -18 C 6 -12 C 12 -12 C 18 -6 C 12 0 C 18 6 C 12 12 C 6 12 C 0 18 C
-6 12 C -12 12 C 12 12 396 4862 L 18 12 C 24 12 C 30 6 C 24 0 C 30 -6 C 24 -12 C 18 -12 C 12 -12 C
1024 0 0 K 0 1024 0 K
/M16 {MB -4 -4 moveto 0 8 rlineto 8 0 rlineto 0 -8                              
rlineto closepath fill ME} bind def                                             
/MFAC      5.999 def    
1665 4366 M16 1694 4467 M16 1860 4332 M16 1872 4343 M16 1874 4334 M16 1960 3884 M16 1965 4434 M16 2003 4191 M16 2005 4173 M16
2085 4034 M16 2134 4126 M16 2202 2919 M16 2267 3795 M16 2346 4431 M16 2398 3019 M16 2464 5186 M16 2571 4025 M16 2727 3378 M16
2781 4895 M16 2832 3197 M16 2888 4697 M16 2952 4176 M16 3030 4085 M16 3083 4046 M16 3148 4355 M16 3254 3618 M16 3267 4637 M16
3287 4854 M16 3291 4357 M16 3345 4367 M16 3385 4374 M16 3450 4346 M16 3467 3797 M16 3623 4219 M16 3664 3432 M16 3730 3956 M16
3769 3961 M16 3885 3502 M16 3951 2104 M16 4095 4010 M16 4099 4010 M16 4107 4292 M16 4178 4218 M16 4228 4144 M16 4249 3925 M16
4294 3458 M16 4311 4091 M16 4343 3732 M16 4401 2141 M16 4408 4163 M16 4451 4461 M16 4506 4181 M16 4560 3313 M16 4611 3601 M16
4663 4249 M16 4716 4207 M16 4725 4033 M16 4796 4436 M16 4847 4484 M16 4903 3393 M16 4969 3621 M16 5033 3320 M16 5059 3991 M16
5138 2585 M16 5188 3279 M16 5209 4039 M16 5245 3468 M16 5246 4101 M16 5250 4045 M16 5254 4044 M16 5256 4169 M16 5271 3338 M16
5273 4133 M16 5282 4051 M16 5288 4174 M16 5303 4115 M16 5312 3977 M16 5348 4004 M16 5349 3905 M16 5366 3725 M16 5379 3977 M16
5385 3112 M16 5413 4048 M16 5434 4339 M16 5445 4081 M16 5464 4127 M16 5477 4171 M16 5483 3679 M16 5496 3628 M16 5520 4274 M16
5531 4109 M16 5539 4203 M16 5543 4022 M16 5544 4139 M16 5559 4207 M16 5560 3881 M16 5597 4137 M16 5610 4017 M16 5619 3963 M16
5640 5671 M16 5646 4126 M16 5668 4050 M16 5691 4079 M16 5715 4129 M16 5719 3709 M16 5724 4238 M16 5741 4075 M16 5758 4096 M16
5762 4220 M16 5777 3753 M16 5777 4371 M16 5850 4243 M16 5897 4130 M16 5899 3792 M16 5899 4158 M16 5957 4164 M16 5979 4030 M16
6011 4044 M16 6013 4161 M16 6036 4138 M16 6042 4910 M16 6054 4489 M16 6058 4333 M16 6071 4363 M16 6111 4722 M16 6122 4521 M16
6171 3946 M16 6178 3758 M16 6203 4562 M16 6214 4258 M16 6238 4260 M16 6240 1625 M16 6272 4039 M16 6276 4148 M16 6278 5810 M16
6302 4060 M16 6332 3905 M16 6337 4121 M16 6369 3292 M16 6371 4172 M16 6390 3571 M16 6407 4051 M16 6409 3863 M16 6426 4309 M16
6439 3848 M16 6469 4605 M16 6480 3929 M16 6499 3914 M16 6503 3944 M16 6504 2367 M16 6519 4015 M16 6538 3350 M16 6589 3893 M16
6611 3730 M16 6625 3767 M16 6641 3885 M16 6643 3848 M16 6705 3118 M16 6735 3663 M16 6772 3895 M16 6787 4723 M16 6789 3959 M16
6797 3975 M16 6806 3990 M16 6827 3916 M16 6857 4148 M16 6861 4063 M16 6863 3884 M16 6868 4083 M16 6902 2736 M16 6915 4087 M16
6921 4141 M16 6953 5122 M16 6956 3317 M16 6979 3953 M16 6997 3929 M16 7022 4014 M16 7026 4102 M16 7048 3971 M16 7072 3905 M16
7086 4103 M16 7108 3833 M16 7117 4386 M16 7131 4220 M16 7211 3513 M16 7211 3947 M16 7239 4110 M16 7245 4259 M16 7266 3102 M16
7298 3743 M16 7316 3854 M16 7374 4072 M16 7442 4108 M16 7474 4163 M16 7500 4022 M16 7635 4290 M16 7706 4704 M16 7772 4846 M16
7817 4399 M16 7841 4316 M16 7845 3885 M16 7886 3774 M16 7901 4530 M16 7935 4837 M16 7969 4179 M16 7978 3885 M16 7989 4153 M16
8019 4076 M16 8106 5210 M16 8124 3957 M16 8171 4212 M16 8239 3927 M16 8269 6174 M16 8271 4022 M16 8276 4105 M16 8293 3876 M16
8381 4153 M16 8394 4157 M16 8395 5195 M16 8442 5444 M16 8445 3967 M16 8447 4389 M16 8483 4170 M16 8571 5875 M16
45 0 1643 4194 L 0 343 1665 4194 L 45 0 1643 4537 L 45 0 1671 3283 L 0 2369 1694 3283 L 45 0 1671 5652 L 45 0 1838 3547 L
0 1570 1860 3547 L 45 0 1838 5117 L 45 0 1849 3772 L 0 1142 1872 3772 L 45 0 1849 4914 L 45 0 1851 3749 L 0 1170 1874 3749 L
45 0 1851 4919 L 45 0 1937 3470 L 0 828 1960 3470 L 45 0 1937 4298 L 45 0 1943 4106 L 0 656 1965 4106 L 45 0 1943 4762 L
45 0 1980 3820 L 0 743 2003 3820 L 45 0 1980 4563 L 45 0 1982 3773 L 0 799 2005 3773 L 45 0 1982 4572 L 45 0 2063 3278 L
0 1512 2085 3278 L 45 0 2063 4790 L 45 0 2112 3841 L 0 571 2134 3841 L 45 0 2112 4412 L 45 0 2179 2362 L 0 1114 2202 2362 L
45 0 2179 3476 L 45 0 2245 3566 L 0 457 2267 3566 L 45 0 2245 4023 L 45 0 2323 3831 L 0 1199 2346 3831 L 45 0 2323 5030 L
45 0 2376 2634 L 0 770 2398 2634 L 45 0 2376 3404 L 45 0 2442 4886 L 0 600 2464 4886 L 45 0 2442 5486 L 45 0 2548 3822 L
0 406 2571 3822 L 45 0 2548 4228 L 45 0 2704 2544 L 0 1669 2727 2544 L 45 0 2704 4213 L 45 0 2759 4681 L 0 428 2781 4681 L
45 0 2759 5109 L 45 0 2809 2490 L 0 1413 2832 2490 L 45 0 2809 3903 L 45 0 2865 4279 L 0 835 2888 4279 L 45 0 2865 5114 L
45 0 2929 3983 L 0 386 2952 3983 L 45 0 2929 4369 L 45 0 3008 3882 L 0 406 3030 3882 L 45 0 3008 4288 L 45 0 3060 3950 L
0 193 3083 3950 L 45 0 3060 4143 L 45 0 3126 4205 L 0 300 3148 4205 L 45 0 3126 4505 L 45 0 3231 3179 L 0 878 3254 3179 L
45 0 3231 4057 L 45 0 3244 4316 L 0 642 3267 4316 L 45 0 3244 4958 L 45 0 3265 4586 L 0 535 3287 4586 L 45 0 3265 5121 L
45 0 3268 4036 L 0 642 3291 4036 L 45 0 3268 4678 L 45 0 3323 4142 L 0 450 3345 4142 L 45 0 3323 4592 L 45 0 3362 4149 L
0 450 3385 4149 L 45 0 3362 4599 L 45 0 3428 4079 L 0 535 3450 4079 L 45 0 3428 4614 L 45 0 3445 3626 L 0 342 3467 3626 L
45 0 3445 3968 L 45 0 3600 3930 L 0 578 3623 3930 L 45 0 3600 4508 L 45 0 3642 3218 L 0 428 3664 3218 L 45 0 3642 3646 L
45 0 3707 3699 L 0 514 3730 3699 L 45 0 3707 4213 L 45 0 3747 3640 L 0 642 3769 3640 L 45 0 3747 4282 L 45 0 3863 2710 L
0 1584 3885 2710 L 45 0 3863 4294 L 45 0 3928 1516 L 0 1177 3951 1516 L 45 0 3928 2693 L 45 0 4073 3970 L 0 80 4095 3970 L
45 0 4073 4050 L 45 0 4076 3973 L 0 74 4099 3973 L 45 0 4076 4047 L 45 0 4084 3725 L 0 1134 4107 3725 L 45 0 4084 4859 L
45 0 4155 3458 L 0 1520 4178 3458 L 45 0 4155 4978 L 45 0 4206 3673 L 0 941 4228 3673 L 45 0 4206 4614 L 45 0 4226 3821 L
0 207 4249 3821 L 45 0 4226 4028 L 45 0 4272 3191 L 0 535 4294 3191 L 45 0 4272 3726 L 45 0 4288 3984 L 0 215 4311 3984 L
45 0 4288 4199 L 45 0 4320 3453 L 0 557 4343 3453 L 45 0 4320 4010 L 45 0 4378 1434 L 0 1413 4401 1434 L 45 0 4378 2847 L
45 0 4386 4087 L 0 153 4408 4087 L 45 0 4386 4240 L 45 0 4429 4011 L 0 899 4451 4011 L 45 0 4429 4910 L 45 0 4483 3774 L
0 813 4506 3774 L 45 0 4483 4587 L 45 0 4538 2681 L 0 1263 4560 2681 L 45 0 4538 3944 L 45 0 4588 3312 L 0 578 4611 3312 L
45 0 4588 3890 L 45 0 4641 3800 L 0 899 4663 3800 L 45 0 4641 4699 L 45 0 4693 3768 L 0 878 4716 3768 L 45 0 4693 4646 L
45 0 4703 3992 L 0 81 4725 3992 L 45 0 4703 4073 L 45 0 4774 3858 L 0 1156 4796 3858 L 45 0 4774 5014 L 45 0 4824 4088 L
0 792 4847 4088 L 45 0 4824 4880 L 45 0 4881 2622 L 0 1541 4903 2622 L 45 0 4881 4163 L 45 0 4946 2796 L 0 1649 4969 2796 L
45 0 4946 4445 L 45 0 5010 2924 L 0 792 5033 2924 L 45 0 5010 3716 L 45 0 5036 3499 L 0 984 5059 3499 L 45 0 5036 4483 L
45 0 5115 1975 L 0 1221 5138 1975 L 45 0 5115 3196 L 45 0 5166 2840 L 0 877 5188 2840 L 45 0 5166 3717 L 45 0 5186 3970 L
0 138 5209 3970 L 45 0 5186 4108 L 45 0 5222 2836 L 0 1265 5245 2836 L 45 0 5222 4101 L 45 0 5224 4057 L 0 89 5246 4057 L
45 0 5224 4146 L 45 0 5228 4015 L 0 59 5250 4015 L 45 0 5228 4074 L 45 0 5231 4022 L 0 45 5254 4022 L 45 0 5231 4067 L
45 0 5233 3934 L 0 470 5256 3934 L 45 0 5233 4404 L 45 0 5248 2680 L 0 1317 5271 2680 L 45 0 5248 3997 L 45 0 5250 4061 L
0 144 5273 4061 L 45 0 5250 4205 L 45 0 5259 4008 L 0 87 5282 4008 L 45 0 5259 4095 L 45 0 5265 4135 L 0 79 5288 4135 L
45 0 5265 4214 L 45 0 5280 4044 L 0 143 5303 4044 L 45 0 5280 4187 L 45 0 5289 3474 L 0 1006 5312 3474 L 45 0 5289 4480 L
45 0 5325 3901 L 0 207 5348 3901 L 45 0 5325 4108 L 45 0 5327 3710 L 0 391 5349 3710 L 45 0 5327 4101 L 45 0 5344 3479 L
0 492 5366 3479 L 45 0 5344 3971 L 45 0 5357 3922 L 0 111 5379 3922 L 45 0 5357 4033 L 45 0 5363 2363 L 0 1498 5385 2363 L
45 0 5363 3861 L 45 0 5391 3985 L 0 125 5413 3985 L 45 0 5391 4110 L 45 0 5411 3986 L 0 706 5434 3986 L 45 0 5411 4692 L
45 0 5423 4031 L 0 99 5445 4031 L 45 0 5423 4130 L 45 0 5441 4077 L 0 99 5464 4077 L 45 0 5441 4176 L 45 0 5454 4125 L
0 93 5477 4125 L 45 0 5454 4218 L 45 0 5460 2887 L 0 1583 5483 2887 L 45 0 5460 4470 L 45 0 5473 2965 L 0 1327 5496 2965 L
45 0 5473 4292 L 45 0 5498 3613 L 0 1322 5520 3613 L 45 0 5498 4935 L 45 0 5509 4041 L 0 136 5531 4041 L 45 0 5509 4177 L
45 0 5516 4085 L 0 236 5539 4085 L 45 0 5516 4321 L 45 0 5520 3938 L 0 169 5543 3938 L 45 0 5520 4107 L 45 0 5522 4089 L
0 99 5544 4089 L 45 0 5522 4188 L 45 0 5537 4136 L 0 141 5559 4136 L 45 0 5537 4277 L 45 0 5537 3411 L 0 941 5560 3411 L
45 0 5537 4352 L 45 0 5574 4073 L 0 128 5597 4073 L 45 0 5574 4201 L 45 0 5588 3675 L 0 685 5610 3675 L 45 0 5588 4360 L
45 0 5597 3823 L 0 281 5619 3823 L 45 0 5597 4104 L 45 0 5618 4802 L 0 1737 5640 4802 L 45 0 5618 6539 L 45 0 5623 4028 L
0 195 5646 4028 L 45 0 5623 4223 L 45 0 5646 4000 L 0 100 5668 4000 L 45 0 5646 4100 L 45 0 5668 4034 L 0 90 5691 4034 L
45 0 5668 4124 L 45 0 5693 4070 L 0 117 5715 4070 L 45 0 5693 4187 L 45 0 5696 2932 L 0 1555 5719 2932 L 45 0 5696 4487 L
45 0 5702 4195 L 0 86 5724 4195 L 45 0 5702 4281 L 45 0 5719 4028 L 0 94 5741 4028 L 45 0 5719 4122 L 45 0 5736 4055 L
0 82 5758 4055 L 45 0 5736 4137 L 45 0 5739 4164 L 0 113 5762 4164 L 45 0 5739 4277 L 45 0 5754 3282 L 0 942 5777 3282 L
45 0 5754 4224 L 45 0 5754 4260 L 0 222 5777 4260 L 45 0 5754 4482 L 45 0 5828 4186 L 0 114 5850 4186 L 45 0 5828 4300 L
45 0 5874 4093 L 0 74 5897 4093 L 45 0 5874 4167 L 45 0 5876 2954 L 0 1676 5899 2954 L 45 0 5876 4630 L 45 0 5876 4112 L
0 93 5899 4112 L 45 0 5876 4205 L 45 0 5934 4047 L 0 235 5957 4047 L 45 0 5934 4282 L 45 0 5957 3978 L 0 103 5979 3978 L
45 0 5957 4081 L 45 0 5989 3996 L 0 97 6011 3996 L 45 0 5989 4093 L 45 0 5991 4086 L 0 149 6013 4086 L 45 0 5991 4235 L
45 0 6013 4083 L 0 110 6036 4083 L 45 0 6013 4193 L 45 0 6019 4225 L 0 1369 6042 4225 L 45 0 6019 5594 L 45 0 6032 4361 L
0 257 6054 4361 L 45 0 6032 4618 L 45 0 6036 4274 L 0 118 6058 4274 L 45 0 6036 4392 L 45 0 6049 4298 L 0 129 6071 4298 L
45 0 6049 4427 L 45 0 6088 4604 L 0 236 6111 4604 L 45 0 6088 4840 L 45 0 6099 4435 L 0 171 6122 4435 L 45 0 6099 4606 L
45 0 6148 3898 L 0 96 6171 3898 L 45 0 6148 3994 L 45 0 6156 2975 L 0 1566 6178 2975 L 45 0 6156 4541 L 45 0 6180 3798 L
0 1528 6203 3798 L 45 0 6180 5326 L 45 0 6191 4174 L 0 168 6214 4174 L 45 0 6191 4342 L 45 0 6216 4150 L 0 220 6238 4150 L
45 0 6216 4370 L 0 1839 6240 1170 L 45 0 6218 3009 L 45 0 6249 3975 L 0 129 6272 3975 L 45 0 6249 4104 L 45 0 6253 4092 L
0 112 6276 4092 L 45 0 6253 4204 L 45 0 6255 5020 L 0 1580 6278 5020 L 45 0 6255 6600 L 45 0 6279 3940 L 0 240 6302 3940 L
45 0 6279 4180 L 45 0 6309 3818 L 0 174 6332 3818 L 45 0 6309 3992 L 45 0 6315 3346 L 0 1550 6337 3346 L 45 0 6315 4896 L
45 0 6347 2581 L 0 1422 6369 2581 L 45 0 6347 4003 L 45 0 6349 4119 L 0 107 6371 4119 L 45 0 6349 4226 L 45 0 6368 2798 L
0 1547 6390 2798 L 45 0 6368 4345 L 45 0 6384 4006 L 0 89 6407 4006 L 45 0 6384 4095 L 45 0 6386 3817 L 0 93 6409 3817 L
45 0 6386 3910 L 45 0 6403 3646 L 0 1325 6426 3646 L 45 0 6403 4971 L 45 0 6416 3771 L 0 155 6439 3771 L 45 0 6416 3926 L
45 0 6447 3706 L 0 1798 6469 3706 L 45 0 6447 5504 L 45 0 6458 3767 L 0 325 6480 3767 L 45 0 6458 4092 L 45 0 6476 3806 L
0 216 6499 3806 L 45 0 6476 4022 L 45 0 6480 3869 L 0 151 6503 3869 L 45 0 6480 4020 L 45 0 6482 1729 L 0 1275 6504 1729 L
45 0 6482 3004 L 45 0 6497 3947 L 0 136 6519 3947 L 45 0 6497 4083 L 45 0 6516 2121 L 0 2457 6538 2121 L 45 0 6516 4578 L
45 0 6567 3196 L 0 1394 6589 3196 L 45 0 6567 4590 L 45 0 6589 3641 L 0 177 6611 3641 L 45 0 6589 3818 L 45 0 6602 2984 L
0 1566 6625 2984 L 45 0 6602 4550 L 45 0 6619 3798 L 0 175 6641 3798 L 45 0 6619 3973 L 45 0 6621 3687 L 0 321 6643 3687 L
45 0 6621 4008 L 45 0 6682 2448 L 0 1339 6705 2448 L 45 0 6682 3787 L 45 0 6712 3546 L 0 234 6735 3546 L 45 0 6712 3780 L
45 0 6750 3793 L 0 204 6772 3793 L 45 0 6750 3997 L 45 0 6765 3670 L 0 2105 6787 3670 L 45 0 6765 5775 L 45 0 6767 3861 L
0 195 6789 3861 L 45 0 6767 4056 L 45 0 6774 3921 L 0 107 6797 3921 L 45 0 6774 4028 L 45 0 6784 3747 L 0 486 6806 3747 L
45 0 6784 4233 L 45 0 6805 3153 L 0 1525 6827 3153 L 45 0 6805 4678 L 45 0 6834 4006 L 0 285 6857 4006 L 45 0 6834 4291 L
45 0 6838 3982 L 0 162 6861 3982 L 45 0 6838 4144 L 45 0 6840 3101 L 0 1566 6863 3101 L 45 0 6840 4667 L 45 0 6846 4046 L
0 74 6868 4046 L 45 0 6846 4120 L 45 0 6879 1905 L 0 1663 6902 1905 L 45 0 6879 3568 L 44 0 6893 3965 L 0 244 6915 3965 L
44 0 6893 4209 L 45 0 6898 3868 L 0 546 6921 3868 L 45 0 6898 4414 L 45 0 6930 4262 L 0 1720 6953 4262 L 45 0 6930 5982 L
45 0 6934 2914 L 0 805 6956 2914 L 45 0 6934 3719 L 45 0 6956 3230 L 0 1446 6979 3230 L 45 0 6956 4676 L 45 0 6975 3773 L
0 312 6997 3773 L 45 0 6975 4085 L 45 0 6999 3884 L 0 260 7022 3884 L 45 0 6999 4144 L 45 0 7003 4053 L 0 98 7026 4053 L
45 0 7003 4151 L 45 0 7026 3105 L 0 1731 7048 3105 L 45 0 7026 4836 L 45 0 7050 3801 L 0 208 7072 3801 L 45 0 7050 4009 L
45 0 7063 4004 L 0 199 7086 4004 L 45 0 7063 4203 L 45 0 7086 3178 L 0 1309 7108 3178 L 45 0 7086 4487 L 45 0 7095 4147 L
0 478 7117 4147 L 45 0 7095 4625 L 45 0 7108 4133 L 0 174 7131 4133 L 45 0 7108 4307 L 45 0 7188 2826 L 0 1374 7211 2826 L
45 0 7188 4200 L 45 0 7189 3858 L 0 178 7211 3858 L 45 0 7189 4036 L 45 0 7217 3962 L 0 297 7239 3962 L 45 0 7217 4259 L
45 0 7222 4165 L 0 189 7245 4165 L 45 0 7222 4354 L 45 0 7243 2456 L 0 1293 7266 2456 L 45 0 7243 3749 L 45 0 7275 3051 L
0 1383 7298 3051 L 45 0 7275 4434 L 45 0 7294 3699 L 0 311 7316 3699 L 45 0 7294 4010 L 45 0 7352 3962 L 0 219 7374 3962 L
45 0 7352 4181 L 45 0 7419 4002 L 0 213 7442 4002 L 45 0 7419 4215 L 45 0 7451 4020 L 0 287 7474 4020 L 45 0 7451 4307 L
45 0 7478 3221 L 0 1601 7500 3221 L 45 0 7478 4822 L 45 0 7613 3644 L 0 1292 7635 3644 L 45 0 7613 4936 L 45 0 7684 3990 L
0 1429 7706 3990 L 45 0 7684 5419 L 45 0 7750 4114 L 0 1464 7772 4114 L 45 0 7750 5578 L 45 0 7794 4274 L 0 251 7817 4274 L
45 0 7794 4525 L 45 0 7819 4192 L 0 248 7841 4192 L 45 0 7819 4440 L 45 0 7822 3194 L 0 1382 7845 3194 L 45 0 7822 4576 L
45 0 7864 3465 L 0 617 7886 3465 L 45 0 7864 4082 L 45 0 7879 4304 L 0 451 7901 4304 L 45 0 7879 4755 L 45 0 7912 4069 L
0 1536 7935 4069 L 45 0 7912 5605 L 45 0 7946 4043 L 0 271 7969 4043 L 45 0 7946 4314 L 45 0 7956 3036 L 0 1699 7978 3036 L
45 0 7956 4735 L 45 0 7967 4097 L 0 111 7989 4097 L 45 0 7967 4208 L 45 0 7997 3980 L 0 192 8019 3980 L 45 0 7997 4172 L
45 0 8083 4487 L 0 1445 8106 4487 L 45 0 8083 5932 L 45 0 8102 3820 L 0 273 8124 3820 L 45 0 8102 4093 L 45 0 8149 4145 L
0 134 8171 4145 L 45 0 8149 4279 L 45 0 8216 3866 L 0 122 8239 3866 L 45 0 8216 3988 L 45 0 8246 5519 L 0 1110 8269 5519 L
45 0 8248 3960 L 0 125 8271 3960 L 45 0 8248 4085 L 45 0 8254 4035 L 0 140 8276 4035 L 45 0 8254 4175 L 45 0 8271 3773 L
0 207 8293 3773 L 45 0 8271 3980 L 45 0 8359 4019 L 0 268 8381 4019 L 45 0 8359 4287 L 45 0 8372 4085 L 0 144 8394 4085 L
45 0 8372 4229 L 45 0 8372 4418 L 0 1553 8395 4418 L 45 0 8372 5971 L 45 0 8419 3352 L 0 3277 8442 3352 L 45 0 8422 3682 L
0 569 8445 3682 L 45 0 8422 4251 L 45 0 8424 3797 L 0 1185 8447 3797 L 45 0 8424 4982 L 45 0 8460 3424 L 0 1492 8483 3424 L
45 0 8460 4916 L 45 0 8548 5040 L 0 1589 8571 5040 L
1024 0 1024 K 0 1024 1024 K 0 0 0 K
PGPLOT restore showpage
%%PageTrailer
%%PageBoundingBox: 24 17 588 721
 
%%Trailer
%%BoundingBox: 24 17 588 721
%%DocumentFonts: 
%%Pages: 1
%%EOF
