%!PS-Adobe-2.0
%%Title: dmoff_plot_benp.eps
%%Creator: gnuplot 4.2 patchlevel 6 
%%CreationDate: Mon Jun  6 15:46:50 2016
%%DocumentFonts: (atend)
%%BoundingBox: 50 50 626 410
%%Orientation: Portrait
%%Pages: (atend)
%%EndComments
%%BeginProlog
/gnudict 256 dict def
gnudict begin
%
% The following 6 true/false flags may be edited by hand if required
% The unit line width may also be changed
%
/Color true def
/Blacktext false def
/Solid false def
/Dashlength 1 def
/Landscape false def
/Level1 false def
/Rounded false def
/TransparentPatterns false def
/gnulinewidth 5.000 def
/userlinewidth gnulinewidth def
%
/vshift -46 def
/dl1 {
  10.0 Dashlength mul mul
  Rounded { currentlinewidth 0.75 mul sub dup 0 le { pop 0.01 } if } if
} def
/dl2 {
  10.0 Dashlength mul mul
  Rounded { currentlinewidth 0.75 mul add } if
} def
/hpt_ 31.5 def
/vpt_ 31.5 def
/hpt hpt_ def
/vpt vpt_ def
Level1 {} {
/SDict 10 dict def
systemdict /pdfmark known not {
  userdict /pdfmark systemdict /cleartomark get put
} if
SDict begin [
  /Title (dmoff_plot_benp.eps)
  /Subject (gnuplot plot)
  /Creator (gnuplot 4.2 patchlevel 6 )
  /Author (bperera)
%  /Producer (gnuplot)
%  /Keywords ()
  /CreationDate (Mon Jun  6 15:46:50 2016)
  /DOCINFO pdfmark
end
} ifelse
%
% Gnuplot Prolog Version 4.2 (August 2006)
%
/M {moveto} bind def
/L {lineto} bind def
/R {rmoveto} bind def
/V {rlineto} bind def
/N {newpath moveto} bind def
/Z {closepath} bind def
/C {setrgbcolor} bind def
/f {rlineto fill} bind def
/vpt2 vpt 2 mul def
/hpt2 hpt 2 mul def
/Lshow {currentpoint stroke M 0 vshift R 
	Blacktext {gsave 0 setgray show grestore} {show} ifelse} def
/Rshow {currentpoint stroke M dup stringwidth pop neg vshift R
	Blacktext {gsave 0 setgray show grestore} {show} ifelse} def
/Cshow {currentpoint stroke M dup stringwidth pop -2 div vshift R 
	Blacktext {gsave 0 setgray show grestore} {show} ifelse} def
/UP {dup vpt_ mul /vpt exch def hpt_ mul /hpt exch def
  /hpt2 hpt 2 mul def /vpt2 vpt 2 mul def} def
/DL {Color {setrgbcolor Solid {pop []} if 0 setdash}
 {pop pop pop 0 setgray Solid {pop []} if 0 setdash} ifelse} def
/BL {stroke userlinewidth 2 mul setlinewidth
	Rounded {1 setlinejoin 1 setlinecap} if} def
/AL {stroke userlinewidth 2 div setlinewidth
	Rounded {1 setlinejoin 1 setlinecap} if} def
/UL {dup gnulinewidth mul /userlinewidth exch def
	dup 1 lt {pop 1} if 10 mul /udl exch def} def
/PL {stroke userlinewidth setlinewidth
	Rounded {1 setlinejoin 1 setlinecap} if} def
% Default Line colors
/LCw {1 1 1} def
/LCb {0 0 0} def
/LCa {0 0 0} def
/LC0 {1 0 0} def
/LC1 {0 1 0} def
/LC2 {0 0 1} def
/LC3 {1 0 1} def
/LC4 {0 1 1} def
/LC5 {1 1 0} def
/LC6 {0 0 0} def
/LC7 {1 0.3 0} def
/LC8 {0.5 0.5 0.5} def
% Default Line Types
/LTw {PL [] 1 setgray} def
/LTb {BL [] LCb DL} def
/LTa {AL [1 udl mul 2 udl mul] 0 setdash LCa setrgbcolor} def
/LT0 {PL [] LC0 DL} def
/LT1 {PL [4 dl1 2 dl2] LC1 DL} def
/LT2 {PL [2 dl1 3 dl2] LC2 DL} def
/LT3 {PL [1 dl1 1.5 dl2] LC3 DL} def
/LT4 {PL [6 dl1 2 dl2 1 dl1 2 dl2] LC4 DL} def
/LT5 {PL [3 dl1 3 dl2 1 dl1 3 dl2] LC5 DL} def
/LT6 {PL [2 dl1 2 dl2 2 dl1 6 dl2] LC6 DL} def
/LT7 {PL [1 dl1 2 dl2 6 dl1 2 dl2 1 dl1 2 dl2] LC7 DL} def
/LT8 {PL [2 dl1 2 dl2 2 dl1 2 dl2 2 dl1 2 dl2 2 dl1 4 dl2] LC8 DL} def
/Pnt {stroke [] 0 setdash gsave 1 setlinecap M 0 0 V stroke grestore} def
/Dia {stroke [] 0 setdash 2 copy vpt add M
  hpt neg vpt neg V hpt vpt neg V
  hpt vpt V hpt neg vpt V closepath stroke
  Pnt} def
/Pls {stroke [] 0 setdash vpt sub M 0 vpt2 V
  currentpoint stroke M
  hpt neg vpt neg R hpt2 0 V stroke
 } def
/Box {stroke [] 0 setdash 2 copy exch hpt sub exch vpt add M
  0 vpt2 neg V hpt2 0 V 0 vpt2 V
  hpt2 neg 0 V closepath stroke
  Pnt} def
/Crs {stroke [] 0 setdash exch hpt sub exch vpt add M
  hpt2 vpt2 neg V currentpoint stroke M
  hpt2 neg 0 R hpt2 vpt2 V stroke} def
/TriU {stroke [] 0 setdash 2 copy vpt 1.12 mul add M
  hpt neg vpt -1.62 mul V
  hpt 2 mul 0 V
  hpt neg vpt 1.62 mul V closepath stroke
  Pnt} def
/Star {2 copy Pls Crs} def
/BoxF {stroke [] 0 setdash exch hpt sub exch vpt add M
  0 vpt2 neg V hpt2 0 V 0 vpt2 V
  hpt2 neg 0 V closepath fill} def
/TriUF {stroke [] 0 setdash vpt 1.12 mul add M
  hpt neg vpt -1.62 mul V
  hpt 2 mul 0 V
  hpt neg vpt 1.62 mul V closepath fill} def
/TriD {stroke [] 0 setdash 2 copy vpt 1.12 mul sub M
  hpt neg vpt 1.62 mul V
  hpt 2 mul 0 V
  hpt neg vpt -1.62 mul V closepath stroke
  Pnt} def
/TriDF {stroke [] 0 setdash vpt 1.12 mul sub M
  hpt neg vpt 1.62 mul V
  hpt 2 mul 0 V
  hpt neg vpt -1.62 mul V closepath fill} def
/DiaF {stroke [] 0 setdash vpt add M
  hpt neg vpt neg V hpt vpt neg V
  hpt vpt V hpt neg vpt V closepath fill} def
/Pent {stroke [] 0 setdash 2 copy gsave
  translate 0 hpt M 4 {72 rotate 0 hpt L} repeat
  closepath stroke grestore Pnt} def
/PentF {stroke [] 0 setdash gsave
  translate 0 hpt M 4 {72 rotate 0 hpt L} repeat
  closepath fill grestore} def
/Circle {stroke [] 0 setdash 2 copy
  hpt 0 360 arc stroke Pnt} def
/CircleF {stroke [] 0 setdash hpt 0 360 arc fill} def
/C0 {BL [] 0 setdash 2 copy moveto vpt 90 450 arc} bind def
/C1 {BL [] 0 setdash 2 copy moveto
	2 copy vpt 0 90 arc closepath fill
	vpt 0 360 arc closepath} bind def
/C2 {BL [] 0 setdash 2 copy moveto
	2 copy vpt 90 180 arc closepath fill
	vpt 0 360 arc closepath} bind def
/C3 {BL [] 0 setdash 2 copy moveto
	2 copy vpt 0 180 arc closepath fill
	vpt 0 360 arc closepath} bind def
/C4 {BL [] 0 setdash 2 copy moveto
	2 copy vpt 180 270 arc closepath fill
	vpt 0 360 arc closepath} bind def
/C5 {BL [] 0 setdash 2 copy moveto
	2 copy vpt 0 90 arc
	2 copy moveto
	2 copy vpt 180 270 arc closepath fill
	vpt 0 360 arc} bind def
/C6 {BL [] 0 setdash 2 copy moveto
	2 copy vpt 90 270 arc closepath fill
	vpt 0 360 arc closepath} bind def
/C7 {BL [] 0 setdash 2 copy moveto
	2 copy vpt 0 270 arc closepath fill
	vpt 0 360 arc closepath} bind def
/C8 {BL [] 0 setdash 2 copy moveto
	2 copy vpt 270 360 arc closepath fill
	vpt 0 360 arc closepath} bind def
/C9 {BL [] 0 setdash 2 copy moveto
	2 copy vpt 270 450 arc closepath fill
	vpt 0 360 arc closepath} bind def
/C10 {BL [] 0 setdash 2 copy 2 copy moveto vpt 270 360 arc closepath fill
	2 copy moveto
	2 copy vpt 90 180 arc closepath fill
	vpt 0 360 arc closepath} bind def
/C11 {BL [] 0 setdash 2 copy moveto
	2 copy vpt 0 180 arc closepath fill
	2 copy moveto
	2 copy vpt 270 360 arc closepath fill
	vpt 0 360 arc closepath} bind def
/C12 {BL [] 0 setdash 2 copy moveto
	2 copy vpt 180 360 arc closepath fill
	vpt 0 360 arc closepath} bind def
/C13 {BL [] 0 setdash 2 copy moveto
	2 copy vpt 0 90 arc closepath fill
	2 copy moveto
	2 copy vpt 180 360 arc closepath fill
	vpt 0 360 arc closepath} bind def
/C14 {BL [] 0 setdash 2 copy moveto
	2 copy vpt 90 360 arc closepath fill
	vpt 0 360 arc} bind def
/C15 {BL [] 0 setdash 2 copy vpt 0 360 arc closepath fill
	vpt 0 360 arc closepath} bind def
/Rec {newpath 4 2 roll moveto 1 index 0 rlineto 0 exch rlineto
	neg 0 rlineto closepath} bind def
/Square {dup Rec} bind def
/Bsquare {vpt sub exch vpt sub exch vpt2 Square} bind def
/S0 {BL [] 0 setdash 2 copy moveto 0 vpt rlineto BL Bsquare} bind def
/S1 {BL [] 0 setdash 2 copy vpt Square fill Bsquare} bind def
/S2 {BL [] 0 setdash 2 copy exch vpt sub exch vpt Square fill Bsquare} bind def
/S3 {BL [] 0 setdash 2 copy exch vpt sub exch vpt2 vpt Rec fill Bsquare} bind def
/S4 {BL [] 0 setdash 2 copy exch vpt sub exch vpt sub vpt Square fill Bsquare} bind def
/S5 {BL [] 0 setdash 2 copy 2 copy vpt Square fill
	exch vpt sub exch vpt sub vpt Square fill Bsquare} bind def
/S6 {BL [] 0 setdash 2 copy exch vpt sub exch vpt sub vpt vpt2 Rec fill Bsquare} bind def
/S7 {BL [] 0 setdash 2 copy exch vpt sub exch vpt sub vpt vpt2 Rec fill
	2 copy vpt Square fill Bsquare} bind def
/S8 {BL [] 0 setdash 2 copy vpt sub vpt Square fill Bsquare} bind def
/S9 {BL [] 0 setdash 2 copy vpt sub vpt vpt2 Rec fill Bsquare} bind def
/S10 {BL [] 0 setdash 2 copy vpt sub vpt Square fill 2 copy exch vpt sub exch vpt Square fill
	Bsquare} bind def
/S11 {BL [] 0 setdash 2 copy vpt sub vpt Square fill 2 copy exch vpt sub exch vpt2 vpt Rec fill
	Bsquare} bind def
/S12 {BL [] 0 setdash 2 copy exch vpt sub exch vpt sub vpt2 vpt Rec fill Bsquare} bind def
/S13 {BL [] 0 setdash 2 copy exch vpt sub exch vpt sub vpt2 vpt Rec fill
	2 copy vpt Square fill Bsquare} bind def
/S14 {BL [] 0 setdash 2 copy exch vpt sub exch vpt sub vpt2 vpt Rec fill
	2 copy exch vpt sub exch vpt Square fill Bsquare} bind def
/S15 {BL [] 0 setdash 2 copy Bsquare fill Bsquare} bind def
/D0 {gsave translate 45 rotate 0 0 S0 stroke grestore} bind def
/D1 {gsave translate 45 rotate 0 0 S1 stroke grestore} bind def
/D2 {gsave translate 45 rotate 0 0 S2 stroke grestore} bind def
/D3 {gsave translate 45 rotate 0 0 S3 stroke grestore} bind def
/D4 {gsave translate 45 rotate 0 0 S4 stroke grestore} bind def
/D5 {gsave translate 45 rotate 0 0 S5 stroke grestore} bind def
/D6 {gsave translate 45 rotate 0 0 S6 stroke grestore} bind def
/D7 {gsave translate 45 rotate 0 0 S7 stroke grestore} bind def
/D8 {gsave translate 45 rotate 0 0 S8 stroke grestore} bind def
/D9 {gsave translate 45 rotate 0 0 S9 stroke grestore} bind def
/D10 {gsave translate 45 rotate 0 0 S10 stroke grestore} bind def
/D11 {gsave translate 45 rotate 0 0 S11 stroke grestore} bind def
/D12 {gsave translate 45 rotate 0 0 S12 stroke grestore} bind def
/D13 {gsave translate 45 rotate 0 0 S13 stroke grestore} bind def
/D14 {gsave translate 45 rotate 0 0 S14 stroke grestore} bind def
/D15 {gsave translate 45 rotate 0 0 S15 stroke grestore} bind def
/DiaE {stroke [] 0 setdash vpt add M
  hpt neg vpt neg V hpt vpt neg V
  hpt vpt V hpt neg vpt V closepath stroke} def
/BoxE {stroke [] 0 setdash exch hpt sub exch vpt add M
  0 vpt2 neg V hpt2 0 V 0 vpt2 V
  hpt2 neg 0 V closepath stroke} def
/TriUE {stroke [] 0 setdash vpt 1.12 mul add M
  hpt neg vpt -1.62 mul V
  hpt 2 mul 0 V
  hpt neg vpt 1.62 mul V closepath stroke} def
/TriDE {stroke [] 0 setdash vpt 1.12 mul sub M
  hpt neg vpt 1.62 mul V
  hpt 2 mul 0 V
  hpt neg vpt -1.62 mul V closepath stroke} def
/PentE {stroke [] 0 setdash gsave
  translate 0 hpt M 4 {72 rotate 0 hpt L} repeat
  closepath stroke grestore} def
/CircE {stroke [] 0 setdash 
  hpt 0 360 arc stroke} def
/Opaque {gsave closepath 1 setgray fill grestore 0 setgray closepath} def
/DiaW {stroke [] 0 setdash vpt add M
  hpt neg vpt neg V hpt vpt neg V
  hpt vpt V hpt neg vpt V Opaque stroke} def
/BoxW {stroke [] 0 setdash exch hpt sub exch vpt add M
  0 vpt2 neg V hpt2 0 V 0 vpt2 V
  hpt2 neg 0 V Opaque stroke} def
/TriUW {stroke [] 0 setdash vpt 1.12 mul add M
  hpt neg vpt -1.62 mul V
  hpt 2 mul 0 V
  hpt neg vpt 1.62 mul V Opaque stroke} def
/TriDW {stroke [] 0 setdash vpt 1.12 mul sub M
  hpt neg vpt 1.62 mul V
  hpt 2 mul 0 V
  hpt neg vpt -1.62 mul V Opaque stroke} def
/PentW {stroke [] 0 setdash gsave
  translate 0 hpt M 4 {72 rotate 0 hpt L} repeat
  Opaque stroke grestore} def
/CircW {stroke [] 0 setdash 
  hpt 0 360 arc Opaque stroke} def
/BoxFill {gsave Rec 1 setgray fill grestore} def
/Density {
  /Fillden exch def
  currentrgbcolor
  /ColB exch def /ColG exch def /ColR exch def
  /ColR ColR Fillden mul Fillden sub 1 add def
  /ColG ColG Fillden mul Fillden sub 1 add def
  /ColB ColB Fillden mul Fillden sub 1 add def
  ColR ColG ColB setrgbcolor} def
/BoxColFill {gsave Rec PolyFill} def
/PolyFill {gsave Density fill grestore grestore} def
/h {rlineto rlineto rlineto gsave closepath fill grestore} bind def
%
% PostScript Level 1 Pattern Fill routine for rectangles
% Usage: x y w h s a XX PatternFill
%	x,y = lower left corner of box to be filled
%	w,h = width and height of box
%	  a = angle in degrees between lines and x-axis
%	 XX = 0/1 for no/yes cross-hatch
%
/PatternFill {gsave /PFa [ 9 2 roll ] def
  PFa 0 get PFa 2 get 2 div add PFa 1 get PFa 3 get 2 div add translate
  PFa 2 get -2 div PFa 3 get -2 div PFa 2 get PFa 3 get Rec
  gsave 1 setgray fill grestore clip
  currentlinewidth 0.5 mul setlinewidth
  /PFs PFa 2 get dup mul PFa 3 get dup mul add sqrt def
  0 0 M PFa 5 get rotate PFs -2 div dup translate
  0 1 PFs PFa 4 get div 1 add floor cvi
	{PFa 4 get mul 0 M 0 PFs V} for
  0 PFa 6 get ne {
	0 1 PFs PFa 4 get div 1 add floor cvi
	{PFa 4 get mul 0 2 1 roll M PFs 0 V} for
 } if
  stroke grestore} def
%
/languagelevel where
 {pop languagelevel} {1} ifelse
 2 lt
	{/InterpretLevel1 true def}
	{/InterpretLevel1 Level1 def}
 ifelse
%
% PostScript level 2 pattern fill definitions
%
/Level2PatternFill {
/Tile8x8 {/PaintType 2 /PatternType 1 /TilingType 1 /BBox [0 0 8 8] /XStep 8 /YStep 8}
	bind def
/KeepColor {currentrgbcolor [/Pattern /DeviceRGB] setcolorspace} bind def
<< Tile8x8
 /PaintProc {0.5 setlinewidth pop 0 0 M 8 8 L 0 8 M 8 0 L stroke} 
>> matrix makepattern
/Pat1 exch def
<< Tile8x8
 /PaintProc {0.5 setlinewidth pop 0 0 M 8 8 L 0 8 M 8 0 L stroke
	0 4 M 4 8 L 8 4 L 4 0 L 0 4 L stroke}
>> matrix makepattern
/Pat2 exch def
<< Tile8x8
 /PaintProc {0.5 setlinewidth pop 0 0 M 0 8 L
	8 8 L 8 0 L 0 0 L fill}
>> matrix makepattern
/Pat3 exch def
<< Tile8x8
 /PaintProc {0.5 setlinewidth pop -4 8 M 8 -4 L
	0 12 M 12 0 L stroke}
>> matrix makepattern
/Pat4 exch def
<< Tile8x8
 /PaintProc {0.5 setlinewidth pop -4 0 M 8 12 L
	0 -4 M 12 8 L stroke}
>> matrix makepattern
/Pat5 exch def
<< Tile8x8
 /PaintProc {0.5 setlinewidth pop -2 8 M 4 -4 L
	0 12 M 8 -4 L 4 12 M 10 0 L stroke}
>> matrix makepattern
/Pat6 exch def
<< Tile8x8
 /PaintProc {0.5 setlinewidth pop -2 0 M 4 12 L
	0 -4 M 8 12 L 4 -4 M 10 8 L stroke}
>> matrix makepattern
/Pat7 exch def
<< Tile8x8
 /PaintProc {0.5 setlinewidth pop 8 -2 M -4 4 L
	12 0 M -4 8 L 12 4 M 0 10 L stroke}
>> matrix makepattern
/Pat8 exch def
<< Tile8x8
 /PaintProc {0.5 setlinewidth pop 0 -2 M 12 4 L
	-4 0 M 12 8 L -4 4 M 8 10 L stroke}
>> matrix makepattern
/Pat9 exch def
/Pattern1 {PatternBgnd KeepColor Pat1 setpattern} bind def
/Pattern2 {PatternBgnd KeepColor Pat2 setpattern} bind def
/Pattern3 {PatternBgnd KeepColor Pat3 setpattern} bind def
/Pattern4 {PatternBgnd KeepColor Landscape {Pat5} {Pat4} ifelse setpattern} bind def
/Pattern5 {PatternBgnd KeepColor Landscape {Pat4} {Pat5} ifelse setpattern} bind def
/Pattern6 {PatternBgnd KeepColor Landscape {Pat9} {Pat6} ifelse setpattern} bind def
/Pattern7 {PatternBgnd KeepColor Landscape {Pat8} {Pat7} ifelse setpattern} bind def
} def
%
%
%End of PostScript Level 2 code
%
/PatternBgnd {
  TransparentPatterns {} {gsave 1 setgray fill grestore} ifelse
} def
%
% Substitute for Level 2 pattern fill codes with
% grayscale if Level 2 support is not selected.
%
/Level1PatternFill {
/Pattern1 {0.250 Density} bind def
/Pattern2 {0.500 Density} bind def
/Pattern3 {0.750 Density} bind def
/Pattern4 {0.125 Density} bind def
/Pattern5 {0.375 Density} bind def
/Pattern6 {0.625 Density} bind def
/Pattern7 {0.875 Density} bind def
} def
%
% Now test for support of Level 2 code
%
Level1 {Level1PatternFill} {Level2PatternFill} ifelse
%
/Symbol-Oblique /Symbol findfont [1 0 .167 1 0 0] makefont
dup length dict begin {1 index /FID eq {pop pop} {def} ifelse} forall
currentdict end definefont pop
/MFshow {
   { dup 5 get 3 ge
     { 5 get 3 eq {gsave} {grestore} ifelse }
     {dup dup 0 get findfont exch 1 get scalefont setfont
     [ currentpoint ] exch dup 2 get 0 exch R dup 5 get 2 ne {dup dup 6
     get exch 4 get {show} {stringwidth pop 0 R} ifelse }if dup 5 get 0 eq
     {dup 3 get {2 get neg 0 exch R pop} {pop aload pop M} ifelse} {dup 5
     get 1 eq {dup 2 get exch dup 3 get exch 6 get stringwidth pop -2 div
     dup 0 R} {dup 6 get stringwidth pop -2 div 0 R 6 get
     show 2 index {aload pop M neg 3 -1 roll neg R pop pop} {pop pop pop
     pop aload pop M} ifelse }ifelse }ifelse }
     ifelse }
   forall} bind def
/MFwidth {0 exch { dup 5 get 3 ge { 5 get 3 eq { 0 } { pop } ifelse }
 {dup 3 get{dup dup 0 get findfont exch 1 get scalefont setfont
     6 get stringwidth pop add} {pop} ifelse} ifelse} forall} bind def
/MLshow { currentpoint stroke M
  0 exch R
  Blacktext {gsave 0 setgray MFshow grestore} {MFshow} ifelse } bind def
/MRshow { currentpoint stroke M
  exch dup MFwidth neg 3 -1 roll R
  Blacktext {gsave 0 setgray MFshow grestore} {MFshow} ifelse } bind def
/MCshow { currentpoint stroke M
  exch dup MFwidth -2 div 3 -1 roll R
  Blacktext {gsave 0 setgray MFshow grestore} {MFshow} ifelse } bind def
/XYsave    { [( ) 1 2 true false 3 ()] } bind def
/XYrestore { [( ) 1 2 true false 4 ()] } bind def
end
%%EndProlog
%%Page: 1 1
gnudict begin
gsave
50 50 translate
0.100 0.100 scale
0 setgray
newpath
(Times-Roman) findfont 140 scalefont setfont
/Times-Roman findfont 140 scalefont setfont
1.000 UL
LTb
1106 448 M
63 0 V
4381 0 R
-63 0 V
stroke
1022 448 M
[ [(Times-Roman) 140.0 0.0 true true 0 (-0.002)]
] -46.7 MRshow
1.000 UL
LTb
1106 874 M
63 0 V
4381 0 R
-63 0 V
stroke
1022 874 M
[ [(Times-Roman) 140.0 0.0 true true 0 (-0.0015)]
] -46.7 MRshow
1.000 UL
LTb
1106 1301 M
63 0 V
4381 0 R
-63 0 V
stroke
1022 1301 M
[ [(Times-Roman) 140.0 0.0 true true 0 (-0.001)]
] -46.7 MRshow
1.000 UL
LTb
1106 1727 M
63 0 V
4381 0 R
-63 0 V
stroke
1022 1727 M
[ [(Times-Roman) 140.0 0.0 true true 0 (-0.0005)]
] -46.7 MRshow
1.000 UL
LTb
1106 2153 M
63 0 V
4381 0 R
-63 0 V
stroke
1022 2153 M
[ [(Times-Roman) 140.0 0.0 true true 0 ( 0)]
] -46.7 MRshow
1.000 UL
LTb
1106 2579 M
63 0 V
4381 0 R
-63 0 V
stroke
1022 2579 M
[ [(Times-Roman) 140.0 0.0 true true 0 ( 0.0005)]
] -46.7 MRshow
1.000 UL
LTb
1106 3006 M
63 0 V
4381 0 R
-63 0 V
stroke
1022 3006 M
[ [(Times-Roman) 140.0 0.0 true true 0 ( 0.001)]
] -46.7 MRshow
1.000 UL
LTb
1106 3432 M
63 0 V
4381 0 R
-63 0 V
stroke
1022 3432 M
[ [(Times-Roman) 140.0 0.0 true true 0 ( 0.0015)]
] -46.7 MRshow
1.000 UL
LTb
1106 448 M
0 63 V
0 2921 R
0 -63 V
stroke
1106 308 M
[ [(Times-Roman) 140.0 0.0 true true 0 ( 48000)]
] -46.7 MCshow
1.000 UL
LTb
1600 448 M
0 63 V
0 2921 R
0 -63 V
stroke
1600 308 M
[ [(Times-Roman) 140.0 0.0 true true 0 ( 49000)]
] -46.7 MCshow
1.000 UL
LTb
2094 448 M
0 63 V
0 2921 R
0 -63 V
stroke
2094 308 M
[ [(Times-Roman) 140.0 0.0 true true 0 ( 50000)]
] -46.7 MCshow
1.000 UL
LTb
2587 448 M
0 63 V
0 2921 R
0 -63 V
stroke
2587 308 M
[ [(Times-Roman) 140.0 0.0 true true 0 ( 51000)]
] -46.7 MCshow
1.000 UL
LTb
3081 448 M
0 63 V
0 2921 R
0 -63 V
stroke
3081 308 M
[ [(Times-Roman) 140.0 0.0 true true 0 ( 52000)]
] -46.7 MCshow
1.000 UL
LTb
3575 448 M
0 63 V
0 2921 R
0 -63 V
stroke
3575 308 M
[ [(Times-Roman) 140.0 0.0 true true 0 ( 53000)]
] -46.7 MCshow
1.000 UL
LTb
4069 448 M
0 63 V
0 2921 R
0 -63 V
stroke
4069 308 M
[ [(Times-Roman) 140.0 0.0 true true 0 ( 54000)]
] -46.7 MCshow
1.000 UL
LTb
4562 448 M
0 63 V
0 2921 R
0 -63 V
stroke
4562 308 M
[ [(Times-Roman) 140.0 0.0 true true 0 ( 55000)]
] -46.7 MCshow
1.000 UL
LTb
5056 448 M
0 63 V
0 2921 R
0 -63 V
stroke
5056 308 M
[ [(Times-Roman) 140.0 0.0 true true 0 ( 56000)]
] -46.7 MCshow
1.000 UL
LTb
5550 448 M
0 63 V
0 2921 R
0 -63 V
stroke
5550 308 M
[ [(Times-Roman) 140.0 0.0 true true 0 ( 57000)]
] -46.7 MCshow
1.000 UL
LTb
1.000 UL
LTb
1106 3432 N
0 -2984 V
4444 0 V
0 2984 V
-4444 0 V
Z stroke
LCb setrgbcolor
280 1940 M
currentpoint gsave translate 90 rotate 0 0 moveto
[ [(Times-Roman) 140.0 0.0 true true 0 (DM offset \(cm)]
[(Times-Roman) 112.0 70.0 true true 0 (-3)]
[(Times-Roman) 140.0 0.0 true true 0 ( pc\))]
] -60.7 MCshow
grestore
LTb
LCb setrgbcolor
3328 98 M
[ [(Times-Roman) 140.0 0.0 true true 0 (MJD)]
] -46.7 MCshow
LTb
1.000 UP
1.000 UL
LTb
1.000 UP
1.000 UL
LT0
/Times-Roman findfont 140 scalefont setfont
LTb
4899 3299 M
('J1713+0747.dm' u 1:2:3) Rshow
LT0
4983 3299 M
399 0 V
-399 31 R
0 -62 V
399 62 R
0 -62 V
1353 955 M
3081 2802 L
25 -423 V
24 611 V
25 -686 V
25 452 V
25 78 V
24 -628 V
74 502 V
25 -168 V
198 183 V
74 -181 V
24 54 V
99 -120 V
99 -480 V
24 413 V
25 -254 V
25 22 V
25 -35 V
24 98 V
25 -67 V
25 59 V
24 -26 V
50 24 V
49 -115 V
25 2 V
24 -318 V
25 528 V
25 -399 V
24 203 V
25 -46 V
25 -60 V
25 31 V
24 14 V
25 -49 V
25 -44 V
24 383 V
25 -1079 V
25 389 V
24 9 V
25 333 V
25 -95 V
24 103 V
25 19 V
25 83 V
25 -6 V
24 63 V
25 -135 V
25 83 V
24 -90 V
25 114 V
25 130 V
24 -171 V
25 63 V
25 -96 V
24 0 V
25 76 V
25 -73 V
24 46 V
25 -39 V
25 89 V
25 -31 V
24 -54 V
25 -22 V
25 56 V
24 -30 V
25 -49 V
25 27 V
24 22 V
25 -71 V
25 28 V
24 -33 V
25 42 V
173 -144 V
1353 453 M
0 1003 V
1322 453 M
62 0 V
-62 1003 R
62 0 V
3081 2725 M
0 154 V
-31 -154 R
62 0 V
-62 154 R
62 0 V
-6 -632 R
0 264 V
-31 -264 R
62 0 V
-62 264 R
62 0 V
-7 320 R
0 318 V
-31 -318 R
62 0 V
-62 318 R
62 0 V
-6 -1019 R
0 349 V
-31 -349 R
62 0 V
-62 349 R
62 0 V
-6 87 R
0 380 V
stroke 3180 2946 M
-31 -380 R
62 0 V
-62 380 R
62 0 V
-6 -267 R
0 309 V
-31 -309 R
62 0 V
-62 309 R
62 0 V
-7 -915 R
0 267 V
-31 -267 R
62 0 V
-62 267 R
62 0 V
43 239 R
0 258 V
-31 -258 R
62 0 V
-62 258 R
62 0 V
-6 -416 R
0 239 V
-31 -239 R
62 0 V
-62 239 R
62 0 V
167 -50 R
0 226 V
-31 -226 R
62 0 V
-62 226 R
62 0 V
43 -422 R
0 257 V
-31 -257 R
62 0 V
-62 257 R
62 0 V
-7 -213 R
0 276 V
-31 -276 R
62 0 V
-62 276 R
62 0 V
68 -357 R
0 199 V
-31 -199 R
62 0 V
-62 199 R
62 0 V
68 -661 R
0 162 V
-31 -162 R
62 0 V
-62 162 R
62 0 V
-7 235 R
0 194 V
-31 -194 R
62 0 V
-62 194 R
62 0 V
-6 -412 R
0 123 V
-31 -123 R
62 0 V
-62 123 R
62 0 V
-6 -98 R
0 115 V
-31 -115 R
62 0 V
-62 115 R
62 0 V
-6 -166 R
0 147 V
-31 -147 R
62 0 V
-62 147 R
62 0 V
-7 -11 R
0 73 V
-31 -73 R
62 0 V
-62 73 R
62 0 V
-6 -162 R
0 117 V
-31 -117 R
62 0 V
-62 117 R
62 0 V
-6 -44 R
0 89 V
-31 -89 R
62 0 V
-62 89 R
62 0 V
-7 -105 R
0 67 V
-31 -67 R
62 0 V
stroke 4050 2172 M
-62 67 R
62 0 V
19 -41 R
0 65 V
-31 -65 R
62 0 V
-62 65 R
62 0 V
18 -188 R
0 81 V
-31 -81 R
62 0 V
-62 81 R
62 0 V
-6 -83 R
0 88 V
-31 -88 R
62 0 V
-62 88 R
62 0 V
-7 -445 R
0 166 V
-31 -166 R
62 0 V
-62 166 R
62 0 V
-6 336 R
0 217 V
-31 -217 R
62 0 V
-62 217 R
62 0 V
-6 -614 R
0 214 V
-31 -214 R
62 0 V
-62 214 R
62 0 V
-7 26 R
0 139 V
-31 -139 R
62 0 V
-62 139 R
62 0 V
-6 -156 R
0 83 V
-31 -83 R
62 0 V
-62 83 R
62 0 V
-6 -157 R
0 111 V
-31 -111 R
62 0 V
-62 111 R
62 0 V
-6 -73 R
0 95 V
-31 -95 R
62 0 V
-62 95 R
62 0 V
-7 -73 R
0 80 V
-31 -80 R
62 0 V
-62 80 R
62 0 V
-6 -150 R
0 122 V
-31 -122 R
62 0 V
-62 122 R
62 0 V
-6 -164 R
0 119 V
-31 -119 R
62 0 V
-62 119 R
62 0 V
-7 264 R
0 118 V
-31 -118 R
62 0 V
-62 118 R
62 0 V
-6 -1186 R
0 96 V
-31 -96 R
62 0 V
-62 96 R
62 0 V
-6 286 R
0 111 V
-31 -111 R
62 0 V
-62 111 R
62 0 V
-7 -98 R
0 102 V
-31 -102 R
62 0 V
-62 102 R
62 0 V
stroke 4519 1730 M
-6 238 R
0 88 V
-31 -88 R
62 0 V
-62 88 R
62 0 V
-6 -184 R
0 90 V
-31 -90 R
62 0 V
-62 90 R
62 0 V
-7 20 R
0 76 V
-31 -76 R
62 0 V
-62 76 R
62 0 V
-6 -57 R
0 77 V
-31 -77 R
62 0 V
-62 77 R
62 0 V
-6 -1 R
0 91 V
-31 -91 R
62 0 V
-62 91 R
62 0 V
-6 -96 R
0 88 V
-31 -88 R
62 0 V
-62 88 R
62 0 V
-7 -20 R
0 77 V
-31 -77 R
62 0 V
-62 77 R
62 0 V
-6 -214 R
0 83 V
-31 -83 R
62 0 V
-62 83 R
62 0 V
-6 2 R
0 78 V
-31 -78 R
62 0 V
-62 78 R
62 0 V
-7 -160 R
0 63 V
-31 -63 R
62 0 V
-62 63 R
62 0 V
-6 46 R
0 72 V
-31 -72 R
62 0 V
-62 72 R
62 0 V
-6 53 R
0 82 V
-31 -82 R
62 0 V
-62 82 R
62 0 V
-7 -254 R
0 84 V
-31 -84 R
62 0 V
-62 84 R
62 0 V
-6 -25 R
0 93 V
-31 -93 R
62 0 V
-62 93 R
62 0 V
-6 -179 R
0 72 V
-31 -72 R
62 0 V
-62 72 R
62 0 V
-7 -71 R
0 71 V
-31 -71 R
62 0 V
-62 71 R
62 0 V
-6 5 R
0 69 V
-31 -69 R
62 0 V
-62 69 R
62 0 V
-6 -141 R
0 69 V
stroke 4933 2115 M
-31 -69 R
62 0 V
-62 69 R
62 0 V
-7 -19 R
0 60 V
-31 -60 R
62 0 V
-62 60 R
62 0 V
-6 -103 R
0 68 V
-31 -68 R
62 0 V
-62 68 R
62 0 V
-6 22 R
0 66 V
-31 -66 R
62 0 V
-62 66 R
62 0 V
-6 -101 R
0 74 V
-31 -74 R
62 0 V
-62 74 R
62 0 V
-7 -121 R
0 59 V
-31 -59 R
62 0 V
-62 59 R
62 0 V
-6 -83 R
0 65 V
-31 -65 R
62 0 V
-62 65 R
62 0 V
-6 -6 R
0 58 V
-31 -58 R
62 0 V
-62 58 R
62 0 V
-7 -90 R
0 62 V
-31 -62 R
62 0 V
-62 62 R
62 0 V
-6 -110 R
0 59 V
-31 -59 R
62 0 V
-62 59 R
62 0 V
-6 -32 R
0 60 V
-31 -60 R
62 0 V
-62 60 R
62 0 V
-7 -39 R
0 62 V
-31 -62 R
62 0 V
-62 62 R
62 0 V
-6 -134 R
0 63 V
-31 -63 R
62 0 V
-62 63 R
62 0 V
-6 -32 R
0 59 V
-31 -59 R
62 0 V
-62 59 R
62 0 V
-7 -92 R
0 59 V
-31 -59 R
62 0 V
-62 59 R
62 0 V
-6 -18 R
0 59 V
-31 -59 R
62 0 V
-62 59 R
62 0 V
142 -216 R
0 86 V
-31 -86 R
62 0 V
-62 86 R
62 0 V
1353 955 Pls
3081 2802 Pls
3106 2379 Pls
3130 2990 Pls
3155 2304 Pls
3180 2756 Pls
3205 2834 Pls
3229 2206 Pls
3303 2708 Pls
3328 2540 Pls
3526 2723 Pls
3600 2542 Pls
3624 2596 Pls
3723 2476 Pls
3822 1996 Pls
3846 2409 Pls
3871 2155 Pls
3896 2177 Pls
3921 2142 Pls
3945 2240 Pls
3970 2173 Pls
3995 2232 Pls
4019 2206 Pls
4069 2230 Pls
4118 2115 Pls
4143 2117 Pls
4167 1799 Pls
4192 2327 Pls
4217 1928 Pls
4241 2131 Pls
4266 2085 Pls
4291 2025 Pls
4316 2056 Pls
4340 2070 Pls
4365 2021 Pls
4390 1977 Pls
4414 2360 Pls
4439 1281 Pls
4464 1670 Pls
4488 1679 Pls
4513 2012 Pls
4538 1917 Pls
4562 2020 Pls
4587 2039 Pls
4612 2122 Pls
4637 2116 Pls
4661 2179 Pls
4686 2044 Pls
4711 2127 Pls
4735 2037 Pls
4760 2151 Pls
4785 2281 Pls
4809 2110 Pls
4834 2173 Pls
4859 2077 Pls
4883 2077 Pls
4908 2153 Pls
4933 2080 Pls
4957 2126 Pls
4982 2087 Pls
5007 2176 Pls
5032 2145 Pls
5056 2091 Pls
5081 2069 Pls
5106 2125 Pls
5130 2095 Pls
5155 2046 Pls
5180 2073 Pls
5204 2095 Pls
5229 2024 Pls
5254 2052 Pls
5278 2019 Pls
5303 2061 Pls
5476 1917 Pls
5182 3299 Pls
1.000 UL
LTb
1106 3432 N
0 -2984 V
4444 0 V
0 2984 V
-4444 0 V
Z stroke
1.000 UP
1.000 UL
LTb
stroke
grestore
end
showpage
%%Trailer
%%DocumentFonts: Times-Roman
%%Pages: 1
