%!PS-Adobe-2.0
%%Title: dmoff_plot_benp.eps
%%Creator: gnuplot 5.0 patchlevel 3
%%CreationDate: Tue May 24 15:49:03 2016
%%DocumentFonts: (atend)
%%BoundingBox: 50 50 626 410
%%Orientation: Portrait
%%Pages: (atend)
%%EndComments
%%BeginProlog
/gnudict 256 dict def
gnudict begin
%
% The following true/false flags may be edited by hand if desired.
% The unit line width and grayscale image gamma correction may also be changed.
%
/Color true def
/Blacktext false def
/Solid false def
/Dashlength 1 def
/Landscape false def
/Level1 false def
/Level3 false def
/Rounded false def
/ClipToBoundingBox false def
/SuppressPDFMark false def
/TransparentPatterns false def
/gnulinewidth 5.000 def
/userlinewidth gnulinewidth def
/Gamma 1.0 def
/BackgroundColor {-1.000 -1.000 -1.000} def
%
/vshift -46 def
/dl1 {
  10.0 Dashlength userlinewidth gnulinewidth div mul mul mul
  Rounded { currentlinewidth 0.75 mul sub dup 0 le { pop 0.01 } if } if
} def
/dl2 {
  10.0 Dashlength userlinewidth gnulinewidth div mul mul mul
  Rounded { currentlinewidth 0.75 mul add } if
} def
/hpt_ 31.5 def
/vpt_ 31.5 def
/hpt hpt_ def
/vpt vpt_ def
/doclip {
  ClipToBoundingBox {
    newpath 50 50 moveto 626 50 lineto 626 410 lineto 50 410 lineto closepath
    clip
  } if
} def
%
% Gnuplot Prolog Version 5.1 (Oct 2015)
%
%/SuppressPDFMark true def
%
/M {moveto} bind def
/L {lineto} bind def
/R {rmoveto} bind def
/V {rlineto} bind def
/N {newpath moveto} bind def
/Z {closepath} bind def
/C {setrgbcolor} bind def
/f {rlineto fill} bind def
/g {setgray} bind def
/Gshow {show} def   % May be redefined later in the file to support UTF-8
/vpt2 vpt 2 mul def
/hpt2 hpt 2 mul def
/Lshow {currentpoint stroke M 0 vshift R 
	Blacktext {gsave 0 setgray textshow grestore} {textshow} ifelse} def
/Rshow {currentpoint stroke M dup stringwidth pop neg vshift R
	Blacktext {gsave 0 setgray textshow grestore} {textshow} ifelse} def
/Cshow {currentpoint stroke M dup stringwidth pop -2 div vshift R 
	Blacktext {gsave 0 setgray textshow grestore} {textshow} ifelse} def
/UP {dup vpt_ mul /vpt exch def hpt_ mul /hpt exch def
  /hpt2 hpt 2 mul def /vpt2 vpt 2 mul def} def
/DL {Color {setrgbcolor Solid {pop []} if 0 setdash}
 {pop pop pop 0 setgray Solid {pop []} if 0 setdash} ifelse} def
/BL {stroke userlinewidth 2 mul setlinewidth
	Rounded {1 setlinejoin 1 setlinecap} if} def
/AL {stroke userlinewidth 2 div setlinewidth
	Rounded {1 setlinejoin 1 setlinecap} if} def
/UL {dup gnulinewidth mul /userlinewidth exch def
	dup 1 lt {pop 1} if 10 mul /udl exch def} def
/PL {stroke userlinewidth setlinewidth
	Rounded {1 setlinejoin 1 setlinecap} if} def
3.8 setmiterlimit
% Classic Line colors (version 5.0)
/LCw {1 1 1} def
/LCb {0 0 0} def
/LCa {0 0 0} def
/LC0 {1 0 0} def
/LC1 {0 1 0} def
/LC2 {0 0 1} def
/LC3 {1 0 1} def
/LC4 {0 1 1} def
/LC5 {1 1 0} def
/LC6 {0 0 0} def
/LC7 {1 0.3 0} def
/LC8 {0.5 0.5 0.5} def
% Default dash patterns (version 5.0)
/LTB {BL [] LCb DL} def
/LTw {PL [] 1 setgray} def
/LTb {PL [] LCb DL} def
/LTa {AL [1 udl mul 2 udl mul] 0 setdash LCa setrgbcolor} def
/LT0 {PL [] LC0 DL} def
/LT1 {PL [2 dl1 3 dl2] LC1 DL} def
/LT2 {PL [1 dl1 1.5 dl2] LC2 DL} def
/LT3 {PL [6 dl1 2 dl2 1 dl1 2 dl2] LC3 DL} def
/LT4 {PL [1 dl1 2 dl2 6 dl1 2 dl2 1 dl1 2 dl2] LC4 DL} def
/LT5 {PL [4 dl1 2 dl2] LC5 DL} def
/LT6 {PL [1.5 dl1 1.5 dl2 1.5 dl1 1.5 dl2 1.5 dl1 6 dl2] LC6 DL} def
/LT7 {PL [3 dl1 3 dl2 1 dl1 3 dl2] LC7 DL} def
/LT8 {PL [2 dl1 2 dl2 2 dl1 6 dl2] LC8 DL} def
/SL {[] 0 setdash} def
/Pnt {stroke [] 0 setdash gsave 1 setlinecap M 0 0 V stroke grestore} def
/Dia {stroke [] 0 setdash 2 copy vpt add M
  hpt neg vpt neg V hpt vpt neg V
  hpt vpt V hpt neg vpt V closepath stroke
  Pnt} def
/Pls {stroke [] 0 setdash vpt sub M 0 vpt2 V
  currentpoint stroke M
  hpt neg vpt neg R hpt2 0 V stroke
 } def
/Box {stroke [] 0 setdash 2 copy exch hpt sub exch vpt add M
  0 vpt2 neg V hpt2 0 V 0 vpt2 V
  hpt2 neg 0 V closepath stroke
  Pnt} def
/Crs {stroke [] 0 setdash exch hpt sub exch vpt add M
  hpt2 vpt2 neg V currentpoint stroke M
  hpt2 neg 0 R hpt2 vpt2 V stroke} def
/TriU {stroke [] 0 setdash 2 copy vpt 1.12 mul add M
  hpt neg vpt -1.62 mul V
  hpt 2 mul 0 V
  hpt neg vpt 1.62 mul V closepath stroke
  Pnt} def
/Star {2 copy Pls Crs} def
/BoxF {stroke [] 0 setdash exch hpt sub exch vpt add M
  0 vpt2 neg V hpt2 0 V 0 vpt2 V
  hpt2 neg 0 V closepath fill} def
/TriUF {stroke [] 0 setdash vpt 1.12 mul add M
  hpt neg vpt -1.62 mul V
  hpt 2 mul 0 V
  hpt neg vpt 1.62 mul V closepath fill} def
/TriD {stroke [] 0 setdash 2 copy vpt 1.12 mul sub M
  hpt neg vpt 1.62 mul V
  hpt 2 mul 0 V
  hpt neg vpt -1.62 mul V closepath stroke
  Pnt} def
/TriDF {stroke [] 0 setdash vpt 1.12 mul sub M
  hpt neg vpt 1.62 mul V
  hpt 2 mul 0 V
  hpt neg vpt -1.62 mul V closepath fill} def
/DiaF {stroke [] 0 setdash vpt add M
  hpt neg vpt neg V hpt vpt neg V
  hpt vpt V hpt neg vpt V closepath fill} def
/Pent {stroke [] 0 setdash 2 copy gsave
  translate 0 hpt M 4 {72 rotate 0 hpt L} repeat
  closepath stroke grestore Pnt} def
/PentF {stroke [] 0 setdash gsave
  translate 0 hpt M 4 {72 rotate 0 hpt L} repeat
  closepath fill grestore} def
/Circle {stroke [] 0 setdash 2 copy
  hpt 0 360 arc stroke Pnt} def
/CircleF {stroke [] 0 setdash hpt 0 360 arc fill} def
/C0 {BL [] 0 setdash 2 copy moveto vpt 90 450 arc} bind def
/C1 {BL [] 0 setdash 2 copy moveto
	2 copy vpt 0 90 arc closepath fill
	vpt 0 360 arc closepath} bind def
/C2 {BL [] 0 setdash 2 copy moveto
	2 copy vpt 90 180 arc closepath fill
	vpt 0 360 arc closepath} bind def
/C3 {BL [] 0 setdash 2 copy moveto
	2 copy vpt 0 180 arc closepath fill
	vpt 0 360 arc closepath} bind def
/C4 {BL [] 0 setdash 2 copy moveto
	2 copy vpt 180 270 arc closepath fill
	vpt 0 360 arc closepath} bind def
/C5 {BL [] 0 setdash 2 copy moveto
	2 copy vpt 0 90 arc
	2 copy moveto
	2 copy vpt 180 270 arc closepath fill
	vpt 0 360 arc} bind def
/C6 {BL [] 0 setdash 2 copy moveto
	2 copy vpt 90 270 arc closepath fill
	vpt 0 360 arc closepath} bind def
/C7 {BL [] 0 setdash 2 copy moveto
	2 copy vpt 0 270 arc closepath fill
	vpt 0 360 arc closepath} bind def
/C8 {BL [] 0 setdash 2 copy moveto
	2 copy vpt 270 360 arc closepath fill
	vpt 0 360 arc closepath} bind def
/C9 {BL [] 0 setdash 2 copy moveto
	2 copy vpt 270 450 arc closepath fill
	vpt 0 360 arc closepath} bind def
/C10 {BL [] 0 setdash 2 copy 2 copy moveto vpt 270 360 arc closepath fill
	2 copy moveto
	2 copy vpt 90 180 arc closepath fill
	vpt 0 360 arc closepath} bind def
/C11 {BL [] 0 setdash 2 copy moveto
	2 copy vpt 0 180 arc closepath fill
	2 copy moveto
	2 copy vpt 270 360 arc closepath fill
	vpt 0 360 arc closepath} bind def
/C12 {BL [] 0 setdash 2 copy moveto
	2 copy vpt 180 360 arc closepath fill
	vpt 0 360 arc closepath} bind def
/C13 {BL [] 0 setdash 2 copy moveto
	2 copy vpt 0 90 arc closepath fill
	2 copy moveto
	2 copy vpt 180 360 arc closepath fill
	vpt 0 360 arc closepath} bind def
/C14 {BL [] 0 setdash 2 copy moveto
	2 copy vpt 90 360 arc closepath fill
	vpt 0 360 arc} bind def
/C15 {BL [] 0 setdash 2 copy vpt 0 360 arc closepath fill
	vpt 0 360 arc closepath} bind def
/Rec {newpath 4 2 roll moveto 1 index 0 rlineto 0 exch rlineto
	neg 0 rlineto closepath} bind def
/Square {dup Rec} bind def
/Bsquare {vpt sub exch vpt sub exch vpt2 Square} bind def
/S0 {BL [] 0 setdash 2 copy moveto 0 vpt rlineto BL Bsquare} bind def
/S1 {BL [] 0 setdash 2 copy vpt Square fill Bsquare} bind def
/S2 {BL [] 0 setdash 2 copy exch vpt sub exch vpt Square fill Bsquare} bind def
/S3 {BL [] 0 setdash 2 copy exch vpt sub exch vpt2 vpt Rec fill Bsquare} bind def
/S4 {BL [] 0 setdash 2 copy exch vpt sub exch vpt sub vpt Square fill Bsquare} bind def
/S5 {BL [] 0 setdash 2 copy 2 copy vpt Square fill
	exch vpt sub exch vpt sub vpt Square fill Bsquare} bind def
/S6 {BL [] 0 setdash 2 copy exch vpt sub exch vpt sub vpt vpt2 Rec fill Bsquare} bind def
/S7 {BL [] 0 setdash 2 copy exch vpt sub exch vpt sub vpt vpt2 Rec fill
	2 copy vpt Square fill Bsquare} bind def
/S8 {BL [] 0 setdash 2 copy vpt sub vpt Square fill Bsquare} bind def
/S9 {BL [] 0 setdash 2 copy vpt sub vpt vpt2 Rec fill Bsquare} bind def
/S10 {BL [] 0 setdash 2 copy vpt sub vpt Square fill 2 copy exch vpt sub exch vpt Square fill
	Bsquare} bind def
/S11 {BL [] 0 setdash 2 copy vpt sub vpt Square fill 2 copy exch vpt sub exch vpt2 vpt Rec fill
	Bsquare} bind def
/S12 {BL [] 0 setdash 2 copy exch vpt sub exch vpt sub vpt2 vpt Rec fill Bsquare} bind def
/S13 {BL [] 0 setdash 2 copy exch vpt sub exch vpt sub vpt2 vpt Rec fill
	2 copy vpt Square fill Bsquare} bind def
/S14 {BL [] 0 setdash 2 copy exch vpt sub exch vpt sub vpt2 vpt Rec fill
	2 copy exch vpt sub exch vpt Square fill Bsquare} bind def
/S15 {BL [] 0 setdash 2 copy Bsquare fill Bsquare} bind def
/D0 {gsave translate 45 rotate 0 0 S0 stroke grestore} bind def
/D1 {gsave translate 45 rotate 0 0 S1 stroke grestore} bind def
/D2 {gsave translate 45 rotate 0 0 S2 stroke grestore} bind def
/D3 {gsave translate 45 rotate 0 0 S3 stroke grestore} bind def
/D4 {gsave translate 45 rotate 0 0 S4 stroke grestore} bind def
/D5 {gsave translate 45 rotate 0 0 S5 stroke grestore} bind def
/D6 {gsave translate 45 rotate 0 0 S6 stroke grestore} bind def
/D7 {gsave translate 45 rotate 0 0 S7 stroke grestore} bind def
/D8 {gsave translate 45 rotate 0 0 S8 stroke grestore} bind def
/D9 {gsave translate 45 rotate 0 0 S9 stroke grestore} bind def
/D10 {gsave translate 45 rotate 0 0 S10 stroke grestore} bind def
/D11 {gsave translate 45 rotate 0 0 S11 stroke grestore} bind def
/D12 {gsave translate 45 rotate 0 0 S12 stroke grestore} bind def
/D13 {gsave translate 45 rotate 0 0 S13 stroke grestore} bind def
/D14 {gsave translate 45 rotate 0 0 S14 stroke grestore} bind def
/D15 {gsave translate 45 rotate 0 0 S15 stroke grestore} bind def
/DiaE {stroke [] 0 setdash vpt add M
  hpt neg vpt neg V hpt vpt neg V
  hpt vpt V hpt neg vpt V closepath stroke} def
/BoxE {stroke [] 0 setdash exch hpt sub exch vpt add M
  0 vpt2 neg V hpt2 0 V 0 vpt2 V
  hpt2 neg 0 V closepath stroke} def
/TriUE {stroke [] 0 setdash vpt 1.12 mul add M
  hpt neg vpt -1.62 mul V
  hpt 2 mul 0 V
  hpt neg vpt 1.62 mul V closepath stroke} def
/TriDE {stroke [] 0 setdash vpt 1.12 mul sub M
  hpt neg vpt 1.62 mul V
  hpt 2 mul 0 V
  hpt neg vpt -1.62 mul V closepath stroke} def
/PentE {stroke [] 0 setdash gsave
  translate 0 hpt M 4 {72 rotate 0 hpt L} repeat
  closepath stroke grestore} def
/CircE {stroke [] 0 setdash 
  hpt 0 360 arc stroke} def
/Opaque {gsave closepath 1 setgray fill grestore 0 setgray closepath} def
/DiaW {stroke [] 0 setdash vpt add M
  hpt neg vpt neg V hpt vpt neg V
  hpt vpt V hpt neg vpt V Opaque stroke} def
/BoxW {stroke [] 0 setdash exch hpt sub exch vpt add M
  0 vpt2 neg V hpt2 0 V 0 vpt2 V
  hpt2 neg 0 V Opaque stroke} def
/TriUW {stroke [] 0 setdash vpt 1.12 mul add M
  hpt neg vpt -1.62 mul V
  hpt 2 mul 0 V
  hpt neg vpt 1.62 mul V Opaque stroke} def
/TriDW {stroke [] 0 setdash vpt 1.12 mul sub M
  hpt neg vpt 1.62 mul V
  hpt 2 mul 0 V
  hpt neg vpt -1.62 mul V Opaque stroke} def
/PentW {stroke [] 0 setdash gsave
  translate 0 hpt M 4 {72 rotate 0 hpt L} repeat
  Opaque stroke grestore} def
/CircW {stroke [] 0 setdash 
  hpt 0 360 arc Opaque stroke} def
/BoxFill {gsave Rec 1 setgray fill grestore} def
/Density {
  /Fillden exch def
  currentrgbcolor
  /ColB exch def /ColG exch def /ColR exch def
  /ColR ColR Fillden mul Fillden sub 1 add def
  /ColG ColG Fillden mul Fillden sub 1 add def
  /ColB ColB Fillden mul Fillden sub 1 add def
  ColR ColG ColB setrgbcolor} def
/BoxColFill {gsave Rec PolyFill} def
/PolyFill {gsave Density fill grestore grestore} def
/h {rlineto rlineto rlineto gsave closepath fill grestore} bind def
%
% PostScript Level 1 Pattern Fill routine for rectangles
% Usage: x y w h s a XX PatternFill
%	x,y = lower left corner of box to be filled
%	w,h = width and height of box
%	  a = angle in degrees between lines and x-axis
%	 XX = 0/1 for no/yes cross-hatch
%
/PatternFill {gsave /PFa [ 9 2 roll ] def
  PFa 0 get PFa 2 get 2 div add PFa 1 get PFa 3 get 2 div add translate
  PFa 2 get -2 div PFa 3 get -2 div PFa 2 get PFa 3 get Rec
  TransparentPatterns {} {gsave 1 setgray fill grestore} ifelse
  clip
  currentlinewidth 0.5 mul setlinewidth
  /PFs PFa 2 get dup mul PFa 3 get dup mul add sqrt def
  0 0 M PFa 5 get rotate PFs -2 div dup translate
  0 1 PFs PFa 4 get div 1 add floor cvi
	{PFa 4 get mul 0 M 0 PFs V} for
  0 PFa 6 get ne {
	0 1 PFs PFa 4 get div 1 add floor cvi
	{PFa 4 get mul 0 2 1 roll M PFs 0 V} for
 } if
  stroke grestore} def
%
/languagelevel where
 {pop languagelevel} {1} ifelse
dup 2 lt
	{/InterpretLevel1 true def
	 /InterpretLevel3 false def}
	{/InterpretLevel1 Level1 def
	 2 gt
	    {/InterpretLevel3 Level3 def}
	    {/InterpretLevel3 false def}
	 ifelse }
 ifelse
%
% PostScript level 2 pattern fill definitions
%
/Level2PatternFill {
/Tile8x8 {/PaintType 2 /PatternType 1 /TilingType 1 /BBox [0 0 8 8] /XStep 8 /YStep 8}
	bind def
/KeepColor {currentrgbcolor [/Pattern /DeviceRGB] setcolorspace} bind def
<< Tile8x8
 /PaintProc {0.5 setlinewidth pop 0 0 M 8 8 L 0 8 M 8 0 L stroke} 
>> matrix makepattern
/Pat1 exch def
<< Tile8x8
 /PaintProc {0.5 setlinewidth pop 0 0 M 8 8 L 0 8 M 8 0 L stroke
	0 4 M 4 8 L 8 4 L 4 0 L 0 4 L stroke}
>> matrix makepattern
/Pat2 exch def
<< Tile8x8
 /PaintProc {0.5 setlinewidth pop 0 0 M 0 8 L
	8 8 L 8 0 L 0 0 L fill}
>> matrix makepattern
/Pat3 exch def
<< Tile8x8
 /PaintProc {0.5 setlinewidth pop -4 8 M 8 -4 L
	0 12 M 12 0 L stroke}
>> matrix makepattern
/Pat4 exch def
<< Tile8x8
 /PaintProc {0.5 setlinewidth pop -4 0 M 8 12 L
	0 -4 M 12 8 L stroke}
>> matrix makepattern
/Pat5 exch def
<< Tile8x8
 /PaintProc {0.5 setlinewidth pop -2 8 M 4 -4 L
	0 12 M 8 -4 L 4 12 M 10 0 L stroke}
>> matrix makepattern
/Pat6 exch def
<< Tile8x8
 /PaintProc {0.5 setlinewidth pop -2 0 M 4 12 L
	0 -4 M 8 12 L 4 -4 M 10 8 L stroke}
>> matrix makepattern
/Pat7 exch def
<< Tile8x8
 /PaintProc {0.5 setlinewidth pop 8 -2 M -4 4 L
	12 0 M -4 8 L 12 4 M 0 10 L stroke}
>> matrix makepattern
/Pat8 exch def
<< Tile8x8
 /PaintProc {0.5 setlinewidth pop 0 -2 M 12 4 L
	-4 0 M 12 8 L -4 4 M 8 10 L stroke}
>> matrix makepattern
/Pat9 exch def
/Pattern1 {PatternBgnd KeepColor Pat1 setpattern} bind def
/Pattern2 {PatternBgnd KeepColor Pat2 setpattern} bind def
/Pattern3 {PatternBgnd KeepColor Pat3 setpattern} bind def
/Pattern4 {PatternBgnd KeepColor Landscape {Pat5} {Pat4} ifelse setpattern} bind def
/Pattern5 {PatternBgnd KeepColor Landscape {Pat4} {Pat5} ifelse setpattern} bind def
/Pattern6 {PatternBgnd KeepColor Landscape {Pat9} {Pat6} ifelse setpattern} bind def
/Pattern7 {PatternBgnd KeepColor Landscape {Pat8} {Pat7} ifelse setpattern} bind def
} def
%
%
%End of PostScript Level 2 code
%
/PatternBgnd {
  TransparentPatterns {} {gsave 1 setgray fill grestore} ifelse
} def
%
% Substitute for Level 2 pattern fill codes with
% grayscale if Level 2 support is not selected.
%
/Level1PatternFill {
/Pattern1 {0.250 Density} bind def
/Pattern2 {0.500 Density} bind def
/Pattern3 {0.750 Density} bind def
/Pattern4 {0.125 Density} bind def
/Pattern5 {0.375 Density} bind def
/Pattern6 {0.625 Density} bind def
/Pattern7 {0.875 Density} bind def
} def
%
% Now test for support of Level 2 code
%
Level1 {Level1PatternFill} {Level2PatternFill} ifelse
%
/Symbol-Oblique /Symbol findfont [1 0 .167 1 0 0] makefont
dup length dict begin {1 index /FID eq {pop pop} {def} ifelse} forall
currentdict end definefont pop
%
/MFshow {
   { dup 5 get 3 ge
     { 5 get 3 eq {gsave} {grestore} ifelse }
     {dup dup 0 get findfont exch 1 get scalefont setfont
     [ currentpoint ] exch dup 2 get 0 exch R dup 5 get 2 ne {dup dup 6
     get exch 4 get {textshow} {stringwidth pop 0 R} ifelse }if dup 5 get 0 eq
     {dup 3 get {2 get neg 0 exch R pop} {pop aload pop M} ifelse} {dup 5
     get 1 eq {dup 2 get exch dup 3 get exch 6 get stringwidth pop -2 div
     dup 0 R} {dup 6 get stringwidth pop -2 div 0 R 6 get
     textshow 2 index {aload pop M neg 3 -1 roll neg R pop pop} {pop pop pop
     pop aload pop M} ifelse }ifelse }ifelse }
     ifelse }
   forall} def
/Gswidth {dup type /stringtype eq {stringwidth} {pop (n) stringwidth} ifelse} def
/MFwidth {0 exch { dup 5 get 3 ge { 5 get 3 eq { 0 } { pop } ifelse }
 {dup 3 get{dup dup 0 get findfont exch 1 get scalefont setfont
     6 get Gswidth pop add} {pop} ifelse} ifelse} forall} def
/MLshow { currentpoint stroke M
  0 exch R
  Blacktext {gsave 0 setgray MFshow grestore} {MFshow} ifelse } bind def
/MRshow { currentpoint stroke M
  exch dup MFwidth neg 3 -1 roll R
  Blacktext {gsave 0 setgray MFshow grestore} {MFshow} ifelse } bind def
/MCshow { currentpoint stroke M
  exch dup MFwidth -2 div 3 -1 roll R
  Blacktext {gsave 0 setgray MFshow grestore} {MFshow} ifelse } bind def
/XYsave    { [( ) 1 2 true false 3 ()] } bind def
/XYrestore { [( ) 1 2 true false 4 ()] } bind def
Level1 SuppressPDFMark or 
{} {
/SDict 10 dict def
systemdict /pdfmark known not {
  userdict /pdfmark systemdict /cleartomark get put
} if
SDict begin [
  /Title (dmoff_plot_benp.eps)
  /Subject (gnuplot plot)
  /Creator (gnuplot 5.0 patchlevel 3)
  /Author (bperera)
%  /Producer (gnuplot)
%  /Keywords ()
  /CreationDate (Tue May 24 15:49:03 2016)
  /DOCINFO pdfmark
end
} ifelse
%
% Support for boxed text - Ethan A Merritt May 2005
%
/InitTextBox { userdict /TBy2 3 -1 roll put userdict /TBx2 3 -1 roll put
           userdict /TBy1 3 -1 roll put userdict /TBx1 3 -1 roll put
	   /Boxing true def } def
/ExtendTextBox { Boxing
    { gsave dup false charpath pathbbox
      dup TBy2 gt {userdict /TBy2 3 -1 roll put} {pop} ifelse
      dup TBx2 gt {userdict /TBx2 3 -1 roll put} {pop} ifelse
      dup TBy1 lt {userdict /TBy1 3 -1 roll put} {pop} ifelse
      dup TBx1 lt {userdict /TBx1 3 -1 roll put} {pop} ifelse
      grestore } if } def
/PopTextBox { newpath TBx1 TBxmargin sub TBy1 TBymargin sub M
               TBx1 TBxmargin sub TBy2 TBymargin add L
	       TBx2 TBxmargin add TBy2 TBymargin add L
	       TBx2 TBxmargin add TBy1 TBymargin sub L closepath } def
/DrawTextBox { PopTextBox stroke /Boxing false def} def
/FillTextBox { gsave PopTextBox 1 1 1 setrgbcolor fill grestore /Boxing false def} def
0 0 0 0 InitTextBox
/TBxmargin 20 def
/TBymargin 20 def
/Boxing false def
/textshow { ExtendTextBox Gshow } def
%
% redundant definitions for compatibility with prologue.ps older than 5.0.2
/LTB {BL [] LCb DL} def
/LTb {PL [] LCb DL} def
end
%%EndProlog
%%Page: 1 1
gnudict begin
gsave
doclip
50 50 translate
0.100 0.100 scale
0 setgray
newpath
(Times-Roman) findfont 140 scalefont setfont
BackgroundColor 0 lt 3 1 roll 0 lt exch 0 lt or or not {gsave BackgroundColor C clippath fill grestore} if
/Times-Roman findfont 140 scalefont setfont
/vshift -46 def
1.000 UL
LTb
LCb setrgbcolor
854 448 M
63 0 V
4590 0 R
-63 0 V
stroke
770 448 M
[ [(Times-Roman) 140.0 0.0 true true 0 (-0.015)]
] -46.7 MRshow
1.000 UL
LTb
LCb setrgbcolor
854 874 M
63 0 V
4590 0 R
-63 0 V
stroke
770 874 M
[ [(Times-Roman) 140.0 0.0 true true 0 (-0.01)]
] -46.7 MRshow
1.000 UL
LTb
LCb setrgbcolor
854 1301 M
63 0 V
4590 0 R
-63 0 V
stroke
770 1301 M
[ [(Times-Roman) 140.0 0.0 true true 0 (-0.005)]
] -46.7 MRshow
1.000 UL
LTb
LCb setrgbcolor
854 1727 M
63 0 V
4590 0 R
-63 0 V
stroke
770 1727 M
[ [(Times-Roman) 140.0 0.0 true true 0 ( 0)]
] -46.7 MRshow
1.000 UL
LTb
LCb setrgbcolor
854 2153 M
63 0 V
4590 0 R
-63 0 V
stroke
770 2153 M
[ [(Times-Roman) 140.0 0.0 true true 0 ( 0.005)]
] -46.7 MRshow
1.000 UL
LTb
LCb setrgbcolor
854 2579 M
63 0 V
4590 0 R
-63 0 V
stroke
770 2579 M
[ [(Times-Roman) 140.0 0.0 true true 0 ( 0.01)]
] -46.7 MRshow
1.000 UL
LTb
LCb setrgbcolor
854 3006 M
63 0 V
4590 0 R
-63 0 V
stroke
770 3006 M
[ [(Times-Roman) 140.0 0.0 true true 0 ( 0.015)]
] -46.7 MRshow
1.000 UL
LTb
LCb setrgbcolor
854 3432 M
63 0 V
4590 0 R
-63 0 V
stroke
770 3432 M
[ [(Times-Roman) 140.0 0.0 true true 0 ( 0.02)]
] -46.7 MRshow
1.000 UL
LTb
LCb setrgbcolor
854 448 M
0 63 V
0 2921 R
0 -63 V
stroke
854 308 M
[ [(Times-Roman) 140.0 0.0 true true 0 ( 50000)]
] -46.7 MCshow
1.000 UL
LTb
LCb setrgbcolor
1519 448 M
0 63 V
0 2921 R
0 -63 V
stroke
1519 308 M
[ [(Times-Roman) 140.0 0.0 true true 0 ( 51000)]
] -46.7 MCshow
1.000 UL
LTb
LCb setrgbcolor
2183 448 M
0 63 V
0 2921 R
0 -63 V
stroke
2183 308 M
[ [(Times-Roman) 140.0 0.0 true true 0 ( 52000)]
] -46.7 MCshow
1.000 UL
LTb
LCb setrgbcolor
2848 448 M
0 63 V
0 2921 R
0 -63 V
stroke
2848 308 M
[ [(Times-Roman) 140.0 0.0 true true 0 ( 53000)]
] -46.7 MCshow
1.000 UL
LTb
LCb setrgbcolor
3513 448 M
0 63 V
0 2921 R
0 -63 V
stroke
3513 308 M
[ [(Times-Roman) 140.0 0.0 true true 0 ( 54000)]
] -46.7 MCshow
1.000 UL
LTb
LCb setrgbcolor
4178 448 M
0 63 V
0 2921 R
0 -63 V
stroke
4178 308 M
[ [(Times-Roman) 140.0 0.0 true true 0 ( 55000)]
] -46.7 MCshow
1.000 UL
LTb
LCb setrgbcolor
4842 448 M
0 63 V
0 2921 R
0 -63 V
stroke
4842 308 M
[ [(Times-Roman) 140.0 0.0 true true 0 ( 56000)]
] -46.7 MCshow
1.000 UL
LTb
LCb setrgbcolor
5507 448 M
0 63 V
0 2921 R
0 -63 V
stroke
5507 308 M
[ [(Times-Roman) 140.0 0.0 true true 0 ( 57000)]
] -46.7 MCshow
1.000 UL
LTb
LCb setrgbcolor
1.000 UL
LTB
LCb setrgbcolor
854 3432 N
854 448 L
4653 0 V
0 2984 V
-4653 0 V
Z stroke
1.000 UP
1.000 UL
LTb
LCb setrgbcolor
LCb setrgbcolor
112 1940 M
currentpoint gsave translate -270 rotate 0 0 moveto
[ [(Times-Roman) 140.0 0.0 true true 0 (DM offset \(cm)]
[(Times-Roman) 112.0 70.0 true true 0 (-3)]
[(Times-Roman) 140.0 0.0 true true 0 ( pc\))]
] -60.7 MCshow
grestore
LTb
LCb setrgbcolor
3180 98 M
[ [(Times-Roman) 140.0 0.0 true true 0 (MJD)]
] -46.7 MCshow
LTb
% Begin plot #1
1.000 UP
1.000 UL
LTb
0.58 0.00 0.83 C /Times-Roman findfont 140 scalefont setfont
LCb setrgbcolor
4856 3299 M
('J0751+1807.dm' u 1:2:3) Rshow
1.000 UP
1.000 UL
LTb
0.58 0.00 0.83 C 4940 3299 M
399 0 V
-399 31 R
0 -62 V
399 62 R
0 -62 V
1335 2070 M
40 -15 V
40 110 V
40 -21 V
39 -10 V
40 -471 V
40 83 V
80 -328 V
40 652 V
40 -489 V
40 356 V
79 -216 V
40 8 V
40 221 V
40 -32 V
40 39 V
40 -253 V
40 -115 V
40 308 V
39 -4 V
40 91 V
40 676 V
40 -914 V
40 -91 V
40 206 V
40 -128 V
40 264 V
39 -171 V
40 2 V
40 -297 V
40 172 V
40 85 V
40 26 V
40 -1 V
40 -263 V
40 -70 V
39 66 V
40 104 V
40 -52 V
40 244 V
40 -650 V
80 169 V
279 336 V
40 2 V
119 -60 V
40 -114 V
40 125 V
80 396 V
40 -502 V
40 141 V
79 -115 V
80 61 V
40 22 V
40 465 V
40 -709 V
40 -186 V
159 431 V
40 -193 V
40 561 V
40 -894 V
40 410 V
199 -222 V
40 138 V
40 -147 V
40 415 V
40 -397 V
40 424 V
40 177 V
39 172 V
40 -890 V
40 1053 V
40 -815 V
40 247 V
40 -146 V
40 46 V
40 691 V
39 -475 V
40 -248 V
1335 1536 M
0 1069 V
1304 1536 M
62 0 V
-62 1069 R
62 0 V
9 -1084 R
0 1068 V
1344 1521 M
62 0 V
-62 1068 R
62 0 V
9 -870 R
0 893 V
-31 -893 R
62 0 V
-62 893 R
62 0 V
9 -907 R
0 878 V
-31 -878 R
62 0 V
stroke 1486 1705 M
-62 878 R
62 0 V
8 -913 R
0 927 V
-31 -927 R
62 0 V
-62 927 R
62 0 V
9 -1506 R
0 1144 V
1503 1091 M
62 0 V
-62 1144 R
62 0 V
9 -1079 R
0 1180 V
1543 1156 M
62 0 V
-62 1180 R
62 0 V
1654 966 M
0 904 V
1623 966 M
62 0 V
-62 904 R
62 0 V
9 -170 R
0 740 V
-31 -740 R
62 0 V
-62 740 R
62 0 V
9 -1963 R
0 2208 V
1703 477 M
62 0 V
-62 2208 R
62 0 V
9 -1112 R
0 728 V
-31 -728 R
62 0 V
-62 728 R
62 0 V
48 -960 R
0 760 V
-31 -760 R
62 0 V
-62 760 R
62 0 V
9 -692 R
0 640 V
-31 -640 R
62 0 V
-62 640 R
62 0 V
9 -413 R
0 629 V
-31 -629 R
62 0 V
-62 629 R
62 0 V
9 -670 R
0 646 V
-31 -646 R
62 0 V
-62 646 R
62 0 V
9 -692 R
0 817 V
-31 -817 R
62 0 V
-62 817 R
62 0 V
9 -992 R
0 661 V
-31 -661 R
62 0 V
-62 661 R
62 0 V
9 -776 R
0 661 V
-31 -661 R
62 0 V
-62 661 R
62 0 V
9 -343 R
0 640 V
-31 -640 R
62 0 V
-62 640 R
62 0 V
8 -621 R
0 593 V
-31 -593 R
62 0 V
-62 593 R
62 0 V
9 -521 R
0 633 V
-31 -633 R
62 0 V
-62 633 R
62 0 V
stroke 2243 2301 M
9 -116 R
0 949 V
-31 -949 R
62 0 V
-62 949 R
62 0 V
9 -1678 R
0 581 V
-31 -581 R
62 0 V
-62 581 R
62 0 V
9 -677 R
0 590 V
-31 -590 R
62 0 V
-62 590 R
62 0 V
9 -377 R
0 576 V
-31 -576 R
62 0 V
-62 576 R
62 0 V
9 -724 R
0 617 V
-31 -617 R
62 0 V
-62 617 R
62 0 V
9 -404 R
0 718 V
-31 -718 R
62 0 V
-62 718 R
62 0 V
8 -837 R
0 615 V
-31 -615 R
62 0 V
-62 615 R
62 0 V
9 -619 R
0 627 V
-31 -627 R
62 0 V
-62 627 R
62 0 V
9 -956 R
0 689 V
-31 -689 R
62 0 V
-62 689 R
62 0 V
9 -463 R
0 581 V
-31 -581 R
62 0 V
-62 581 R
62 0 V
9 -537 R
0 664 V
-31 -664 R
62 0 V
-62 664 R
62 0 V
9 -652 R
0 693 V
-31 -693 R
62 0 V
-62 693 R
62 0 V
9 -732 R
0 768 V
-31 -768 R
62 0 V
-62 768 R
62 0 V
9 -1025 R
0 756 V
-31 -756 R
62 0 V
-62 756 R
62 0 V
9 -775 R
0 654 V
-31 -654 R
62 0 V
-62 654 R
62 0 V
8 -573 R
0 624 V
-31 -624 R
62 0 V
-62 624 R
62 0 V
9 -533 R
0 651 V
-31 -651 R
62 0 V
-62 651 R
62 0 V
9 -769 R
0 783 V
stroke 2930 1990 M
-31 -783 R
62 0 V
-62 783 R
62 0 V
9 -506 R
0 716 V
-31 -716 R
62 0 V
-62 716 R
62 0 V
9 -1585 R
0 1154 V
2979 615 M
62 0 V
-62 1154 R
62 0 V
49 -727 R
0 638 V
-31 -638 R
62 0 V
-62 638 R
62 0 V
248 -676 R
0 1386 V
3338 1004 M
62 0 V
-62 1386 R
62 0 V
9 -1258 R
0 1135 V
3378 1132 M
62 0 V
-62 1135 R
62 0 V
88 -1028 R
0 800 V
-31 -800 R
62 0 V
-62 800 R
62 0 V
9 -868 R
0 709 V
-31 -709 R
62 0 V
-62 709 R
62 0 V
9 -705 R
0 950 V
-31 -950 R
62 0 V
-62 950 R
62 0 V
49 -540 R
0 922 V
-31 -922 R
62 0 V
-62 922 R
62 0 V
9 -1343 R
0 760 V
-31 -760 R
62 0 V
-62 760 R
62 0 V
9 -661 R
0 844 V
-31 -844 R
62 0 V
-62 844 R
62 0 V
48 -937 R
0 801 V
-31 -801 R
62 0 V
-62 801 R
62 0 V
49 -706 R
0 732 V
-31 -732 R
62 0 V
-62 732 R
62 0 V
9 -943 R
0 1198 V
3936 1054 M
62 0 V
-62 1198 R
62 0 V
9 -708 R
0 1147 V
3976 1544 M
62 0 V
-62 1147 R
62 0 V
9 -1790 R
0 1017 V
4016 901 M
62 0 V
-62 1017 R
62 0 V
9 -1070 R
0 751 V
4056 848 M
62 0 V
stroke 4118 848 M
-62 751 R
62 0 V
128 -330 R
0 770 V
-31 -770 R
62 0 V
-62 770 R
62 0 V
9 -999 R
0 841 V
-31 -841 R
62 0 V
-62 841 R
62 0 V
9 -412 R
0 1105 V
4295 1469 M
62 0 V
-62 1105 R
62 0 V
9 -1866 R
0 840 V
4335 708 M
62 0 V
-62 840 R
62 0 V
9 -359 R
0 697 V
-31 -697 R
62 0 V
-62 697 R
62 0 V
4605 936 M
0 760 V
4574 936 M
62 0 V
-62 760 R
62 0 V
9 -670 R
0 857 V
-31 -857 R
62 0 V
-62 857 R
62 0 V
9 -978 R
0 805 V
4654 905 M
62 0 V
-62 805 R
62 0 V
9 -410 R
0 844 V
-31 -844 R
62 0 V
-62 844 R
62 0 V
9 -1265 R
0 893 V
4734 879 M
62 0 V
-62 893 R
62 0 V
9 -512 R
0 977 V
-31 -977 R
62 0 V
-62 977 R
62 0 V
9 -733 R
0 843 V
-31 -843 R
62 0 V
-62 843 R
62 0 V
8 -771 R
0 1045 V
4853 1576 M
62 0 V
-62 1045 R
62 0 V
9 -1957 R
0 1089 V
4893 664 M
62 0 V
-62 1089 R
62 0 V
9 -60 R
0 1136 V
4933 1693 M
62 0 V
-62 1136 R
62 0 V
9 -1800 R
0 834 V
-31 -834 R
62 0 V
-62 834 R
62 0 V
9 -659 R
0 978 V
-31 -978 R
62 0 V
-62 978 R
62 0 V
stroke 5075 2182 M
9 -1218 R
0 1167 V
5053 964 M
62 0 V
-62 1167 R
62 0 V
9 -964 R
0 852 V
-31 -852 R
62 0 V
-62 852 R
62 0 V
9 -200 R
0 930 V
-31 -930 R
62 0 V
-62 930 R
62 0 V
8 -1489 R
0 1097 V
5172 1260 M
62 0 V
-62 1097 R
62 0 V
9 -1158 R
0 724 V
-31 -724 R
62 0 V
-62 724 R
62 0 V
1335 2070 Pls
1375 2055 Pls
1415 2165 Pls
1455 2144 Pls
1494 2134 Pls
1534 1663 Pls
1574 1746 Pls
1654 1418 Pls
1694 2070 Pls
1734 1581 Pls
1774 1937 Pls
1853 1721 Pls
1893 1729 Pls
1933 1950 Pls
1973 1918 Pls
2013 1957 Pls
2053 1704 Pls
2093 1589 Pls
2133 1897 Pls
2172 1893 Pls
2212 1984 Pls
2252 2660 Pls
2292 1746 Pls
2332 1655 Pls
2372 1861 Pls
2412 1733 Pls
2452 1997 Pls
2491 1826 Pls
2531 1828 Pls
2571 1531 Pls
2611 1703 Pls
2651 1788 Pls
2691 1814 Pls
2731 1813 Pls
2771 1550 Pls
2811 1480 Pls
2850 1546 Pls
2890 1650 Pls
2930 1598 Pls
2970 1842 Pls
3010 1192 Pls
3090 1361 Pls
3369 1697 Pls
3409 1699 Pls
3528 1639 Pls
3568 1525 Pls
3608 1650 Pls
3688 2046 Pls
3728 1544 Pls
3768 1685 Pls
3847 1570 Pls
3927 1631 Pls
3967 1653 Pls
4007 2118 Pls
4047 1409 Pls
4087 1223 Pls
4246 1654 Pls
4286 1461 Pls
4326 2022 Pls
4366 1128 Pls
4406 1538 Pls
4605 1316 Pls
4645 1454 Pls
4685 1307 Pls
4725 1722 Pls
4765 1325 Pls
4805 1749 Pls
4845 1926 Pls
4884 2098 Pls
4924 1208 Pls
4964 2261 Pls
5004 1446 Pls
5044 1693 Pls
5084 1547 Pls
5124 1593 Pls
5164 2284 Pls
5203 1809 Pls
5243 1561 Pls
5139 3299 Pls
% End plot #1
2.000 UL
LTb
LCb setrgbcolor
1.000 UL
LTB
LCb setrgbcolor
854 3432 N
854 448 L
4653 0 V
0 2984 V
-4653 0 V
Z stroke
1.000 UP
1.000 UL
LTb
LCb setrgbcolor
stroke
grestore
end
showpage
%%Trailer
%%DocumentFonts: Times-Roman
%%Pages: 1
