%!PS-Adobe-3.0 EPSF-3.0
%%For: bperera
%%Title: PGPLOT PostScript plot
%%Creator: PGPLOT [PSDRIV 6.6]
%%CreationDate: 26-May-2016 15:28
%%BoundingBox: (atend)
%%DocumentFonts: (atend)
%%LanguageLevel: 1
%%Orientation: Landscape
%%Pages: (atend)
%%EndComments
%%BeginProlog
/L {moveto rlineto currentpoint stroke moveto} bind def
/C {rlineto currentpoint stroke moveto} bind def
/D {moveto 0 0 rlineto currentpoint stroke moveto} bind def
/LW {5 mul setlinewidth} bind def
/BP {newpath moveto} bind def
/LP /rlineto load def
/EP {rlineto closepath eofill} bind def
/MB {gsave translate MFAC dup scale 1 setlinewidth 2 setlinecap 0 setlinejoin newpath} bind def
/ME /grestore load def
/CC {0 360 arc stroke} bind def
/FC {0 360 arc fill} bind def
/G {1024 div setgray} bind def
/K {3 -1 roll 1024 div 3 -1 roll 1024 div 3 -1 roll 1024 div setrgbcolor} bind def
% Uncomment next line to convert color to grey shades
%/K {3 -1 roll 3413 div 3 -1 roll 1739 div 3 -1 roll 9309 div add add setgray} bind def
%%EndProlog
%%BeginSetup
/#copies 1 def
%%EndSetup
 
%%Page: 1 1
%%BeginPageSetup
/PGPLOT save def
0.072 0.072 scale
8149 250 translate 90 rotate
1 setlinejoin 1 setlinecap 1 LW 1
%%EndPageSetup
%%PageBoundingBox: (atend)
1024 1024 1024 K 1 LW 0 0 BP 9749 0 LP 0 7799 LP -9749 0 EP 0 0 0 K
8286 0 975 1170 L -8286 0 9261 6629 L 0 -5459 C 0 90 980 1170 L 0 45 1393 1170 L 0 45 1807 1170 L 0 45 2221 1170 L 0 45 2635 1170 L
0 90 3049 1170 L 0 45 3463 1170 L 0 45 3877 1170 L 0 45 4290 1170 L 0 45 4704 1170 L 0 90 5118 1170 L 0 45 5532 1170 L
0 45 5946 1170 L 0 45 6360 1170 L 0 45 6773 1170 L 0 90 7187 1170 L 0 45 7601 1170 L 0 45 8015 1170 L 0 45 8429 1170 L
0 45 8843 1170 L 0 90 9257 1170 L 0 90 980 6539 L 0 45 1393 6584 L 0 45 1807 6584 L 0 45 2221 6584 L 0 45 2635 6584 L
0 90 3049 6539 L 0 45 3463 6584 L 0 45 3877 6584 L 0 45 4290 6584 L 0 45 4704 6584 L 0 90 5118 6539 L 0 45 5532 6584 L
0 45 5946 6584 L 0 45 6360 6584 L 0 45 6773 6584 L 0 90 7187 6539 L 0 45 7601 6584 L 0 45 8015 6584 L 0 45 8429 6584 L
0 45 8843 6584 L 0 90 9257 6539 L 108 0 686 990 L 0 6 842 1032 L 6 12 C 6 6 C 12 6 C 24 0 C 12 -6 C 6 -6 C 6 -12 C 0 -12 C -6 -12 C
-12 -18 C -60 -60 C 84 0 C -18 -6 992 1062 L -12 -18 C -6 -30 C 0 -18 C 6 -30 C 12 -18 C 18 -6 C 12 0 C 18 6 C 12 18 C 6 30 C 0 18 C
-6 30 C -12 18 C -18 6 C -12 0 C -18 -6 1112 1062 L -12 -18 C -6 -30 C 0 -18 C 6 -30 C 12 -18 C 18 -6 C 12 0 C 18 6 C 12 18 C 6 30 C
0 18 C -6 30 C -12 18 C -18 6 C -12 0 C -18 -6 1232 1062 L -12 -18 C -6 -30 C 0 -18 C 6 -30 C 12 -18 C 18 -6 C 12 0 C 18 6 C 12 18 C
6 30 C 0 18 C -6 30 C -12 18 C -18 6 C -12 0 C 108 0 2755 990 L 12 6 2923 1038 L 18 18 C 0 -126 C -18 -6 3061 1062 L -12 -18 C
-6 -30 C 0 -18 C 6 -30 C 12 -18 C 18 -6 C 12 0 C 18 6 C 12 18 C 6 30 C 0 18 C -6 30 C -12 18 C -18 6 C -12 0 C -18 -6 3181 1062 L
-12 -18 C -6 -30 C 0 -18 C 6 -30 C 12 -18 C 18 -6 C 12 0 C 18 6 C 12 18 C 6 30 C 0 18 C -6 30 C -12 18 C -18 6 C -12 0 C
-18 -6 3301 1062 L -12 -18 C -6 -30 C 0 -18 C 6 -30 C 12 -18 C 18 -6 C 12 0 C 18 6 C 12 18 C 6 30 C 0 18 C -6 30 C -12 18 C -18 6 C
-12 0 C -18 -6 5112 1062 L -12 -18 C -6 -30 C 0 -18 C 6 -30 C 12 -18 C 18 -6 C 12 0 C 18 6 C 12 18 C 6 30 C 0 18 C -6 30 C -12 18 C
-18 6 C -12 0 C 12 6 6983 1038 L 18 18 C 0 -126 C -18 -6 7121 1062 L -12 -18 C -6 -30 C 0 -18 C 6 -30 C 12 -18 C 18 -6 C 12 0 C
18 6 C 12 18 C 6 30 C 0 18 C -6 30 C -12 18 C -18 6 C -12 0 C -18 -6 7241 1062 L -12 -18 C -6 -30 C 0 -18 C 6 -30 C 12 -18 C 18 -6 C
12 0 C 18 6 C 12 18 C 6 30 C 0 18 C -6 30 C -12 18 C -18 6 C -12 0 C -18 -6 7361 1062 L -12 -18 C -6 -30 C 0 -18 C 6 -30 C 12 -18 C
18 -6 C 12 0 C 18 6 C 12 18 C 6 30 C 0 18 C -6 30 C -12 18 C -18 6 C -12 0 C 0 6 9041 1032 L 6 12 C 6 6 C 12 6 C 24 0 C 12 -6 C
6 -6 C 6 -12 C 0 -12 C -6 -12 C -12 -18 C -60 -60 C 84 0 C -18 -6 9191 1062 L -12 -18 C -6 -30 C 0 -18 C 6 -30 C 12 -18 C 18 -6 C
12 0 C 18 6 C 12 18 C 6 30 C 0 18 C -6 30 C -12 18 C -18 6 C -12 0 C -18 -6 9311 1062 L -12 -18 C -6 -30 C 0 -18 C 6 -30 C 12 -18 C
18 -6 C 12 0 C 18 6 C 12 18 C 6 30 C 0 18 C -6 30 C -12 18 C -18 6 C -12 0 C -18 -6 9431 1062 L -12 -18 C -6 -30 C 0 -18 C 6 -30 C
12 -18 C 18 -6 C 12 0 C 18 6 C 12 18 C 6 30 C 0 18 C -6 30 C -12 18 C -18 6 C -12 0 C 45 0 975 1307 L 45 0 975 1551 L
45 0 975 1795 L 45 0 975 2039 L 90 0 975 2283 L 45 0 975 2526 L 45 0 975 2770 L 45 0 975 3014 L 45 0 975 3258 L 90 0 975 3502 L
45 0 975 3746 L 45 0 975 3990 L 45 0 975 4233 L 45 0 975 4477 L 90 0 975 4721 L 45 0 975 4965 L 45 0 975 5209 L 45 0 975 5453 L
45 0 975 5697 L 90 0 975 5940 L 45 0 975 6184 L 45 0 975 6428 L 0 108 784 2026 L -6 12 736 2194 L -18 18 C 126 0 C 6 -18 712 2332 L
18 -12 C 30 -6 C 18 0 C 30 6 C 18 12 C 6 18 C 0 12 C -6 18 C -18 12 C -30 6 C -18 0 C -30 -6 C -18 -12 C -6 -18 C 0 -12 C
0 81 702 2416 L 63 -45 648 2573 L 0 68 C 94 0 648 2573 L 6 -18 712 3496 L 18 -12 C 30 -6 C 18 0 C 30 6 C 18 12 C 6 18 C 0 12 C
-6 18 C -18 12 C -30 6 C -18 0 C -30 -6 C -18 -12 C -6 -18 C 0 -12 C -6 12 736 4554 L -18 18 C 126 0 C 6 -18 712 4692 L 18 -12 C
30 -6 C 18 0 C 30 6 C 18 12 C 6 18 C 0 12 C -6 18 C -18 12 C -30 6 C -18 0 C -30 -6 C -18 -12 C -6 -18 C 0 -12 C 0 81 702 4776 L
63 -45 648 4934 L 0 67 C 94 0 648 4934 L -6 0 742 5636 L -12 6 C -6 6 C -6 12 C 0 24 C 6 12 C 6 6 C 12 6 C 12 0 C 12 -6 C 18 -12 C
60 -60 C 0 84 C 84 84 742 5756 L 84 -84 742 5840 L -6 12 736 5900 L -18 18 C 126 0 C 6 -18 712 6038 L 18 -12 C 30 -6 C 18 0 C 30 6 C
18 12 C 6 18 C 0 12 C -6 18 C -18 12 C -30 6 C -18 0 C -30 -6 C -18 -12 C -6 -18 C 0 -12 C 0 81 702 6122 L 63 -45 648 6279 L 0 68 C
94 0 648 6279 L
0 5459 9261 1170 L -48 0 9261 1583 L -48 0 9261 2063 L -48 0 9261 2542 L -48 0 9261 3022 L -97 0 9261 3502 L 6 -18 9389 3496 L
18 -12 C 30 -6 C 18 0 C 30 6 C 18 12 C 6 18 C 0 12 C -6 18 C -18 12 C -30 6 C -18 0 C -30 -6 C -18 -12 C -6 -18 C 0 -12 C
-48 0 9261 3982 L -48 0 9261 4461 L -48 0 9261 4941 L -48 0 9261 5421 L -97 0 9261 5901 L 6 -18 9389 5745 L 18 -12 C 30 -6 C 18 0 C
30 6 C 18 12 C 6 18 C 0 12 C -6 18 C -18 12 C -30 6 C -18 0 C -30 -6 C -18 -12 C -6 -18 C 0 -12 C 6 -6 9503 5841 L 6 6 C -6 6 C
-6 -6 C 6 -18 9389 5925 L 18 -12 C 30 -6 C 18 0 C 30 6 C 18 12 C 6 18 C 0 12 C -6 18 C -18 12 C -30 6 C -18 0 C -30 -6 C -18 -12 C
-6 -18 C 0 -12 C 0 -60 9389 6081 L 54 -6 C -6 6 C -6 18 C 0 18 C 6 18 C 12 12 C 18 6 C 12 0 C 18 -6 C 12 -12 C 6 -18 C 0 -18 C
-6 -18 C -6 -6 C -12 -6 C -48 0 9261 6380 L
61 0 9688 2730 L 0 54 9688 2730 L 6 18 C 6 6 C 12 6 C 12 0 C 12 -6 C 6 -6 C 6 -18 C 0 -54 C 1 0 9748 2772 L -7 -3 9749 2919 L
-6 -6 C -6 -12 C 0 -18 C 6 -12 C 12 -12 C 1 -1 C -12 -6 9748 3024 L -6 -18 C 0 -18 C 6 -18 C 12 -6 C 1 0 C 6 6 9688 3060 L -6 6 C
-6 -6 C 6 -6 C 19 0 9730 3066 L 61 0 9688 3180 L -12 -12 9748 3180 L -6 -12 C 0 -18 C 6 -12 C 12 -12 C 1 -1 C 19 0 9730 3228 L
19 0 9730 3294 L 19 0 9730 3408 L -12 -12 9748 3408 L -6 -12 C 0 -18 C 6 -12 C 12 -12 C 1 -1 C 61 0 9688 3456 L 6 6 9688 3594 L
-6 6 C -6 -6 C 6 -6 C 19 0 9730 3600 L 19 0 9730 3648 L -13 14 9749 3652 L -6 12 C 0 18 C 6 12 C 13 4 C 19 0 9730 3858 L
-12 12 9748 3858 L -6 12 C 0 17 C 6 12 C 12 12 C 1 1 C 19 0 9730 3971 L 19 0 9730 4037 L 61 0 9688 4085 L -12 -6 9748 4193 L
-6 -18 C 0 -18 C 6 -18 C 12 -6 C 1 1 C -7 -4 9749 4299 L -6 -6 C -6 -12 C 0 -18 C 6 -12 C 12 -12 C 1 0 C 19 0 9730 4439 L
-12 12 9748 4439 L -6 12 C 0 18 C 6 12 C 12 12 C 1 1 C -7 -4 9749 4617 L -6 -6 C -6 -12 C 0 -18 C 6 -12 C 12 -12 C 1 0 C
19 0 9730 4661 L -1 0 9749 4667 L -12 12 C -6 12 C 0 18 C 6 6 9688 4733 L -6 6 C -6 -6 C 6 -6 C 19 0 9730 4739 L 6 -12 9730 4811 L
12 -12 C 1 0 C -1 -1 9749 4854 L -12 -12 C -6 -12 C 0 -18 C 61 0 9688 4967 L -12 -12 9748 4967 L -6 -12 C 0 -18 C 6 -12 C 12 -12 C
1 0 C -12 -6 9748 5075 L -6 -18 C 0 -18 C 6 -18 C 12 -6 C 1 1 C
0 -96 3171 7145 L -6 -18 C -6 -6 C -12 -6 C -12 0 C -12 6 C -6 6 C -6 18 C 0 12 C 0 6 3219 7115 L 6 12 C 6 6 C 12 6 C 24 0 C 12 -6 C
6 -6 C 6 -12 C 0 -12 C -6 -12 C -12 -18 C -60 -60 C 84 0 C -18 -6 3369 7145 L -12 -18 C -6 -30 C 0 -18 C 6 -30 C 12 -18 C 18 -6 C
12 0 C 18 6 C 12 18 C 6 30 C 0 18 C -6 30 C -12 18 C -18 6 C -12 0 C 12 6 3471 7121 L 18 18 C 0 -126 C -6 -18 3651 7103 L -12 -12 C
-18 -6 C -6 0 C -18 6 C -12 12 C -6 18 C 0 6 C 6 18 C 12 12 C 18 6 C 6 0 C 18 -6 C 12 -12 C 6 -24 C 0 -30 C -6 -30 C -12 -18 C
-18 -6 C -12 0 C -18 6 C -6 12 C 0 -108 3753 7127 L 108 0 3699 7073 L 0 6 3855 7115 L 6 12 C 6 6 C 12 6 C 24 0 C 12 -6 C 6 -6 C
6 -12 C 0 -12 C -6 -12 C -12 -18 C -60 -60 C 84 0 C -60 -84 4029 7145 L 90 0 C 0 -126 4029 7145 L 0 6 4095 7115 L 6 12 C 6 6 C
12 6 C 24 0 C 12 -6 C 6 -6 C 6 -12 C 0 -12 C -6 -12 C -12 -18 C -60 -60 C 84 0 C -60 0 4281 7145 L -6 -54 C 6 6 C 18 6 C 18 0 C
18 -6 C 12 -12 C 6 -18 C 0 -12 C -6 -18 C -12 -12 C -18 -6 C -18 0 C -18 6 C -6 6 C -6 12 C -12 -12 4473 7169 L -12 -18 C -12 -24 C
-6 -30 C 0 -24 C 6 -30 C 12 -24 C 12 -18 C 12 -12 C 30 -126 4503 7145 L -30 -126 4563 7145 L 30 -126 4563 7145 L
-30 -126 4623 7145 L 0 -84 4659 7103 L 6 18 4659 7067 L 12 12 C 12 6 C 18 0 C 0 -84 4737 7103 L 18 18 4737 7079 L 12 6 C 18 0 C
12 -6 C 6 -18 C 0 -60 C 18 18 4803 7079 L 12 6 C 18 0 C 12 -6 C 6 -18 C 0 -60 C -6 12 4977 7085 L -18 6 C -18 0 C -18 -6 C -6 -12 C
6 -12 C 12 -6 C 30 -6 C 12 -6 C 6 -12 C 0 -6 C -6 -12 C -18 -6 C -18 0 C -18 6 C -6 12 C 108 0 5115 7091 L 108 0 5115 7055 L
-6 -18 5439 7103 L -12 -12 C -18 -6 C -6 0 C -18 6 C -12 12 C -6 18 C 0 6 C 6 18 C 12 12 C 18 6 C 6 0 C 18 -6 C 12 -12 C 6 -24 C
0 -30 C -6 -30 C -12 -18 C -18 -6 C -12 0 C -18 6 C -6 12 C -6 -6 5493 7031 L 6 -6 C 6 6 C -6 6 C -60 0 5613 7145 L -6 -54 C 6 6 C
18 6 C 18 0 C 18 -6 C 12 -12 C 6 -18 C 0 -12 C -6 -18 C -12 -12 C -18 -6 C -18 0 C -18 6 C -6 6 C -6 12 C 0 6 5667 7115 L 6 12 C
6 6 C 12 6 C 24 0 C 12 -6 C 6 -6 C 6 -12 C 0 -12 C -6 -12 C -12 -18 C -60 -60 C 84 0 C -18 -6 5811 7145 L -6 -12 C 0 -12 C 6 -12 C
12 -6 C 24 -6 C 18 -6 C 12 -12 C 6 -12 C 0 -18 C -6 -12 C -6 -6 C -18 -6 C -24 0 C -18 6 C -6 6 C -6 12 C 0 18 C 6 12 C 12 12 C
18 6 C 24 6 C 12 6 C 6 12 C 0 12 C -6 12 C -18 6 C -24 0 C -36 -126 6021 7103 L -6 -30 6015 7079 L 0 -18 C 12 -12 C 12 0 C 12 6 C
12 12 C 12 24 C -12 -42 6081 7103 L -6 -24 C 0 -12 C 6 -6 C 12 0 C 12 12 C 6 12 C -6 12 6189 7085 L -18 6 C -18 0 C -18 -6 C
-6 -12 C 6 -12 C 12 -6 C 30 -6 C 12 -6 C 6 -12 C 0 -6 C -6 -12 C -18 -6 C -18 0 C -18 6 C -6 12 C 12 -12 6225 7169 L 12 -18 C
12 -24 C 6 -30 C 0 -24 C -6 -30 C -12 -24 C -12 -18 C -12 -12 C 0 -126 6411 7103 L 12 12 6411 7085 L 12 6 C 18 0 C 12 -6 C 12 -12 C
6 -18 C 0 -12 C -6 -18 C -12 -12 C -12 -6 C -18 0 C -12 6 C -12 12 C -12 -6 6549 7103 L -12 -12 C -6 -18 C 0 -12 C 6 -18 C 12 -12 C
12 -6 C 18 0 C 12 6 C 12 12 C 6 18 C 0 12 C -6 18 C -12 12 C -12 6 C -18 0 C -6 12 6699 7085 L -18 6 C -18 0 C -18 -6 C -6 -12 C
6 -12 C 12 -6 C 30 -6 C 12 -6 C 6 -12 C 0 -6 C -6 -12 C -18 -6 C -18 0 C -18 6 C -6 12 C 0 -102 6747 7145 L 6 -18 C 12 -6 C 12 0 C
42 0 6729 7103 L 108 0 6813 7073 L -12 0 7005 7145 L -12 -6 C -6 -18 C 0 -102 C 42 0 6957 7103 L 6 -6 7035 7145 L 6 6 C -6 6 C
-6 -6 C 0 -84 7041 7103 L 0 -102 7095 7145 L 6 -18 C 12 -6 C 12 0 C 42 0 7077 7103 L 0 -126 4491 672 L 48 -126 4491 672 L
-48 -126 4587 672 L 0 -126 4587 672 L 0 -96 4683 672 L -6 -18 C -6 -6 C -12 -6 C -12 0 C -12 6 C -6 6 C -6 18 C 0 12 C
0 -126 4731 672 L 42 0 4731 672 L 18 -6 C 12 -12 C 6 -12 C 6 -18 C 0 -30 C -6 -18 C -6 -12 C -12 -12 C -18 -6 C -42 0 C
108 0 4857 600 L -60 0 5079 672 L -6 -54 C 6 6 C 18 6 C 18 0 C 18 -6 C 12 -12 C 6 -18 C 0 -12 C -6 -18 C -12 -12 C -18 -6 C -18 0 C
-18 6 C -6 6 C -6 12 C -60 0 5199 672 L -6 -54 C 6 6 C 18 6 C 18 0 C 18 -6 C 12 -12 C 6 -18 C 0 -12 C -6 -18 C -12 -12 C -18 -6 C
-18 0 C -18 6 C -6 6 C -6 12 C 12 6 5265 648 L 18 18 C 0 -126 C 12 6 5385 648 L 18 18 C 0 -126 C -6 -18 5565 630 L -12 -12 C
-18 -6 C -6 0 C -18 6 C -12 12 C -6 18 C 0 6 C 6 18 C 12 12 C 18 6 C 6 0 C 18 -6 C 12 -12 C 6 -24 C 0 -30 C -6 -30 C -12 -18 C
-18 -6 C -12 0 C -18 6 C -6 12 C -6 -6 5619 558 L 6 -6 C 6 6 C -6 6 C -6 -18 5745 630 L -12 -12 C -18 -6 C -6 0 C -18 6 C -12 12 C
-6 18 C 0 6 C 6 18 C 12 12 C 18 6 C 6 0 C 18 -6 C 12 -12 C 6 -24 C 0 -30 C -6 -30 C -12 -18 C -18 -6 C -12 0 C -18 6 C -6 12 C
126 0 420 2895 L 0 54 420 2895 L 6 18 C 6 6 C 12 6 C 18 0 C 12 -6 C 6 -6 C 6 -18 C 0 -54 C 6 -12 462 3045 L 12 -12 C 18 -6 C 12 0 C
18 6 C 12 12 C 6 12 C 0 18 C -6 12 C -12 12 C -18 6 C -12 0 C -18 -6 C -12 -12 C -6 -12 C 0 -18 C -12 -6 480 3195 L -6 -18 C 0 -18 C
6 -18 C 12 -6 C 12 6 C 6 12 C 6 30 C 6 12 C 12 6 C 6 0 C 12 -6 C 6 -18 C 0 -18 C -6 -18 C -12 -6 C 102 0 420 3243 L 18 6 C 6 12 C
0 12 C 0 42 462 3225 L 0 -12 420 3345 L 6 -12 C 18 -6 C 102 0 C 0 42 462 3297 L 6 6 420 3375 L -6 6 C -6 -6 C 6 -6 C 84 0 462 3381 L
102 0 420 3435 L 18 6 C 6 12 C 0 12 C 0 42 462 3417 L 126 0 420 3597 L 0 54 420 3597 L 6 18 C 6 6 C 12 6 C 12 0 C 12 -6 C 6 -6 C
6 -18 C 0 -54 C 66 42 480 3639 L 0 72 498 3717 L -12 0 C -12 -6 C -6 -6 C -6 -12 C 0 -18 C 6 -12 C 12 -12 C 18 -6 C 12 0 C 18 6 C
12 12 C 6 12 C 0 18 C -6 12 C -12 12 C -12 -6 480 3891 L -6 -18 C 0 -18 C 6 -18 C 12 -6 C 12 6 C 6 12 C 6 30 C 6 12 C 12 6 C 6 0 C
12 -6 C 6 -18 C 0 -18 C -6 -18 C -12 -6 C 6 6 420 3926 L -6 6 C -6 -6 C 6 -6 C 84 0 462 3932 L 126 0 420 4046 L -12 -12 480 4046 L
-6 -12 C 0 -18 C 6 -12 C 12 -12 C 18 -6 C 12 0 C 18 6 C 12 12 C 6 12 C 0 18 C -6 12 C -12 12 C 60 0 462 4094 L 18 6 C 6 12 C 0 18 C
-6 12 C -18 18 C 84 0 462 4160 L 84 0 462 4274 L -12 -12 480 4274 L -6 -12 C 0 -18 C 6 -12 C 12 -12 C 18 -6 C 12 0 C 18 6 C 12 12 C
6 12 C 0 18 C -6 12 C -12 12 C 126 0 420 4322 L 12 -12 396 4508 L 18 -12 C 24 -12 C 30 -6 C 24 0 C 30 6 C 24 12 C 18 12 C 12 12 C
-12 -6 480 4610 L -6 -18 C 0 -18 C 6 -18 C 12 -6 C 12 6 C 6 12 C 6 30 C 6 12 C 12 6 C 6 0 C 12 -6 C 6 -18 C 0 -18 C -6 -18 C
-12 -6 C 0 72 498 4646 L -12 0 C -12 -6 C -6 -6 C -6 -12 C 0 -18 C 6 -12 C 12 -12 C 18 -6 C 12 0 C 18 6 C 12 12 C 6 12 C 0 18 C
-6 12 C -12 12 C -12 -12 480 4826 L -6 -12 C 0 -18 C 6 -12 C 12 -12 C 18 -6 C 12 0 C 18 6 C 12 12 C 6 12 C 0 18 C -6 12 C -12 12 C
12 12 396 4862 L 18 12 C 24 12 C 30 6 C 24 0 C 30 -6 C 24 -12 C 18 -12 C 12 -12 C
1024 0 0 K 0 1024 0 K
/M16 {MB -4 -4 moveto 0 8 rlineto 8 0 rlineto 0 -8                              
rlineto closepath fill ME} bind def                                             
/MFAC      5.999 def    
1665 3771 M16 2142 3588 M16 2565 1740 M16 2627 3539 M16 2670 3452 M16 2681 4006 M16 2718 3522 M16 2720 3698 M16 2780 3787 M16
2835 3162 M16 2854 3451 M16 3758 3010 M16 3838 3988 M16 4036 3381 M16 4226 3538 M16 4266 3408 M16 4385 3751 M16 4387 2328 M16
4453 3451 M16 4509 3596 M16 4786 3551 M16 4827 3590 M16 4880 3417 M16 4909 3068 M16 4953 3560 M16 4955 3555 M16 4971 3239 M16
4980 3284 M16 4986 3474 M16 5010 3567 M16 5067 3264 M16 5228 3807 M16 5248 4531 M16 5294 4278 M16 5329 3850 M16 5469 3486 M16
5506 3503 M16 5543 4026 M16 5597 3685 M16 5691 3224 M16 5721 3398 M16 5791 3562 M16 5811 3588 M16 5813 3672 M16 5822 3256 M16
5830 2958 M16 5847 3186 M16 5876 3614 M16 5890 4941 M16 5892 3436 M16 5966 3501 M16 6036 3903 M16 6082 3415 M16 6101 4055 M16
6138 3262 M16 6174 3506 M16 6191 4966 M16 6234 3574 M16 6270 3161 M16 6294 3531 M16 6365 3470 M16 6403 3508 M16 6405 3470 M16
6465 3918 M16 6478 3491 M16 6493 2954 M16 6589 3889 M16 6633 3616 M16 6665 3030 M16 6687 3025 M16 6699 6174 M16 6727 3715 M16
6732 1625 M16 6759 3804 M16 6775 2939 M16 6792 3928 M16 6796 4743 M16 6814 3721 M16 6818 3526 M16 6827 3525 M16 6843 3580 M16
6857 3784 M16 6860 4519 M16 6890 3420 M16 6896 3514 M16 6907 3495 M16 7029 2558 M16 7033 3181 M16 7072 3554 M16 7074 3153 M16
7093 3486 M16 7143 2913 M16 7178 3847 M16 7227 3232 M16 7231 3256 M16 7258 3666 M16 7283 3623 M16 7310 3358 M16 7342 3407 M16
7398 1884 M16 7454 3385 M16 7477 3528 M16 7646 3376 M16 7714 3335 M16 7780 3146 M16 7816 3576 M16 7836 3384 M16 7879 3288 M16
7906 3527 M16 7933 4047 M16 7945 3724 M16 7997 2653 M16 8011 3685 M16 8025 3657 M16 8048 3692 M16 8080 3350 M16 8098 3116 M16
8127 2978 M16 8191 3533 M16 8222 4011 M16 8267 3124 M16 8313 3329 M16 8316 3500 M16 8380 3650 M16 8395 3469 M16 8442 3475 M16
8453 3642 M16 8521 3367 M16 8554 3032 M16 8571 3546 M16
45 0 1643 3490 L 0 562 1665 3490 L 45 0 1643 4052 L 45 0 2120 2644 L 0 1889 2142 2644 L 45 0 2120 4533 L 0 1322 2565 1170 L
45 0 2543 2492 L 45 0 2605 3434 L 0 210 2627 3434 L 45 0 2605 3644 L 45 0 2648 3255 L 0 393 2670 3255 L 45 0 2648 3648 L
45 0 2658 2742 L 0 2529 2681 2742 L 45 0 2658 5271 L 45 0 2695 3117 L 0 810 2718 3117 L 45 0 2695 3927 L 45 0 2697 3418 L
0 561 2720 3418 L 45 0 2697 3979 L 45 0 2757 2787 L 0 1999 2780 2787 L 45 0 2757 4786 L 45 0 2813 2370 L 0 1583 2835 2370 L
45 0 2813 3953 L 45 0 2832 3281 L 0 340 2854 3281 L 45 0 2832 3621 L 45 0 3735 2365 L 0 1290 3758 2365 L 45 0 3735 3655 L
45 0 3816 3495 L 0 986 3838 3495 L 45 0 3816 4481 L 45 0 4014 3274 L 0 213 4036 3274 L 45 0 4014 3487 L 45 0 4204 3445 L
0 186 4226 3445 L 45 0 4204 3631 L 45 0 4243 3206 L 0 404 4266 3206 L 45 0 4243 3610 L 45 0 4363 3631 L 0 239 4385 3631 L
45 0 4363 3870 L 45 0 4365 1783 L 0 1089 4387 1783 L 45 0 4365 2872 L 45 0 4431 3398 L 0 107 4453 3398 L 45 0 4431 3505 L
45 0 4487 3432 L 0 328 4509 3432 L 45 0 4487 3760 L 45 0 4763 3488 L 0 125 4786 3488 L 45 0 4763 3613 L 45 0 4804 3508 L
0 164 4827 3508 L 45 0 4804 3672 L 45 0 4858 3320 L 0 194 4880 3320 L 45 0 4858 3514 L 45 0 4887 2750 L 0 636 4909 2750 L
45 0 4887 3386 L 45 0 4930 3498 L 0 124 4953 3498 L 45 0 4930 3622 L 45 0 4932 3092 L 0 927 4955 3092 L 45 0 4932 4019 L
45 0 4949 3031 L 0 415 4971 3031 L 45 0 4949 3446 L 45 0 4958 3036 L 0 496 4980 3036 L 45 0 4958 3532 L 45 0 4963 3201 L
0 546 4986 3201 L 45 0 4963 3747 L 45 0 4988 3490 L 0 154 5010 3490 L 45 0 4988 3644 L 45 0 5044 2767 L 0 994 5067 2767 L
45 0 5044 3761 L 45 0 5205 3420 L 0 774 5228 3420 L 45 0 5205 4194 L 45 0 5226 3436 L 0 2191 5248 3436 L 45 0 5226 5627 L
45 0 5271 3452 L 0 1652 5294 3452 L 45 0 5271 5104 L 45 0 5306 3250 L 0 1199 5329 3250 L 45 0 5306 4449 L 45 0 5447 3374 L
0 223 5469 3374 L 45 0 5447 3597 L 45 0 5483 3478 L 0 50 5506 3478 L 45 0 5483 3528 L 45 0 5521 3374 L 0 1305 5543 3374 L
45 0 5521 4679 L 45 0 5574 3574 L 0 222 5597 3574 L 45 0 5574 3796 L 45 0 5668 2113 L 0 2222 5691 2113 L 45 0 5668 4335 L
45 0 5698 2519 L 0 1757 5721 2519 L 45 0 5698 4276 L 45 0 5769 2794 L 0 1536 5791 2794 L 45 0 5769 4330 L 45 0 5789 3168 L
0 841 5811 3168 L 45 0 5789 4009 L 45 0 5791 3403 L 0 538 5813 3403 L 45 0 5791 3941 L 45 0 5799 2447 L 0 1618 5822 2447 L
45 0 5799 4065 L 45 0 5807 2553 L 0 810 5830 2553 L 45 0 5807 3363 L 45 0 5824 2962 L 0 449 5847 2962 L 45 0 5824 3411 L
45 0 5853 3400 L 0 429 5876 3400 L 45 0 5853 3829 L 45 0 5867 4350 L 0 1182 5890 4350 L 45 0 5867 5532 L 45 0 5869 3058 L
0 756 5892 3058 L 45 0 5869 3814 L 45 0 5943 3466 L 0 70 5966 3466 L 45 0 5943 3536 L 45 0 6014 3706 L 0 394 6036 3706 L
45 0 6014 4100 L 45 0 6060 3228 L 0 373 6082 3228 L 45 0 6060 3601 L 45 0 6078 3792 L 0 527 6101 3792 L 45 0 6078 4319 L
45 0 6115 2947 L 0 629 6138 2947 L 45 0 6115 3576 L 45 0 6152 3468 L 0 75 6174 3468 L 45 0 6152 3543 L 45 0 6169 3701 L
0 2530 6191 3701 L 45 0 6169 6231 L 45 0 6212 3442 L 0 264 6234 3442 L 45 0 6212 3706 L 45 0 6247 2532 L 0 1258 6270 2532 L
45 0 6247 3790 L 45 0 6272 3488 L 0 86 6294 3488 L 45 0 6272 3574 L 45 0 6342 3397 L 0 146 6365 3397 L 45 0 6342 3543 L
45 0 6381 3424 L 0 168 6403 3424 L 45 0 6381 3592 L 45 0 6383 3098 L 0 744 6405 3098 L 45 0 6383 3842 L 45 0 6443 3436 L
0 965 6465 3436 L 45 0 6443 4401 L 45 0 6455 3425 L 0 132 6478 3425 L 45 0 6455 3557 L 45 0 6470 2141 L 0 1626 6493 2141 L
45 0 6470 3767 L 45 0 6567 3376 L 0 1026 6589 3376 L 45 0 6567 4402 L 45 0 6611 3261 L 0 711 6633 3261 L 45 0 6611 3972 L
45 0 6643 2713 L 0 634 6665 2713 L 45 0 6643 3347 L 45 0 6664 2050 L 0 1949 6687 2050 L 45 0 6664 3999 L 45 0 6677 4996 L
0 1633 6699 4996 L 45 0 6705 3568 L 0 295 6727 3568 L 45 0 6705 3863 L 0 1450 6732 1170 L 45 0 6710 2620 L 45 0 6736 3259 L
0 1090 6759 3259 L 45 0 6736 4349 L 45 0 6753 2115 L 0 1649 6775 2115 L 45 0 6753 3764 L 45 0 6769 3153 L 0 1551 6792 3153 L
45 0 6769 4704 L 45 0 6773 4061 L 0 1363 6796 4061 L 45 0 6773 5424 L 45 0 6792 3604 L 0 235 6814 3604 L 45 0 6792 3839 L
45 0 6796 3353 L 0 346 6818 3353 L 45 0 6796 3699 L 45 0 6804 3130 L 0 789 6827 3130 L 45 0 6804 3919 L 45 0 6820 3373 L
0 415 6843 3373 L 45 0 6820 3788 L 45 0 6835 3365 L 0 837 6857 3365 L 45 0 6835 4202 L 45 0 6837 3727 L 0 1584 6860 3727 L
45 0 6837 5311 L 45 0 6868 3330 L 0 180 6890 3330 L 45 0 6868 3510 L 45 0 6873 3292 L 0 443 6896 3292 L 45 0 6873 3735 L
45 0 6884 3434 L 0 121 6907 3434 L 45 0 6884 3555 L 45 0 7007 1577 L 0 1961 7029 1577 L 45 0 7007 3538 L 45 0 7010 2215 L
0 1931 7033 2215 L 45 0 7010 4146 L 45 0 7050 3415 L 0 278 7072 3415 L 45 0 7050 3693 L 45 0 7052 2642 L 0 1022 7074 2642 L
45 0 7052 3664 L 45 0 7070 3414 L 0 144 7093 3414 L 45 0 7070 3558 L 45 0 7120 2150 L 0 1525 7143 2150 L 45 0 7120 3675 L
45 0 7155 3033 L 0 1628 7178 3033 L 45 0 7155 4661 L 45 0 7205 2596 L 0 1272 7227 2596 L 45 0 7205 3868 L 45 0 7208 3075 L
0 362 7231 3075 L 45 0 7208 3437 L 45 0 7236 3554 L 0 224 7258 3554 L 45 0 7236 3778 L 45 0 7260 3427 L 0 392 7283 3427 L
45 0 7260 3819 L 45 0 7287 2715 L 0 1286 7310 2715 L 45 0 7287 4001 L 45 0 7320 3304 L 0 206 7342 3304 L 45 0 7320 3510 L
45 0 7376 1188 L 0 1391 7398 1188 L 45 0 7376 2579 L 45 0 7432 2627 L 0 1516 7454 2627 L 45 0 7432 4143 L 45 0 7455 3399 L
0 258 7477 3399 L 45 0 7455 3657 L 45 0 7624 2831 L 0 1090 7646 2831 L 45 0 7624 3921 L 45 0 7692 3005 L 0 660 7714 3005 L
45 0 7692 3665 L 45 0 7758 2583 L 0 1126 7780 2583 L 45 0 7758 3709 L 45 0 7793 2620 L 0 1912 7816 2620 L 45 0 7793 4532 L
45 0 7813 3112 L 0 543 7836 3112 L 45 0 7813 3655 L 45 0 7856 2859 L 0 859 7879 2859 L 45 0 7856 3718 L 45 0 7884 3485 L
0 83 7906 3485 L 45 0 7884 3568 L 45 0 7911 3403 L 0 1288 7933 3403 L 45 0 7911 4691 L 45 0 7922 3280 L 0 887 7945 3280 L
45 0 7922 4167 L 45 0 7975 1309 L 0 2689 7997 1309 L 45 0 7975 3998 L 45 0 7988 2887 L 0 1597 8011 2887 L 45 0 7988 4484 L
45 0 8003 3531 L 0 251 8025 3531 L 45 0 8003 3782 L 45 0 8026 3542 L 0 301 8048 3542 L 45 0 8026 3843 L 45 0 8057 3099 L
0 502 8080 3099 L 45 0 8057 3601 L 45 0 8075 2584 L 0 1064 8098 2584 L 45 0 8075 3648 L 45 0 8105 2780 L 0 395 8127 2780 L
45 0 8105 3175 L 45 0 8169 2854 L 0 1357 8191 2854 L 45 0 8169 4211 L 45 0 8199 3686 L 0 650 8222 3686 L 45 0 8199 4336 L
45 0 8244 2879 L 0 490 8267 2879 L 45 0 8244 3369 L 45 0 8290 2784 L 0 1091 8313 2784 L 45 0 8290 3875 L 45 0 8294 3364 L
0 271 8316 3364 L 45 0 8294 3635 L 45 0 8358 3520 L 0 261 8380 3520 L 45 0 8358 3781 L 45 0 8373 3293 L 0 353 8395 3293 L
45 0 8373 3646 L 45 0 8420 3251 L 0 449 8442 3251 L 45 0 8420 3700 L 45 0 8430 3273 L 0 737 8453 3273 L 45 0 8430 4010 L
45 0 8498 3134 L 0 467 8521 3134 L 45 0 8498 3601 L 45 0 8531 2150 L 0 1764 8554 2150 L 45 0 8531 3914 L 45 0 8548 2816 L
0 1460 8571 2816 L 45 0 8548 4276 L
1024 0 1024 K 0 1024 1024 K 0 0 0 K
PGPLOT restore showpage
%%PageTrailer
%%PageBoundingBox: 24 17 588 721
 
%%Trailer
%%BoundingBox: 24 17 588 721
%%DocumentFonts: 
%%Pages: 1
%%EOF
