%!PS-Adobe-3.0 EPSF-3.0
%%For: bperera
%%Title: PGPLOT PostScript plot
%%Creator: PGPLOT [PSDRIV 6.6]
%%CreationDate: 24-May-2016 14:23
%%BoundingBox: (atend)
%%DocumentFonts: (atend)
%%LanguageLevel: 1
%%Orientation: Landscape
%%Pages: (atend)
%%EndComments
%%BeginProlog
/L {moveto rlineto currentpoint stroke moveto} bind def
/C {rlineto currentpoint stroke moveto} bind def
/D {moveto 0 0 rlineto currentpoint stroke moveto} bind def
/LW {5 mul setlinewidth} bind def
/BP {newpath moveto} bind def
/LP /rlineto load def
/EP {rlineto closepath eofill} bind def
/MB {gsave translate MFAC dup scale 1 setlinewidth 2 setlinecap 0 setlinejoin newpath} bind def
/ME /grestore load def
/CC {0 360 arc stroke} bind def
/FC {0 360 arc fill} bind def
/G {1024 div setgray} bind def
/K {3 -1 roll 1024 div 3 -1 roll 1024 div 3 -1 roll 1024 div setrgbcolor} bind def
% Uncomment next line to convert color to grey shades
%/K {3 -1 roll 3413 div 3 -1 roll 1739 div 3 -1 roll 9309 div add add setgray} bind def
%%EndProlog
%%BeginSetup
/#copies 1 def
%%EndSetup
 
%%Page: 1 1
%%BeginPageSetup
/PGPLOT save def
0.072 0.072 scale
8149 250 translate 90 rotate
1 setlinejoin 1 setlinecap 1 LW 1
%%EndPageSetup
%%PageBoundingBox: (atend)
1024 1024 1024 K 1 LW 0 0 BP 9749 0 LP 0 7799 LP -9749 0 EP 0 0 0 K
8286 0 975 1170 L -8286 0 9261 6629 L 0 -5459 C 0 90 1091 1170 L 0 45 1494 1170 L 0 45 1897 1170 L 0 45 2299 1170 L 0 45 2702 1170 L
0 90 3105 1170 L 0 45 3507 1170 L 0 45 3910 1170 L 0 45 4313 1170 L 0 45 4715 1170 L 0 90 5118 1170 L 0 45 5521 1170 L
0 45 5923 1170 L 0 45 6326 1170 L 0 45 6729 1170 L 0 90 7132 1170 L 0 45 7534 1170 L 0 45 7937 1170 L 0 45 8340 1170 L
0 45 8742 1170 L 0 90 9145 1170 L 0 90 1091 6539 L 0 45 1494 6584 L 0 45 1897 6584 L 0 45 2299 6584 L 0 45 2702 6584 L
0 90 3105 6539 L 0 45 3507 6584 L 0 45 3910 6584 L 0 45 4313 6584 L 0 45 4715 6584 L 0 90 5118 6539 L 0 45 5521 6584 L
0 45 5923 6584 L 0 45 6326 6584 L 0 45 6729 6584 L 0 90 7132 6539 L 0 45 7534 6584 L 0 45 7937 6584 L 0 45 8340 6584 L
0 45 8742 6584 L 0 90 9145 6539 L 108 0 797 990 L 0 6 953 1032 L 6 12 C 6 6 C 12 6 C 24 0 C 12 -6 C 6 -6 C 6 -12 C 0 -12 C -6 -12 C
-12 -18 C -60 -60 C 84 0 C -18 -6 1103 1062 L -12 -18 C -6 -30 C 0 -18 C 6 -30 C 12 -18 C 18 -6 C 12 0 C 18 6 C 12 18 C 6 30 C
0 18 C -6 30 C -12 18 C -18 6 C -12 0 C -18 -6 1223 1062 L -12 -18 C -6 -30 C 0 -18 C 6 -30 C 12 -18 C 18 -6 C 12 0 C 18 6 C 12 18 C
6 30 C 0 18 C -6 30 C -12 18 C -18 6 C -12 0 C -18 -6 1343 1062 L -12 -18 C -6 -30 C 0 -18 C 6 -30 C 12 -18 C 18 -6 C 12 0 C 18 6 C
12 18 C 6 30 C 0 18 C -6 30 C -12 18 C -18 6 C -12 0 C 108 0 2811 990 L 12 6 2979 1038 L 18 18 C 0 -126 C -18 -6 3117 1062 L
-12 -18 C -6 -30 C 0 -18 C 6 -30 C 12 -18 C 18 -6 C 12 0 C 18 6 C 12 18 C 6 30 C 0 18 C -6 30 C -12 18 C -18 6 C -12 0 C
-18 -6 3237 1062 L -12 -18 C -6 -30 C 0 -18 C 6 -30 C 12 -18 C 18 -6 C 12 0 C 18 6 C 12 18 C 6 30 C 0 18 C -6 30 C -12 18 C -18 6 C
-12 0 C -18 -6 3357 1062 L -12 -18 C -6 -30 C 0 -18 C 6 -30 C 12 -18 C 18 -6 C 12 0 C 18 6 C 12 18 C 6 30 C 0 18 C -6 30 C -12 18 C
-18 6 C -12 0 C -18 -6 5112 1062 L -12 -18 C -6 -30 C 0 -18 C 6 -30 C 12 -18 C 18 -6 C 12 0 C 18 6 C 12 18 C 6 30 C 0 18 C -6 30 C
-12 18 C -18 6 C -12 0 C 12 6 6928 1038 L 18 18 C 0 -126 C -18 -6 7066 1062 L -12 -18 C -6 -30 C 0 -18 C 6 -30 C 12 -18 C 18 -6 C
12 0 C 18 6 C 12 18 C 6 30 C 0 18 C -6 30 C -12 18 C -18 6 C -12 0 C -18 -6 7186 1062 L -12 -18 C -6 -30 C 0 -18 C 6 -30 C 12 -18 C
18 -6 C 12 0 C 18 6 C 12 18 C 6 30 C 0 18 C -6 30 C -12 18 C -18 6 C -12 0 C -18 -6 7306 1062 L -12 -18 C -6 -30 C 0 -18 C 6 -30 C
12 -18 C 18 -6 C 12 0 C 18 6 C 12 18 C 6 30 C 0 18 C -6 30 C -12 18 C -18 6 C -12 0 C 0 6 8929 1032 L 6 12 C 6 6 C 12 6 C 24 0 C
12 -6 C 6 -6 C 6 -12 C 0 -12 C -6 -12 C -12 -18 C -60 -60 C 84 0 C -18 -6 9079 1062 L -12 -18 C -6 -30 C 0 -18 C 6 -30 C 12 -18 C
18 -6 C 12 0 C 18 6 C 12 18 C 6 30 C 0 18 C -6 30 C -12 18 C -18 6 C -12 0 C -18 -6 9199 1062 L -12 -18 C -6 -30 C 0 -18 C 6 -30 C
12 -18 C 18 -6 C 12 0 C 18 6 C 12 18 C 6 30 C 0 18 C -6 30 C -12 18 C -18 6 C -12 0 C -18 -6 9319 1062 L -12 -18 C -6 -30 C 0 -18 C
6 -30 C 12 -18 C 18 -6 C 12 0 C 18 6 C 12 18 C 6 30 C 0 18 C -6 30 C -12 18 C -18 6 C -12 0 C 45 0 975 1195 L 45 0 975 1567 L
90 0 975 1939 L 45 0 975 2310 L 45 0 975 2682 L 45 0 975 3054 L 45 0 975 3426 L 90 0 975 3798 L 45 0 975 4170 L 45 0 975 4542 L
45 0 975 4913 L 45 0 975 5285 L 90 0 975 5657 L 45 0 975 6029 L 45 0 975 6401 L 0 108 784 1556 L 0 -60 712 1778 L 54 -6 C -6 6 C
-6 18 C 0 18 C 6 18 C 12 12 C 18 6 C 12 0 C 18 -6 C 12 -12 C 6 -18 C 0 -18 C -6 -18 C -6 -6 C -12 -6 C 84 84 742 1832 L
84 -84 742 1916 L -6 12 736 1976 L -18 18 C 126 0 C 6 -18 712 2114 L 18 -12 C 30 -6 C 18 0 C 30 6 C 18 12 C 6 18 C 0 12 C -6 18 C
-18 12 C -30 6 C -18 0 C -30 -6 C -18 -12 C -6 -18 C 0 -12 C 0 81 702 2198 L 0 -45 648 2364 L 40 -4 C -4 4 C -5 14 C 0 13 C 5 14 C
9 9 C 13 4 C 9 0 C 14 -4 C 9 -9 C 4 -14 C 0 -13 C -4 -14 C -5 -4 C -9 -5 C 6 -18 712 3792 L 18 -12 C 30 -6 C 18 0 C 30 6 C 18 12 C
6 18 C 0 12 C -6 18 C -18 12 C -30 6 C -18 0 C -30 -6 C -18 -12 C -6 -18 C 0 -12 C 0 -60 712 5418 L 54 -6 C -6 6 C -6 18 C 0 18 C
6 18 C 12 12 C 18 6 C 12 0 C 18 -6 C 12 -12 C 6 -18 C 0 -18 C -6 -18 C -6 -6 C -12 -6 C 84 84 742 5472 L 84 -84 742 5556 L
-6 12 736 5616 L -18 18 C 126 0 C 6 -18 712 5754 L 18 -12 C 30 -6 C 18 0 C 30 6 C 18 12 C 6 18 C 0 12 C -6 18 C -18 12 C -30 6 C
-18 0 C -30 -6 C -18 -12 C -6 -18 C 0 -12 C 0 81 702 5838 L 0 -45 648 6005 L 40 -5 C -4 5 C -5 13 C 0 14 C 5 13 C 9 9 C 13 5 C 9 0 C
14 -5 C 9 -9 C 4 -13 C 0 -14 C -4 -13 C -5 -5 C -9 -4 C
0 5459 9261 1170 L -48 0 9261 1231 L -48 0 9261 1597 L -97 0 9261 1964 L 0 108 9461 1700 L 6 -18 9389 1886 L 18 -12 C 30 -6 C 18 0 C
30 6 C 18 12 C 6 18 C 0 12 C -6 18 C -18 12 C -30 6 C -18 0 C -30 -6 C -18 -12 C -6 -18 C 0 -12 C 6 -6 9503 1982 L 6 6 C -6 6 C
-6 -6 C 6 -18 9389 2066 L 18 -12 C 30 -6 C 18 0 C 30 6 C 18 12 C 6 18 C 0 12 C -6 18 C -18 12 C -30 6 C -18 0 C -30 -6 C -18 -12 C
-6 -18 C 0 -12 C -6 12 9413 2168 L -18 18 C 126 0 C -48 0 9261 2331 L -48 0 9261 2698 L -48 0 9261 3064 L -48 0 9261 3431 L
-97 0 9261 3798 L 6 -18 9389 3792 L 18 -12 C 30 -6 C 18 0 C 30 6 C 18 12 C 6 18 C 0 12 C -6 18 C -18 12 C -30 6 C -18 0 C -30 -6 C
-18 -12 C -6 -18 C 0 -12 C -48 0 9261 4165 L -48 0 9261 4531 L -48 0 9261 4898 L -48 0 9261 5265 L -97 0 9261 5632 L
6 -18 9389 5476 L 18 -12 C 30 -6 C 18 0 C 30 6 C 18 12 C 6 18 C 0 12 C -6 18 C -18 12 C -30 6 C -18 0 C -30 -6 C -18 -12 C -6 -18 C
0 -12 C 6 -6 9503 5572 L 6 6 C -6 6 C -6 -6 C 6 -18 9389 5656 L 18 -12 C 30 -6 C 18 0 C 30 6 C 18 12 C 6 18 C 0 12 C -6 18 C
-18 12 C -30 6 C -18 0 C -30 -6 C -18 -12 C -6 -18 C 0 -12 C -6 12 9413 5758 L -18 18 C 126 0 C -48 0 9261 5998 L -48 0 9261 6365 L
61 0 9688 2730 L 0 54 9688 2730 L 6 18 C 6 6 C 12 6 C 12 0 C 12 -6 C 6 -6 C 6 -18 C 0 -54 C 1 0 9748 2772 L -7 -3 9749 2919 L
-6 -6 C -6 -12 C 0 -18 C 6 -12 C 12 -12 C 1 -1 C -12 -6 9748 3024 L -6 -18 C 0 -18 C 6 -18 C 12 -6 C 1 0 C 6 6 9688 3060 L -6 6 C
-6 -6 C 6 -6 C 19 0 9730 3066 L 61 0 9688 3180 L -12 -12 9748 3180 L -6 -12 C 0 -18 C 6 -12 C 12 -12 C 1 -1 C 19 0 9730 3228 L
19 0 9730 3294 L 19 0 9730 3408 L -12 -12 9748 3408 L -6 -12 C 0 -18 C 6 -12 C 12 -12 C 1 -1 C 61 0 9688 3456 L 6 6 9688 3594 L
-6 6 C -6 -6 C 6 -6 C 19 0 9730 3600 L 19 0 9730 3648 L -13 14 9749 3652 L -6 12 C 0 18 C 6 12 C 13 4 C 19 0 9730 3858 L
-12 12 9748 3858 L -6 12 C 0 17 C 6 12 C 12 12 C 1 1 C 19 0 9730 3971 L 19 0 9730 4037 L 61 0 9688 4085 L -12 -6 9748 4193 L
-6 -18 C 0 -18 C 6 -18 C 12 -6 C 1 1 C -7 -4 9749 4299 L -6 -6 C -6 -12 C 0 -18 C 6 -12 C 12 -12 C 1 0 C 19 0 9730 4439 L
-12 12 9748 4439 L -6 12 C 0 18 C 6 12 C 12 12 C 1 1 C -7 -4 9749 4617 L -6 -6 C -6 -12 C 0 -18 C 6 -12 C 12 -12 C 1 0 C
19 0 9730 4661 L -1 0 9749 4667 L -12 12 C -6 12 C 0 18 C 6 6 9688 4733 L -6 6 C -6 -6 C 6 -6 C 19 0 9730 4739 L 6 -12 9730 4811 L
12 -12 C 1 0 C -1 -1 9749 4854 L -12 -12 C -6 -12 C 0 -18 C 61 0 9688 4967 L -12 -12 9748 4967 L -6 -12 C 0 -18 C 6 -12 C 12 -12 C
1 0 C -12 -6 9748 5075 L -6 -18 C 0 -18 C 6 -18 C 12 -6 C 1 1 C
0 -96 3171 7145 L -6 -18 C -6 -6 C -12 -6 C -12 0 C -12 6 C -6 6 C -6 18 C 0 12 C 0 6 3219 7115 L 6 12 C 6 6 C 12 6 C 24 0 C 12 -6 C
6 -6 C 6 -12 C 0 -12 C -6 -12 C -12 -18 C -60 -60 C 84 0 C 12 6 3351 7121 L 18 18 C 0 -126 C 0 6 3459 7115 L 6 12 C 6 6 C 12 6 C
24 0 C 12 -6 C 6 -6 C 6 -12 C 0 -12 C -6 -12 C -12 -18 C -60 -60 C 84 0 C -60 -84 3633 7145 L 90 0 C 0 -126 3633 7145 L
108 0 3699 7073 L 66 0 3861 7145 L -36 -48 C 18 0 C 12 -6 C 6 -6 C 6 -18 C 0 -12 C -6 -18 C -12 -12 C -18 -6 C -18 0 C -18 6 C
-6 6 C -6 12 C 66 0 3981 7145 L -36 -48 C 18 0 C 12 -6 C 6 -6 C 6 -18 C 0 -12 C -6 -18 C -12 -12 C -18 -6 C -18 0 C -18 6 C -6 6 C
-6 12 C -60 0 4161 7145 L -6 -54 C 6 6 C 18 6 C 18 0 C 18 -6 C 12 -12 C 6 -18 C 0 -12 C -6 -18 C -12 -12 C -18 -6 C -18 0 C -18 6 C
-6 6 C -6 12 C -18 -6 4239 7145 L -6 -12 C 0 -12 C 6 -12 C 12 -6 C 24 -6 C 18 -6 C 12 -12 C 6 -12 C 0 -18 C -6 -12 C -6 -6 C
-18 -6 C -24 0 C -18 6 C -6 6 C -6 12 C 0 18 C 6 12 C 12 12 C 18 6 C 24 6 C 12 6 C 6 12 C 0 12 C -6 12 C -18 6 C -24 0 C
-12 -12 4473 7169 L -12 -18 C -12 -24 C -6 -30 C 0 -24 C 6 -30 C 12 -24 C 12 -18 C 12 -12 C 30 -126 4503 7145 L -30 -126 4563 7145 L
30 -126 4563 7145 L -30 -126 4623 7145 L 0 -84 4659 7103 L 6 18 4659 7067 L 12 12 C 12 6 C 18 0 C 0 -84 4737 7103 L
18 18 4737 7079 L 12 6 C 18 0 C 12 -6 C 6 -18 C 0 -60 C 18 18 4803 7079 L 12 6 C 18 0 C 12 -6 C 6 -18 C 0 -60 C -6 12 4977 7085 L
-18 6 C -18 0 C -18 -6 C -6 -12 C 6 -12 C 12 -6 C 30 -6 C 12 -6 C 6 -12 C 0 -6 C -6 -12 C -18 -6 C -18 0 C -18 6 C -6 12 C
108 0 5115 7091 L 108 0 5115 7055 L 66 0 5373 7145 L -36 -48 C 18 0 C 12 -6 C 6 -6 C 6 -18 C 0 -12 C -6 -18 C -12 -12 C -18 -6 C
-18 0 C -18 6 C -6 6 C -6 12 C -6 -6 5493 7031 L 6 -6 C 6 6 C -6 6 C -18 -6 5577 7145 L -12 -18 C -6 -30 C 0 -18 C 6 -30 C 12 -18 C
18 -6 C 12 0 C 18 6 C 12 18 C 6 30 C 0 18 C -6 30 C -12 18 C -18 6 C -12 0 C -6 -18 5739 7103 L -12 -12 C -18 -6 C -6 0 C -18 6 C
-12 12 C -6 18 C 0 6 C 6 18 C 12 12 C 18 6 C 6 0 C 18 -6 C 12 -12 C 6 -24 C 0 -30 C -6 -30 C -12 -18 C -18 -6 C -12 0 C -18 6 C
-6 12 C -6 12 5859 7127 L -18 6 C -12 0 C -18 -6 C -12 -18 C -6 -30 C 0 -30 C 6 -24 C 12 -12 C 18 -6 C 6 0 C 18 6 C 12 12 C 6 18 C
0 6 C -6 18 C -12 12 C -18 6 C -6 0 C -18 -6 C -12 -12 C -6 -18 C -36 -126 6021 7103 L -6 -30 6015 7079 L 0 -18 C 12 -12 C 12 0 C
12 6 C 12 12 C 12 24 C -12 -42 6081 7103 L -6 -24 C 0 -12 C 6 -6 C 12 0 C 12 12 C 6 12 C -6 12 6189 7085 L -18 6 C -18 0 C -18 -6 C
-6 -12 C 6 -12 C 12 -6 C 30 -6 C 12 -6 C 6 -12 C 0 -6 C -6 -12 C -18 -6 C -18 0 C -18 6 C -6 12 C 12 -12 6225 7169 L 12 -18 C
12 -24 C 6 -30 C 0 -24 C -6 -30 C -12 -24 C -12 -18 C -12 -12 C 0 -126 6411 7103 L 12 12 6411 7085 L 12 6 C 18 0 C 12 -6 C 12 -12 C
6 -18 C 0 -12 C -6 -18 C -12 -12 C -12 -6 C -18 0 C -12 6 C -12 12 C -12 -6 6549 7103 L -12 -12 C -6 -18 C 0 -12 C 6 -18 C 12 -12 C
12 -6 C 18 0 C 12 6 C 12 12 C 6 18 C 0 12 C -6 18 C -12 12 C -12 6 C -18 0 C -6 12 6699 7085 L -18 6 C -18 0 C -18 -6 C -6 -12 C
6 -12 C 12 -6 C 30 -6 C 12 -6 C 6 -12 C 0 -6 C -6 -12 C -18 -6 C -18 0 C -18 6 C -6 12 C 0 -102 6747 7145 L 6 -18 C 12 -6 C 12 0 C
42 0 6729 7103 L 108 0 6813 7073 L -12 0 7005 7145 L -12 -6 C -6 -18 C 0 -102 C 42 0 6957 7103 L 6 -6 7035 7145 L 6 6 C -6 6 C
-6 -6 C 0 -84 7041 7103 L 0 -102 7095 7145 L 6 -18 C 12 -6 C 12 0 C 42 0 7077 7103 L 0 -126 4491 672 L 48 -126 4491 672 L
-48 -126 4587 672 L 0 -126 4587 672 L 0 -96 4683 672 L -6 -18 C -6 -6 C -12 -6 C -12 0 C -12 6 C -6 6 C -6 18 C 0 12 C
0 -126 4731 672 L 42 0 4731 672 L 18 -6 C 12 -12 C 6 -12 C 6 -18 C 0 -30 C -6 -18 C -6 -12 C -12 -12 C -18 -6 C -42 0 C
108 0 4857 600 L -60 0 5079 672 L -6 -54 C 6 6 C 18 6 C 18 0 C 18 -6 C 12 -12 C 6 -18 C 0 -12 C -6 -18 C -12 -12 C -18 -6 C -18 0 C
-18 6 C -6 6 C -6 12 C -60 0 5199 672 L -6 -54 C 6 6 C 18 6 C 18 0 C 18 -6 C 12 -12 C 6 -18 C 0 -12 C -6 -18 C -12 -12 C -18 -6 C
-18 0 C -18 6 C -6 6 C -6 12 C -18 -6 5283 672 L -12 -18 C -6 -30 C 0 -18 C 6 -30 C 12 -18 C 18 -6 C 12 0 C 18 6 C 12 18 C 6 30 C
0 18 C -6 30 C -12 18 C -18 6 C -12 0 C -18 -6 5397 672 L -6 -12 C 0 -12 C 6 -12 C 12 -6 C 24 -6 C 18 -6 C 12 -12 C 6 -12 C 0 -18 C
-6 -12 C -6 -6 C -18 -6 C -24 0 C -18 6 C -6 6 C -6 12 C 0 18 C 6 12 C 12 12 C 18 6 C 24 6 C 12 6 C 6 12 C 0 12 C -6 12 C -18 6 C
-24 0 C -18 -6 5523 672 L -12 -18 C -6 -30 C 0 -18 C 6 -30 C 12 -18 C 18 -6 C 12 0 C 18 6 C 12 18 C 6 30 C 0 18 C -6 30 C -12 18 C
-18 6 C -12 0 C -6 -6 5619 558 L 6 -6 C 6 6 C -6 6 C -60 -84 5727 672 L 90 0 C 0 -126 5727 672 L 126 0 420 2895 L 0 54 420 2895 L
6 18 C 6 6 C 12 6 C 18 0 C 12 -6 C 6 -6 C 6 -18 C 0 -54 C 6 -12 462 3045 L 12 -12 C 18 -6 C 12 0 C 18 6 C 12 12 C 6 12 C 0 18 C
-6 12 C -12 12 C -18 6 C -12 0 C -18 -6 C -12 -12 C -6 -12 C 0 -18 C -12 -6 480 3195 L -6 -18 C 0 -18 C 6 -18 C 12 -6 C 12 6 C
6 12 C 6 30 C 6 12 C 12 6 C 6 0 C 12 -6 C 6 -18 C 0 -18 C -6 -18 C -12 -6 C 102 0 420 3243 L 18 6 C 6 12 C 0 12 C 0 42 462 3225 L
0 -12 420 3345 L 6 -12 C 18 -6 C 102 0 C 0 42 462 3297 L 6 6 420 3375 L -6 6 C -6 -6 C 6 -6 C 84 0 462 3381 L 102 0 420 3435 L
18 6 C 6 12 C 0 12 C 0 42 462 3417 L 126 0 420 3597 L 0 54 420 3597 L 6 18 C 6 6 C 12 6 C 12 0 C 12 -6 C 6 -6 C 6 -18 C 0 -54 C
66 42 480 3639 L 0 72 498 3717 L -12 0 C -12 -6 C -6 -6 C -6 -12 C 0 -18 C 6 -12 C 12 -12 C 18 -6 C 12 0 C 18 6 C 12 12 C 6 12 C
0 18 C -6 12 C -12 12 C -12 -6 480 3891 L -6 -18 C 0 -18 C 6 -18 C 12 -6 C 12 6 C 6 12 C 6 30 C 6 12 C 12 6 C 6 0 C 12 -6 C 6 -18 C
0 -18 C -6 -18 C -12 -6 C 6 6 420 3926 L -6 6 C -6 -6 C 6 -6 C 84 0 462 3932 L 126 0 420 4046 L -12 -12 480 4046 L -6 -12 C 0 -18 C
6 -12 C 12 -12 C 18 -6 C 12 0 C 18 6 C 12 12 C 6 12 C 0 18 C -6 12 C -12 12 C 60 0 462 4094 L 18 6 C 6 12 C 0 18 C -6 12 C -18 18 C
84 0 462 4160 L 84 0 462 4274 L -12 -12 480 4274 L -6 -12 C 0 -18 C 6 -12 C 12 -12 C 18 -6 C 12 0 C 18 6 C 12 12 C 6 12 C 0 18 C
-6 12 C -12 12 C 126 0 420 4322 L 12 -12 396 4508 L 18 -12 C 24 -12 C 30 -6 C 24 0 C 30 6 C 24 12 C 18 12 C 12 12 C
-12 -6 480 4610 L -6 -18 C 0 -18 C 6 -18 C 12 -6 C 12 6 C 6 12 C 6 30 C 6 12 C 12 6 C 6 0 C 12 -6 C 6 -18 C 0 -18 C -6 -18 C
-12 -6 C 0 72 498 4646 L -12 0 C -12 -6 C -6 -6 C -6 -12 C 0 -18 C 6 -12 C 12 -12 C 18 -6 C 12 0 C 18 6 C 12 12 C 6 12 C 0 18 C
-6 12 C -12 12 C -12 -12 480 4826 L -6 -12 C 0 -18 C 6 -12 C 12 -12 C 18 -6 C 12 0 C 18 6 C 12 12 C 6 12 C 0 18 C -6 12 C -12 12 C
12 12 396 4862 L 18 12 C 24 12 C 30 6 C 24 0 C 30 -6 C 24 -12 C 18 -12 C 12 -12 C
1024 0 0 K
/M16 {MB -4 -4 moveto 0 8 rlineto 8 0 rlineto 0 -8                              
rlineto closepath fill ME} bind def                                             
/MFAC      5.999 def    
1840 3762 M16 1872 3920 M16 1982 3898 M16 2073 3908 M16 2105 3830 M16 2151 3971 M16 2153 3699 M16 2348 3742 M16 2416 3858 M16
2474 3975 M16 2492 3701 M16 2536 3664 M16 2580 4099 M16 2581 3629 M16 2609 3777 M16 2635 3784 M16 2745 4271 M16 2781 3761 M16
2856 3677 M16 2878 3857 M16 2930 3830 M16 2970 3747 M16 3119 3726 M16 3185 3795 M16 3187 3676 M16 3221 3701 M16 3243 3532 M16
3392 3760 M16 3460 3763 M16 3536 3672 M16 3663 3939 M16 3721 4106 M16 3857 4274 M16 3924 4349 M16 3966 3923 M16 4006 3752 M16
4042 3970 M16 4173 3774 M16 4215 4100 M16 4289 3920 M16 4480 3678 M16 4560 3915 M16 4663 4148 M16 4703 3834 M16 4721 3978 M16
4813 3278 M16 4850 3749 M16 4936 3845 M16 5038 3583 M16 5040 3764 M16 5068 3104 M16 5105 4132 M16 5107 3709 M16 5153 3843 M16
5193 3957 M16 5249 3649 M16 5285 3865 M16 5422 3791 M16 5456 3817 M16 5504 3810 M16 5546 3796 M16 5582 3874 M16 5617 4129 M16
5655 3752 M16 5692 3329 M16 5737 3731 M16 5775 4035 M16 5815 3697 M16 5877 3700 M16 5880 3325 M16 5905 3714 M16 5946 3726 M16
5950 3923 M16 6020 4371 M16 6104 3769 M16 6127 3766 M16 6162 4327 M16 6163 3749 M16 6201 4014 M16
45 0 1817 3665 L 0 194 1840 3665 L 45 0 1817 3859 L 45 0 1849 3622 L 0 595 1872 3622 L 45 0 1849 4217 L 45 0 1960 3801 L
0 194 1982 3801 L 45 0 1960 3995 L 45 0 2050 3446 L 0 923 2073 3446 L 45 0 2050 4369 L 45 0 2082 3801 L 0 57 2105 3801 L
45 0 2082 3858 L 45 0 2128 3738 L 0 466 2151 3738 L 45 0 2128 4204 L 45 0 2130 3482 L 0 434 2153 3482 L 45 0 2130 3916 L
45 0 2325 3644 L 0 196 2348 3644 L 45 0 2325 3840 L 45 0 2393 3739 L 0 238 2416 3739 L 45 0 2393 3977 L 45 0 2452 3569 L
0 811 2474 3569 L 45 0 2452 4380 L 45 0 2470 3587 L 0 228 2492 3587 L 45 0 2470 3815 L 45 0 2514 3435 L 0 457 2536 3435 L
45 0 2514 3892 L 45 0 2558 3841 L 0 516 2580 3841 L 45 0 2558 4357 L 45 0 2558 3329 L 0 600 2581 3329 L 45 0 2558 3929 L
45 0 2586 3601 L 0 351 2609 3601 L 45 0 2586 3952 L 45 0 2612 3712 L 0 143 2635 3712 L 45 0 2612 3855 L 45 0 2723 3931 L
0 680 2745 3931 L 45 0 2723 4611 L 45 0 2759 3531 L 0 459 2781 3531 L 45 0 2759 3990 L 45 0 2833 3543 L 0 267 2856 3543 L
45 0 2833 3810 L 45 0 2855 3820 L 0 75 2878 3820 L 45 0 2855 3895 L 45 0 2907 3695 L 0 270 2930 3695 L 45 0 2907 3965 L
45 0 2947 3558 L 0 378 2970 3558 L 45 0 2947 3936 L 45 0 3096 3657 L 0 138 3119 3657 L 45 0 3096 3795 L 45 0 3162 3704 L
0 182 3185 3704 L 45 0 3162 3886 L 45 0 3164 3518 L 0 316 3187 3518 L 45 0 3164 3834 L 45 0 3199 3595 L 0 211 3221 3595 L
45 0 3199 3806 L 45 0 3221 3341 L 0 382 3243 3341 L 45 0 3221 3723 L 45 0 3369 3701 L 0 117 3392 3701 L 45 0 3369 3818 L
45 0 3438 3652 L 0 221 3460 3652 L 45 0 3438 3873 L 45 0 3514 3368 L 0 608 3536 3368 L 45 0 3514 3976 L 45 0 3640 3695 L
0 488 3663 3695 L 45 0 3640 4183 L 45 0 3699 3920 L 0 372 3721 3920 L 45 0 3699 4292 L 45 0 3835 3725 L 0 1099 3857 3725 L
45 0 3835 4824 L 45 0 3901 4007 L 0 685 3924 4007 L 45 0 3901 4692 L 45 0 3944 3699 L 0 448 3966 3699 L 45 0 3944 4147 L
45 0 3983 3415 L 0 673 4006 3415 L 45 0 3983 4088 L 45 0 4020 3787 L 0 365 4042 3787 L 45 0 4020 4152 L 45 0 4150 3671 L
0 207 4173 3671 L 45 0 4150 3878 L 45 0 4193 3723 L 0 753 4215 3723 L 45 0 4193 4476 L 45 0 4267 3692 L 0 457 4289 3692 L
45 0 4267 4149 L 45 0 4458 3513 L 0 331 4480 3513 L 45 0 4458 3844 L 45 0 4538 3785 L 0 260 4560 3785 L 45 0 4538 4045 L
45 0 4640 3693 L 0 909 4663 3693 L 45 0 4640 4602 L 45 0 4681 3796 L 0 76 4703 3796 L 45 0 4681 3872 L 45 0 4698 3279 L
0 1399 4721 3279 L 45 0 4698 4678 L 45 0 4791 2872 L 0 811 4813 2872 L 45 0 4791 3683 L 45 0 4827 3573 L 0 352 4850 3573 L
45 0 4827 3925 L 45 0 4913 3675 L 0 340 4936 3675 L 45 0 4913 4015 L 45 0 5016 3359 L 0 449 5038 3359 L 45 0 5016 3808 L
45 0 5018 3719 L 0 91 5040 3719 L 45 0 5018 3810 L 45 0 5046 2814 L 0 580 5068 2814 L 45 0 5046 3394 L 45 0 5082 3897 L
0 471 5105 3897 L 45 0 5082 4368 L 45 0 5084 3640 L 0 138 5107 3640 L 45 0 5084 3778 L 45 0 5130 3774 L 0 137 5153 3774 L
45 0 5130 3911 L 45 0 5170 3547 L 0 820 5193 3547 L 45 0 5170 4367 L 45 0 5227 3456 L 0 385 5249 3456 L 45 0 5227 3841 L
45 0 5263 3783 L 0 164 5285 3783 L 45 0 5263 3947 L 45 0 5399 3683 L 0 215 5422 3683 L 45 0 5399 3898 L 45 0 5433 3795 L
0 43 5456 3795 L 45 0 5433 3838 L 45 0 5481 3768 L 0 84 5504 3768 L 45 0 5481 3852 L 45 0 5524 3707 L 0 177 5546 3707 L
45 0 5524 3884 L 45 0 5560 3727 L 0 293 5582 3727 L 45 0 5560 4020 L 45 0 5594 3700 L 0 857 5617 3700 L 45 0 5594 4557 L
45 0 5632 3694 L 0 117 5655 3694 L 45 0 5632 3811 L 45 0 5670 3108 L 0 442 5692 3108 L 45 0 5670 3550 L 45 0 5715 3640 L
0 182 5737 3640 L 45 0 5715 3822 L 45 0 5753 3746 L 0 578 5775 3746 L 45 0 5753 4324 L 45 0 5793 3650 L 0 93 5815 3650 L
45 0 5793 3743 L 45 0 5855 3623 L 0 153 5877 3623 L 45 0 5855 3776 L 45 0 5857 2916 L 0 819 5880 2916 L 45 0 5857 3735 L
45 0 5883 3689 L 0 50 5905 3689 L 45 0 5883 3739 L 45 0 5923 3684 L 0 83 5946 3684 L 45 0 5923 3767 L 45 0 5927 3789 L
0 268 5950 3789 L 45 0 5927 4057 L 45 0 5998 3824 L 0 1095 6020 3824 L 45 0 5998 4919 L 45 0 6082 3714 L 0 110 6104 3714 L
45 0 6082 3824 L 45 0 6104 3692 L 0 147 6127 3692 L 45 0 6104 3839 L 45 0 6140 3671 L 0 1313 6162 3671 L 45 0 6140 4984 L
45 0 6140 3713 L 0 72 6163 3713 L 45 0 6140 3785 L 45 0 6178 3749 L 0 531 6201 3749 L 45 0 6178 4280 L
0 1024 0 K 1665 3942 M16 1671 3875 M16 1673 3839 M16 1690 3797 M16 1702 3765 M16 1718 3584 M16 1720 4046 M16 1722 3710 M16
1762 3289 M16 1764 3830 M16 1768 3746 M16 1770 3899 M16 1772 3800 M16 1776 3480 M16 1798 3865 M16 1804 3562 M16 1828 3781 M16
1838 3804 M16 1862 3790 M16 1874 3971 M16 1888 3756 M16 1890 4061 M16 1890 3650 M16 1896 3641 M16 1900 3963 M16 1904 3898 M16
1904 3801 M16 1904 3601 M16 1906 3847 M16 1906 3899 M16 1926 3736 M16 1938 3619 M16 1941 3164 M16 1943 3512 M16 1973 3835 M16
1974 4031 M16 1997 3681 M16 1999 4366 M16 2015 3703 M16 2034 3875 M16 2038 3772 M16 2038 4161 M16 2043 3531 M16 2045 3712 M16
2057 3826 M16 2070 3768 M16 2070 3822 M16 2074 3868 M16 2074 3870 M16 2074 3897 M16 2074 3881 M16 2087 4128 M16 2093 3844 M16
2102 3827 M16 2107 3774 M16 2107 3922 M16 2107 3364 M16 2113 3278 M16 2123 3524 M16 2137 3876 M16 2143 3160 M16 2149 3648 M16
2153 3989 M16 2155 3642 M16 2159 3635 M16 2169 3815 M16 2171 3759 M16 2231 3715 M16 2235 3563 M16 2259 3693 M16 2313 3693 M16
2315 3585 M16 2316 3754 M16 2346 3707 M16 2350 3757 M16 2356 3689 M16 2362 4414 M16 2368 4347 M16 2374 3690 M16 2388 3861 M16
2388 3875 M16 2388 3727 M16 2402 3501 M16 2404 3734 M16 2414 3714 M16 2440 3605 M16 2444 3828 M16 2447 3357 M16 2453 3812 M16
2469 3072 M16 2472 3688 M16 2482 3725 M16 2490 3759 M16 2490 3789 M16 2494 3709 M16 2496 3872 M16 2521 3629 M16 2536 3744 M16
2538 3777 M16 2574 3931 M16 2574 3825 M16 2589 3632 M16 2605 3805 M16 2607 3822 M16 2625 3807 M16 2625 3827 M16 2625 3854 M16
2633 3816 M16 2639 3668 M16 2674 3744 M16 2683 4095 M16 2705 3731 M16 2706 3980 M16 2709 3758 M16 2713 3837 M16 2714 3483 M16
2716 3506 M16 2738 3488 M16 2743 3680 M16 2746 3336 M16 2777 3773 M16 2781 3832 M16 2806 3850 M16 2808 3584 M16 2836 2991 M16
2848 4053 M16 2850 3560 M16 2854 3956 M16 2854 3825 M16 2864 3700 M16 2870 3912 M16 2872 3675 M16 2878 3867 M16 2884 3989 M16
2888 3920 M16 2894 3836 M16 2898 3492 M16 2900 3315 M16 2902 3844 M16 2910 4017 M16 2912 3843 M16 2914 3648 M16 2916 3836 M16
2928 3804 M16 2936 3773 M16 2938 4319 M16 2941 3838 M16 2943 3738 M16 2966 3876 M16 2973 3720 M16 2985 3711 M16 2989 3818 M16
2993 3939 M16 2996 4200 M16 3009 3810 M16 3011 3576 M16 3015 3834 M16 3019 3724 M16 3030 4018 M16 3065 3746 M16 3075 3733 M16
3076 3475 M16 3076 3713 M16 3097 3471 M16 3099 3689 M16 3111 3407 M16 3115 4056 M16 3117 3647 M16 3125 3603 M16 3131 4018 M16
3133 3917 M16 3149 3686 M16 3163 3714 M16 3183 3839 M16 3198 3797 M16 3199 3976 M16 3208 3711 M16 3212 3413 M16 3217 3623 M16
3220 3537 M16 3222 3719 M16 3228 3748 M16 3236 3659 M16 3238 3670 M16 3241 3797 M16 3241 3789 M16 3252 3579 M16 3256 3727 M16
3272 3733 M16 3277 3867 M16 3284 3751 M16 3294 3530 M16 3298 3768 M16 3300 3714 M16 3304 3320 M16 3308 3829 M16 3310 3772 M16
3318 3814 M16 3328 3635 M16 3336 3743 M16 3346 3752 M16 3346 3755 M16 3352 3799 M16 3360 3631 M16 3380 3896 M16 3382 4043 M16
3390 3755 M16 3394 3800 M16 3394 3858 M16 3424 3716 M16 3436 3621 M16 3457 3851 M16 3458 3751 M16 3465 3706 M16 3475 3688 M16
3477 3496 M16 3485 3696 M16 3502 3945 M16 3505 3692 M16 3517 3655 M16 3529 3711 M16 3534 3522 M16 3545 3893 M16 3565 3904 M16
3567 3924 M16 3595 3679 M16 3597 3821 M16 3603 3581 M16 3605 3726 M16 3607 3830 M16 3609 3778 M16 3615 3750 M16 3617 4025 M16
3617 3788 M16 3621 3722 M16 3629 3763 M16 3635 3477 M16 3655 4076 M16 3677 4107 M16 3693 3788 M16 3712 4075 M16 3715 3992 M16
3723 4026 M16 3726 4092 M16 3728 4136 M16 3734 3773 M16 3738 4012 M16 3744 4110 M16 3758 3742 M16 3762 3422 M16 3766 3931 M16
3770 3804 M16 3774 3748 M16 3780 4618 M16 3788 3925 M16 3806 3721 M16 3823 3928 M16 3848 4167 M16 3854 3832 M16 3856 4127 M16
3862 3463 M16 3876 4111 M16 3878 3913 M16 3882 3713 M16 3922 3388 M16 3928 3821 M16 3934 3942 M16 3944 4489 M16 3954 4377 M16
3962 4150 M16 3987 4007 M16 4004 3566 M16 4005 3979 M16 4008 3976 M16 4029 4452 M16 4078 3881 M16 4081 3833 M16 4089 4029 M16
4090 3819 M16 4127 3677 M16 4129 3937 M16 4133 3749 M16 4155 3781 M16 4157 3824 M16 4171 3488 M16 4171 3328 M16 4173 3900 M16
4183 3788 M16 4189 3912 M16 4199 3787 M16 4213 3874 M16 4237 3879 M16 4252 3741 M16 4260 3769 M16 4262 3859 M16 4264 3869 M16
4266 3929 M16 4291 3758 M16 4291 3915 M16 4296 4111 M16 4298 3509 M16 4300 4042 M16 4308 4012 M16 4334 4222 M16 4334 3856 M16
4338 3971 M16 4338 4155 M16 4374 3837 M16 4384 3724 M16 4386 3885 M16 4390 3990 M16 4392 3589 M16 4400 3723 M16 4416 3856 M16
4428 3878 M16 4432 3973 M16 4440 3649 M16 4452 3733 M16 4452 3496 M16 4452 3768 M16 4458 3675 M16 4461 3629 M16 4473 3800 M16
4475 3622 M16 4483 3687 M16 4484 3720 M16 4493 3739 M16 4505 4063 M16 4513 3876 M16 4522 3831 M16 4525 3823 M16 4537 3987 M16
4545 3668 M16 4559 4279 M16 4560 3824 M16 4563 4073 M16 4577 4172 M16 4579 3750 M16 4599 3681 M16 4609 3978 M16 4615 3785 M16
4649 2908 M16 4655 4488 M16 4661 4989 M16 4665 3835 M16 4665 4238 M16 4667 3997 M16 4707 3737 M16 4711 1625 M16 4719 3852 M16
4722 3795 M16 4736 3808 M16 4744 4257 M16 4752 3663 M16 4756 3718 M16 4758 3670 M16 4763 3751 M16 4764 3777 M16 4765 3767 M16
4768 4994 M16 4770 3656 M16 4794 3847 M16 4798 3995 M16 4820 3764 M16 4824 3947 M16 4836 3837 M16 4836 3493 M16 4842 3781 M16
4844 3735 M16 4846 3690 M16 4847 3804 M16 4858 3845 M16 4884 3833 M16 4898 3721 M16 4900 3725 M16 4902 3983 M16 4916 3887 M16
4920 4014 M16 4924 3962 M16 4924 4015 M16 4938 3809 M16 4961 3973 M16 4979 3843 M16 4981 3721 M16 4982 3897 M16 5011 4055 M16
5025 3755 M16 5031 2695 M16 5032 3754 M16 5037 4296 M16 5039 3727 M16 5045 3835 M16 5055 3555 M16 5066 3738 M16 5070 3768 M16
5093 3479 M16 5097 3771 M16 5103 3751 M16 5103 3819 M16 5103 1660 M16 5133 3958 M16 5147 3860 M16 5151 3784 M16 5167 4068 M16
5181 3785 M16 5189 4031 M16 5193 3969 M16 5195 2361 M16 5201 3924 M16 5207 3833 M16 5209 3921 M16 5213 3819 M16 5220 3888 M16
5226 4735 M16 5228 3832 M16 5247 3813 M16 5252 4045 M16 5254 3845 M16 5260 3507 M16 5280 3700 M16 5283 3950 M16 5286 3694 M16
5290 4053 M16 5298 3711 M16 5320 4126 M16 5338 3792 M16 5338 3796 M16 5364 3757 M16 5370 3892 M16 5376 3787 M16 5378 3913 M16
5400 3785 M16 5424 3798 M16 5424 3811 M16 5440 3805 M16 5442 3708 M16 5446 3781 M16 5454 3976 M16 5458 5251 M16 5466 4197 M16
5499 3846 M16 5502 3824 M16 5507 3937 M16 5535 3961 M16 5548 3794 M16 5550 3850 M16 5567 3755 M16 5571 3870 M16 5583 2781 M16
5585 3702 M16 5601 3909 M16 5614 3796 M16 5631 2690 M16 5651 3748 M16 5655 3697 M16 5661 3729 M16 5714 2754 M16 5732 3678 M16
5733 3864 M16 5738 3663 M16 5739 3715 M16 5744 3722 M16 5756 3853 M16 5764 4775 M16 5773 3683 M16 5786 3694 M16 5792 3817 M16
5796 3548 M16 5813 3693 M16 5814 2342 M16 5820 3849 M16 5846 3714 M16 5856 2453 M16 5858 3613 M16 5872 3764 M16 5876 3691 M16
5886 3699 M16 5902 3693 M16 5902 3735 M16 5908 3662 M16 5908 2674 M16 5920 3743 M16 5922 3555 M16 5944 3773 M16 5948 3788 M16
5950 3738 M16 5982 3794 M16 5985 3814 M16 5987 3875 M16 5991 3820 M16 6013 3764 M16 6018 3627 M16 6023 3717 M16 6043 3742 M16
6060 3735 M16 6063 3888 M16 6065 3772 M16 6071 3855 M16 6077 3773 M16 6083 3791 M16 6089 3811 M16 6099 3906 M16 6100 3772 M16
6105 3759 M16 6105 3751 M16 6111 3642 M16 6121 4113 M16 6125 3786 M16 6125 3747 M16 6125 4314 M16 6129 3767 M16 6131 3372 M16
6153 3693 M16 6161 3667 M16 6163 3741 M16 6167 3732 M16 6171 3842 M16 6191 4217 M16 6201 3930 M16 6226 3883 M16 6228 3843 M16
6234 3773 M16 6244 3749 M16 6246 3551 M16 6248 3915 M16 6256 5070 M16 6258 3755 M16 6266 3974 M16 6284 4032 M16 6290 3865 M16
6294 3780 M16 6294 3651 M16 6300 3928 M16 6302 3844 M16 6304 3994 M16 6314 3784 M16 6320 3799 M16 6336 3863 M16 6348 3975 M16
6350 6174 M16 6356 2980 M16 6360 3751 M16 6386 3873 M16 6398 3818 M16 6422 3761 M16 6428 1752 M16 6458 3436 M16 6477 3816 M16
6481 3770 M16 6483 3649 M16 6503 3641 M16 6507 3892 M16 6507 3638 M16 6511 3698 M16 6511 3661 M16 6517 3996 M16 6521 3647 M16
6553 3826 M16 6557 3563 M16 6557 4780 M16 6563 3770 M16 6579 3510 M16 6591 3731 M16 6613 3777 M16 6629 3850 M16 6641 4125 M16
6643 4095 M16 6649 3768 M16 6653 3655 M16 6665 3866 M16 6667 3778 M16 6691 3751 M16 6693 4041 M16 6707 3827 M16 6713 3880 M16
6719 3695 M16 6721 3850 M16 6730 4513 M16 6734 4029 M16 6736 4062 M16 6742 3803 M16 6744 4574 M16 6746 4095 M16 6752 3691 M16
6764 4038 M16 6774 4116 M16 6782 3667 M16 6798 3791 M16 6804 4358 M16 6806 4417 M16 6818 3882 M16 6832 3591 M16 6840 3518 M16
6844 3708 M16 6854 4037 M16 6860 4013 M16 6862 3892 M16 6868 3748 M16 6874 3203 M16 6878 3569 M16 6882 3044 M16 6906 4158 M16
6944 3656 M16 6958 3677 M16 6960 3864 M16 7011 3361 M16 7045 4167 M16 7051 3554 M16 7067 3578 M16 7081 3865 M16 7089 3078 M16
7089 4018 M16 7117 2926 M16 7119 4444 M16 7159 3683 M16 7177 4017 M16 7187 2298 M16 7189 4523 M16 7189 4048 M16 7240 4510 M16
7248 4178 M16 7296 4510 M16 7326 3912 M16 7336 3706 M16 7350 3636 M16 7406 3543 M16 7422 4019 M16 7424 3742 M16 7432 3838 M16
7448 3725 M16 7460 4162 M16 7513 3491 M16 7657 3493 M16 7731 2575 M16 7794 4077 M16 7842 3842 M16 7920 1636 M16 7956 3898 M16
7993 3141 M16 8011 3525 M16 8027 3822 M16 8079 3699 M16 8081 3806 M16 8097 3931 M16 8139 3949 M16 8179 3910 M16 8181 5073 M16
8189 3810 M16 8215 5129 M16 8223 3760 M16 8243 3677 M16 8290 3392 M16 8300 3811 M16 8310 3435 M16 8314 3807 M16 8334 3707 M16
8348 3753 M16 8362 3887 M16 8370 3862 M16 8398 3640 M16 8414 4046 M16 8438 4057 M16 8488 4821 M16 8494 4082 M16 8495 3995 M16
8500 3930 M16 8545 4816 M16 8569 4044 M16 8571 3723 M16
45 0 1643 3770 L 0 344 1665 3770 L 45 0 1643 4114 L 45 0 1649 3548 L 0 655 1671 3548 L 45 0 1649 4203 L 45 0 1651 3545 L
0 588 1673 3545 L 45 0 1651 4133 L 45 0 1667 3634 L 0 325 1690 3634 L 45 0 1667 3959 L 45 0 1679 3448 L 0 634 1702 3448 L
45 0 1679 4082 L 45 0 1695 3435 L 0 297 1718 3435 L 45 0 1695 3732 L 45 0 1697 3951 L 0 189 1720 3951 L 45 0 1697 4140 L
45 0 1699 3493 L 0 433 1722 3493 L 45 0 1699 3926 L 45 0 1739 2718 L 0 1142 1762 2718 L 45 0 1739 3860 L 45 0 1741 3616 L
0 428 1764 3616 L 45 0 1741 4044 L 45 0 1745 3620 L 0 252 1768 3620 L 45 0 1745 3872 L 45 0 1747 3728 L 0 342 1770 3728 L
45 0 1747 4070 L 45 0 1749 3662 L 0 276 1772 3662 L 45 0 1749 3938 L 45 0 1753 3018 L 0 925 1776 3018 L 45 0 1753 3943 L
45 0 1775 3689 L 0 352 1798 3689 L 45 0 1775 4041 L 45 0 1781 3164 L 0 796 1804 3164 L 45 0 1781 3960 L 45 0 1806 3531 L
0 499 1828 3531 L 45 0 1806 4030 L 45 0 1815 3707 L 0 195 1838 3707 L 45 0 1815 3902 L 45 0 1840 3578 L 0 424 1862 3578 L
45 0 1840 4002 L 45 0 1851 3795 L 0 352 1874 3795 L 45 0 1851 4147 L 45 0 1866 3646 L 0 220 1888 3646 L 45 0 1866 3866 L
45 0 1867 3767 L 0 588 1890 3767 L 45 0 1867 4355 L 45 0 1867 3434 L 0 432 1890 3434 L 45 0 1867 3866 L 45 0 1873 3537 L
0 208 1896 3537 L 45 0 1873 3745 L 45 0 1877 3741 L 0 445 1900 3741 L 45 0 1877 4186 L 45 0 1881 3698 L 0 400 1904 3698 L
45 0 1881 4098 L 45 0 1881 3633 L 0 335 1904 3633 L 45 0 1881 3968 L 45 0 1882 3155 L 0 891 1904 3155 L 45 0 1882 4046 L
45 0 1883 3738 L 0 218 1906 3738 L 45 0 1883 3956 L 45 0 1883 3776 L 0 246 1906 3776 L 45 0 1883 4022 L 45 0 1904 3592 L
0 289 1926 3592 L 45 0 1904 3881 L 45 0 1916 3451 L 0 337 1938 3451 L 45 0 1916 3788 L 45 0 1918 2846 L 0 636 1941 2846 L
45 0 1918 3482 L 45 0 1920 3109 L 0 807 1943 3109 L 45 0 1920 3916 L 45 0 1950 3409 L 0 851 1973 3409 L 45 0 1950 4260 L
45 0 1952 3905 L 0 252 1974 3905 L 45 0 1952 4157 L 45 0 1974 3414 L 0 535 1997 3414 L 45 0 1974 3949 L 45 0 1976 3825 L
0 1083 1999 3825 L 45 0 1976 4908 L 45 0 1992 3482 L 0 442 2015 3482 L 45 0 1992 3924 L 45 0 2012 3804 L 0 142 2034 3804 L
45 0 2012 3946 L 45 0 2016 3641 L 0 262 2038 3641 L 45 0 2016 3903 L 45 0 2016 4013 L 0 295 2038 4013 L 45 0 2016 4308 L
45 0 2020 3014 L 0 1034 2043 3014 L 45 0 2020 4048 L 45 0 2022 3296 L 0 831 2045 3296 L 45 0 2022 4127 L 45 0 2034 3314 L
0 1024 2057 3314 L 45 0 2034 4338 L 45 0 2048 3706 L 0 125 2070 3706 L 45 0 2048 3831 L 45 0 2048 3762 L 0 121 2070 3762 L
45 0 2048 3883 L 45 0 2052 3823 L 0 90 2074 3823 L 45 0 2052 3913 L 45 0 2052 3828 L 0 84 2074 3828 L 45 0 2052 3912 L
45 0 2052 3850 L 0 94 2074 3850 L 45 0 2052 3944 L 45 0 2052 3838 L 0 86 2074 3838 L 45 0 2052 3924 L 45 0 2065 3991 L
0 274 2087 3991 L 45 0 2065 4265 L 45 0 2071 3656 L 0 377 2093 3656 L 45 0 2071 4033 L 45 0 2080 3767 L 0 120 2102 3767 L
45 0 2080 3887 L 45 0 2084 3501 L 0 546 2107 3501 L 45 0 2084 4047 L 45 0 2084 3684 L 0 477 2107 3684 L 45 0 2084 4161 L
45 0 2085 2980 L 0 767 2107 2980 L 45 0 2085 3747 L 45 0 2091 2756 L 0 1043 2113 2756 L 45 0 2091 3799 L 45 0 2101 3171 L
0 707 2123 3171 L 45 0 2101 3878 L 45 0 2115 3791 L 0 170 2137 3791 L 45 0 2115 3961 L 45 0 2121 2856 L 0 609 2143 2856 L
45 0 2121 3465 L 45 0 2127 3390 L 0 517 2149 3390 L 45 0 2127 3907 L 45 0 2131 3747 L 0 485 2153 3747 L 45 0 2131 4232 L
45 0 2133 3243 L 0 797 2155 3243 L 45 0 2133 4040 L 45 0 2136 3503 L 0 265 2159 3503 L 45 0 2136 3768 L 45 0 2147 3758 L
0 114 2169 3758 L 45 0 2147 3872 L 45 0 2148 3673 L 0 172 2171 3673 L 45 0 2148 3845 L 45 0 2208 3651 L 0 129 2231 3651 L
45 0 2208 3780 L 45 0 2213 3469 L 0 187 2235 3469 L 45 0 2213 3656 L 45 0 2237 3634 L 0 119 2259 3634 L 45 0 2237 3753 L
45 0 2291 3615 L 0 155 2313 3615 L 45 0 2291 3770 L 45 0 2293 3339 L 0 493 2315 3339 L 45 0 2293 3832 L 45 0 2293 3639 L
0 230 2316 3639 L 45 0 2293 3869 L 45 0 2323 3631 L 0 151 2346 3631 L 45 0 2323 3782 L 45 0 2327 3424 L 0 666 2350 3424 L
45 0 2327 4090 L 45 0 2334 3583 L 0 211 2356 3583 L 45 0 2334 3794 L 45 0 2340 4017 L 0 794 2362 4017 L 45 0 2340 4811 L
45 0 2346 4120 L 0 454 2368 4120 L 45 0 2346 4574 L 45 0 2352 3241 L 0 899 2374 3241 L 45 0 2352 4140 L 45 0 2365 3699 L
0 323 2388 3699 L 45 0 2365 4022 L 45 0 2365 3733 L 0 284 2388 3733 L 45 0 2365 4017 L 45 0 2365 3650 L 0 153 2388 3650 L
45 0 2365 3803 L 45 0 2380 3222 L 0 559 2402 3222 L 45 0 2380 3781 L 45 0 2381 3657 L 0 155 2404 3657 L 45 0 2381 3812 L
45 0 2391 3650 L 0 128 2414 3650 L 45 0 2391 3778 L 45 0 2418 3360 L 0 490 2440 3360 L 45 0 2418 3850 L 45 0 2422 3681 L
0 294 2444 3681 L 45 0 2422 3975 L 45 0 2424 3089 L 0 536 2447 3089 L 45 0 2424 3625 L 45 0 2430 3409 L 0 806 2453 3409 L
45 0 2430 4215 L 45 0 2446 2517 L 0 1109 2469 2517 L 45 0 2446 3626 L 45 0 2450 3591 L 0 195 2472 3591 L 45 0 2450 3786 L
45 0 2460 3629 L 0 191 2482 3629 L 45 0 2460 3820 L 45 0 2468 3683 L 0 152 2490 3683 L 45 0 2468 3835 L 45 0 2468 3714 L
0 150 2490 3714 L 45 0 2468 3864 L 45 0 2472 3625 L 0 168 2494 3625 L 45 0 2472 3793 L 45 0 2474 3815 L 0 114 2496 3815 L
45 0 2474 3929 L 45 0 2498 3153 L 0 953 2521 3153 L 45 0 2498 4106 L 45 0 2514 3686 L 0 117 2536 3686 L 45 0 2514 3803 L
45 0 2516 3715 L 0 124 2538 3715 L 45 0 2516 3839 L 45 0 2552 3737 L 0 388 2574 3737 L 45 0 2552 4125 L 45 0 2552 3738 L
0 173 2574 3738 L 45 0 2552 3911 L 45 0 2567 3269 L 0 725 2589 3269 L 45 0 2567 3994 L 45 0 2582 3725 L 0 159 2605 3725 L
45 0 2582 3884 L 45 0 2584 3717 L 0 210 2607 3717 L 45 0 2584 3927 L 45 0 2602 3751 L 0 112 2625 3751 L 45 0 2602 3863 L
45 0 2602 3774 L 0 107 2625 3774 L 45 0 2602 3881 L 45 0 2602 3786 L 0 136 2625 3786 L 45 0 2602 3922 L 45 0 2610 3622 L
0 389 2633 3622 L 45 0 2610 4011 L 45 0 2616 3590 L 0 155 2639 3590 L 45 0 2616 3745 L 45 0 2652 3627 L 0 234 2674 3627 L
45 0 2652 3861 L 45 0 2661 3614 L 0 963 2683 3614 L 45 0 2661 4577 L 45 0 2682 3674 L 0 113 2705 3674 L 45 0 2682 3787 L
45 0 2683 3660 L 0 640 2706 3660 L 45 0 2683 4300 L 45 0 2687 3691 L 0 135 2709 3691 L 45 0 2687 3826 L 45 0 2691 3795 L
0 84 2713 3795 L 45 0 2691 3879 L 45 0 2691 3174 L 0 617 2714 3174 L 45 0 2691 3791 L 45 0 2693 3167 L 0 677 2716 3167 L
45 0 2693 3844 L 45 0 2715 3228 L 0 520 2738 3228 L 45 0 2715 3748 L 45 0 2721 3555 L 0 250 2743 3555 L 45 0 2721 3805 L
45 0 2723 2894 L 0 885 2746 2894 L 45 0 2723 3779 L 45 0 2754 3625 L 0 297 2777 3625 L 45 0 2754 3922 L 45 0 2759 3681 L
0 302 2781 3681 L 45 0 2759 3983 L 45 0 2783 3795 L 0 111 2806 3795 L 45 0 2783 3906 L 45 0 2785 3472 L 0 223 2808 3472 L
45 0 2785 3695 L 45 0 2814 2436 L 0 1109 2836 2436 L 45 0 2814 3545 L 45 0 2826 3853 L 0 400 2848 3853 L 45 0 2826 4253 L
45 0 2828 3188 L 0 744 2850 3188 L 45 0 2828 3932 L 45 0 2831 3853 L 0 207 2854 3853 L 45 0 2831 4060 L 45 0 2831 3690 L
0 270 2854 3690 L 45 0 2831 3960 L 45 0 2842 3592 L 0 216 2864 3592 L 45 0 2842 3808 L 45 0 2848 3838 L 0 148 2870 3838 L
45 0 2848 3986 L 45 0 2850 3122 L 0 1107 2872 3122 L 45 0 2850 4229 L 45 0 2855 3812 L 0 111 2878 3812 L 45 0 2855 3923 L
45 0 2862 3567 L 0 843 2884 3567 L 45 0 2862 4410 L 45 0 2866 3799 L 0 243 2888 3799 L 45 0 2866 4042 L 45 0 2872 3680 L
0 312 2894 3680 L 45 0 2872 3992 L 45 0 2876 3280 L 0 424 2898 3280 L 45 0 2876 3704 L 45 0 2878 3072 L 0 487 2900 3072 L
45 0 2878 3559 L 45 0 2880 3608 L 0 473 2902 3608 L 45 0 2880 4081 L 45 0 2888 3816 L 0 403 2910 3816 L 45 0 2888 4219 L
45 0 2890 3756 L 0 173 2912 3756 L 45 0 2890 3929 L 45 0 2892 3394 L 0 508 2914 3394 L 45 0 2892 3902 L 45 0 2894 3551 L
0 571 2916 3551 L 45 0 2894 4122 L 45 0 2905 3744 L 0 120 2928 3744 L 45 0 2905 3864 L 45 0 2914 3499 L 0 548 2936 3499 L
45 0 2914 4047 L 45 0 2916 3781 L 0 1076 2938 3781 L 45 0 2916 4857 L 45 0 2918 3658 L 0 359 2941 3658 L 45 0 2918 4017 L
45 0 2920 3313 L 0 851 2943 3313 L 45 0 2920 4164 L 45 0 2943 3751 L 0 250 2966 3751 L 45 0 2943 4001 L 45 0 2950 3316 L
0 808 2973 3316 L 45 0 2950 4124 L 45 0 2962 3358 L 0 706 2985 3358 L 45 0 2962 4064 L 45 0 2966 3614 L 0 409 2989 3614 L
45 0 2966 4023 L 45 0 2970 3852 L 0 175 2993 3852 L 45 0 2970 4027 L 45 0 2974 3959 L 0 482 2996 3959 L 45 0 2974 4441 L
45 0 2986 3574 L 0 472 3009 3574 L 45 0 2986 4046 L 45 0 2988 3405 L 0 341 3011 3405 L 45 0 2988 3746 L 45 0 2992 3700 L
0 268 3015 3700 L 45 0 2992 3968 L 45 0 2996 3601 L 0 246 3019 3601 L 45 0 2996 3847 L 45 0 3007 3889 L 0 259 3030 3889 L
45 0 3007 4148 L 45 0 3043 3485 L 0 522 3065 3485 L 45 0 3043 4007 L 45 0 3053 3595 L 0 276 3075 3595 L 45 0 3053 3871 L
45 0 3054 3270 L 0 410 3076 3270 L 45 0 3054 3680 L 45 0 3054 3594 L 0 238 3076 3594 L 45 0 3054 3832 L 45 0 3075 2912 L
0 1118 3097 2912 L 45 0 3075 4030 L 45 0 3077 3549 L 0 281 3099 3549 L 45 0 3077 3830 L 45 0 3089 3171 L 0 471 3111 3171 L
45 0 3089 3642 L 45 0 3092 3904 L 0 303 3115 3904 L 45 0 3092 4207 L 45 0 3094 3551 L 0 192 3117 3551 L 45 0 3094 3743 L
45 0 3103 3340 L 0 527 3125 3340 L 45 0 3103 3867 L 45 0 3109 3775 L 0 486 3131 3775 L 45 0 3109 4261 L 45 0 3111 3793 L
0 249 3133 3793 L 45 0 3111 4042 L 45 0 3126 3621 L 0 130 3149 3621 L 45 0 3126 3751 L 45 0 3141 3655 L 0 117 3163 3655 L
45 0 3141 3772 L 45 0 3160 3725 L 0 229 3183 3725 L 45 0 3160 3954 L 45 0 3175 3609 L 0 376 3198 3609 L 45 0 3175 3985 L
45 0 3177 3701 L 0 550 3199 3701 L 45 0 3177 4251 L 45 0 3185 3477 L 0 467 3208 3477 L 45 0 3185 3944 L 45 0 3189 3222 L
0 381 3212 3222 L 45 0 3189 3603 L 45 0 3194 3502 L 0 242 3217 3502 L 45 0 3194 3744 L 45 0 3197 3432 L 0 209 3220 3432 L
45 0 3197 3641 L 45 0 3199 3548 L 0 341 3222 3548 L 45 0 3199 3889 L 45 0 3205 3662 L 0 172 3228 3662 L 45 0 3205 3834 L
45 0 3213 3328 L 0 661 3236 3328 L 45 0 3213 3989 L 45 0 3215 3569 L 0 202 3238 3569 L 45 0 3215 3771 L 45 0 3219 3596 L
0 402 3241 3596 L 45 0 3219 3998 L 45 0 3219 3604 L 0 369 3241 3604 L 45 0 3219 3973 L 45 0 3229 3269 L 0 621 3252 3269 L
45 0 3229 3890 L 45 0 3233 3661 L 0 132 3256 3661 L 45 0 3233 3793 L 45 0 3249 3681 L 0 104 3272 3681 L 45 0 3249 3785 L
45 0 3255 3741 L 0 253 3277 3741 L 45 0 3255 3994 L 45 0 3261 3710 L 0 83 3284 3710 L 45 0 3261 3793 L 45 0 3271 3129 L
0 803 3294 3129 L 45 0 3271 3932 L 45 0 3275 3674 L 0 187 3298 3674 L 45 0 3275 3861 L 45 0 3277 3629 L 0 171 3300 3629 L
45 0 3277 3800 L 45 0 3281 2930 L 0 780 3304 2930 L 45 0 3281 3710 L 45 0 3285 3638 L 0 381 3308 3638 L 45 0 3285 4019 L
45 0 3287 3631 L 0 283 3310 3631 L 45 0 3287 3914 L 45 0 3295 3457 L 0 714 3318 3457 L 45 0 3295 4171 L 45 0 3306 3552 L
0 167 3328 3552 L 45 0 3306 3719 L 45 0 3314 3555 L 0 375 3336 3555 L 45 0 3314 3930 L 45 0 3323 3642 L 0 221 3346 3642 L
45 0 3323 3863 L 45 0 3323 3653 L 0 203 3346 3653 L 45 0 3323 3856 L 45 0 3329 3722 L 0 153 3352 3722 L 45 0 3329 3875 L
45 0 3337 3526 L 0 209 3360 3526 L 45 0 3337 3735 L 45 0 3358 3736 L 0 320 3380 3736 L 45 0 3358 4056 L 45 0 3360 3942 L
0 202 3382 3942 L 45 0 3360 4144 L 45 0 3367 3650 L 0 210 3390 3650 L 45 0 3367 3860 L 45 0 3371 3725 L 0 150 3394 3725 L
45 0 3371 3875 L 45 0 3372 3732 L 0 252 3394 3732 L 45 0 3372 3984 L 45 0 3401 3598 L 0 236 3424 3598 L 45 0 3401 3834 L
45 0 3414 3457 L 0 328 3436 3457 L 45 0 3414 3785 L 45 0 3434 3700 L 0 301 3457 3700 L 45 0 3434 4001 L 45 0 3436 3667 L
0 168 3458 3667 L 45 0 3436 3835 L 45 0 3442 3618 L 0 175 3465 3618 L 45 0 3442 3793 L 45 0 3452 3405 L 0 567 3475 3405 L
45 0 3452 3972 L 45 0 3454 3340 L 0 311 3477 3340 L 45 0 3454 3651 L 45 0 3462 3619 L 0 153 3485 3619 L 45 0 3462 3772 L
45 0 3479 3762 L 0 365 3502 3762 L 45 0 3479 4127 L 45 0 3482 3599 L 0 186 3505 3599 L 45 0 3482 3785 L 45 0 3494 3483 L
0 345 3517 3483 L 45 0 3494 3828 L 45 0 3506 3626 L 0 169 3529 3626 L 45 0 3506 3795 L 45 0 3512 3420 L 0 205 3534 3420 L
45 0 3512 3625 L 45 0 3522 3768 L 0 250 3545 3768 L 45 0 3522 4018 L 45 0 3542 3698 L 0 412 3565 3698 L 45 0 3542 4110 L
45 0 3544 3705 L 0 439 3567 3705 L 45 0 3544 4144 L 45 0 3573 3575 L 0 207 3595 3575 L 45 0 3573 3782 L 45 0 3574 3595 L
0 451 3597 3595 L 45 0 3574 4046 L 45 0 3581 3400 L 0 361 3603 3400 L 45 0 3581 3761 L 45 0 3583 3491 L 0 470 3605 3491 L
45 0 3583 3961 L 45 0 3585 3559 L 0 541 3607 3559 L 45 0 3585 4100 L 45 0 3587 3679 L 0 198 3609 3679 L 45 0 3587 3877 L
45 0 3592 3674 L 0 153 3615 3674 L 45 0 3592 3827 L 45 0 3594 3863 L 0 324 3617 3863 L 45 0 3594 4187 L 45 0 3595 3454 L
0 667 3617 3454 L 45 0 3595 4121 L 45 0 3599 3540 L 0 364 3621 3540 L 45 0 3599 3904 L 45 0 3606 3667 L 0 192 3629 3667 L
45 0 3606 3859 L 45 0 3613 3016 L 0 923 3635 3016 L 45 0 3613 3939 L 45 0 3632 3921 L 0 310 3655 3921 L 45 0 3632 4231 L
45 0 3655 3903 L 0 408 3677 3903 L 45 0 3655 4311 L 45 0 3671 3592 L 0 392 3693 3592 L 45 0 3671 3984 L 45 0 3689 3943 L
0 264 3712 3943 L 45 0 3689 4207 L 45 0 3692 3956 L 0 73 3715 3956 L 45 0 3692 4029 L 45 0 3701 3943 L 0 166 3723 3943 L
45 0 3701 4109 L 45 0 3703 3936 L 0 311 3726 3936 L 45 0 3703 4247 L 45 0 3705 3984 L 0 304 3728 3984 L 45 0 3705 4288 L
45 0 3711 3519 L 0 507 3734 3519 L 45 0 3711 4026 L 45 0 3715 3819 L 0 385 3738 3819 L 45 0 3715 4204 L 45 0 3721 3907 L
0 406 3744 3907 L 45 0 3721 4313 L 45 0 3735 3666 L 0 153 3758 3666 L 45 0 3735 3819 L 45 0 3739 3238 L 0 368 3762 3238 L
45 0 3739 3606 L 45 0 3743 3827 L 0 209 3766 3827 L 45 0 3743 4036 L 45 0 3747 3631 L 0 346 3770 3631 L 45 0 3747 3977 L
45 0 3751 3217 L 0 1061 3774 3217 L 45 0 3751 4278 L 45 0 3757 4272 L 0 693 3780 4272 L 45 0 3757 4965 L 45 0 3765 3771 L
0 308 3788 3771 L 45 0 3765 4079 L 45 0 3783 3480 L 0 482 3806 3480 L 45 0 3783 3962 L 45 0 3801 3844 L 0 168 3823 3844 L
45 0 3801 4012 L 45 0 3826 3968 L 0 398 3848 3968 L 45 0 3826 4366 L 45 0 3831 3709 L 0 247 3854 3709 L 45 0 3831 3956 L
45 0 3834 3869 L 0 516 3856 3869 L 45 0 3834 4385 L 45 0 3840 3241 L 0 445 3862 3241 L 45 0 3840 3686 L 45 0 3854 3944 L
0 335 3876 3944 L 45 0 3854 4279 L 45 0 3855 3867 L 0 91 3878 3867 L 45 0 3855 3958 L 45 0 3859 3602 L 0 222 3882 3602 L
45 0 3859 3824 L 45 0 3899 3133 L 0 509 3922 3133 L 45 0 3899 3642 L 45 0 3905 3578 L 0 486 3928 3578 L 45 0 3905 4064 L
45 0 3912 3773 L 0 338 3934 3773 L 45 0 3912 4111 L 45 0 3922 4280 L 0 418 3944 4280 L 45 0 3922 4698 L 45 0 3932 4030 L
0 693 3954 4030 L 45 0 3932 4723 L 45 0 3940 3987 L 0 326 3962 3987 L 45 0 3940 4313 L 45 0 3964 3815 L 0 384 3987 3815 L
45 0 3964 4199 L 45 0 3981 2953 L 0 1225 4004 2953 L 45 0 3981 4178 L 45 0 3982 3621 L 0 716 4005 3621 L 45 0 3982 4337 L
45 0 3985 3887 L 0 177 4008 3887 L 45 0 3985 4064 L 45 0 4006 4190 L 0 524 4029 4190 L 45 0 4006 4714 L 45 0 4056 3628 L
0 507 4078 3628 L 45 0 4056 4135 L 45 0 4058 3735 L 0 196 4081 3735 L 45 0 4058 3931 L 45 0 4067 3912 L 0 235 4089 3912 L
45 0 4067 4147 L 45 0 4067 3596 L 0 447 4090 3596 L 45 0 4067 4043 L 45 0 4105 3492 L 0 369 4127 3492 L 45 0 4105 3861 L
45 0 4107 3801 L 0 272 4129 3801 L 45 0 4107 4073 L 45 0 4111 3533 L 0 431 4133 3533 L 45 0 4111 3964 L 45 0 4133 3653 L
0 256 4155 3653 L 45 0 4133 3909 L 45 0 4135 3654 L 0 339 4157 3654 L 45 0 4135 3993 L 45 0 4148 3130 L 0 716 4171 3130 L
45 0 4148 3846 L 45 0 4148 2904 L 0 848 4171 2904 L 45 0 4148 3752 L 45 0 4151 3750 L 0 300 4173 3750 L 45 0 4151 4050 L
45 0 4161 3725 L 0 126 4183 3725 L 45 0 4161 3851 L 45 0 4167 3784 L 0 257 4189 3784 L 45 0 4167 4041 L 45 0 4177 3685 L
0 203 4199 3685 L 45 0 4177 3888 L 45 0 4191 3754 L 0 239 4213 3754 L 45 0 4191 3993 L 45 0 4215 3785 L 0 188 4237 3785 L
45 0 4215 3973 L 45 0 4229 3565 L 0 353 4252 3565 L 45 0 4229 3918 L 45 0 4237 3685 L 0 168 4260 3685 L 45 0 4237 3853 L
45 0 4239 3787 L 0 144 4262 3787 L 45 0 4239 3931 L 45 0 4241 3766 L 0 206 4264 3766 L 45 0 4241 3972 L 45 0 4243 3849 L
0 159 4266 3849 L 45 0 4243 4008 L 45 0 4269 3662 L 0 192 4291 3662 L 45 0 4269 3854 L 45 0 4269 3813 L 0 204 4291 3813 L
45 0 4269 4017 L 45 0 4273 4030 L 0 162 4296 4030 L 45 0 4273 4192 L 45 0 4275 3251 L 0 516 4298 3251 L 45 0 4275 3767 L
45 0 4277 3835 L 0 414 4300 3835 L 45 0 4277 4249 L 45 0 4285 3904 L 0 215 4308 3904 L 45 0 4285 4119 L 45 0 4311 3806 L
0 832 4334 3806 L 45 0 4311 4638 L 44 0 4312 3629 L 0 454 4334 3629 L 44 0 4312 4083 L 45 0 4315 3845 L 0 253 4338 3845 L
45 0 4315 4098 L 45 0 4315 4025 L 0 259 4338 4025 L 45 0 4315 4284 L 45 0 4352 3612 L 0 451 4374 3612 L 45 0 4352 4063 L
45 0 4362 3580 L 0 288 4384 3580 L 45 0 4362 3868 L 45 0 4364 3826 L 0 118 4386 3826 L 45 0 4364 3944 L 45 0 4368 3887 L
0 205 4390 3887 L 45 0 4368 4092 L 45 0 4370 3408 L 0 363 4392 3408 L 45 0 4370 3771 L 45 0 4378 3629 L 0 189 4400 3629 L
45 0 4378 3818 L 45 0 4394 3805 L 0 101 4416 3805 L 45 0 4394 3906 L 45 0 4406 3730 L 0 297 4428 3730 L 45 0 4406 4027 L
45 0 4410 3722 L 0 501 4432 3722 L 45 0 4410 4223 L 45 0 4418 3571 L 0 155 4440 3571 L 45 0 4418 3726 L 45 0 4430 3628 L
0 210 4452 3628 L 45 0 4430 3838 L 45 0 4430 3339 L 0 315 4452 3339 L 45 0 4430 3654 L 45 0 4430 3705 L 0 127 4452 3705 L
45 0 4430 3832 L 45 0 4436 3629 L 0 92 4458 3629 L 45 0 4436 3721 L 45 0 4438 3521 L 0 215 4461 3521 L 45 0 4438 3736 L
45 0 4450 3744 L 0 111 4473 3744 L 45 0 4450 3855 L 45 0 4452 3487 L 0 271 4475 3487 L 45 0 4452 3758 L 45 0 4460 3645 L
0 85 4483 3645 L 45 0 4460 3730 L 45 0 4461 3640 L 0 159 4484 3640 L 45 0 4461 3799 L 45 0 4470 3665 L 0 147 4493 3665 L
45 0 4470 3812 L 45 0 4482 3741 L 0 644 4505 3741 L 45 0 4482 4385 L 45 0 4490 3787 L 0 177 4513 3787 L 45 0 4490 3964 L
45 0 4500 3753 L 0 157 4522 3753 L 45 0 4500 3910 L 45 0 4502 3789 L 0 67 4525 3789 L 45 0 4502 3856 L 45 0 4514 3760 L
0 453 4537 3760 L 45 0 4514 4213 L 45 0 4522 3456 L 0 423 4545 3456 L 45 0 4522 3879 L 45 0 4536 3766 L 0 1025 4559 3766 L
45 0 4536 4791 L 45 0 4538 3710 L 0 228 4560 3710 L 45 0 4538 3938 L 45 0 4540 3742 L 0 663 4563 3742 L 45 0 4540 4405 L
45 0 4554 4032 L 0 279 4577 4032 L 45 0 4554 4311 L 45 0 4556 3634 L 0 232 4579 3634 L 45 0 4556 3866 L 45 0 4577 3476 L
0 411 4599 3476 L 45 0 4577 3887 L 45 0 4587 3734 L 0 488 4609 3734 L 45 0 4587 4222 L 45 0 4592 3602 L 0 365 4615 3602 L
45 0 4592 3967 L 45 0 4627 2478 L 0 861 4649 2478 L 45 0 4627 3339 L 45 0 4633 4158 L 0 660 4655 4158 L 45 0 4633 4818 L
45 0 4639 3522 L 0 2934 4661 3522 L 45 0 4639 6456 L 45 0 4642 3789 L 0 91 4665 3789 L 45 0 4642 3880 L 45 0 4643 4064 L
0 348 4665 4064 L 45 0 4643 4412 L 45 0 4645 3768 L 0 458 4667 3768 L 45 0 4645 4226 L 45 0 4685 3593 L 0 287 4707 3593 L
45 0 4685 3880 L 0 1709 4711 1170 L 45 0 4689 2879 L 45 0 4697 3796 L 0 113 4719 3796 L 45 0 4697 3909 L 45 0 4699 3702 L
0 185 4722 3702 L 45 0 4699 3887 L 45 0 4713 3771 L 0 74 4736 3771 L 45 0 4713 3845 L 45 0 4721 2882 L 0 2750 4744 2882 L
45 0 4721 5632 L 45 0 4729 3464 L 0 398 4752 3464 L 45 0 4729 3862 L 45 0 4733 3650 L 0 136 4756 3650 L 45 0 4733 3786 L
45 0 4735 3574 L 0 191 4758 3574 L 45 0 4735 3765 L 45 0 4741 3654 L 0 193 4763 3654 L 45 0 4741 3847 L 45 0 4741 3717 L
0 121 4764 3717 L 45 0 4741 3838 L 45 0 4743 3682 L 0 169 4765 3682 L 45 0 4743 3851 L 45 0 4745 3754 L 0 2480 4768 3754 L
45 0 4745 6234 L 45 0 4747 3017 L 0 1277 4770 3017 L 45 0 4747 4294 L 45 0 4771 3748 L 0 199 4794 3748 L 45 0 4771 3947 L
45 0 4775 3846 L 0 297 4798 3846 L 45 0 4775 4143 L 45 0 4797 3698 L 0 131 4820 3698 L 45 0 4797 3829 L 45 0 4801 3331 L
0 1232 4824 3331 L 45 0 4801 4563 L 45 0 4813 3769 L 0 135 4836 3769 L 45 0 4813 3904 L 44 0 4814 2708 L 0 1569 4836 2708 L
44 0 4814 4277 L 45 0 4820 3702 L 0 158 4842 3702 L 45 0 4820 3860 L 45 0 4822 3661 L 0 149 4844 3661 L 45 0 4822 3810 L
45 0 4824 3601 L 0 178 4846 3601 L 45 0 4824 3779 L 45 0 4825 3696 L 0 216 4847 3696 L 45 0 4825 3912 L 45 0 4836 3766 L
0 158 4858 3766 L 45 0 4836 3924 L 45 0 4862 3782 L 0 102 4884 3782 L 45 0 4862 3884 L 45 0 4876 3510 L 0 423 4898 3510 L
45 0 4876 3933 L 45 0 4877 3603 L 0 244 4900 3603 L 45 0 4877 3847 L 45 0 4880 3758 L 0 449 4902 3758 L 45 0 4880 4207 L
45 0 4894 3823 L 0 129 4916 3823 L 45 0 4894 3952 L 45 0 4897 3902 L 0 225 4920 3902 L 45 0 4897 4127 L 45 0 4901 3840 L
0 243 4924 3840 L 45 0 4901 4083 L 45 0 4902 3887 L 0 256 4924 3887 L 45 0 4902 4143 L 45 0 4915 3717 L 0 184 4938 3717 L
45 0 4915 3901 L 45 0 4938 3864 L 0 218 4961 3864 L 45 0 4938 4082 L 45 0 4956 3787 L 0 112 4979 3787 L 45 0 4956 3899 L
45 0 4958 3544 L 0 355 4981 3544 L 45 0 4958 3899 L 45 0 4960 3835 L 0 125 4982 3835 L 45 0 4960 3960 L 45 0 4988 3913 L
0 284 5011 3913 L 45 0 4988 4197 L 45 0 5002 3655 L 0 200 5025 3655 L 45 0 5002 3855 L 45 0 5008 1623 L 0 2144 5031 1623 L
45 0 5008 3767 L 45 0 5010 3718 L 0 73 5032 3718 L 45 0 5010 3791 L 45 0 5014 4055 L 0 482 5037 4055 L 45 0 5014 4537 L
45 0 5016 3671 L 0 112 5039 3671 L 45 0 5016 3783 L 45 0 5022 3697 L 0 276 5045 3697 L 45 0 5022 3973 L 45 0 5032 3353 L
0 405 5055 3353 L 45 0 5032 3758 L 45 0 5044 3647 L 0 182 5066 3647 L 45 0 5044 3829 L 45 0 5048 3723 L 0 91 5070 3723 L
45 0 5048 3814 L 45 0 5071 3284 L 0 391 5093 3284 L 45 0 5071 3675 L 45 0 5075 3627 L 0 289 5097 3627 L 45 0 5075 3916 L
45 0 5080 3650 L 0 203 5103 3650 L 45 0 5080 3853 L 45 0 5081 3550 L 0 538 5103 3550 L 45 0 5081 4088 L 0 2089 5103 1170 L
45 0 5081 3259 L 45 0 5111 3609 L 0 697 5133 3609 L 45 0 5111 4306 L 45 0 5125 3784 L 0 151 5147 3784 L 45 0 5125 3935 L
45 0 5128 3706 L 0 157 5151 3706 L 45 0 5128 3863 L 45 0 5145 3773 L 0 589 5167 3773 L 45 0 5145 4362 L 45 0 5159 3743 L
0 84 5181 3743 L 45 0 5159 3827 L 45 0 5167 3869 L 0 323 5189 3869 L 45 0 5167 4192 L 45 0 5171 3882 L 0 174 5193 3882 L
45 0 5171 4056 L 45 0 5173 1545 L 0 1633 5195 1545 L 45 0 5173 3178 L 45 0 5179 3754 L 0 340 5201 3754 L 45 0 5179 4094 L
45 0 5185 3773 L 0 119 5207 3773 L 45 0 5185 3892 L 45 0 5187 3590 L 0 662 5209 3590 L 45 0 5187 4252 L 45 0 5191 3726 L
0 187 5213 3726 L 45 0 5191 3913 L 45 0 5197 3784 L 0 209 5220 3784 L 45 0 5197 3993 L 45 0 5203 3411 L 0 2648 5226 3411 L
45 0 5203 6059 L 45 0 5205 3530 L 0 604 5228 3530 L 45 0 5205 4134 L 45 0 5225 3639 L 0 348 5247 3639 L 45 0 5225 3987 L
45 0 5229 3689 L 0 711 5252 3689 L 45 0 5229 4400 L 45 0 5231 3717 L 0 256 5254 3717 L 45 0 5231 3973 L 45 0 5237 3392 L
0 229 5260 3392 L 45 0 5237 3621 L 45 0 5257 3585 L 0 229 5280 3585 L 45 0 5257 3814 L 45 0 5261 3845 L 0 209 5283 3845 L
45 0 5261 4054 L 45 0 5263 3569 L 0 251 5286 3569 L 45 0 5263 3820 L 45 0 5267 3896 L 0 314 5290 3896 L 45 0 5267 4210 L
45 0 5275 3597 L 0 229 5298 3597 L 45 0 5275 3826 L 45 0 5297 3611 L 0 1030 5320 3611 L 45 0 5297 4641 L 45 0 5316 3685 L
0 215 5338 3685 L 45 0 5316 3900 L 45 0 5316 3158 L 0 1277 5338 3158 L 45 0 5316 4435 L 45 0 5341 3667 L 0 180 5364 3667 L
45 0 5341 3847 L 45 0 5348 3814 L 0 155 5370 3814 L 45 0 5348 3969 L 45 0 5354 3730 L 0 113 5376 3730 L 45 0 5354 3843 L
45 0 5356 3510 L 0 805 5378 3510 L 45 0 5356 4315 L 45 0 5378 3722 L 0 126 5400 3722 L 45 0 5378 3848 L 45 0 5401 3678 L
0 240 5424 3678 L 45 0 5401 3918 L 45 0 5402 3666 L 0 290 5424 3666 L 45 0 5402 3956 L 45 0 5418 3774 L 0 63 5440 3774 L
45 0 5418 3837 L 45 0 5420 3627 L 0 162 5442 3627 L 45 0 5420 3789 L 45 0 5424 3695 L 0 172 5446 3695 L 45 0 5424 3867 L
45 0 5431 3845 L 0 262 5454 3845 L 45 0 5431 4107 L 45 0 5436 3583 L 0 3046 5458 3583 L 45 0 5444 3820 L 0 754 5466 3820 L
45 0 5444 4574 L 45 0 5476 3777 L 0 138 5499 3777 L 45 0 5476 3915 L 45 0 5480 3744 L 0 160 5502 3744 L 45 0 5480 3904 L
45 0 5484 3777 L 0 319 5507 3777 L 45 0 5484 4096 L 45 0 5512 3812 L 0 298 5535 3812 L 45 0 5512 4110 L 45 0 5525 3750 L
0 88 5548 3750 L 45 0 5525 3838 L 45 0 5528 3797 L 0 105 5550 3797 L 45 0 5528 3902 L 45 0 5544 3704 L 0 102 5567 3704 L
45 0 5544 3806 L 45 0 5548 3786 L 0 168 5571 3786 L 45 0 5548 3954 L 0 3402 5583 1170 L 45 0 5560 4572 L 45 0 5562 3634 L
0 135 5585 3634 L 45 0 5562 3769 L 45 0 5579 3713 L 0 393 5601 3713 L 45 0 5579 4106 L 45 0 5592 3732 L 0 129 5614 3732 L
45 0 5592 3861 L 45 0 5609 2031 L 0 1318 5631 2031 L 45 0 5609 3349 L 45 0 5628 3696 L 0 103 5651 3696 L 45 0 5628 3799 L
45 0 5633 3452 L 0 491 5655 3452 L 45 0 5633 3943 L 45 0 5639 3676 L 0 106 5661 3676 L 45 0 5639 3782 L 45 0 5691 1480 L
0 2549 5714 1480 L 45 0 5691 4029 L 45 0 5709 3458 L 0 440 5732 3458 L 45 0 5709 3898 L 45 0 5711 3771 L 0 186 5733 3771 L
45 0 5711 3957 L 45 0 5715 3608 L 0 110 5738 3608 L 45 0 5715 3718 L 45 0 5717 3678 L 0 74 5739 3678 L 45 0 5717 3752 L
45 0 5721 3630 L 0 184 5744 3630 L 45 0 5721 3814 L 45 0 5733 3710 L 0 286 5756 3710 L 45 0 5733 3996 L 45 0 5741 3554 L
0 2442 5764 3554 L 45 0 5741 5996 L 45 0 5751 3582 L 0 202 5773 3582 L 45 0 5751 3784 L 45 0 5763 2827 L 0 1733 5786 2827 L
45 0 5763 4560 L 45 0 5769 3722 L 0 190 5792 3722 L 45 0 5769 3912 L 45 0 5773 3419 L 0 259 5796 3419 L 45 0 5773 3678 L
45 0 5791 3556 L 0 274 5813 3556 L 45 0 5791 3830 L 0 3159 5814 1170 L 45 0 5791 4329 L 45 0 5797 3676 L 0 346 5820 3676 L
45 0 5797 4022 L 45 0 5823 3596 L 0 237 5846 3596 L 45 0 5823 3833 L 0 3064 5856 1170 L 45 0 5834 4234 L 45 0 5836 3527 L
0 173 5858 3527 L 45 0 5836 3700 L 45 0 5850 3717 L 0 94 5872 3717 L 45 0 5850 3811 L 45 0 5853 3652 L 0 78 5876 3652 L
45 0 5853 3730 L 45 0 5864 3606 L 0 187 5886 3606 L 45 0 5864 3793 L 45 0 5879 3629 L 0 128 5902 3629 L 45 0 5879 3757 L
45 0 5880 3675 L 0 120 5902 3675 L 45 0 5880 3795 L 45 0 5885 3609 L 0 105 5908 3609 L 45 0 5885 3714 L 45 0 5886 1837 L
0 1675 5908 1837 L 45 0 5886 3512 L 45 0 5898 3556 L 0 375 5920 3556 L 45 0 5898 3931 L 45 0 5900 3402 L 0 305 5922 3402 L
45 0 5900 3707 L 45 0 5921 3743 L 0 60 5944 3743 L 45 0 5921 3803 L 45 0 5925 3663 L 0 249 5948 3663 L 45 0 5925 3912 L
45 0 5928 3648 L 0 180 5950 3648 L 45 0 5928 3828 L 45 0 5959 3709 L 0 170 5982 3709 L 45 0 5959 3879 L 45 0 5962 3751 L
0 126 5985 3751 L 45 0 5962 3877 L 45 0 5964 3610 L 0 530 5987 3610 L 45 0 5964 4140 L 45 0 5968 3723 L 0 194 5991 3723 L
45 0 5968 3917 L 45 0 5990 3685 L 0 159 6013 3685 L 45 0 5990 3844 L 45 0 5996 3541 L 0 171 6018 3541 L 45 0 5996 3712 L
45 0 6000 3607 L 0 219 6023 3607 L 45 0 6000 3826 L 45 0 6020 3679 L 0 125 6043 3679 L 45 0 6020 3804 L 45 0 6038 3690 L
0 89 6060 3690 L 45 0 6038 3779 L 45 0 6040 3731 L 0 314 6063 3731 L 45 0 6040 4045 L 45 0 6042 3564 L 0 416 6065 3564 L
45 0 6042 3980 L 45 0 6048 3621 L 0 467 6071 3621 L 45 0 6048 4088 L 45 0 6054 3720 L 0 105 6077 3720 L 45 0 6054 3825 L
45 0 6060 3661 L 0 260 6083 3661 L 45 0 6060 3921 L 45 0 6066 3736 L 0 150 6089 3736 L 45 0 6066 3886 L 45 0 6076 3525 L
0 762 6099 3525 L 45 0 6076 4287 L 45 0 6078 3713 L 0 118 6100 3713 L 45 0 6078 3831 L 45 0 6082 3684 L 0 149 6105 3684 L
45 0 6082 3833 L 45 0 6083 3548 L 0 407 6105 3548 L 45 0 6083 3955 L 45 0 6089 3426 L 0 432 6111 3426 L 45 0 6089 3858 L
45 0 6099 3678 L 0 870 6121 3678 L 45 0 6099 4548 L 45 0 6102 3712 L 0 148 6125 3712 L 45 0 6102 3860 L 45 0 6103 3356 L
0 782 6125 3356 L 45 0 6103 4138 L 45 0 6103 3306 L 0 2016 6125 3306 L 45 0 6103 5322 L 45 0 6106 3701 L 0 132 6129 3701 L
45 0 6106 3833 L 45 0 6109 3201 L 0 343 6131 3201 L 45 0 6109 3544 L 45 0 6131 3388 L 0 610 6153 3388 L 45 0 6131 3998 L
45 0 6138 3524 L 0 286 6161 3524 L 45 0 6138 3810 L 45 0 6141 3711 L 0 60 6163 3711 L 45 0 6141 3771 L 45 0 6145 3591 L
0 282 6167 3591 L 45 0 6145 3873 L 45 0 6149 3665 L 0 354 6171 3665 L 45 0 6149 4019 L 45 0 6169 3552 L 0 1329 6191 3552 L
45 0 6169 4881 L 45 0 6178 3805 L 0 250 6201 3805 L 45 0 6178 4055 L 45 0 6203 3842 L 0 81 6226 3842 L 45 0 6203 3923 L
45 0 6205 3776 L 0 135 6228 3776 L 45 0 6205 3911 L 45 0 6211 3711 L 0 125 6234 3711 L 45 0 6211 3836 L 45 0 6221 3553 L
0 392 6244 3553 L 45 0 6221 3945 L 45 0 6223 3387 L 0 329 6246 3387 L 45 0 6223 3716 L 45 0 6225 3773 L 0 285 6248 3773 L
45 0 6225 4058 L 45 0 6233 3376 L 0 3253 6256 3376 L 45 0 6235 3693 L 0 124 6258 3693 L 45 0 6235 3817 L 45 0 6243 3841 L
0 267 6266 3841 L 45 0 6243 4108 L 45 0 6261 3948 L 0 168 6284 3948 L 45 0 6261 4116 L 45 0 6267 3778 L 0 175 6290 3778 L
45 0 6267 3953 L 45 0 6271 3700 L 0 161 6294 3700 L 45 0 6271 3861 L 45 0 6271 2874 L 0 1553 6294 2874 L 45 0 6271 4427 L
45 0 6277 3493 L 0 871 6300 3493 L 45 0 6277 4364 L 45 0 6279 3724 L 0 239 6302 3724 L 45 0 6279 3963 L 45 0 6281 3886 L
0 216 6304 3886 L 45 0 6281 4102 L 45 0 6291 3637 L 0 295 6314 3637 L 45 0 6291 3932 L 45 0 6297 2987 L 0 1624 6320 2987 L
45 0 6297 4611 L 45 0 6313 3777 L 0 171 6336 3777 L 45 0 6313 3948 L 45 0 6325 3825 L 0 300 6348 3825 L 45 0 6325 4125 L
45 0 6327 4298 L 0 2331 6350 4298 L 45 0 6334 2534 L 0 892 6356 2534 L 45 0 6334 3426 L 45 0 6338 3598 L 0 305 6360 3598 L
45 0 6338 3903 L 45 0 6364 3529 L 0 688 6386 3529 L 45 0 6364 4217 L 45 0 6376 3499 L 0 637 6398 3499 L 45 0 6376 4136 L
45 0 6400 3654 L 0 214 6422 3654 L 45 0 6400 3868 L 0 2539 6428 1170 L 45 0 6406 3709 L 45 0 6436 2776 L 0 1321 6458 2776 L
45 0 6436 4097 L 45 0 6454 3690 L 0 252 6477 3690 L 45 0 6454 3942 L 45 0 6458 3590 L 0 359 6481 3590 L 45 0 6458 3949 L
45 0 6460 3526 L 0 247 6483 3526 L 45 0 6460 3773 L 45 0 6480 3534 L 0 213 6503 3534 L 45 0 6480 3747 L 45 0 6484 3730 L
0 325 6507 3730 L 45 0 6484 4055 L 45 0 6484 3524 L 0 229 6507 3524 L 45 0 6484 3753 L 45 0 6488 3595 L 0 207 6511 3595 L
45 0 6488 3802 L 45 0 6488 3589 L 0 144 6511 3589 L 45 0 6488 3733 L 45 0 6494 2855 L 0 2282 6517 2855 L 45 0 6494 5137 L
45 0 6498 3160 L 0 975 6521 3160 L 45 0 6498 4135 L 45 0 6530 3738 L 0 177 6553 3738 L 45 0 6530 3915 L 45 0 6534 3405 L
0 315 6557 3405 L 45 0 6534 3720 L 45 0 6534 3532 L 0 2497 6557 3532 L 45 0 6534 6029 L 45 0 6540 3647 L 0 245 6563 3647 L
45 0 6540 3892 L 45 0 6556 3210 L 0 599 6579 3210 L 45 0 6556 3809 L 45 0 6568 3635 L 0 192 6591 3635 L 45 0 6568 3827 L
45 0 6591 3651 L 0 251 6613 3651 L 45 0 6591 3902 L 45 0 6607 3759 L 0 182 6629 3759 L 45 0 6607 3941 L 45 0 6619 3359 L
0 1531 6641 3359 L 45 0 6619 4890 L 45 0 6621 3805 L 0 580 6643 3805 L 45 0 6621 4385 L 45 0 6627 3627 L 0 282 6649 3627 L
45 0 6627 3909 L 45 0 6631 3560 L 0 189 6653 3560 L 45 0 6631 3749 L 45 0 6643 3822 L 0 89 6665 3822 L 45 0 6643 3911 L
45 0 6645 3652 L 0 253 6667 3652 L 45 0 6645 3905 L 45 0 6669 3651 L 0 200 6691 3651 L 45 0 6669 3851 L 45 0 6671 3848 L
0 385 6693 3848 L 45 0 6671 4233 L 45 0 6685 3728 L 0 199 6707 3728 L 45 0 6685 3927 L 45 0 6691 3743 L 0 275 6713 3743 L
45 0 6691 4018 L 45 0 6697 3557 L 0 276 6719 3557 L 45 0 6697 3833 L 45 0 6699 3690 L 0 321 6721 3690 L 45 0 6699 4011 L
45 0 6707 4116 L 0 794 6730 4116 L 45 0 6707 4910 L 45 0 6711 3639 L 0 780 6734 3639 L 45 0 6711 4419 L 45 0 6713 3735 L
0 655 6736 3735 L 45 0 6713 4390 L 45 0 6719 3697 L 0 212 6742 3697 L 45 0 6719 3909 L 45 0 6721 4287 L 0 574 6744 4287 L
45 0 6721 4861 L 45 0 6723 3888 L 0 413 6746 3888 L 45 0 6723 4301 L 45 0 6729 3338 L 0 706 6752 3338 L 45 0 6729 4044 L
45 0 6741 3839 L 0 398 6764 3839 L 45 0 6741 4237 L 45 0 6751 3882 L 0 468 6774 3882 L 45 0 6751 4350 L 45 0 6759 3312 L
0 711 6782 3312 L 45 0 6759 4023 L 45 0 6775 3043 L 0 1496 6798 3043 L 45 0 6775 4539 L 45 0 6781 4038 L 0 639 6804 4038 L
45 0 6781 4677 L 45 0 6783 4009 L 0 816 6806 4009 L 45 0 6783 4825 L 45 0 6795 3455 L 0 853 6818 3455 L 45 0 6795 4308 L
45 0 6809 3371 L 0 439 6832 3371 L 45 0 6809 3810 L 45 0 6817 3287 L 0 461 6840 3287 L 45 0 6817 3748 L 45 0 6821 3634 L
0 149 6844 3634 L 45 0 6821 3783 L 45 0 6831 3324 L 0 1427 6854 3324 L 45 0 6831 4751 L 44 0 6838 3714 L 0 598 6860 3714 L
44 0 6838 4312 L 45 0 6840 3561 L 0 663 6862 3561 L 45 0 6840 4224 L 45 0 6846 3560 L 0 376 6868 3560 L 45 0 6846 3936 L
45 0 6852 2944 L 0 519 6874 2944 L 45 0 6852 3463 L 45 0 6856 3409 L 0 319 6878 3409 L 45 0 6856 3728 L 45 0 6860 2740 L
0 607 6882 2740 L 45 0 6860 3347 L 45 0 6884 3471 L 0 1373 6906 3471 L 45 0 6884 4844 L 45 0 6922 3436 L 0 440 6944 3436 L
45 0 6922 3876 L 45 0 6936 3571 L 0 212 6958 3571 L 45 0 6936 3783 L 45 0 6938 3769 L 0 191 6960 3769 L 45 0 6938 3960 L
45 0 6988 2732 L 0 1259 7011 2732 L 45 0 6988 3991 L 45 0 7022 3769 L 0 795 7045 3769 L 45 0 7022 4564 L 45 0 7028 3377 L
0 354 7051 3377 L 45 0 7028 3731 L 45 0 7044 3429 L 0 299 7067 3429 L 45 0 7044 3728 L 45 0 7058 3648 L 0 433 7081 3648 L
45 0 7058 4081 L 45 0 7066 2287 L 0 1581 7089 2287 L 45 0 7066 3868 L 45 0 7066 3741 L 0 554 7089 3741 L 45 0 7066 4295 L
45 0 7095 2508 L 0 836 7117 2508 L 45 0 7095 3344 L 45 0 7097 3999 L 0 890 7119 3999 L 45 0 7097 4889 L 45 0 7137 3431 L
0 504 7159 3431 L 45 0 7137 3935 L 45 0 7155 3878 L 0 278 7177 3878 L 45 0 7155 4156 L 0 2321 7187 1170 L 45 0 7165 3491 L
45 0 7167 3505 L 0 2036 7189 3505 L 45 0 7167 5541 L 45 0 7167 3854 L 0 387 7189 3854 L 45 0 7167 4241 L 45 0 7217 3683 L
0 1655 7240 3683 L 45 0 7217 5338 L 45 0 7225 3908 L 0 540 7248 3908 L 45 0 7225 4448 L 45 0 7273 3428 L 0 2164 7296 3428 L
45 0 7273 5592 L 45 0 7303 3699 L 0 426 7326 3699 L 45 0 7303 4125 L 45 0 7313 2226 L 0 2960 7336 2226 L 45 0 7313 5186 L
45 0 7327 3441 L 0 391 7350 3441 L 45 0 7327 3832 L 45 0 7384 3350 L 0 386 7406 3350 L 45 0 7384 3736 L 45 0 7400 3789 L
0 459 7422 3789 L 45 0 7400 4248 L 45 0 7402 3579 L 0 326 7424 3579 L 45 0 7402 3905 L 45 0 7410 3640 L 0 396 7432 3640 L
45 0 7410 4036 L 45 0 7426 3600 L 0 250 7448 3600 L 45 0 7426 3850 L 45 0 7438 3923 L 0 478 7460 3923 L 45 0 7438 4401 L
45 0 7490 2596 L 0 1790 7513 2596 L 45 0 7490 4386 L 45 0 7635 2259 L 0 2467 7657 2259 L 45 0 7635 4726 L 45 0 7709 1520 L
0 2111 7731 1520 L 45 0 7709 3631 L 45 0 7771 3518 L 0 1118 7794 3518 L 45 0 7771 4636 L 45 0 7819 3672 L 0 340 7842 3672 L
45 0 7819 4012 L 0 1745 7920 1170 L 45 0 7898 2915 L 45 0 7934 3444 L 0 907 7956 3444 L 45 0 7934 4351 L 45 0 7970 2642 L
0 997 7993 2642 L 45 0 7970 3639 L 45 0 7988 3232 L 0 587 8011 3232 L 45 0 7988 3819 L 45 0 8004 3541 L 0 562 8027 3541 L
45 0 8004 4103 L 45 0 8056 3569 L 0 259 8079 3569 L 45 0 8056 3828 L 45 0 8058 3658 L 0 297 8081 3658 L 45 0 8058 3955 L
45 0 8074 3783 L 0 296 8097 3783 L 45 0 8074 4079 L 45 0 8117 3667 L 0 564 8139 3667 L 45 0 8117 4231 L 45 0 8157 3745 L
0 329 8179 3745 L 45 0 8157 4074 L 45 0 8159 4150 L 0 1845 8181 4150 L 45 0 8159 5995 L 45 0 8167 3588 L 0 444 8189 3588 L
45 0 8167 4032 L 45 0 8193 3843 L 0 2572 8215 3843 L 45 0 8193 6415 L 45 0 8201 3551 L 0 417 8223 3551 L 45 0 8201 3968 L
45 0 8221 3518 L 0 317 8243 3518 L 45 0 8221 3835 L 45 0 8267 2594 L 0 1595 8290 2594 L 45 0 8267 4189 L 45 0 8277 3578 L
0 466 8300 3578 L 45 0 8277 4044 L 45 0 8287 3237 L 0 396 8310 3237 L 45 0 8287 3633 L 45 0 8291 3625 L 0 365 8314 3625 L
45 0 8291 3990 L 45 0 8311 3538 L 0 339 8334 3538 L 45 0 8311 3877 L 45 0 8325 3530 L 0 447 8348 3530 L 45 0 8325 3977 L
45 0 8339 3674 L 0 426 8362 3674 L 45 0 8339 4100 L 45 0 8347 3747 L 0 229 8370 3747 L 45 0 8347 3976 L 45 0 8376 3393 L
0 494 8398 3393 L 45 0 8376 3887 L 45 0 8392 3758 L 0 576 8414 3758 L 45 0 8392 4334 L 45 0 8416 3201 L 0 1712 8438 3201 L
45 0 8416 4913 L 45 0 8466 3711 L 0 2219 8488 3711 L 45 0 8466 5930 L 45 0 8472 3905 L 0 353 8494 3905 L 45 0 8472 4258 L
45 0 8472 3812 L 0 366 8495 3812 L 45 0 8472 4178 L 45 0 8478 3707 L 0 445 8500 3707 L 45 0 8478 4152 L 45 0 8522 3525 L
0 2582 8545 3525 L 45 0 8522 6107 L 45 0 8546 3642 L 0 804 8569 3642 L 45 0 8546 4446 L 45 0 8548 3578 L 0 290 8571 3578 L
45 0 8548 3868 L
1024 0 1024 K 3067 3303 M16 3342 3568 M16 3386 3381 M16 3438 3639 M16 3531 3935 M16 3549 3504 M16 3583 3663 M16 3585 3795 M16
3637 4280 M16 3639 4183 M16 3663 3567 M16 3665 4018 M16 3746 4227 M16 3802 4159 M16 3890 3591 M16 4159 3627 M16 4203 3781 M16
4436 3382 M16 4495 3773 M16 4730 3831 M16 4734 3643 M16 4840 3354 M16 4848 3558 M16 4866 3690 M16 4936 3717 M16 5009 3686 M16
5222 4935 M16 5224 4483 M16 5316 3882 M16 5372 3778 M16 5760 3909 M16 5764 3678 M16 5794 3674 M16 5874 3096 M16 5890 3615 M16
6091 4677 M16 6205 3594 M16 6448 4065 M16 6727 3548 M16 6762 3873 M16 6854 3782 M16 6886 3668 M16 6890 3365 M16 6902 3661 M16
7099 3666 M16 7300 3894 M16 7314 3720 M16 7408 3824 M16 7466 3550 M16 7472 3817 M16
44 0 3045 2788 L 0 1030 3067 2788 L 44 0 3045 3818 L 45 0 3320 3172 L 0 793 3342 3172 L 45 0 3320 3965 L 45 0 3364 2728 L
0 1306 3386 2728 L 45 0 3364 4034 L 45 0 3416 3354 L 0 570 3438 3354 L 45 0 3416 3924 L 45 0 3508 3465 L 0 939 3531 3465 L
45 0 3508 4404 L 45 0 3526 3107 L 0 794 3549 3107 L 45 0 3526 3901 L 45 0 3561 3353 L 0 620 3583 3353 L 45 0 3561 3973 L
45 0 3563 3202 L 0 1185 3585 3202 L 45 0 3563 4387 L 45 0 3615 3935 L 0 690 3637 3935 L 45 0 3615 4625 L 45 0 3617 3789 L
0 787 3639 3789 L 45 0 3617 4576 L 45 0 3641 2819 L 0 1496 3663 2819 L 45 0 3641 4315 L 45 0 3643 3789 L 0 458 3665 3789 L
45 0 3643 4247 L 45 0 3723 3820 L 0 813 3746 3820 L 45 0 3723 4633 L 45 0 3779 3747 L 0 825 3802 3747 L 45 0 3779 4572 L
45 0 3868 3183 L 0 815 3890 3183 L 45 0 3868 3998 L 45 0 4137 3355 L 0 544 4159 3355 L 45 0 4137 3899 L 45 0 4181 3478 L
0 606 4203 3478 L 45 0 4181 4084 L 45 0 4414 3039 L 0 685 4436 3039 L 45 0 4414 3724 L 45 0 4472 3508 L 0 529 4495 3508 L
45 0 4472 4037 L 45 0 4707 3556 L 0 549 4730 3556 L 45 0 4707 4105 L 45 0 4711 3353 L 0 580 4734 3353 L 45 0 4711 3933 L
45 0 4818 3091 L 0 527 4840 3091 L 45 0 4818 3618 L 45 0 4826 3102 L 0 911 4848 3102 L 45 0 4826 4013 L 45 0 4844 3458 L
0 464 4866 3458 L 45 0 4844 3922 L 45 0 4914 3462 L 0 510 4936 3462 L 45 0 4914 3972 L 45 0 4986 3363 L 0 647 5009 3363 L
45 0 4986 4010 L 45 0 5199 4626 L 0 618 5222 4626 L 45 0 5199 5244 L 45 0 5201 4098 L 0 771 5224 4098 L 45 0 5201 4869 L
45 0 5293 3660 L 0 443 5316 3660 L 45 0 5293 4103 L 45 0 5350 3483 L 0 591 5372 3483 L 45 0 5350 4074 L 45 0 5737 3552 L
0 715 5760 3552 L 45 0 5737 4267 L 45 0 5741 3398 L 0 560 5764 3398 L 45 0 5741 3958 L 45 0 5771 3331 L 0 686 5794 3331 L
45 0 5771 4017 L 45 0 5852 2721 L 0 750 5874 2721 L 45 0 5852 3471 L 45 0 5868 3267 L 0 696 5890 3267 L 45 0 5868 3963 L
45 0 6068 4337 L 0 681 6091 4337 L 45 0 6068 5018 L 45 0 6183 3312 L 0 564 6205 3312 L 45 0 6183 3876 L 45 0 6426 3833 L
0 464 6448 3833 L 45 0 6426 4297 L 45 0 6705 2805 L 0 1486 6727 2805 L 45 0 6705 4291 L 45 0 6739 3601 L 0 545 6762 3601 L
45 0 6739 4146 L 45 0 6831 3434 L 0 696 6854 3434 L 45 0 6831 4130 L 45 0 6864 2790 L 0 1756 6886 2790 L 45 0 6864 4546 L
45 0 6868 2897 L 0 936 6890 2897 L 45 0 6868 3833 L 45 0 6880 3335 L 0 652 6902 3335 L 45 0 6880 3987 L 45 0 7076 3146 L
0 1040 7099 3146 L 45 0 7076 4186 L 45 0 7277 3566 L 0 656 7300 3566 L 45 0 7277 4222 L 45 0 7291 3374 L 0 691 7314 3374 L
45 0 7291 4065 L 45 0 7386 3378 L 0 891 7408 3378 L 45 0 7386 4269 L 45 0 7444 3259 L 0 581 7466 3259 L 45 0 7444 3840 L
45 0 7450 3021 L 0 1593 7472 3021 L 45 0 7450 4614 L
0 1024 1024 K 1902 4404 M16 2105 3623 M16 2149 4037 M16 2151 3349 M16 2171 4109 M16 2233 3322 M16 2257 4006 M16 2312 4088 M16
2348 3672 M16 2392 4327 M16 2410 3982 M16 2474 3575 M16 2492 3589 M16 2536 3515 M16 2538 3895 M16 2579 3131 M16 2580 3498 M16
2609 3565 M16 2635 3861 M16 2703 3795 M16 2930 3219 M16 3119 2745 M16 3185 3163 M16 3187 3866 M16 3221 4749 M16 3243 3517 M16
3279 4451 M16 3392 4517 M16 3460 4262 M16 3536 3758 M16 3663 4220 M16 3699 3960 M16 3721 5274 M16 3771 3898 M16 3825 4656 M16
3857 3859 M16 3880 4067 M16 3882 3513 M16 3924 3807 M16 3966 3828 M16 4006 4578 M16 4042 3793 M16 4091 4313 M16 4173 3795 M16
4215 3827 M16 4241 3355 M16 4480 3463 M16 4524 3806 M16 4560 3300 M16 4582 3860 M16 4619 3916 M16 4663 3997 M16 4703 4075 M16
4721 3706 M16 4767 3693 M16 4813 3543 M16 4850 4158 M16 4904 3480 M16 4936 3519 M16 5036 3573 M16 5038 3737 M16 5040 3274 M16
5068 3485 M16 5105 3310 M16 5107 4139 M16 5153 3671 M16 5193 3817 M16 5249 3663 M16 5285 3763 M16 5321 3887 M16 5366 4056 M16
5422 4421 M16 5456 4038 M16 5504 4032 M16 5546 3719 M16 5582 4471 M16 5617 3730 M16 5655 3753 M16 5692 3874 M16 5737 3286 M16
5775 3315 M16 5815 3437 M16 5877 3979 M16 5880 3919 M16 5905 3636 M16 5946 3614 M16 5950 3859 M16 5980 4222 M16 6020 3624 M16
6058 3698 M16 6104 3590 M16 6127 3951 M16 6162 4322 M16 6163 3504 M16 6201 3809 M16
45 0 1879 3889 L 0 1029 1902 3889 L 45 0 1879 4918 L 45 0 2082 3369 L 0 508 2105 3369 L 45 0 2082 3877 L 45 0 2126 3552 L
0 970 2149 3552 L 45 0 2126 4522 L 45 0 2128 2716 L 0 1266 2151 2716 L 45 0 2128 3982 L 45 0 2148 3626 L 0 965 2171 3626 L
45 0 2148 4591 L 45 0 2210 2806 L 0 1032 2233 2806 L 45 0 2210 3838 L 45 0 2235 3715 L 0 581 2257 3715 L 45 0 2235 4296 L
45 0 2289 3476 L 0 1225 2312 3476 L 45 0 2289 4701 L 45 0 2325 3421 L 0 501 2348 3421 L 45 0 2325 3922 L 45 0 2369 4029 L
0 596 2392 4029 L 45 0 2369 4625 L 45 0 2387 3513 L 0 938 2410 3513 L 45 0 2387 4451 L 45 0 2452 3350 L 0 451 2474 3350 L
45 0 2452 3801 L 45 0 2470 3375 L 0 428 2492 3375 L 45 0 2470 3803 L 45 0 2514 3221 L 0 588 2536 3221 L 45 0 2514 3809 L
45 0 2516 3664 L 0 463 2538 3664 L 45 0 2516 4127 L 45 0 2556 2575 L 0 1113 2579 2575 L 45 0 2556 3688 L 45 0 2558 2904 L
0 1188 2580 2904 L 45 0 2558 4092 L 45 0 2586 3100 L 0 931 2609 3100 L 45 0 2586 4031 L 45 0 2612 3406 L 0 910 2635 3406 L
45 0 2612 4316 L 45 0 2681 3323 L 0 944 2703 3323 L 45 0 2681 4267 L 45 0 2907 2792 L 0 854 2930 2792 L 45 0 2907 3646 L
45 0 3096 2109 L 0 1273 3119 2109 L 45 0 3096 3382 L 45 0 3162 2680 L 0 967 3185 2680 L 45 0 3162 3647 L 45 0 3164 3331 L
0 1071 3187 3331 L 45 0 3164 4402 L 45 0 3199 4140 L 0 1218 3221 4140 L 45 0 3199 5358 L 45 0 3221 3010 L 0 1015 3243 3010 L
45 0 3221 4025 L 45 0 3257 3998 L 0 905 3279 3998 L 45 0 3257 4903 L 45 0 3369 3876 L 0 1281 3392 3876 L 45 0 3369 5157 L
45 0 3438 3737 L 0 1051 3460 3737 L 45 0 3438 4788 L 45 0 3514 3267 L 0 981 3536 3267 L 45 0 3514 4248 L 45 0 3640 3909 L
0 621 3663 3909 L 45 0 3640 4530 L 45 0 3676 3695 L 0 531 3699 3695 L 45 0 3676 4226 L 45 0 3699 4871 L 0 805 3721 4871 L
45 0 3699 5676 L 45 0 3749 3643 L 0 509 3771 3643 L 45 0 3749 4152 L 45 0 3803 4255 L 0 801 3825 4255 L 45 0 3803 5056 L
45 0 3835 3642 L 0 433 3857 3642 L 45 0 3835 4075 L 45 0 3857 3755 L 0 625 3880 3755 L 45 0 3857 4380 L 45 0 3859 3257 L
0 511 3882 3257 L 45 0 3859 3768 L 45 0 3901 3579 L 0 455 3924 3579 L 45 0 3901 4034 L 45 0 3944 3492 L 0 673 3966 3492 L
45 0 3944 4165 L 45 0 3983 4238 L 0 680 4006 4238 L 45 0 3983 4918 L 45 0 4020 3521 L 0 544 4042 3521 L 45 0 4020 4065 L
45 0 4068 3930 L 0 766 4091 3930 L 45 0 4068 4696 L 45 0 4150 3482 L 0 626 4173 3482 L 45 0 4150 4108 L 45 0 4193 3491 L
0 672 4215 3491 L 45 0 4193 4163 L 45 0 4219 3011 L 0 688 4241 3011 L 45 0 4219 3699 L 45 0 4458 3150 L 0 625 4480 3150 L
45 0 4458 3775 L 45 0 4502 3529 L 0 554 4524 3529 L 45 0 4502 4083 L 45 0 4538 2736 L 0 1128 4560 2736 L 45 0 4538 3864 L
45 0 4560 3586 L 0 547 4582 3586 L 45 0 4560 4133 L 45 0 4596 3645 L 0 543 4619 3645 L 45 0 4596 4188 L 45 0 4640 3751 L
0 493 4663 3751 L 45 0 4640 4244 L 45 0 4681 3776 L 0 598 4703 3776 L 45 0 4681 4374 L 45 0 4698 3501 L 0 410 4721 3501 L
45 0 4698 3911 L 45 0 4745 3339 L 0 708 4767 3339 L 45 0 4745 4047 L 45 0 4791 3203 L 0 680 4813 3203 L 45 0 4791 3883 L
45 0 4827 3842 L 0 633 4850 3842 L 45 0 4827 4475 L 45 0 4881 3132 L 0 696 4904 3132 L 45 0 4881 3828 L 45 0 4913 3291 L
0 456 4936 3291 L 45 0 4913 3747 L 45 0 5014 3180 L 0 786 5036 3180 L 45 0 5014 3966 L 45 0 5016 3490 L 0 495 5038 3490 L
45 0 5016 3985 L 45 0 5018 3002 L 0 544 5040 3002 L 45 0 5018 3546 L 45 0 5046 3160 L 0 650 5068 3160 L 45 0 5046 3810 L
45 0 5082 2970 L 0 679 5105 2970 L 45 0 5082 3649 L 45 0 5084 3668 L 0 943 5107 3668 L 45 0 5084 4611 L 45 0 5130 3424 L
0 493 5153 3424 L 45 0 5130 3917 L 45 0 5170 3417 L 0 800 5193 3417 L 45 0 5170 4217 L 45 0 5227 3350 L 0 625 5249 3350 L
45 0 5227 3975 L 45 0 5263 3467 L 0 593 5285 3467 L 45 0 5263 4060 L 45 0 5299 3589 L 0 596 5321 3589 L 45 0 5299 4185 L
45 0 5343 3752 L 0 608 5366 3752 L 45 0 5343 4360 L 45 0 5399 4082 L 0 678 5422 4082 L 45 0 5399 4760 L 45 0 5433 3864 L
0 349 5456 3864 L 45 0 5433 4213 L 45 0 5481 3655 L 0 754 5504 3655 L 45 0 5481 4409 L 45 0 5524 3421 L 0 596 5546 3421 L
45 0 5524 4017 L 45 0 5560 4060 L 0 822 5582 4060 L 45 0 5560 4882 L 45 0 5594 3460 L 0 540 5617 3460 L 45 0 5594 4000 L
45 0 5632 3495 L 0 516 5655 3495 L 45 0 5632 4011 L 45 0 5670 3603 L 0 541 5692 3603 L 45 0 5670 4144 L 45 0 5715 2936 L
0 700 5737 2936 L 45 0 5715 3636 L 45 0 5753 3026 L 0 579 5775 3026 L 45 0 5753 3605 L 45 0 5793 3153 L 0 568 5815 3153 L
45 0 5793 3721 L 45 0 5855 3605 L 0 748 5877 3605 L 45 0 5855 4353 L 45 0 5857 3603 L 0 633 5880 3603 L 45 0 5857 4236 L
45 0 5883 3322 L 0 628 5905 3322 L 45 0 5883 3950 L 45 0 5923 3311 L 0 607 5946 3311 L 45 0 5923 3918 L 45 0 5927 3521 L
0 676 5950 3521 L 45 0 5927 4197 L 45 0 5957 3991 L 0 463 5980 3991 L 45 0 5957 4454 L 45 0 5998 3127 L 0 993 6020 3127 L
45 0 5998 4120 L 45 0 6036 3387 L 0 621 6058 3387 L 45 0 6036 4008 L 45 0 6082 3298 L 0 584 6104 3298 L 45 0 6082 3882 L
45 0 6104 3654 L 0 593 6127 3654 L 45 0 6104 4247 L 45 0 6140 3828 L 0 987 6162 3828 L 45 0 6140 4815 L 45 0 6140 3198 L
0 611 6163 3198 L 45 0 6140 3809 L 45 0 6178 3493 L 0 631 6201 3493 L 45 0 6178 4124 L
0 0 0 K
PGPLOT restore showpage
%%PageTrailer
%%PageBoundingBox: 24 17 588 721
 
%%Trailer
%%BoundingBox: 24 17 588 721
%%DocumentFonts: 
%%Pages: 1
%%EOF
