 F
        7000       42054           1        1000
    0.950718112479640113E+05    0.950832549841942673E+05
 T
   0
 F F     0        1000
    0.248123216863277993E-02    0.950718112479640113E+05    0.950832549841942673E+05
