File: 2317aligned.std Src: J2317+1439 Nsub: 1 Nch: 1 Npol: 1 Nbin: 128 RMS: 1.58479e-06
MJD(mid): 55756.433458725478 Tsub: 18359.927 Freq: 1547.495 BW: -384
0 0 0 0.00434523
0 0 1 0.00436831
0 0 2 0.0045287
0 0 3 0.00502317
0 0 4 0.0045908
0 0 5 0.00372707
0 0 6 0.00326149
0 0 7 0.00308532
0 0 8 0.00276503
0 0 9 0.00225895
0 0 10 0.00164493
0 0 11 0.00111909
0 0 12 0.000805771
0 0 13 0.00101365
0 0 14 0.000958029
0 0 15 0.000390839
0 0 16 0.000220649
0 0 17 0.000178807
0 0 18 0.000183622
0 0 19 0.000162369
0 0 20 0.00016652
0 0 21 0.00014892
0 0 22 0.00015058
0 0 23 0.000134972
0 0 24 0.000135138
0 0 25 0.000121025
0 0 26 0.000120527
0 0 27 0.000107576
0 0 28 0.00010658
0 0 29 9.4625e-05
0 0 30 9.32967e-05
0 0 31 8.2338e-05
0 0 32 8.10097e-05
0 0 33 7.10474e-05
0 0 34 6.98851e-05
0 0 35 6.0753e-05
0 0 36 5.97567e-05
0 0 37 5.14547e-05
0 0 38 5.06244e-05
0 0 39 4.29866e-05
0 0 40 4.23226e-05
0 0 41 3.55148e-05
0 0 42 3.50168e-05
0 0 43 2.88734e-05
0 0 44 2.87073e-05
0 0 45 2.30619e-05
0 0 46 2.32281e-05
0 0 47 1.80807e-05
0 0 48 1.8247e-05
0 0 49 1.37638e-05
0 0 50 1.42618e-05
0 0 51 1.01109e-05
0 0 52 1.0609e-05
0 0 53 6.95607e-06
0 0 54 7.62034e-06
0 0 55 4.46548e-06
0 0 56 5.29576e-06
0 0 57 2.30714e-06
0 0 58 3.30343e-06
0 0 59 4.80587e-07
0 0 60 1.80889e-06
0 0 61 -6.81704e-07
0 0 62 6.46595e-07
0 0 63 -1.51174e-06
0 0 64 -1.83446e-07
0 0 65 -2.17601e-06
0 0 66 -6.81704e-07
0 0 67 -2.17601e-06
0 0 68 -6.81704e-07
0 0 69 -1.84399e-06
0 0 70 -3.49454e-07
0 0 71 -1.34574e-06
0 0 72 4.80587e-07
0 0 73 -3.49454e-07
0 0 74 1.31086e-06
0 0 75 9.78845e-07
0 0 76 2.97118e-06
0 0 77 2.63916e-06
0 0 78 4.79773e-06
0 0 79 4.96374e-06
0 0 80 7.12231e-06
0 0 81 7.62034e-06
0 0 82 9.94492e-06
0 0 83 1.09412e-05
0 0 84 1.34318e-05
0 0 85 1.47601e-05
0 0 86 1.75827e-05
0 0 87 1.9077e-05
0 0 88 2.22319e-05
0 0 89 2.42242e-05
0 0 90 2.77111e-05
0 0 91 3.02017e-05
0 0 92 3.38545e-05
0 0 93 3.70094e-05
0 0 94 4.09943e-05
0 0 95 4.46472e-05
0 0 96 4.91301e-05
0 0 97 5.32812e-05
0 0 98 5.79302e-05
0 0 99 6.27453e-05
0 0 100 6.80585e-05
0 0 101 7.33719e-05
0 0 102 7.90172e-05
0 0 103 8.49946e-05
0 0 104 9.08061e-05
0 0 105 9.74476e-05
0 0 106 0.000103757
0 0 107 0.000110897
0 0 108 0.000117206
0 0 109 0.00012501
0 0 110 0.000131486
0 0 111 0.000139788
0 0 112 0.000146595
0 0 113 0.000157388
0 0 114 0.000172663
0 0 115 0.000212513
0 0 116 0.000308317
0 0 117 0.000538116
0 0 118 0.0010002
0 0 119 0.00179686
0 0 120 0.00290816
0 0 121 0.00414067
0 0 122 0.00510469
0 0 123 0.00543827
0 0 124 0.00499029
0 0 125 0.0040188
0 0 126 0.00320504
0 0 127 0.00350623
