%!PS-Adobe-3.0 EPSF-3.0
%%For: bperera
%%Title: PGPLOT PostScript plot
%%Creator: PGPLOT [PSDRIV 6.6]
%%CreationDate: 26-May-2016 15:15
%%BoundingBox: (atend)
%%DocumentFonts: (atend)
%%LanguageLevel: 1
%%Orientation: Landscape
%%Pages: (atend)
%%EndComments
%%BeginProlog
/L {moveto rlineto currentpoint stroke moveto} bind def
/C {rlineto currentpoint stroke moveto} bind def
/D {moveto 0 0 rlineto currentpoint stroke moveto} bind def
/LW {5 mul setlinewidth} bind def
/BP {newpath moveto} bind def
/LP /rlineto load def
/EP {rlineto closepath eofill} bind def
/MB {gsave translate MFAC dup scale 1 setlinewidth 2 setlinecap 0 setlinejoin newpath} bind def
/ME /grestore load def
/CC {0 360 arc stroke} bind def
/FC {0 360 arc fill} bind def
/G {1024 div setgray} bind def
/K {3 -1 roll 1024 div 3 -1 roll 1024 div 3 -1 roll 1024 div setrgbcolor} bind def
% Uncomment next line to convert color to grey shades
%/K {3 -1 roll 3413 div 3 -1 roll 1739 div 3 -1 roll 9309 div add add setgray} bind def
%%EndProlog
%%BeginSetup
/#copies 1 def
%%EndSetup
 
%%Page: 1 1
%%BeginPageSetup
/PGPLOT save def
0.072 0.072 scale
8149 250 translate 90 rotate
1 setlinejoin 1 setlinecap 1 LW 1
%%EndPageSetup
%%PageBoundingBox: (atend)
1024 1024 1024 K 1 LW 0 0 BP 9749 0 LP 0 7799 LP -9749 0 EP 0 0 0 K
8286 0 975 1170 L -8286 0 9261 6629 L 0 -5459 C 0 90 1199 1170 L 0 45 1460 1170 L 0 45 1721 1170 L 0 45 1983 1170 L 0 45 2244 1170 L
0 90 2505 1170 L 0 45 2767 1170 L 0 45 3028 1170 L 0 45 3289 1170 L 0 45 3550 1170 L 0 90 3812 1170 L 0 45 4073 1170 L
0 45 4334 1170 L 0 45 4596 1170 L 0 45 4857 1170 L 0 90 5118 1170 L 0 45 5379 1170 L 0 45 5641 1170 L 0 45 5902 1170 L
0 45 6163 1170 L 0 90 6425 1170 L 0 45 6686 1170 L 0 45 6947 1170 L 0 45 7208 1170 L 0 45 7470 1170 L 0 90 7731 1170 L
0 45 7992 1170 L 0 45 8253 1170 L 0 45 8515 1170 L 0 45 8776 1170 L 0 90 9037 1170 L 0 90 1199 6539 L 0 45 1460 6584 L
0 45 1721 6584 L 0 45 1983 6584 L 0 45 2244 6584 L 0 90 2505 6539 L 0 45 2767 6584 L 0 45 3028 6584 L 0 45 3289 6584 L
0 45 3550 6584 L 0 90 3812 6539 L 0 45 4073 6584 L 0 45 4334 6584 L 0 45 4596 6584 L 0 45 4857 6584 L 0 90 5118 6539 L
0 45 5379 6584 L 0 45 5641 6584 L 0 45 5902 6584 L 0 45 6163 6584 L 0 90 6425 6539 L 0 45 6686 6584 L 0 45 6947 6584 L
0 45 7208 6584 L 0 45 7470 6584 L 0 90 7731 6539 L 0 45 7992 6584 L 0 45 8253 6584 L 0 45 8515 6584 L 0 45 8776 6584 L
0 90 9037 6539 L 108 0 905 990 L 12 6 1073 1038 L 18 18 C 0 -126 C -60 0 1247 1062 L -6 -54 C 6 6 C 18 6 C 18 0 C 18 -6 C 12 -12 C
6 -18 C 0 -12 C -6 -18 C -12 -12 C -18 -6 C -18 0 C -18 6 C -6 6 C -6 12 C -18 -6 1331 1062 L -12 -18 C -6 -30 C 0 -18 C 6 -30 C
12 -18 C 18 -6 C 12 0 C 18 6 C 12 18 C 6 30 C 0 18 C -6 30 C -12 18 C -18 6 C -12 0 C -18 -6 1451 1062 L -12 -18 C -6 -30 C 0 -18 C
6 -30 C 12 -18 C 18 -6 C 12 0 C 18 6 C 12 18 C 6 30 C 0 18 C -6 30 C -12 18 C -18 6 C -12 0 C 108 0 2211 990 L 12 6 2379 1038 L
18 18 C 0 -126 C -18 -6 2517 1062 L -12 -18 C -6 -30 C 0 -18 C 6 -30 C 12 -18 C 18 -6 C 12 0 C 18 6 C 12 18 C 6 30 C 0 18 C -6 30 C
-12 18 C -18 6 C -12 0 C -18 -6 2637 1062 L -12 -18 C -6 -30 C 0 -18 C 6 -30 C 12 -18 C 18 -6 C 12 0 C 18 6 C 12 18 C 6 30 C 0 18 C
-6 30 C -12 18 C -18 6 C -12 0 C -18 -6 2757 1062 L -12 -18 C -6 -30 C 0 -18 C 6 -30 C 12 -18 C 18 -6 C 12 0 C 18 6 C 12 18 C 6 30 C
0 18 C -6 30 C -12 18 C -18 6 C -12 0 C 108 0 3578 990 L -60 0 3800 1062 L -6 -54 C 6 6 C 18 6 C 18 0 C 18 -6 C 12 -12 C 6 -18 C
0 -12 C -6 -18 C -12 -12 C -18 -6 C -18 0 C -18 6 C -6 6 C -6 12 C -18 -6 3884 1062 L -12 -18 C -6 -30 C 0 -18 C 6 -30 C 12 -18 C
18 -6 C 12 0 C 18 6 C 12 18 C 6 30 C 0 18 C -6 30 C -12 18 C -18 6 C -12 0 C -18 -6 4004 1062 L -12 -18 C -6 -30 C 0 -18 C 6 -30 C
12 -18 C 18 -6 C 12 0 C 18 6 C 12 18 C 6 30 C 0 18 C -6 30 C -12 18 C -18 6 C -12 0 C -18 -6 5112 1062 L -12 -18 C -6 -30 C 0 -18 C
6 -30 C 12 -18 C 18 -6 C 12 0 C 18 6 C 12 18 C 6 30 C 0 18 C -6 30 C -12 18 C -18 6 C -12 0 C -60 0 6335 1062 L -6 -54 C 6 6 C
18 6 C 18 0 C 18 -6 C 12 -12 C 6 -18 C 0 -12 C -6 -18 C -12 -12 C -18 -6 C -18 0 C -18 6 C -6 6 C -6 12 C -18 -6 6419 1062 L
-12 -18 C -6 -30 C 0 -18 C 6 -30 C 12 -18 C 18 -6 C 12 0 C 18 6 C 11 18 C 6 30 C 0 18 C -6 30 C -11 18 C -18 6 C -12 0 C
-18 -6 6538 1062 L -12 -18 C -6 -30 C 0 -18 C 6 -30 C 12 -18 C 18 -6 C 12 0 C 18 6 C 12 18 C 6 30 C 0 18 C -6 30 C -12 18 C -18 6 C
-12 0 C 12 6 7527 1038 L 18 18 C 0 -126 C -18 -6 7665 1062 L -12 -18 C -6 -30 C 0 -18 C 6 -30 C 12 -18 C 18 -6 C 12 0 C 18 6 C
12 18 C 6 30 C 0 18 C -6 30 C -12 18 C -18 6 C -12 0 C -18 -6 7785 1062 L -12 -18 C -6 -30 C 0 -18 C 6 -30 C 12 -18 C 18 -6 C 12 0 C
18 6 C 12 18 C 6 30 C 0 18 C -6 30 C -12 18 C -18 6 C -12 0 C -18 -6 7905 1062 L -12 -18 C -6 -30 C 0 -18 C 6 -30 C 12 -18 C 18 -6 C
12 0 C 18 6 C 12 18 C 6 30 C 0 18 C -6 30 C -12 18 C -18 6 C -12 0 C 12 6 8833 1038 L 18 18 C 0 -126 C -60 0 9007 1062 L -6 -54 C
6 6 C 18 6 C 18 0 C 18 -6 C 12 -12 C 6 -18 C 0 -12 C -6 -18 C -12 -12 C -18 -6 C -18 0 C -18 6 C -6 6 C -6 12 C -18 -6 9091 1062 L
-12 -18 C -6 -30 C 0 -18 C 6 -30 C 12 -18 C 18 -6 C 12 0 C 18 6 C 12 18 C 6 30 C 0 18 C -6 30 C -12 18 C -18 6 C -12 0 C
-18 -6 9211 1062 L -12 -18 C -6 -30 C 0 -18 C 6 -30 C 12 -18 C 18 -6 C 12 0 C 18 6 C 12 18 C 6 30 C 0 18 C -6 30 C -12 18 C -18 6 C
-12 0 C 45 0 975 1252 L 90 0 975 1509 L 45 0 975 1767 L 45 0 975 2024 L 45 0 975 2281 L 45 0 975 2538 L 90 0 975 2795 L
45 0 975 3052 L 45 0 975 3310 L 45 0 975 3567 L 45 0 975 3824 L 90 0 975 4081 L 45 0 975 4338 L 45 0 975 4595 L 45 0 975 4853 L
45 0 975 5110 L 90 0 975 5367 L 45 0 975 5624 L 45 0 975 5881 L 45 0 975 6138 L 45 0 975 6396 L 0 108 784 1127 L -6 0 742 1283 L
-12 6 C -6 6 C -6 12 C 0 24 C 6 12 C 6 6 C 12 6 C 12 0 C 12 -6 C 18 -12 C 60 -60 C 0 84 C 84 84 742 1403 L 84 -84 742 1487 L
-6 12 736 1547 L -18 18 C 126 0 C 6 -18 712 1685 L 18 -12 C 30 -6 C 18 0 C 30 6 C 18 12 C 6 18 C 0 12 C -6 18 C -18 12 C -30 6 C
-18 0 C -30 -6 C -18 -12 C -6 -18 C 0 -12 C 0 80 702 1769 L 0 -45 648 1935 L 40 -5 C -4 5 C -5 13 C 0 14 C 5 13 C 9 9 C 13 5 C 9 0 C
14 -5 C 9 -9 C 4 -13 C 0 -14 C -4 -13 C -5 -5 C -9 -4 C 0 108 784 2538 L -6 12 736 2706 L -18 18 C 126 0 C 6 -18 712 2844 L 18 -12 C
30 -6 C 18 0 C 30 6 C 18 12 C 6 18 C 0 12 C -6 18 C -18 12 C -30 6 C -18 0 C -30 -6 C -18 -12 C -6 -18 C 0 -12 C 0 81 702 2928 L
0 -45 648 3095 L 40 -5 C -4 5 C -5 13 C 0 14 C 5 13 C 9 9 C 13 5 C 9 0 C 14 -5 C 9 -9 C 4 -13 C 0 -14 C -4 -13 C -5 -5 C -9 -4 C
6 -18 712 4075 L 18 -12 C 30 -6 C 18 0 C 30 6 C 18 12 C 6 18 C 0 12 C -6 18 C -18 12 C -30 6 C -18 0 C -30 -6 C -18 -12 C -6 -18 C
0 -12 C -6 12 736 5200 L -18 18 C 126 0 C 6 -18 712 5338 L 18 -12 C 30 -6 C 18 0 C 30 6 C 18 12 C 6 18 C 0 12 C -6 18 C -18 12 C
-30 6 C -18 0 C -30 -6 C -18 -12 C -6 -18 C 0 -12 C 0 81 702 5422 L 0 -45 648 5589 L 40 -5 C -4 5 C -5 13 C 0 14 C 5 13 C 9 9 C
13 5 C 9 0 C 14 -5 C 9 -9 C 4 -13 C 0 -14 C -4 -13 C -5 -5 C -9 -4 C
0 5459 9261 1170 L -48 0 9261 1479 L -48 0 9261 1804 L -48 0 9261 2129 L -97 0 9261 2455 L 0 108 9461 2198 L -6 12 9413 2366 L
-18 18 C 126 0 C 6 -18 9389 2504 L 18 -12 C 30 -6 C 18 0 C 30 6 C 18 12 C 6 18 C 0 12 C -6 18 C -18 12 C -30 6 C -18 0 C -30 -6 C
-18 -12 C -6 -18 C 0 -12 C 0 81 9378 2588 L 0 50 9324 2709 L 36 -27 C 0 13 C 5 9 C 4 5 C 14 4 C 9 0 C 13 -4 C 9 -9 C 5 -14 C 0 -13 C
-5 -14 C -4 -4 C -9 -5 C -48 0 9261 2780 L -48 0 9261 3105 L -48 0 9261 3431 L -48 0 9261 3756 L -97 0 9261 4081 L 6 -18 9389 4075 L
18 -12 C 30 -6 C 18 0 C 30 6 C 18 12 C 6 18 C 0 12 C -6 18 C -18 12 C -30 6 C -18 0 C -30 -6 C -18 -12 C -6 -18 C 0 -12 C
-48 0 9261 4406 L -48 0 9261 4732 L -48 0 9261 5057 L -48 0 9261 5382 L -97 0 9261 5707 L -6 12 9413 5541 L -18 18 C 126 0 C
6 -18 9389 5679 L 18 -12 C 30 -6 C 18 0 C 30 6 C 18 12 C 6 18 C 0 12 C -6 18 C -18 12 C -30 6 C -18 0 C -30 -6 C -18 -12 C -6 -18 C
0 -12 C 0 81 9378 5763 L 0 50 9324 5884 L 36 -27 C 0 13 C 5 9 C 4 5 C 14 4 C 9 0 C 13 -4 C 9 -9 C 5 -14 C 0 -13 C -5 -14 C -4 -4 C
-9 -5 C -48 0 9261 6033 L -48 0 9261 6358 L
61 0 9688 2730 L 0 54 9688 2730 L 6 18 C 6 6 C 12 6 C 12 0 C 12 -6 C 6 -6 C 6 -18 C 0 -54 C 1 0 9748 2772 L -7 -3 9749 2919 L
-6 -6 C -6 -12 C 0 -18 C 6 -12 C 12 -12 C 1 -1 C -12 -6 9748 3024 L -6 -18 C 0 -18 C 6 -18 C 12 -6 C 1 0 C 6 6 9688 3060 L -6 6 C
-6 -6 C 6 -6 C 19 0 9730 3066 L 61 0 9688 3180 L -12 -12 9748 3180 L -6 -12 C 0 -18 C 6 -12 C 12 -12 C 1 -1 C 19 0 9730 3228 L
19 0 9730 3294 L 19 0 9730 3408 L -12 -12 9748 3408 L -6 -12 C 0 -18 C 6 -12 C 12 -12 C 1 -1 C 61 0 9688 3456 L 6 6 9688 3594 L
-6 6 C -6 -6 C 6 -6 C 19 0 9730 3600 L 19 0 9730 3648 L -13 14 9749 3652 L -6 12 C 0 18 C 6 12 C 13 4 C 19 0 9730 3858 L
-12 12 9748 3858 L -6 12 C 0 18 C 6 11 C 12 12 C 1 1 C 19 0 9730 3971 L 19 0 9730 4037 L 61 0 9688 4085 L -12 -6 9748 4193 L
-6 -18 C 0 -18 C 6 -18 C 12 -6 C 1 1 C -7 -4 9749 4299 L -6 -6 C -6 -12 C 0 -18 C 6 -12 C 12 -12 C 1 0 C 19 0 9730 4439 L
-12 12 9748 4439 L -6 12 C 0 18 C 6 12 C 12 12 C 1 1 C -7 -4 9749 4617 L -6 -6 C -6 -12 C 0 -18 C 6 -12 C 12 -12 C 1 0 C
19 0 9730 4661 L -1 0 9749 4667 L -12 12 C -6 12 C 0 18 C 6 6 9688 4733 L -6 6 C -6 -6 C 6 -6 C 19 0 9730 4739 L 6 -12 9730 4811 L
12 -12 C 1 0 C -1 -1 9749 4854 L -12 -12 C -6 -12 C 0 -18 C 61 0 9688 4967 L -12 -12 9748 4967 L -6 -12 C 0 -18 C 6 -12 C 12 -12 C
1 0 C -12 -6 9748 5075 L -6 -18 C 0 -18 C 6 -18 C 12 -6 C 1 1 C
0 -96 3171 7145 L -6 -18 C -6 -6 C -12 -6 C -12 0 C -12 6 C -6 6 C -6 18 C 0 12 C 12 6 3231 7121 L 18 18 C 0 -126 C
-18 -6 3363 7145 L -6 -12 C 0 -12 C 6 -12 C 12 -6 C 24 -6 C 18 -6 C 12 -12 C 6 -12 C 0 -18 C -6 -12 C -6 -6 C -18 -6 C -24 0 C
-18 6 C -6 6 C -6 12 C 0 18 C 6 12 C 12 12 C 18 6 C 24 6 C 12 6 C 6 12 C 0 12 C -6 12 C -18 6 C -24 0 C -18 -6 3489 7145 L -12 -18 C
-6 -30 C 0 -18 C 6 -30 C 12 -18 C 18 -6 C 12 0 C 18 6 C 12 18 C 6 30 C 0 18 C -6 30 C -12 18 C -18 6 C -12 0 C 0 6 3579 7115 L
6 12 C 6 6 C 12 6 C 24 0 C 12 -6 C 6 -6 C 6 -12 C 0 -12 C -6 -12 C -12 -18 C -60 -60 C 84 0 C 108 0 3699 7073 L 0 6 3855 7115 L
6 12 C 6 6 C 12 6 C 24 0 C 12 -6 C 6 -6 C 6 -12 C 0 -12 C -6 -12 C -12 -18 C -60 -60 C 84 0 C 12 6 3987 7121 L 18 18 C 0 -126 C
0 6 4095 7115 L 6 12 C 6 6 C 12 6 C 24 0 C 12 -6 C 6 -6 C 6 -12 C 0 -12 C -6 -12 C -12 -18 C -60 -60 C 84 0 C -60 -84 4269 7145 L
90 0 C 0 -126 4269 7145 L -12 -12 4473 7169 L -12 -18 C -12 -24 C -6 -30 C 0 -24 C 6 -30 C 12 -24 C 12 -18 C 12 -12 C
30 -126 4503 7145 L -30 -126 4563 7145 L 30 -126 4563 7145 L -30 -126 4623 7145 L 0 -84 4659 7103 L 6 18 4659 7067 L 12 12 C 12 6 C
18 0 C 0 -84 4737 7103 L 18 18 4737 7079 L 12 6 C 18 0 C 12 -6 C 6 -18 C 0 -60 C 18 18 4803 7079 L 12 6 C 18 0 C 12 -6 C 6 -18 C
0 -60 C -6 12 4977 7085 L -18 6 C -18 0 C -18 -6 C -6 -12 C 6 -12 C 12 -6 C 30 -6 C 12 -6 C 6 -12 C 0 -6 C -6 -12 C -18 -6 C -18 0 C
-18 6 C -6 12 C 108 0 5115 7091 L 108 0 5115 7055 L 66 0 5373 7145 L -36 -48 C 18 0 C 12 -6 C 6 -6 C 6 -18 C 0 -12 C -6 -18 C
-12 -12 C -18 -6 C -18 0 C -18 6 C -6 6 C -6 12 C -6 -6 5493 7031 L 6 -6 C 6 6 C -6 6 C -60 -126 5625 7145 L 84 0 5541 7145 L
12 6 5679 7121 L 18 18 C 0 -126 C -6 12 5859 7127 L -18 6 C -12 0 C -18 -6 C -12 -18 C -6 -30 C 0 -30 C 6 -24 C 12 -12 C 18 -6 C
6 0 C 18 6 C 12 12 C 6 18 C 0 6 C -6 18 C -12 12 C -18 6 C -6 0 C -18 -6 C -12 -12 C -6 -18 C -36 -126 6021 7103 L
-6 -30 6015 7079 L 0 -18 C 12 -12 C 12 0 C 12 6 C 12 12 C 12 24 C -12 -42 6081 7103 L -6 -24 C 0 -12 C 6 -6 C 12 0 C 12 12 C 6 12 C
-6 12 6189 7085 L -18 6 C -18 0 C -18 -6 C -6 -12 C 6 -12 C 12 -6 C 30 -6 C 12 -6 C 6 -12 C 0 -6 C -6 -12 C -18 -6 C -18 0 C -18 6 C
-6 12 C 12 -12 6225 7169 L 12 -18 C 12 -24 C 6 -30 C 0 -24 C -6 -30 C -12 -24 C -12 -18 C -12 -12 C 0 -126 6411 7103 L
12 12 6411 7085 L 12 6 C 18 0 C 12 -6 C 12 -12 C 6 -18 C 0 -12 C -6 -18 C -12 -12 C -12 -6 C -18 0 C -12 6 C -12 12 C
-12 -6 6549 7103 L -12 -12 C -6 -18 C 0 -12 C 6 -18 C 12 -12 C 12 -6 C 18 0 C 12 6 C 12 12 C 6 18 C 0 12 C -6 18 C -12 12 C -12 6 C
-18 0 C -6 12 6699 7085 L -18 6 C -18 0 C -18 -6 C -6 -12 C 6 -12 C 12 -6 C 30 -6 C 12 -6 C 6 -12 C 0 -6 C -6 -12 C -18 -6 C -18 0 C
-18 6 C -6 12 C 0 -102 6747 7145 L 6 -18 C 12 -6 C 12 0 C 42 0 6729 7103 L 108 0 6813 7073 L -12 0 7005 7145 L -12 -6 C -6 -18 C
0 -102 C 42 0 6957 7103 L 6 -6 7035 7145 L 6 6 C -6 6 C -6 -6 C 0 -84 7041 7103 L 0 -102 7095 7145 L 6 -18 C 12 -6 C 12 0 C
42 0 7077 7103 L 0 -126 4491 672 L 48 -126 4491 672 L -48 -126 4587 672 L 0 -126 4587 672 L 0 -96 4683 672 L -6 -18 C -6 -6 C
-12 -6 C -12 0 C -12 6 C -6 6 C -6 18 C 0 12 C 0 -126 4731 672 L 42 0 4731 672 L 18 -6 C 12 -12 C 6 -12 C 6 -18 C 0 -30 C -6 -18 C
-6 -12 C -12 -12 C -18 -6 C -42 0 C 108 0 4857 600 L -60 0 5079 672 L -6 -54 C 6 6 C 18 6 C 18 0 C 18 -6 C 12 -12 C 6 -18 C 0 -12 C
-6 -18 C -12 -12 C -18 -6 C -18 0 C -18 6 C -6 6 C -6 12 C -60 0 5199 672 L -6 -54 C 6 6 C 18 6 C 18 0 C 18 -6 C 12 -12 C 6 -18 C
0 -12 C -6 -18 C -12 -12 C -18 -6 C -18 0 C -18 6 C -6 6 C -6 12 C -60 0 5319 672 L -6 -54 C 6 6 C 18 6 C 18 0 C 18 -6 C 12 -12 C
6 -18 C 0 -12 C -6 -18 C -12 -12 C -18 -6 C -18 0 C -18 6 C -6 6 C -6 12 C -18 -6 5403 672 L -12 -18 C -6 -30 C 0 -18 C 6 -30 C
12 -18 C 18 -6 C 12 0 C 18 6 C 12 18 C 6 30 C 0 18 C -6 30 C -12 18 C -18 6 C -12 0 C -6 -18 5565 630 L -12 -12 C -18 -6 C -6 0 C
-18 6 C -12 12 C -6 18 C 0 6 C 6 18 C 12 12 C 18 6 C 6 0 C 18 -6 C 12 -12 C 6 -24 C 0 -30 C -6 -30 C -12 -18 C -18 -6 C -12 0 C
-18 6 C -6 12 C -6 -6 5619 558 L 6 -6 C 6 6 C -6 6 C -60 -126 5751 672 L 84 0 5667 672 L 126 0 420 2895 L 0 54 420 2895 L 6 18 C
6 6 C 12 6 C 18 0 C 12 -6 C 6 -6 C 6 -18 C 0 -54 C 6 -12 462 3045 L 12 -12 C 18 -6 C 12 0 C 18 6 C 12 12 C 6 12 C 0 18 C -6 12 C
-12 12 C -18 6 C -12 0 C -18 -6 C -12 -12 C -6 -12 C 0 -18 C -12 -6 480 3195 L -6 -18 C 0 -18 C 6 -18 C 12 -6 C 12 6 C 6 12 C 6 30 C
6 12 C 12 6 C 6 0 C 12 -6 C 6 -18 C 0 -18 C -6 -18 C -12 -6 C 102 0 420 3243 L 18 6 C 6 12 C 0 12 C 0 42 462 3225 L 0 -12 420 3345 L
6 -12 C 18 -6 C 102 0 C 0 42 462 3297 L 6 6 420 3375 L -6 6 C -6 -6 C 6 -6 C 84 0 462 3381 L 102 0 420 3435 L 18 6 C 6 12 C 0 12 C
0 42 462 3417 L 126 0 420 3597 L 0 54 420 3597 L 6 18 C 6 6 C 12 6 C 12 0 C 12 -6 C 6 -6 C 6 -18 C 0 -54 C 66 42 480 3639 L
0 72 498 3717 L -12 0 C -12 -6 C -6 -6 C -6 -12 C 0 -18 C 6 -12 C 12 -12 C 18 -6 C 12 0 C 18 6 C 12 12 C 6 12 C 0 18 C -6 12 C
-12 12 C -12 -6 480 3891 L -6 -18 C 0 -18 C 6 -18 C 12 -6 C 12 6 C 6 12 C 6 30 C 6 12 C 12 6 C 6 0 C 12 -6 C 6 -18 C 0 -18 C
-6 -18 C -12 -6 C 6 6 420 3926 L -6 6 C -6 -6 C 6 -6 C 84 0 462 3932 L 126 0 420 4046 L -12 -12 480 4046 L -6 -12 C 0 -18 C 6 -12 C
12 -12 C 18 -6 C 12 0 C 18 6 C 12 12 C 6 12 C 0 18 C -6 12 C -12 12 C 60 0 462 4094 L 18 6 C 6 12 C 0 18 C -6 12 C -18 18 C
84 0 462 4160 L 84 0 462 4274 L -12 -12 480 4274 L -6 -12 C 0 -18 C 6 -12 C 12 -12 C 18 -6 C 12 0 C 18 6 C 12 12 C 6 12 C 0 18 C
-6 12 C -12 12 C 126 0 420 4322 L 12 -12 396 4508 L 18 -12 C 24 -12 C 30 -6 C 24 0 C 30 6 C 24 12 C 18 12 C 12 12 C
-12 -6 480 4610 L -6 -18 C 0 -18 C 6 -18 C 12 -6 C 12 6 C 6 12 C 6 30 C 6 12 C 12 6 C 6 0 C 12 -6 C 6 -18 C 0 -18 C -6 -18 C
-12 -6 C 0 72 498 4646 L -12 0 C -12 -6 C -6 -6 C -6 -12 C 0 -18 C 6 -12 C 12 -12 C 18 -6 C 12 0 C 18 6 C 12 12 C 6 12 C 0 18 C
-6 12 C -12 12 C -12 -12 480 4826 L -6 -12 C 0 -18 C 6 -12 C 12 -12 C 18 -6 C 12 0 C 18 6 C 12 12 C 6 12 C 0 18 C -6 12 C -12 12 C
12 12 396 4862 L 18 12 C 24 12 C 30 6 C 24 0 C 30 -6 C 24 -12 C 18 -12 C 12 -12 C
1024 0 0 K 0 1024 0 K
/M16 {MB -4 -4 moveto 0 8 rlineto 8 0 rlineto 0 -8                              
rlineto closepath fill ME} bind def                                             
/MFAC      5.999 def    
1665 3485 M16 1665 3623 M16 1665 4152 M16 1665 4366 M16 1665 4121 M16 1699 3788 M16 1699 4109 M16 1699 3527 M16 1699 3782 M16
1699 4264 M16 1699 4033 M16 1699 4353 M16 1738 3878 M16 1738 3473 M16 1738 4176 M16 1738 4401 M16 1738 4074 M16 1738 3895 M16
1738 3879 M16 1738 3431 M16 1814 3886 M16 1814 4299 M16 1814 3995 M16 1814 4135 M16 1814 2609 M16 1814 2760 M16 1814 4762 M16
1814 3847 M16 1871 4343 M16 1871 3611 M16 1871 4339 M16 1871 3504 M16 1871 4121 M16 1871 4475 M16 1871 3098 M16 1916 4470 M16
1916 3635 M16 1916 4728 M16 1916 3525 M16 1916 3973 M16 1916 3168 M16 1939 4731 M16 1939 4951 M16 1939 4013 M16 1939 4539 M16
1939 4339 M16 1939 3069 M16 1939 4017 M16 1957 4190 M16 1957 4408 M16 1957 4768 M16 1957 4347 M16 1957 4395 M16 1957 4639 M16
1957 3716 M16 1994 3250 M16 1994 5644 M16 1994 4451 M16 1994 3815 M16 1994 4094 M16 1994 3589 M16 1994 4358 M16 1994 3483 M16
2072 4543 M16 2072 4385 M16 2072 4034 M16 2072 3443 M16 2072 3776 M16 2072 4191 M16 2072 3313 M16 2072 4532 M16 2153 4490 M16
2153 4055 M16 2153 5017 M16 2153 4139 M16 2153 4430 M16 2153 4007 M16 2153 3658 M16 2215 4529 M16 2215 2955 M16 2215 3111 M16
2215 5109 M16 2215 3806 M16 2215 4248 M16 2215 4797 M16 2304 3754 M16 2304 4120 M16 2304 3810 M16 2304 4276 M16 2304 3812 M16
2304 3428 M16 2424 4044 M16 2424 3920 M16 2424 4363 M16 2424 4794 M16 2424 4727 M16 2424 4504 M16 2424 4144 M16 2424 5048 M16
2489 4900 M16 2489 4740 M16 2489 4060 M16 2489 3432 M16 2489 3028 M16 2489 3758 M16 2489 3308 M16 2489 3676 M16 2562 3527 M16
2562 4119 M16 2562 3821 M16 2562 3856 M16 2562 3948 M16 2562 3887 M16 2562 4083 M16 2562 4023 M16 2593 4497 M16 2593 3423 M16
2593 3527 M16 2593 3535 M16 2593 4553 M16 2593 4019 M16 2593 4010 M16 2775 4089 M16 2775 3786 M16 2775 3994 M16 2775 4147 M16
2775 3363 M16 2775 4337 M16 2775 3835 M16 2775 2616 M16 2869 4672 M16 2869 4509 M16 2869 5477 M16 2869 2970 M16 2869 4948 M16
2869 4398 M16 2869 4943 M16 2869 4779 M16 2869 5675 M16 2869 4051 M16 2869 4654 M16 2869 4305 M16 2869 4727 M16 2869 3501 M16
2869 5270 M16 2932 4721 M16 2932 4278 M16 2932 3875 M16 2932 3681 M16 2932 4057 M16 2932 3482 M16 2932 4547 M16 2932 3866 M16
2989 3929 M16 2989 4102 M16 2989 4209 M16 2989 4356 M16 3031 4508 M16 3031 3729 M16 3031 4365 M16 3031 4175 M16 3031 4232 M16
3148 4106 M16 3148 4369 M16 3148 4486 M16 3148 4533 M16 3148 3582 M16 3148 3897 M16 3148 5075 M16 3281 3552 M16 3281 3847 M16
3281 3175 M16 3281 3778 M16 3281 4270 M16 3281 4101 M16 3281 4501 M16 3281 4218 M16 3393 2760 M16 3393 2222 M16 3393 3616 M16
3393 3329 M16 3393 6135 M16 3393 5026 M16 3393 2674 M16 3654 3349 M16 3654 3207 M16 3654 3789 M16 3654 3774 M16 3654 3555 M16
3654 3991 M16 3654 3707 M16 3654 3963 M16 3833 3103 M16 3833 3489 M16 3833 3025 M16 3833 3406 M16 3833 3331 M16 3833 3583 M16
3833 3264 M16 3833 3643 M16 3919 4144 M16 3919 4045 M16 3919 3835 M16 3919 3717 M16 3919 4229 M16 3919 3901 M16 3919 3905 M16
3919 4438 M16 3971 3863 M16 3971 3492 M16 3971 4100 M16 3971 3375 M16 3971 3913 M16 3971 3772 M16 3971 3585 M16 3972 3582 M16
4034 4086 M16 4034 3952 M16 4034 4509 M16 4034 4000 M16 4034 4108 M16 4034 3771 M16 4034 4220 M16 4034 3839 M16 4096 3707 M16
4096 4044 M16 4096 3973 M16 4097 4118 M16 4097 4308 M16 4097 3967 M16 4097 4179 M16 4097 4749 M16 4169 3628 M16 4169 3821 M16
4169 3697 M16 4169 3574 M16 4169 4156 M16 4170 3538 M16 4315 3688 M16 4315 3376 M16 4315 3746 M16 4315 4167 M16 4315 4187 M16
4315 3799 M16 4315 3925 M16 4315 3875 M16 4443 4100 M16 4443 3841 M16 4443 3427 M16 4443 3823 M16 4443 4484 M16 4443 4106 M16
4443 3901 M16 4480 4057 M16 4480 3903 M16 4480 3854 M16 4480 3673 M16 4480 3919 M16 4480 4237 M16 4581 4970 M16 4581 4431 M16
4581 4764 M16 4581 4549 M16 4581 4429 M16 4581 5133 M16 4581 5869 M16 4620 5013 M16 4620 5039 M16 4620 4540 M16 4620 4882 M16
4620 4500 M16 4620 4952 M16 4620 4933 M16 4620 5269 M16 4680 4573 M16 4680 4289 M16 4680 4894 M16 4680 4194 M16 4680 5354 M16
4881 3744 M16 4881 4614 M16 4881 4900 M16 4881 4915 M16 4881 4410 M16 4881 4181 M16 4959 5044 M16 4959 4133 M16 4959 4198 M16
4959 4602 M16 4959 4975 M16 4959 4592 M16 5032 4285 M16 5032 4798 M16 5032 4158 M16 5032 3802 M16 5032 3913 M16 5032 4555 M16
5032 4230 M16 5032 4489 M16 5087 4825 M16 5087 3799 M16 5087 4427 M16 5087 5513 M16 5087 5074 M16 5199 4452 M16 5199 4407 M16
5199 3847 M16 5199 3806 M16 5199 4519 M16 5199 4776 M16 5199 4075 M16 5326 4370 M16 5326 4340 M16 5326 4161 M16 5326 4760 M16
5326 4489 M16 5326 4820 M16 5326 4638 M16 5326 4699 M16 5436 3814 M16 5436 3607 M16 5436 4489 M16 5436 4515 M16 5436 4194 M16
5436 4284 M16 5436 4048 M16 5436 4084 M16 5532 4508 M16 5532 3125 M16 5532 3486 M16 5532 4489 M16 5532 4583 M16 5532 4256 M16
5532 4935 M16 5532 4408 M16 5610 4476 M16 5704 4545 M16 5704 3925 M16 5704 4171 M16 5704 3775 M16 5704 4241 M16 5704 4182 M16
5704 4024 M16 5717 4234 M16 5741 2896 M16 5793 4284 M16 5793 3736 M16 5793 3480 M16 5793 4021 M16 5793 3169 M16 5819 3148 M16
5827 4309 M16 5827 3793 M16 5827 4059 M16 5827 3818 M16 5827 3891 M16 5827 3701 M16 5827 3460 M16 5827 3956 M16 5847 3796 M16
5894 3915 M16 5894 3945 M16 5894 4465 M16 5894 3968 M16 5894 3013 M16 5894 3672 M16 5894 3788 M16 5895 3489 M16 5980 3879 M16
5980 3747 M16 5980 3836 M16 5980 3347 M16 5980 3444 M16 5980 4238 M16 5980 3586 M16 6004 4558 M16 6040 3877 M16 6040 3769 M16
6040 3995 M16 6040 4005 M16 6040 3698 M16 6040 3858 M16 6040 3929 M16 6137 3496 M16 6145 3881 M16 6145 3424 M16 6145 3683 M16
6181 3646 M16 6181 3972 M16 6181 4106 M16 6181 4180 M16 6181 4166 M16 6210 2597 M16 6241 3247 M16 6241 3685 M16 6241 3264 M16
6241 3881 M16 6241 3077 M16 6241 3373 M16 6241 3040 M16 6298 3783 M16 6298 3449 M16 6298 3935 M16 6342 4305 M16 6517 4023 M16
6517 3672 M16 6517 4286 M16 6517 3836 M16 6517 4173 M16 6517 4370 M16 6533 2915 M16 6585 3812 M16 6585 4756 M16 6585 3975 M16
6585 4336 M16 6585 4407 M16 6585 3433 M16 6611 3705 M16 6611 3829 M16 6611 3982 M16 6611 4370 M16 6676 3861 M16 6684 4051 M16
6684 4350 M16 6755 4777 M16 6781 4258 M16 6793 4970 M16 6793 4468 M16 6793 4639 M16 6793 4571 M16 6793 4335 M16 6793 4815 M16
6793 4986 M16 6872 4675 M16 6898 5074 M16 6898 4929 M16 6898 4676 M16 6898 4267 M16 6898 3182 M16 6973 5307 M16 6973 3905 M16
6973 4345 M16 6973 3701 M16 6973 4289 M16 7025 5658 M16 7025 4000 M16 7025 2354 M16 7033 4792 M16 7033 3857 M16 7033 4512 M16
7096 4049 M16 7273 3744 M16 7390 4488 M16 7515 3505 M16 7638 4068 M16 7734 4141 M16 7797 4498 M16 7797 3607 M16 7797 3476 M16
7797 4048 M16 7797 4816 M16 7862 4025 M16 7862 4347 M16 7862 4788 M16 7911 4148 M16 7971 4690 M16 7995 4190 M16 7995 3846 M16
7995 3936 M16 7995 4945 M16 8002 4042 M16 8002 4098 M16 8002 4057 M16 8002 4250 M16 8146 4174 M16 8328 3787 M16 8328 3603 M16
8328 3591 M16 8328 3711 M16 8328 3283 M16 8328 2536 M16 8328 4387 M16 8352 3885 M16 8367 4361 M16 8571 3838 M16
45 0 1643 3082 L 0 805 1665 3082 L 45 0 1643 3887 L 45 0 1643 3217 L 0 811 1665 3217 L 45 0 1643 4028 L 45 0 1643 3755 L
0 795 1665 3755 L 45 0 1643 4550 L 45 0 1643 3965 L 0 801 1665 3965 L 45 0 1643 4766 L 45 0 1643 3407 L 0 1429 1665 3407 L
45 0 1643 4836 L 45 0 1677 3395 L 0 786 1699 3395 L 45 0 1677 4181 L 45 0 1677 3705 L 0 809 1699 3705 L 45 0 1677 4514 L
45 0 1677 3136 L 0 783 1699 3136 L 45 0 1677 3919 L 45 0 1677 3374 L 0 816 1699 3374 L 45 0 1677 4190 L 45 0 1677 3877 L
0 774 1699 3877 L 45 0 1677 4651 L 45 0 1677 3609 L 0 848 1699 3609 L 45 0 1677 4457 L 45 0 1677 3884 L 0 938 1699 3884 L
45 0 1677 4822 L 45 0 1716 3312 L 0 1132 1738 3312 L 45 0 1716 4444 L 45 0 1716 3088 L 0 770 1738 3088 L 45 0 1716 3858 L
45 0 1716 3813 L 0 726 1738 3813 L 45 0 1716 4539 L 45 0 1716 4005 L 0 792 1738 4005 L 45 0 1716 4797 L 45 0 1716 3657 L
0 834 1738 3657 L 45 0 1716 4491 L 45 0 1716 3509 L 0 773 1738 3509 L 45 0 1716 4282 L 45 0 1716 3536 L 0 685 1738 3536 L
45 0 1716 4221 L 45 0 1716 3020 L 0 821 1738 3020 L 45 0 1716 3841 L 45 0 1791 3331 L 0 1110 1814 3331 L 45 0 1791 4441 L
45 0 1791 3651 L 0 1296 1814 3651 L 45 0 1791 4947 L 45 0 1791 3567 L 0 856 1814 3567 L 45 0 1791 4423 L 45 0 1791 3706 L
0 858 1814 3706 L 45 0 1791 4564 L 45 0 1791 2083 L 0 1051 1814 2083 L 45 0 1791 3134 L 45 0 1791 2346 L 0 827 1814 2346 L
45 0 1791 3173 L 45 0 1791 4337 L 0 850 1814 4337 L 45 0 1791 5187 L 44 0 1792 3366 L 0 962 1814 3366 L 44 0 1792 4328 L
45 0 1849 3895 L 0 895 1871 3895 L 45 0 1849 4790 L 45 0 1849 3205 L 0 812 1871 3205 L 45 0 1849 4017 L 45 0 1849 3926 L
0 825 1871 3926 L 45 0 1849 4751 L 45 0 1849 3107 L 0 794 1871 3107 L 45 0 1849 3901 L 45 0 1849 3725 L 0 792 1871 3725 L
45 0 1849 4517 L 45 0 1849 4030 L 0 890 1871 4030 L 45 0 1849 4920 L 45 0 1849 2645 L 0 905 1871 2645 L 45 0 1849 3550 L
45 0 1893 4079 L 0 781 1916 4079 L 45 0 1893 4860 L 45 0 1893 3273 L 0 723 1916 3273 L 45 0 1893 3996 L 45 0 1893 4330 L
0 795 1916 4330 L 45 0 1893 5125 L 45 0 1893 3117 L 0 817 1916 3117 L 45 0 1893 3934 L 45 0 1893 3585 L 0 775 1916 3585 L
45 0 1893 4360 L 45 0 1893 2375 L 0 1585 1916 2375 L 45 0 1893 3960 L 45 0 1916 4107 L 0 1247 1939 4107 L 45 0 1916 5354 L
45 0 1917 4447 L 0 1007 1939 4447 L 45 0 1917 5454 L 45 0 1917 3467 L 0 1093 1939 3467 L 45 0 1917 4560 L 45 0 1917 4055 L
0 967 1939 4055 L 45 0 1917 5022 L 45 0 1917 3757 L 0 1164 1939 3757 L 45 0 1917 4921 L 45 0 1917 2504 L 0 1129 1939 2504 L
45 0 1917 3633 L 45 0 1917 3499 L 0 1037 1939 3499 L 45 0 1917 4536 L 45 0 1935 3516 L 0 1347 1957 3516 L 45 0 1935 4863 L
45 0 1935 3782 L 0 1252 1957 3782 L 45 0 1935 5034 L 45 0 1935 4222 L 0 1093 1957 4222 L 45 0 1935 5315 L 45 0 1935 3822 L
0 1050 1957 3822 L 45 0 1935 4872 L 45 0 1935 3847 L 0 1096 1957 3847 L 45 0 1935 4943 L 45 0 1935 4075 L 0 1129 1957 4075 L
45 0 1935 5204 L 45 0 1935 3054 L 0 1323 1957 3054 L 45 0 1935 4377 L 45 0 1971 2627 L 0 1246 1994 2627 L 45 0 1971 3873 L
45 0 1971 4986 L 0 1316 1994 4986 L 45 0 1971 6302 L 45 0 1971 3883 L 0 1136 1994 3883 L 45 0 1971 5019 L 45 0 1971 3288 L
0 1053 1994 3288 L 45 0 1971 4341 L 45 0 1971 3568 L 0 1053 1994 3568 L 45 0 1971 4621 L 45 0 1971 2970 L 0 1238 1994 2970 L
45 0 1971 4208 L 45 0 1971 3794 L 0 1128 1994 3794 L 45 0 1971 4922 L 45 0 1971 2665 L 0 1636 1994 2665 L 45 0 1971 4301 L
45 0 2049 3993 L 0 1101 2072 3993 L 45 0 2049 5094 L 45 0 2049 3827 L 0 1115 2072 3827 L 45 0 2049 4942 L 45 0 2049 3496 L
0 1076 2072 3496 L 45 0 2049 4572 L 45 0 2049 2834 L 0 1219 2072 2834 L 45 0 2049 4053 L 45 0 2049 3257 L 0 1038 2072 3257 L
45 0 2049 4295 L 45 0 2049 3660 L 0 1062 2072 3660 L 45 0 2049 4722 L 45 0 2049 2606 L 0 1414 2072 2606 L 45 0 2049 4020 L
45 0 2049 3789 L 0 1487 2072 3789 L 45 0 2049 5276 L 45 0 2130 3861 L 0 1257 2153 3861 L 45 0 2130 5118 L 45 0 2130 3494 L
0 1123 2153 3494 L 45 0 2130 4617 L 45 0 2130 4454 L 0 1127 2153 4454 L 45 0 2130 5581 L 45 0 2130 3512 L 0 1254 2153 3512 L
45 0 2130 4766 L 45 0 2130 3891 L 0 1078 2153 3891 L 45 0 2130 4969 L 45 0 2130 3400 L 0 1215 2153 3400 L 45 0 2130 4615 L
45 0 2130 3083 L 0 1150 2153 3083 L 45 0 2130 4233 L 45 0 2193 3980 L 0 1098 2215 3980 L 45 0 2193 5078 L 45 0 2193 2424 L
0 1063 2215 2424 L 45 0 2193 3487 L 45 0 2193 2529 L 0 1163 2215 2529 L 45 0 2193 3692 L 45 0 2193 4567 L 0 1085 2215 4567 L
45 0 2193 5652 L 45 0 2193 3262 L 0 1087 2215 3262 L 45 0 2193 4349 L 45 0 2193 3704 L 0 1088 2215 3704 L 45 0 2193 4792 L
45 0 2193 4133 L 0 1328 2215 4133 L 45 0 2193 5461 L 45 0 2281 3261 L 0 986 2304 3261 L 45 0 2281 4247 L 45 0 2281 3363 L
0 1513 2304 3363 L 45 0 2281 4876 L 45 0 2281 3089 L 0 1441 2304 3089 L 45 0 2281 4530 L 45 0 2281 3677 L 0 1199 2304 3677 L
45 0 2281 4876 L 45 0 2281 3200 L 0 1223 2304 3200 L 45 0 2281 4423 L 45 0 2281 2797 L 0 1262 2304 2797 L 45 0 2281 4059 L
45 0 2401 3391 L 0 1305 2424 3391 L 45 0 2401 4696 L 45 0 2401 3364 L 0 1113 2424 3364 L 45 0 2401 4477 L 45 0 2401 3808 L
0 1110 2424 3808 L 45 0 2401 4918 L 45 0 2401 4273 L 0 1041 2424 4273 L 45 0 2401 5314 L 45 0 2401 4152 L 0 1149 2424 4152 L
45 0 2401 5301 L 45 0 2401 3901 L 0 1206 2424 3901 L 45 0 2401 5107 L 45 0 2401 3464 L 0 1361 2424 3464 L 45 0 2401 4825 L
45 0 2401 4455 L 0 1185 2424 4455 L 45 0 2401 5640 L 45 0 2466 4192 L 0 1415 2489 4192 L 45 0 2466 5607 L 45 0 2466 4164 L
0 1152 2489 4164 L 45 0 2466 5316 L 45 0 2466 3540 L 0 1040 2489 3540 L 45 0 2466 4580 L 45 0 2466 2930 L 0 1003 2489 2930 L
45 0 2466 3933 L 45 0 2466 2452 L 0 1152 2489 2452 L 45 0 2466 3604 L 45 0 2466 3169 L 0 1177 2489 3169 L 45 0 2466 4346 L
45 0 2466 2651 L 0 1314 2489 2651 L 45 0 2466 3965 L 45 0 2466 3067 L 0 1219 2489 3067 L 45 0 2466 4286 L 45 0 2539 2946 L
0 1161 2562 2946 L 45 0 2539 4107 L 45 0 2539 3627 L 0 985 2562 3627 L 45 0 2539 4612 L 45 0 2539 3341 L 0 960 2562 3341 L
45 0 2539 4301 L 45 0 2539 3320 L 0 1072 2562 3320 L 45 0 2539 4392 L 45 0 2539 3384 L 0 1128 2562 3384 L 45 0 2539 4512 L
45 0 2539 3409 L 0 956 2562 3409 L 45 0 2539 4365 L 45 0 2539 3532 L 0 1102 2562 3532 L 45 0 2539 4634 L 45 0 2539 3487 L
0 1073 2562 3487 L 45 0 2539 4560 L 45 0 2571 3938 L 0 1119 2593 3938 L 45 0 2571 5057 L 45 0 2571 2907 L 0 1032 2593 2907 L
45 0 2571 3939 L 45 0 2571 3101 L 0 852 2593 3101 L 45 0 2571 3953 L 45 0 2571 3063 L 0 945 2593 3063 L 45 0 2571 4008 L
45 0 2571 4108 L 0 891 2593 4108 L 45 0 2571 4999 L 45 0 2571 3443 L 0 1152 2593 3443 L 45 0 2571 4595 L 45 0 2571 3372 L
0 1277 2593 3372 L 45 0 2571 4649 L 45 0 2753 3545 L 0 1089 2775 3545 L 45 0 2753 4634 L 45 0 2753 3093 L 0 1386 2775 3093 L
45 0 2753 4479 L 45 0 2753 3497 L 0 994 2775 3497 L 45 0 2753 4491 L 45 0 2753 3626 L 0 1041 2775 3626 L 45 0 2753 4667 L
45 0 2753 2818 L 0 1091 2775 2818 L 45 0 2753 3909 L 45 0 2753 3949 L 0 777 2775 3949 L 45 0 2753 4726 L 45 0 2753 3403 L
0 864 2775 3403 L 45 0 2753 4267 L 45 0 2753 1918 L 0 1397 2775 1918 L 45 0 2753 3315 L 45 0 2847 4161 L 0 1022 2869 4161 L
45 0 2847 5183 L 45 0 2847 4051 L 0 916 2869 4051 L 45 0 2847 4967 L 45 0 2847 5026 L 0 903 2869 5026 L 45 0 2847 5929 L
45 0 2847 2482 L 0 975 2869 2482 L 45 0 2847 3457 L 45 0 2847 4544 L 0 807 2869 4544 L 45 0 2847 5351 L 45 0 2847 3910 L
0 976 2869 3910 L 45 0 2847 4886 L 45 0 2847 4472 L 0 943 2869 4472 L 45 0 2847 5415 L 45 0 2847 4317 L 0 924 2869 4317 L
45 0 2847 5241 L 45 0 2847 5195 L 0 959 2869 5195 L 45 0 2847 6154 L 45 0 2847 3587 L 0 929 2869 3587 L 45 0 2847 4516 L
45 0 2847 4177 L 0 954 2869 4177 L 45 0 2847 5131 L 45 0 2847 3857 L 0 896 2869 3857 L 45 0 2847 4753 L 45 0 2847 4245 L
0 964 2869 4245 L 45 0 2847 5209 L 45 0 2847 2979 L 0 1044 2869 2979 L 45 0 2847 4023 L 45 0 2847 4768 L 0 1004 2869 4768 L
45 0 2847 5772 L 45 0 2909 4357 L 0 729 2932 4357 L 45 0 2909 5086 L 45 0 2909 3965 L 0 627 2932 3965 L 45 0 2909 4592 L
45 0 2909 3553 L 0 643 2932 3553 L 45 0 2909 4196 L 45 0 2909 3393 L 0 576 2932 3393 L 45 0 2909 3969 L 45 0 2909 3766 L
0 583 2932 3766 L 45 0 2909 4349 L 45 0 2909 3153 L 0 658 2932 3153 L 45 0 2909 3811 L 45 0 2909 4211 L 0 672 2932 4211 L
45 0 2909 4883 L 45 0 2909 3550 L 0 632 2932 3550 L 45 0 2909 4182 L 45 0 2967 3346 L 0 1167 2989 3346 L 45 0 2967 4513 L
45 0 2967 3311 L 0 1581 2989 3311 L 45 0 2967 4892 L 45 0 2967 3852 L 0 713 2989 3852 L 45 0 2967 4565 L 45 0 2967 3718 L
0 1275 2989 3718 L 45 0 2967 4993 L 45 0 3008 4215 L 0 585 3031 4215 L 45 0 3008 4800 L 45 0 3008 3477 L 0 505 3031 3477 L
45 0 3008 3982 L 45 0 3008 4062 L 0 605 3031 4062 L 45 0 3008 4667 L 45 0 3008 3862 L 0 625 3031 3862 L 45 0 3008 4487 L
45 0 3008 3668 L 0 1128 3031 3668 L 45 0 3008 4796 L 45 0 3126 3824 L 0 564 3148 3824 L 45 0 3126 4388 L 45 0 3126 4076 L
0 586 3148 4076 L 45 0 3126 4662 L 45 0 3126 4200 L 0 572 3148 4200 L 45 0 3126 4772 L 45 0 3126 4248 L 0 570 3148 4248 L
45 0 3126 4818 L 45 0 3126 3310 L 0 543 3148 3310 L 45 0 3126 3853 L 45 0 3126 3585 L 0 623 3148 3585 L 45 0 3126 4208 L
45 0 3126 4632 L 0 885 3148 4632 L 45 0 3126 5517 L 45 0 3258 2953 L 0 1198 3281 2953 L 45 0 3258 4151 L 45 0 3258 3315 L
0 1063 3281 3315 L 45 0 3258 4378 L 45 0 3258 2714 L 0 922 3281 2714 L 45 0 3258 3636 L 45 0 3258 3293 L 0 970 3281 3293 L
45 0 3258 4263 L 45 0 3258 3752 L 0 1036 3281 3752 L 45 0 3258 4788 L 45 0 3258 3590 L 0 1023 3281 3590 L 45 0 3258 4613 L
45 0 3258 3968 L 0 1065 3281 3968 L 45 0 3258 5033 L 45 0 3258 3676 L 0 1083 3281 3676 L 45 0 3258 4759 L 45 0 3370 1792 L
0 1936 3393 1792 L 45 0 3370 3728 L 0 2134 3393 1170 L 45 0 3370 3304 L 45 0 3370 2628 L 0 1975 3393 2628 L 45 0 3370 4603 L
45 0 3370 2481 L 0 1695 3393 2481 L 45 0 3370 4176 L 45 0 3370 4934 L 0 1695 3393 4934 L 45 0 3371 3819 L 0 2414 3393 3819 L
45 0 3371 6233 L 45 0 3371 1648 L 0 2052 3393 1648 L 45 0 3371 3700 L 45 0 3631 3065 L 0 568 3654 3065 L 45 0 3631 3633 L
45 0 3631 2945 L 0 525 3654 2945 L 45 0 3631 3470 L 45 0 3631 3514 L 0 551 3654 3514 L 45 0 3631 4065 L 45 0 3631 3499 L
0 550 3654 3499 L 45 0 3631 4049 L 45 0 3631 3290 L 0 529 3654 3290 L 45 0 3631 3819 L 45 0 3631 3731 L 0 520 3654 3731 L
45 0 3631 4251 L 45 0 3631 3449 L 0 516 3654 3449 L 45 0 3631 3965 L 45 0 3631 3709 L 0 507 3654 3709 L 45 0 3631 4216 L
45 0 3811 2822 L 0 561 3833 2822 L 45 0 3811 3383 L 45 0 3811 3224 L 0 530 3833 3224 L 45 0 3811 3754 L 45 0 3811 2781 L
0 487 3833 2781 L 45 0 3811 3268 L 45 0 3811 3168 L 0 475 3833 3168 L 45 0 3811 3643 L 45 0 3811 3100 L 0 462 3833 3100 L
45 0 3811 3562 L 45 0 3811 3332 L 0 502 3833 3332 L 45 0 3811 3834 L 45 0 3811 3012 L 0 505 3833 3012 L 45 0 3811 3517 L
45 0 3811 3381 L 0 523 3833 3381 L 45 0 3811 3904 L 45 0 3897 3911 L 0 465 3919 3911 L 45 0 3897 4376 L 45 0 3897 3812 L
0 466 3919 3812 L 45 0 3897 4278 L 45 0 3897 3609 L 0 451 3919 3609 L 45 0 3897 4060 L 45 0 3897 3485 L 0 463 3919 3485 L
45 0 3897 3948 L 45 0 3897 3994 L 0 470 3919 3994 L 45 0 3897 4464 L 45 0 3897 3669 L 0 465 3919 3669 L 45 0 3897 4134 L
45 0 3897 3657 L 0 495 3919 3657 L 45 0 3897 4152 L 45 0 3897 4064 L 0 748 3919 4064 L 45 0 3897 4812 L 45 0 3949 3548 L
0 629 3971 3548 L 45 0 3949 4177 L 45 0 3949 3233 L 0 518 3971 3233 L 45 0 3949 3751 L 45 0 3949 3834 L 0 531 3971 3834 L
45 0 3949 4365 L 45 0 3949 3115 L 0 519 3971 3115 L 45 0 3949 3634 L 45 0 3949 3647 L 0 531 3971 3647 L 45 0 3949 4178 L
45 0 3949 3525 L 0 495 3971 3525 L 45 0 3949 4020 L 45 0 3949 3347 L 0 477 3971 3347 L 45 0 3949 3824 L 45 0 3949 3325 L
0 515 3972 3325 L 45 0 3949 3840 L 45 0 4011 3843 L 0 485 4034 3843 L 45 0 4011 4328 L 45 0 4011 3718 L 0 467 4034 3718 L
45 0 4011 4185 L 45 0 4011 4268 L 0 481 4034 4268 L 45 0 4011 4749 L 45 0 4011 3781 L 0 439 4034 3781 L 45 0 4011 4220 L
45 0 4011 3883 L 0 451 4034 3883 L 45 0 4011 4334 L 45 0 4012 3544 L 0 454 4034 3544 L 45 0 4012 3998 L 45 0 4012 4001 L
0 438 4034 4001 L 45 0 4012 4439 L 45 0 4012 3596 L 0 487 4034 3596 L 45 0 4012 4083 L 45 0 4074 3457 L 0 500 4096 3457 L
45 0 4074 3957 L 45 0 4074 3801 L 0 486 4096 3801 L 45 0 4074 4287 L 45 0 4074 3713 L 0 520 4096 3713 L 45 0 4074 4233 L
45 0 4074 3874 L 0 488 4097 3874 L 45 0 4074 4362 L 45 0 4074 4046 L 0 523 4097 4046 L 45 0 4074 4569 L 45 0 4074 3702 L
0 531 4097 3702 L 45 0 4074 4233 L 45 0 4074 3933 L 0 492 4097 3933 L 45 0 4074 4425 L 45 0 4074 4500 L 0 498 4097 4500 L
45 0 4074 4998 L 45 0 4147 3394 L 0 468 4169 3394 L 45 0 4147 3862 L 45 0 4147 3583 L 0 476 4169 3583 L 45 0 4147 4059 L
45 0 4147 3497 L 0 400 4169 3497 L 45 0 4147 3897 L 45 0 4147 3343 L 0 461 4169 3343 L 45 0 4147 3804 L 45 0 4147 3925 L
0 461 4169 3925 L 45 0 4147 4386 L 45 0 4147 3317 L 0 442 4170 3317 L 45 0 4147 3759 L 45 0 4293 3420 L 0 536 4315 3420 L
45 0 4293 3956 L 45 0 4293 3118 L 0 515 4315 3118 L 45 0 4293 3633 L 45 0 4293 3484 L 0 524 4315 3484 L 45 0 4293 4008 L
45 0 4293 3901 L 0 531 4315 3901 L 45 0 4293 4432 L 45 0 4293 3915 L 0 544 4315 3915 L 45 0 4293 4459 L 45 0 4293 3543 L
0 513 4315 3543 L 45 0 4293 4056 L 45 0 4293 3651 L 0 547 4315 3651 L 45 0 4293 4198 L 45 0 4293 3616 L 0 518 4315 3616 L
45 0 4293 4134 L 45 0 4421 3716 L 0 767 4443 3716 L 45 0 4421 4483 L 45 0 4421 3346 L 0 989 4443 3346 L 45 0 4421 4335 L
45 0 4421 3100 L 0 654 4443 3100 L 45 0 4421 3754 L 45 0 4421 3498 L 0 650 4443 3498 L 45 0 4421 4148 L 45 0 4421 4148 L
0 673 4443 4148 L 45 0 4421 4821 L 45 0 4421 3764 L 0 685 4443 3764 L 45 0 4421 4449 L 45 0 4421 3524 L 0 754 4443 3524 L
45 0 4421 4278 L 45 0 4457 3705 L 0 705 4480 3705 L 45 0 4457 4410 L 45 0 4457 3575 L 0 656 4480 3575 L 45 0 4457 4231 L
45 0 4457 3509 L 0 689 4480 3509 L 45 0 4457 4198 L 45 0 4457 3300 L 0 746 4480 3300 L 45 0 4457 4046 L 45 0 4457 3570 L
0 699 4480 3570 L 45 0 4457 4269 L 45 0 4457 3790 L 0 895 4480 3790 L 45 0 4457 4685 L 45 0 4559 4575 L 0 790 4581 4575 L
45 0 4559 5365 L 45 0 4559 4059 L 0 743 4581 4059 L 45 0 4559 4802 L 45 0 4559 4364 L 0 800 4581 4364 L 45 0 4559 5164 L
45 0 4559 4144 L 0 810 4581 4144 L 45 0 4559 4954 L 45 0 4559 4035 L 0 789 4581 4035 L 45 0 4559 4824 L 45 0 4559 4760 L
0 745 4581 4760 L 45 0 4559 5505 L 45 0 4559 5415 L 0 909 4581 5415 L 45 0 4559 6324 L 45 0 4598 4492 L 0 1043 4620 4492 L
45 0 4598 5535 L 45 0 4598 4640 L 0 799 4620 4640 L 45 0 4598 5439 L 45 0 4598 4139 L 0 803 4620 4139 L 45 0 4598 4942 L
45 0 4598 4469 L 0 825 4620 4469 L 45 0 4598 5294 L 45 0 4598 4113 L 0 774 4620 4113 L 45 0 4598 4887 L 45 0 4598 4563 L
0 779 4620 4563 L 45 0 4598 5342 L 45 0 4598 4542 L 0 783 4620 4542 L 45 0 4598 5325 L 45 0 4598 4782 L 0 974 4620 4782 L
45 0 4598 5756 L 45 0 4658 4129 L 0 889 4680 4129 L 45 0 4658 5018 L 45 0 4658 3928 L 0 722 4680 3928 L 45 0 4658 4650 L
45 0 4658 4532 L 0 725 4680 4532 L 45 0 4658 5257 L 45 0 4658 3760 L 0 868 4680 3760 L 45 0 4658 4628 L 45 0 4658 4723 L
0 1262 4680 4723 L 45 0 4658 5985 L 45 0 4858 3326 L 0 836 4881 3326 L 45 0 4858 4162 L 45 0 4858 4227 L 0 774 4881 4227 L
45 0 4858 5001 L 45 0 4858 4404 L 0 991 4881 4404 L 45 0 4858 5395 L 45 0 4858 4447 L 0 936 4881 4447 L 45 0 4858 5383 L
45 0 4858 3888 L 0 1044 4881 3888 L 45 0 4858 4932 L 45 0 4858 3619 L 0 1123 4881 3619 L 45 0 4858 4742 L 45 0 4936 4673 L
0 743 4959 4673 L 45 0 4936 5416 L 44 0 4937 3776 L 0 714 4959 3776 L 44 0 4937 4490 L 45 0 4937 3859 L 0 678 4959 3859 L
45 0 4937 4537 L 45 0 4937 4228 L 0 748 4959 4228 L 45 0 4937 4976 L 45 0 4937 4629 L 0 692 4959 4629 L 45 0 4937 5321 L
45 0 4937 4067 L 0 1050 4959 4067 L 45 0 4937 5117 L 45 0 5009 3825 L 0 919 5032 3825 L 45 0 5009 4744 L 45 0 5009 4350 L
0 895 5032 4350 L 45 0 5009 5245 L 45 0 5009 3746 L 0 823 5032 3746 L 45 0 5009 4569 L 45 0 5009 3348 L 0 909 5032 3348 L
45 0 5009 4257 L 45 0 5009 3458 L 0 910 5032 3458 L 45 0 5009 4368 L 45 0 5009 4109 L 0 892 5032 4109 L 45 0 5009 5001 L
44 0 5010 3796 L 0 869 5032 3796 L 44 0 5010 4665 L 45 0 5010 3841 L 0 1297 5032 3841 L 45 0 5010 5138 L 45 0 5064 4396 L
0 859 5087 4396 L 45 0 5064 5255 L 45 0 5064 3374 L 0 849 5087 3374 L 45 0 5064 4223 L 45 0 5064 4035 L 0 784 5087 4035 L
45 0 5064 4819 L 45 0 5064 5080 L 0 867 5087 5080 L 45 0 5064 5947 L 45 0 5064 4527 L 0 1094 5087 4527 L 45 0 5064 5621 L
45 0 5176 4113 L 0 677 5199 4113 L 45 0 5176 4790 L 45 0 5176 4049 L 0 717 5199 4049 L 45 0 5176 4766 L 45 0 5176 3508 L
0 678 5199 3508 L 45 0 5176 4186 L 45 0 5176 3442 L 0 728 5199 3442 L 45 0 5176 4170 L 45 0 5176 4194 L 0 649 5199 4194 L
45 0 5176 4843 L 45 0 5176 4436 L 0 680 5199 4436 L 45 0 5176 5116 L 45 0 5176 3641 L 0 868 5199 3641 L 45 0 5176 4509 L
45 0 5304 4022 L 0 696 5326 4022 L 45 0 5304 4718 L 45 0 5304 4002 L 0 676 5326 4002 L 45 0 5304 4678 L 45 0 5304 3814 L
0 695 5326 3814 L 45 0 5304 4509 L 45 0 5304 4434 L 0 653 5326 4434 L 45 0 5304 5087 L 45 0 5304 4157 L 0 664 5326 4157 L
45 0 5304 4821 L 45 0 5304 4490 L 0 660 5326 4490 L 45 0 5304 5150 L 45 0 5304 4280 L 0 716 5326 4280 L 45 0 5304 4996 L
45 0 5304 3993 L 0 1412 5326 3993 L 45 0 5304 5405 L 45 0 5413 3487 L 0 654 5436 3487 L 45 0 5413 4141 L 45 0 5413 3288 L
0 638 5436 3288 L 45 0 5413 3926 L 45 0 5413 4181 L 0 616 5436 4181 L 45 0 5413 4797 L 45 0 5413 4237 L 0 555 5436 4237 L
45 0 5413 4792 L 45 0 5413 3907 L 0 574 5436 3907 L 45 0 5413 4481 L 45 0 5413 4004 L 0 560 5436 4004 L 45 0 5413 4564 L
45 0 5413 3748 L 0 600 5436 3748 L 45 0 5413 4348 L 45 0 5413 3773 L 0 621 5436 3773 L 45 0 5413 4394 L 45 0 5510 3978 L
0 1060 5532 3978 L 45 0 5510 5038 L 45 0 5510 2586 L 0 1078 5532 2586 L 45 0 5510 3664 L 45 0 5510 3018 L 0 936 5532 3018 L
45 0 5510 3954 L 45 0 5510 3981 L 0 1016 5532 3981 L 45 0 5510 4997 L 45 0 5510 4098 L 0 970 5532 4098 L 45 0 5510 5068 L
45 0 5510 3740 L 0 1033 5532 3740 L 45 0 5510 4773 L 45 0 5510 4430 L 0 1009 5532 4430 L 45 0 5510 5439 L 45 0 5510 3556 L
0 1704 5532 3556 L 45 0 5510 5260 L 45 0 5588 3929 L 0 1094 5610 3929 L 45 0 5588 5023 L 45 0 5682 4262 L 0 566 5704 4262 L
45 0 5682 4828 L 45 0 5682 3666 L 0 518 5704 3666 L 45 0 5682 4184 L 45 0 5682 3920 L 0 502 5704 3920 L 45 0 5682 4422 L
45 0 5682 3521 L 0 507 5704 3521 L 45 0 5682 4028 L 45 0 5682 3990 L 0 501 5704 3990 L 45 0 5682 4491 L 45 0 5682 3931 L
0 503 5704 3931 L 45 0 5682 4434 L 45 0 5682 3771 L 0 507 5704 3771 L 45 0 5682 4278 L 45 0 5695 3755 L 0 958 5717 3755 L
45 0 5695 4713 L 45 0 5718 2432 L 0 928 5741 2432 L 45 0 5718 3360 L 45 0 5770 4061 L 0 446 5793 4061 L 45 0 5770 4507 L
45 0 5770 3521 L 0 430 5793 3521 L 45 0 5770 3951 L 45 0 5770 3261 L 0 439 5793 3261 L 45 0 5770 3700 L 45 0 5770 3803 L
0 436 5793 3803 L 45 0 5770 4239 L 45 0 5770 2744 L 0 850 5793 2744 L 45 0 5770 3594 L 45 0 5796 2695 L 0 906 5819 2695 L
45 0 5796 3601 L 45 0 5804 4047 L 0 524 5827 4047 L 45 0 5804 4571 L 45 0 5804 3570 L 0 445 5827 3570 L 45 0 5804 4015 L
45 0 5804 3838 L 0 443 5827 3838 L 45 0 5804 4281 L 45 0 5804 3600 L 0 436 5827 3600 L 45 0 5804 4036 L 45 0 5804 3685 L
0 412 5827 3685 L 45 0 5804 4097 L 45 0 5804 3483 L 0 435 5827 3483 L 45 0 5804 3918 L 45 0 5804 3256 L 0 409 5827 3256 L
45 0 5804 3665 L 45 0 5804 3730 L 0 453 5827 3730 L 45 0 5804 4183 L 45 0 5825 3380 L 0 831 5847 3380 L 45 0 5825 4211 L
45 0 5872 3475 L 0 880 5894 3475 L 45 0 5872 4355 L 45 0 5872 3409 L 0 1071 5894 3409 L 45 0 5872 4480 L 45 0 5872 3874 L
0 1182 5894 3874 L 45 0 5872 5056 L 45 0 5872 3385 L 0 1165 5894 3385 L 45 0 5872 4550 L 45 0 5872 2556 L 0 913 5894 2556 L
45 0 5872 3469 L 45 0 5872 3243 L 0 857 5894 3243 L 45 0 5872 4100 L 45 0 5872 3341 L 0 893 5894 3341 L 45 0 5872 4234 L
45 0 5872 2818 L 0 1341 5895 2818 L 45 0 5872 4159 L 45 0 5958 3660 L 0 439 5980 3660 L 45 0 5958 4099 L 45 0 5958 3523 L
0 449 5980 3523 L 45 0 5958 3972 L 45 0 5958 3575 L 0 522 5980 3575 L 45 0 5958 4097 L 45 0 5958 3133 L 0 428 5980 3133 L
45 0 5958 3561 L 45 0 5958 3208 L 0 472 5980 3208 L 45 0 5958 3680 L 45 0 5958 3994 L 0 487 5980 3994 L 45 0 5958 4481 L
45 0 5958 3323 L 0 525 5980 3323 L 45 0 5958 3848 L 45 0 5982 4011 L 0 1093 6004 4011 L 45 0 5982 5104 L 45 0 6018 3662 L
0 430 6040 3662 L 45 0 6018 4092 L 45 0 6018 3541 L 0 456 6040 3541 L 45 0 6018 3997 L 45 0 6018 3758 L 0 474 6040 3758 L
45 0 6018 4232 L 45 0 6018 3786 L 0 438 6040 3786 L 45 0 6018 4224 L 45 0 6018 3465 L 0 465 6040 3465 L 45 0 6018 3930 L
45 0 6018 3621 L 0 474 6040 3621 L 45 0 6018 4095 L 45 0 6018 3689 L 0 479 6040 3689 L 45 0 6018 4168 L 45 0 6115 3073 L
0 846 6137 3073 L 45 0 6115 3919 L 45 0 6122 3503 L 0 756 6145 3503 L 45 0 6122 4259 L 45 0 6122 3031 L 0 785 6145 3031 L
45 0 6122 3816 L 45 0 6122 2723 L 0 1921 6145 2723 L 45 0 6122 4644 L 45 0 6159 3340 L 0 612 6181 3340 L 45 0 6159 3952 L
45 0 6159 3602 L 0 740 6181 3602 L 45 0 6159 4342 L 45 0 6159 3754 L 0 704 6181 3754 L 45 0 6159 4458 L 45 0 6159 3830 L
0 699 6181 3830 L 45 0 6159 4529 L 45 0 6159 3793 L 0 745 6181 3793 L 45 0 6159 4538 L 45 0 6188 1774 L 0 1646 6210 1774 L
45 0 6188 3420 L 45 0 6218 2780 L 0 934 6241 2780 L 45 0 6218 3714 L 45 0 6218 3316 L 0 737 6241 3316 L 45 0 6218 4053 L
45 0 6218 2662 L 0 1204 6241 2662 L 45 0 6218 3866 L 45 0 6218 3424 L 0 914 6241 3424 L 45 0 6218 4338 L 45 0 6219 2640 L
0 873 6241 2640 L 45 0 6219 3513 L 45 0 6219 2939 L 0 868 6241 2939 L 45 0 6219 3807 L 45 0 6219 2182 L 0 1717 6241 2182 L
45 0 6219 3899 L 45 0 6276 3328 L 0 910 6298 3328 L 45 0 6276 4238 L 45 0 6276 2909 L 0 1079 6298 2909 L 45 0 6276 3988 L
45 0 6276 3450 L 0 971 6298 3450 L 45 0 6276 4421 L 45 0 6320 3925 L 0 761 6342 3925 L 45 0 6320 4686 L 45 0 6495 3559 L
0 928 6517 3559 L 45 0 6495 4487 L 45 0 6495 3280 L 0 783 6517 3280 L 45 0 6495 4063 L 45 0 6495 3832 L 0 908 6517 3832 L
45 0 6495 4740 L 45 0 6495 3344 L 0 984 6517 3344 L 45 0 6495 4328 L 45 0 6495 3775 L 0 795 6517 3775 L 45 0 6495 4570 L
45 0 6495 3803 L 0 1133 6517 3803 L 45 0 6495 4936 L 45 0 6510 2617 L 0 596 6533 2617 L 45 0 6510 3213 L 45 0 6562 3396 L
0 831 6585 3396 L 45 0 6562 4227 L 45 0 6562 4328 L 0 857 6585 4328 L 45 0 6562 5185 L 45 0 6562 3539 L 0 872 6585 3539 L
45 0 6562 4411 L 45 0 6562 3867 L 0 938 6585 3867 L 45 0 6562 4805 L 44 0 6563 4010 L 0 794 6585 4010 L 44 0 6563 4804 L
45 0 6563 2959 L 0 947 6585 2959 L 45 0 6563 3906 L 45 0 6589 3259 L 0 891 6611 3259 L 45 0 6589 4150 L 45 0 6589 3369 L
0 921 6611 3369 L 45 0 6589 4290 L 45 0 6589 3466 L 0 1032 6611 3466 L 45 0 6589 4498 L 45 0 6589 3716 L 0 1308 6611 3716 L
45 0 6589 5024 L 45 0 6654 3546 L 0 631 6676 3546 L 45 0 6654 4177 L 45 0 6661 3683 L 0 736 6684 3683 L 45 0 6661 4419 L
45 0 6661 3985 L 0 730 6684 3985 L 45 0 6661 4715 L 45 0 6732 4369 L 0 816 6755 4369 L 45 0 6732 5185 L 45 0 6758 3819 L
0 878 6781 3819 L 45 0 6758 4697 L 45 0 6771 4476 L 0 989 6793 4476 L 45 0 6771 5465 L 45 0 6771 4007 L 0 923 6793 4007 L
45 0 6771 4930 L 45 0 6771 4176 L 0 925 6793 4176 L 45 0 6771 5101 L 45 0 6771 4140 L 0 862 6793 4140 L 45 0 6771 5002 L
45 0 6771 3840 L 0 990 6793 3840 L 45 0 6771 4830 L 45 0 6771 4342 L 0 946 6793 4342 L 45 0 6771 5288 L 45 0 6771 4476 L
0 1020 6793 4476 L 45 0 6771 5496 L 45 0 6849 4389 L 0 572 6872 4389 L 45 0 6849 4961 L 45 0 6875 4584 L 0 980 6898 4584 L
45 0 6875 5564 L 45 0 6875 4378 L 0 1101 6898 4378 L 45 0 6875 5479 L 45 0 6875 4285 L 0 781 6898 4285 L 45 0 6875 5066 L
45 0 6875 3831 L 0 871 6898 3831 L 45 0 6875 4702 L 45 0 6875 2332 L 0 1700 6898 2332 L 45 0 6875 4032 L 45 0 6951 4908 L
0 798 6973 4908 L 45 0 6951 5706 L 45 0 6951 3490 L 0 831 6973 3490 L 45 0 6951 4321 L 45 0 6951 3870 L 0 949 6973 3870 L
45 0 6951 4819 L 45 0 6951 3216 L 0 969 6973 3216 L 45 0 6951 4185 L 45 0 6951 3722 L 0 1133 6973 3722 L 45 0 6951 4855 L
45 0 7003 5058 L 0 1199 7025 5058 L 45 0 7003 6257 L 45 0 7003 3439 L 0 1121 7025 3439 L 45 0 7003 4560 L 45 0 7003 1299 L
0 2110 7025 1299 L 45 0 7003 3409 L 45 0 7011 4195 L 0 1194 7033 4195 L 45 0 7011 5389 L 45 0 7011 3206 L 0 1301 7033 3206 L
45 0 7011 4507 L 45 0 7011 3461 L 0 2103 7033 3461 L 45 0 7011 5564 L 45 0 7073 3662 L 0 774 7096 3662 L 45 0 7073 4436 L
45 0 7250 3483 L 0 522 7273 3483 L 45 0 7250 4005 L 45 0 7368 4110 L 0 756 7390 4110 L 45 0 7368 4866 L 45 0 7493 3250 L
0 510 7515 3250 L 45 0 7493 3760 L 45 0 7615 3838 L 0 460 7638 3838 L 45 0 7615 4298 L 45 0 7712 3894 L 0 493 7734 3894 L
45 0 7712 4387 L 45 0 7774 3985 L 0 1026 7797 3985 L 45 0 7774 5011 L 45 0 7774 3169 L 0 876 7797 3169 L 45 0 7774 4045 L
45 0 7774 3038 L 0 875 7797 3038 L 45 0 7774 3913 L 45 0 7774 3423 L 0 1250 7797 3423 L 45 0 7774 4673 L 45 0 7774 3689 L
0 2255 7797 3689 L 45 0 7774 5944 L 45 0 7839 3477 L 0 1096 7862 3477 L 45 0 7839 4573 L 45 0 7839 3617 L 0 1459 7862 3617 L
45 0 7839 5076 L 45 0 7839 4027 L 0 1522 7862 4027 L 45 0 7839 5549 L 45 0 7889 3855 L 0 586 7911 3855 L 45 0 7889 4441 L
45 0 7949 4361 L 0 659 7971 4361 L 45 0 7949 5020 L 45 0 7972 3825 L 0 730 7995 3825 L 45 0 7972 4555 L 45 0 7972 3412 L
0 868 7995 3412 L 45 0 7972 4280 L 45 0 7972 3575 L 0 722 7995 3575 L 45 0 7972 4297 L 45 0 7972 4148 L 0 1593 7995 4148 L
45 0 7972 5741 L 45 0 7980 3671 L 0 741 8002 3671 L 45 0 7980 4412 L 45 0 7980 3716 L 0 764 8002 3716 L 45 0 7980 4480 L
45 0 7980 3698 L 0 719 8002 3698 L 45 0 7980 4417 L 45 0 7980 3403 L 0 1694 8002 3403 L 45 0 7980 5097 L 45 0 8124 3853 L
0 642 8146 3853 L 45 0 8124 4495 L 45 0 8306 3416 L 0 742 8328 3416 L 45 0 8306 4158 L 45 0 8306 3223 L 0 760 8328 3223 L
45 0 8306 3983 L 45 0 8306 3251 L 0 681 8328 3251 L 45 0 8306 3932 L 45 0 8306 3330 L 0 762 8328 3330 L 45 0 8306 4092 L
45 0 8306 2876 L 0 814 8328 2876 L 45 0 8306 3690 L 45 0 8306 2138 L 0 796 8328 2138 L 45 0 8306 2934 L 45 0 8306 3863 L
0 1047 8328 3863 L 45 0 8306 4910 L 45 0 8329 3349 L 0 1072 8352 3349 L 45 0 8329 4421 L 45 0 8345 4118 L 0 486 8367 4118 L
45 0 8345 4604 L 45 0 8548 3499 L 0 678 8571 3499 L 45 0 8548 4177 L
1024 0 1024 K 2648 2672 M16 2648 5972 M16 2648 4695 M16 2648 4151 M16 2648 3692 M16 2648 6174 M16 2648 3056 M16 2648 5195 M16
3044 3249 M16 3044 4737 M16 3044 5979 M16 3044 4133 M16 3044 5581 M16 3044 4643 M16 3466 4743 M16 3466 5780 M16 3466 4310 M16
3466 2661 M16 3466 3865 M16 3466 4003 M16 3466 5565 M16 3596 4621 M16 3596 4266 M16 3596 4333 M16 3596 5323 M16 3596 2382 M16
3596 4670 M16 3596 4907 M16 3596 4635 M16 4232 4178 M16 4232 1625 M16 4232 3470 M16 4232 2903 M16 4232 3775 M16 4232 3529 M16
4232 2239 M16 4232 2680 M16
45 0 2625 1257 L 0 2831 2648 1257 L 45 0 2625 4088 L 45 0 2625 4297 L 0 2332 2648 4297 L 45 0 2625 3655 L 0 2080 2648 3655 L
45 0 2625 5735 L 45 0 2625 2467 L 0 3367 2648 2467 L 45 0 2625 5834 L 45 0 2625 2313 L 0 2758 2648 2313 L 45 0 2625 5071 L
45 0 2625 4927 L 0 1702 2648 4927 L 45 0 2625 1488 L 0 3136 2648 1488 L 45 0 2625 4624 L 45 0 2625 3591 L 0 3038 2648 3591 L
45 0 3021 2130 L 0 2237 3044 2130 L 45 0 3021 4367 L 45 0 3021 3627 L 0 2220 3044 3627 L 45 0 3021 5847 L 45 0 3021 4841 L
0 1788 3044 4841 L 45 0 3021 2962 L 0 2343 3044 2962 L 45 0 3021 5305 L 45 0 3021 4294 L 0 2335 3044 4294 L 45 0 3021 2877 L
0 3532 3044 2877 L 45 0 3021 6409 L 45 0 3443 3760 L 0 1967 3466 3760 L 45 0 3443 5727 L 45 0 3443 4614 L 0 2015 3466 4614 L
45 0 3443 3216 L 0 2188 3466 3216 L 45 0 3443 5404 L 45 0 3443 1521 L 0 2280 3466 1521 L 45 0 3443 3801 L 45 0 3443 2822 L
0 2086 3466 2822 L 45 0 3443 4908 L 45 0 3443 3016 L 0 1975 3466 3016 L 45 0 3443 4991 L 45 0 3443 4215 L 0 2414 3466 4215 L
45 0 3574 3659 L 0 1924 3596 3659 L 45 0 3574 5583 L 45 0 3574 3269 L 0 1995 3596 3269 L 45 0 3574 5264 L 45 0 3574 3478 L
0 1710 3596 3478 L 45 0 3574 5188 L 45 0 3574 4582 L 0 1482 3596 4582 L 45 0 3574 6064 L 45 0 3574 1571 L 0 1622 3596 1571 L
45 0 3574 3193 L 45 0 3574 3839 L 0 1663 3596 3839 L 45 0 3574 5502 L 45 0 3574 4235 L 0 1343 3596 4235 L 45 0 3574 5578 L
45 0 3574 3674 L 0 1923 3596 3674 L 45 0 3574 5597 L 45 0 4209 3255 L 0 1847 4232 3255 L 45 0 4209 5102 L 0 1210 4232 1170 L
45 0 4209 2380 L 45 0 4209 2713 L 0 1514 4232 2713 L 45 0 4209 4227 L 45 0 4209 2184 L 0 1438 4232 2184 L 45 0 4209 3622 L
45 0 4210 2973 L 0 1604 4232 2973 L 45 0 4210 4577 L 45 0 4210 2608 L 0 1841 4232 2608 L 45 0 4210 4449 L 45 0 4210 1369 L
0 1740 4232 1369 L 45 0 4210 3109 L 45 0 4210 1687 L 0 1986 4232 1687 L 45 0 4210 3673 L
0 1024 1024 K 0 0 0 K
PGPLOT restore showpage
%%PageTrailer
%%PageBoundingBox: 24 17 588 721
 
%%Trailer
%%BoundingBox: 24 17 588 721
%%DocumentFonts: 
%%Pages: 1
%%EOF
