%!PS-Adobe-3.0 EPSF-3.0
%%For: bperera
%%Title: PGPLOT PostScript plot
%%Creator: PGPLOT [PSDRIV 6.6]
%%CreationDate: 24-May-2016 15:26
%%BoundingBox: (atend)
%%DocumentFonts: (atend)
%%LanguageLevel: 1
%%Orientation: Landscape
%%Pages: (atend)
%%EndComments
%%BeginProlog
/L {moveto rlineto currentpoint stroke moveto} bind def
/C {rlineto currentpoint stroke moveto} bind def
/D {moveto 0 0 rlineto currentpoint stroke moveto} bind def
/LW {5 mul setlinewidth} bind def
/BP {newpath moveto} bind def
/LP /rlineto load def
/EP {rlineto closepath eofill} bind def
/MB {gsave translate MFAC dup scale 1 setlinewidth 2 setlinecap 0 setlinejoin newpath} bind def
/ME /grestore load def
/CC {0 360 arc stroke} bind def
/FC {0 360 arc fill} bind def
/G {1024 div setgray} bind def
/K {3 -1 roll 1024 div 3 -1 roll 1024 div 3 -1 roll 1024 div setrgbcolor} bind def
% Uncomment next line to convert color to grey shades
%/K {3 -1 roll 3413 div 3 -1 roll 1739 div 3 -1 roll 9309 div add add setgray} bind def
%%EndProlog
%%BeginSetup
/#copies 1 def
%%EndSetup
 
%%Page: 1 1
%%BeginPageSetup
/PGPLOT save def
0.072 0.072 scale
8149 250 translate 90 rotate
1 setlinejoin 1 setlinecap 1 LW 1
%%EndPageSetup
%%PageBoundingBox: (atend)
1024 1024 1024 K 1 LW 0 0 BP 9749 0 LP 0 7799 LP -9749 0 EP 0 0 0 K
8286 0 975 1170 L -8286 0 9261 6629 L 0 -5459 C 0 45 1263 1170 L 0 45 1584 1170 L 0 90 1905 1170 L 0 45 2226 1170 L 0 45 2548 1170 L
0 45 2869 1170 L 0 45 3190 1170 L 0 90 3512 1170 L 0 45 3833 1170 L 0 45 4154 1170 L 0 45 4476 1170 L 0 45 4797 1170 L
0 90 5118 1170 L 0 45 5439 1170 L 0 45 5761 1170 L 0 45 6082 1170 L 0 45 6403 1170 L 0 90 6725 1170 L 0 45 7046 1170 L
0 45 7367 1170 L 0 45 7688 1170 L 0 45 8010 1170 L 0 90 8331 1170 L 0 45 8652 1170 L 0 45 8974 1170 L 0 45 1263 6584 L
0 45 1584 6584 L 0 90 1905 6539 L 0 45 2226 6584 L 0 45 2548 6584 L 0 45 2869 6584 L 0 45 3190 6584 L 0 90 3512 6539 L
0 45 3833 6584 L 0 45 4154 6584 L 0 45 4476 6584 L 0 45 4797 6584 L 0 90 5118 6539 L 0 45 5439 6584 L 0 45 5761 6584 L
0 45 6082 6584 L 0 45 6403 6584 L 0 90 6725 6539 L 0 45 7046 6584 L 0 45 7367 6584 L 0 45 7688 6584 L 0 45 8010 6584 L
0 90 8331 6539 L 0 45 8652 6584 L 0 45 8974 6584 L 108 0 1611 990 L 0 6 1767 1032 L 6 12 C 6 6 C 12 6 C 24 0 C 12 -6 C 6 -6 C
6 -12 C 0 -12 C -6 -12 C -12 -18 C -60 -60 C 84 0 C -18 -6 1917 1062 L -12 -18 C -6 -30 C 0 -18 C 6 -30 C 12 -18 C 18 -6 C 12 0 C
18 6 C 12 18 C 6 30 C 0 18 C -6 30 C -12 18 C -18 6 C -12 0 C -18 -6 2037 1062 L -12 -18 C -6 -30 C 0 -18 C 6 -30 C 12 -18 C 18 -6 C
12 0 C 18 6 C 12 18 C 6 30 C 0 18 C -6 30 C -12 18 C -18 6 C -12 0 C -18 -6 2157 1062 L -12 -18 C -6 -30 C 0 -18 C 6 -30 C 12 -18 C
18 -6 C 12 0 C 18 6 C 12 18 C 6 30 C 0 18 C -6 30 C -12 18 C -18 6 C -12 0 C 108 0 3218 990 L 12 6 3386 1038 L 18 18 C 0 -126 C
-18 -6 3524 1062 L -12 -18 C -6 -30 C 0 -18 C 6 -30 C 12 -18 C 18 -6 C 12 0 C 18 6 C 12 18 C 6 30 C 0 18 C -6 30 C -12 18 C -18 6 C
-12 0 C -18 -6 3644 1062 L -12 -18 C -6 -30 C 0 -18 C 6 -30 C 12 -18 C 18 -6 C 12 0 C 18 6 C 12 18 C 6 30 C 0 18 C -6 30 C -12 18 C
-18 6 C -12 0 C -18 -6 3764 1062 L -12 -18 C -6 -30 C 0 -18 C 6 -30 C 12 -18 C 18 -6 C 12 0 C 18 6 C 12 18 C 6 30 C 0 18 C -6 30 C
-12 18 C -18 6 C -12 0 C -18 -6 5112 1062 L -12 -18 C -6 -30 C 0 -18 C 6 -30 C 12 -18 C 18 -6 C 12 0 C 18 6 C 12 18 C 6 30 C 0 18 C
-6 30 C -12 18 C -18 6 C -12 0 C 12 6 6521 1038 L 18 18 C 0 -126 C -18 -6 6659 1062 L -12 -18 C -6 -30 C 0 -18 C 6 -30 C 12 -18 C
18 -6 C 12 0 C 18 6 C 12 18 C 6 30 C 0 18 C -6 30 C -12 18 C -18 6 C -12 0 C -18 -6 6779 1062 L -12 -18 C -6 -30 C 0 -18 C 6 -30 C
12 -18 C 18 -6 C 12 0 C 18 6 C 12 18 C 6 30 C 0 18 C -6 30 C -12 18 C -18 6 C -12 0 C -18 -6 6899 1062 L -12 -18 C -6 -30 C 0 -18 C
6 -30 C 12 -18 C 18 -6 C 12 0 C 18 6 C 12 18 C 6 30 C 0 18 C -6 30 C -12 18 C -18 6 C -12 0 C 0 6 8115 1032 L 6 12 C 6 6 C 12 6 C
24 0 C 12 -6 C 6 -6 C 6 -12 C 0 -12 C -6 -12 C -12 -18 C -60 -60 C 84 0 C -18 -6 8265 1062 L -12 -18 C -6 -30 C 0 -18 C 6 -30 C
12 -18 C 18 -6 C 12 0 C 18 6 C 12 18 C 6 30 C 0 18 C -6 30 C -12 18 C -18 6 C -12 0 C -18 -6 8385 1062 L -12 -18 C -6 -30 C 0 -18 C
6 -30 C 12 -18 C 18 -6 C 12 0 C 18 6 C 12 18 C 6 30 C 0 18 C -6 30 C -12 18 C -18 6 C -12 0 C -18 -6 8505 1062 L -12 -18 C -6 -30 C
0 -18 C 6 -30 C 12 -18 C 18 -6 C 12 0 C 18 6 C 12 18 C 6 30 C 0 18 C -6 30 C -12 18 C -18 6 C -12 0 C 90 0 975 1219 L
45 0 975 1472 L 45 0 975 1724 L 45 0 975 1977 L 45 0 975 2229 L 90 0 975 2482 L 45 0 975 2734 L 45 0 975 2986 L 45 0 975 3239 L
45 0 975 3491 L 90 0 975 3744 L 45 0 975 3996 L 45 0 975 4249 L 45 0 975 4501 L 45 0 975 4754 L 90 0 975 5006 L 45 0 975 5258 L
45 0 975 5511 L 45 0 975 5763 L 45 0 975 6016 L 90 0 975 6268 L 45 0 975 6521 L 0 108 784 837 L -6 0 742 993 L -12 6 C -6 6 C
-6 12 C 0 24 C 6 12 C 6 6 C 12 6 C 12 0 C 12 -6 C 18 -12 C 60 -60 C 0 84 C 84 84 742 1113 L 84 -84 742 1197 L -6 12 736 1257 L
-18 18 C 126 0 C 6 -18 712 1395 L 18 -12 C 30 -6 C 18 0 C 30 6 C 18 12 C 6 18 C 0 12 C -6 18 C -18 11 C -30 6 C -18 0 C -30 -6 C
-18 -11 C -6 -18 C 0 -12 C 0 81 702 1478 L 63 -45 648 1636 L 0 67 C 94 0 648 1636 L 0 108 784 2225 L -6 12 736 2393 L -18 18 C
126 0 C 6 -18 712 2531 L 18 -12 C 30 -6 C 18 0 C 30 6 C 18 12 C 6 18 C 0 12 C -6 18 C -18 12 C -30 6 C -18 0 C -30 -6 C -18 -12 C
-6 -18 C 0 -12 C 0 81 702 2615 L 63 -45 648 2772 L 0 68 C 94 0 648 2772 L 6 -18 712 3738 L 18 -12 C 30 -6 C 18 0 C 30 6 C 18 12 C
6 18 C 0 12 C -6 18 C -18 12 C -30 6 C -18 0 C -30 -6 C -18 -12 C -6 -18 C 0 -12 C -6 12 736 4839 L -18 18 C 126 0 C
6 -18 712 4977 L 18 -12 C 30 -6 C 18 0 C 30 6 C 18 12 C 6 18 C 0 12 C -6 18 C -18 12 C -30 6 C -18 0 C -30 -6 C -18 -12 C -6 -18 C
0 -12 C 0 81 702 5061 L 63 -45 648 5219 L 0 67 C 94 0 648 5219 L -6 0 742 5963 L -12 6 C -6 6 C -6 12 C 0 24 C 6 12 C 6 6 C 12 6 C
12 0 C 12 -6 C 18 -12 C 60 -60 C 0 84 C 84 84 742 6083 L 84 -84 742 6167 L -6 12 736 6227 L -18 18 C 126 0 C 6 -18 712 6365 L
18 -12 C 30 -6 C 18 0 C 30 6 C 18 12 C 6 18 C 0 12 C -6 18 C -18 12 C -30 6 C -18 0 C -30 -6 C -18 -12 C -6 -18 C 0 -12 C
0 81 702 6449 L 63 -45 648 6607 L 0 67 C 94 0 648 6607 L
0 5459 9261 1170 L -48 0 9261 1194 L -48 0 9261 1559 L -97 0 9261 1923 L 0 108 9461 1540 L 0 -60 9389 1762 L 54 -6 C -6 6 C -6 18 C
0 18 C 6 18 C 12 12 C 18 6 C 12 0 C 18 -6 C 12 -12 C 6 -18 C 0 -18 C -6 -18 C -6 -6 C -12 -6 C 84 84 9419 1816 L 84 -84 9419 1900 L
-6 12 9413 1960 L -18 18 C 126 0 C 6 -18 9389 2098 L 18 -12 C 30 -6 C 18 0 C 30 6 C 18 12 C 6 18 C 0 12 C -6 18 C -18 12 C -30 6 C
-18 0 C -30 -6 C -18 -12 C -6 -18 C 0 -12 C 0 81 9378 2182 L 0 50 9324 2303 L 36 -27 C 0 13 C 5 9 C 4 5 C 14 4 C 9 0 C 13 -4 C
9 -9 C 5 -14 C 0 -13 C -5 -14 C -4 -4 C -9 -5 C -48 0 9261 2287 L -48 0 9261 2651 L -48 0 9261 3015 L -48 0 9261 3380 L
-97 0 9261 3744 L 6 -18 9389 3738 L 18 -12 C 30 -6 C 18 0 C 30 6 C 18 12 C 6 18 C 0 12 C -6 18 C -18 12 C -30 6 C -18 0 C -30 -6 C
-18 -12 C -6 -18 C 0 -12 C -48 0 9261 4108 L -48 0 9261 4472 L -48 0 9261 4836 L -48 0 9261 5201 L -97 0 9261 5565 L
0 -60 9389 5326 L 54 -6 C -6 6 C -6 18 C 0 18 C 6 18 C 12 12 C 18 6 C 12 0 C 18 -6 C 12 -12 C 6 -18 C 0 -18 C -6 -18 C -6 -6 C
-12 -6 C 84 84 9419 5380 L 84 -84 9419 5464 L -6 12 9413 5524 L -18 18 C 126 0 C 6 -18 9389 5662 L 18 -12 C 30 -6 C 18 0 C 30 6 C
18 12 C 6 18 C 0 12 C -6 18 C -18 12 C -30 6 C -18 0 C -30 -6 C -18 -12 C -6 -18 C 0 -12 C 0 81 9378 5746 L 0 50 9324 5867 L
36 -27 C 0 13 C 5 9 C 4 5 C 14 4 C 9 0 C 13 -4 C 9 -9 C 5 -14 C 0 -13 C -5 -14 C -4 -4 C -9 -5 C -48 0 9261 5929 L -48 0 9261 6293 L
61 0 9688 2730 L 0 54 9688 2730 L 6 18 C 6 6 C 12 6 C 12 0 C 12 -6 C 6 -6 C 6 -18 C 0 -54 C 1 0 9748 2772 L -7 -3 9749 2919 L
-6 -6 C -6 -12 C 0 -18 C 6 -12 C 12 -12 C 1 -1 C -12 -6 9748 3024 L -6 -18 C 0 -18 C 6 -18 C 12 -6 C 1 0 C 6 6 9688 3060 L -6 6 C
-6 -6 C 6 -6 C 19 0 9730 3066 L 61 0 9688 3180 L -12 -12 9748 3180 L -6 -12 C 0 -18 C 6 -12 C 12 -12 C 1 -1 C 19 0 9730 3228 L
19 0 9730 3294 L 19 0 9730 3408 L -12 -12 9748 3408 L -6 -12 C 0 -18 C 6 -12 C 12 -12 C 1 -1 C 61 0 9688 3456 L 6 6 9688 3594 L
-6 6 C -6 -6 C 6 -6 C 19 0 9730 3600 L 19 0 9730 3648 L -13 14 9749 3652 L -6 12 C 0 18 C 6 12 C 13 4 C 19 0 9730 3858 L
-12 12 9748 3858 L -6 12 C 0 17 C 6 12 C 12 12 C 1 1 C 19 0 9730 3971 L 19 0 9730 4037 L 61 0 9688 4085 L -12 -6 9748 4193 L
-6 -18 C 0 -18 C 6 -18 C 12 -6 C 1 1 C -7 -4 9749 4299 L -6 -6 C -6 -12 C 0 -18 C 6 -12 C 12 -12 C 1 0 C 19 0 9730 4439 L
-12 12 9748 4439 L -6 12 C 0 18 C 6 12 C 12 12 C 1 1 C -7 -4 9749 4617 L -6 -6 C -6 -12 C 0 -18 C 6 -12 C 12 -12 C 1 0 C
19 0 9730 4661 L -1 0 9749 4667 L -12 12 C -6 12 C 0 18 C 6 6 9688 4733 L -6 6 C -6 -6 C 6 -6 C 19 0 9730 4739 L 6 -12 9730 4811 L
12 -12 C 1 0 C -1 -1 9749 4854 L -12 -12 C -6 -12 C 0 -18 C 61 0 9688 4967 L -12 -12 9748 4967 L -6 -12 C 0 -18 C 6 -12 C 12 -12 C
1 0 C -12 -6 9748 5075 L -6 -18 C 0 -18 C 6 -18 C 12 -6 C 1 1 C
0 -96 3111 7145 L -6 -18 C -6 -6 C -12 -6 C -12 0 C -12 6 C -6 6 C -6 18 C 0 12 C -18 -6 3189 7145 L -12 -18 C -6 -30 C 0 -18 C
6 -30 C 12 -18 C 18 -6 C 12 0 C 18 6 C 12 18 C 6 30 C 0 18 C -6 30 C -12 18 C -18 6 C -12 0 C -6 12 3351 7127 L -18 6 C -12 0 C
-18 -6 C -12 -18 C -6 -30 C 0 -30 C 6 -24 C 12 -12 C 18 -6 C 6 0 C 18 6 C 12 12 C 6 18 C 0 6 C -6 18 C -12 12 C -18 6 C -6 0 C
-18 -6 C -12 -12 C -6 -18 C 0 6 3399 7115 L 6 12 C 6 6 C 12 6 C 24 0 C 12 -6 C 6 -6 C 6 -12 C 0 -12 C -6 -12 C -12 -18 C -60 -60 C
84 0 C 12 6 3531 7121 L 18 18 C 0 -126 C 0 -108 3693 7127 L 108 0 3639 7073 L 12 6 3807 7121 L 18 18 C 0 -126 C -18 -6 3945 7145 L
-12 -18 C -6 -30 C 0 -18 C 6 -30 C 12 -18 C 18 -6 C 12 0 C 18 6 C 12 18 C 6 30 C 0 18 C -6 30 C -12 18 C -18 6 C -12 0 C
-18 -6 4065 7145 L -12 -18 C -6 -30 C 0 -18 C 6 -30 C 12 -18 C 18 -6 C 12 0 C 18 6 C 12 18 C 6 30 C 0 18 C -6 30 C -12 18 C -18 6 C
-12 0 C 0 6 4155 7115 L 6 12 C 6 6 C 12 6 C 24 0 C 12 -6 C 6 -6 C 6 -12 C 0 -12 C -6 -12 C -12 -18 C -60 -60 C 84 0 C
-12 -12 4413 7169 L -12 -18 C -12 -24 C -6 -30 C 0 -24 C 6 -30 C 12 -24 C 12 -18 C 12 -12 C 30 -126 4443 7145 L -30 -126 4503 7145 L
30 -126 4503 7145 L -30 -126 4563 7145 L 0 -84 4599 7103 L 6 18 4599 7067 L 12 12 C 12 6 C 18 0 C 0 -84 4677 7103 L
18 18 4677 7079 L 12 6 C 18 0 C 12 -6 C 6 -18 C 0 -60 C 18 18 4743 7079 L 12 6 C 18 0 C 12 -6 C 6 -18 C 0 -60 C -6 12 4917 7085 L
-18 6 C -18 0 C -18 -6 C -6 -12 C 6 -12 C 12 -6 C 30 -6 C 12 -6 C 6 -12 C 0 -6 C -6 -12 C -18 -6 C -18 0 C -18 6 C -6 12 C
108 0 5055 7091 L 108 0 5055 7055 L 12 6 5319 7121 L 18 18 C 0 -126 C -18 -6 5457 7145 L -12 -18 C -6 -30 C 0 -18 C 6 -30 C 12 -18 C
18 -6 C 12 0 C 18 6 C 12 18 C 6 30 C 0 18 C -6 30 C -12 18 C -18 6 C -12 0 C -6 -6 5553 7031 L 6 -6 C 6 6 C -6 6 C
-60 -84 5661 7145 L 90 0 C 0 -126 5661 7145 L -60 0 5793 7145 L -6 -54 C 6 6 C 18 6 C 18 0 C 18 -6 C 12 -12 C 6 -18 C 0 -12 C
-6 -18 C -12 -12 C -18 -6 C -18 0 C -18 6 C -6 6 C -6 12 C -6 12 5919 7127 L -18 6 C -12 0 C -18 -6 C -12 -18 C -6 -30 C 0 -30 C
6 -24 C 12 -12 C 18 -6 C 6 0 C 18 6 C 12 12 C 6 18 C 0 6 C -6 18 C -12 12 C -18 6 C -6 0 C -18 -6 C -12 -12 C -6 -18 C
-36 -126 6081 7103 L -6 -30 6075 7079 L 0 -18 C 12 -12 C 12 0 C 12 6 C 12 12 C 12 24 C -12 -42 6141 7103 L -6 -24 C 0 -12 C 6 -6 C
12 0 C 12 12 C 6 12 C -6 12 6249 7085 L -18 6 C -18 0 C -18 -6 C -6 -12 C 6 -12 C 12 -6 C 30 -6 C 12 -6 C 6 -12 C 0 -6 C -6 -12 C
-18 -6 C -18 0 C -18 6 C -6 12 C 12 -12 6285 7169 L 12 -18 C 12 -24 C 6 -30 C 0 -24 C -6 -30 C -12 -24 C -12 -18 C -12 -12 C
0 -126 6471 7103 L 12 12 6471 7085 L 12 6 C 18 0 C 12 -6 C 12 -12 C 6 -18 C 0 -12 C -6 -18 C -12 -12 C -12 -6 C -18 0 C -12 6 C
-12 12 C -12 -6 6609 7103 L -12 -12 C -6 -18 C 0 -12 C 6 -18 C 12 -12 C 12 -6 C 18 0 C 12 6 C 12 12 C 6 18 C 0 12 C -6 18 C -12 12 C
-12 6 C -18 0 C -6 12 6759 7085 L -18 6 C -18 0 C -18 -6 C -6 -12 C 6 -12 C 12 -6 C 30 -6 C 12 -6 C 6 -12 C 0 -6 C -6 -12 C -18 -6 C
-18 0 C -18 6 C -6 12 C 0 -102 6807 7145 L 6 -18 C 12 -6 C 12 0 C 42 0 6789 7103 L 108 0 6873 7073 L -12 0 7065 7145 L -12 -6 C
-6 -18 C 0 -102 C 42 0 7017 7103 L 6 -6 7095 7145 L 6 6 C -6 6 C -6 -6 C 0 -84 7101 7103 L 0 -102 7155 7145 L 6 -18 C 12 -6 C 12 0 C
42 0 7137 7103 L 0 -126 4491 672 L 48 -126 4491 672 L -48 -126 4587 672 L 0 -126 4587 672 L 0 -96 4683 672 L -6 -18 C -6 -6 C
-12 -6 C -12 0 C -12 6 C -6 6 C -6 18 C 0 12 C 0 -126 4731 672 L 42 0 4731 672 L 18 -6 C 12 -12 C 6 -12 C 6 -18 C 0 -30 C -6 -18 C
-6 -12 C -12 -12 C -18 -6 C -42 0 C 108 0 4857 600 L -60 0 5079 672 L -6 -54 C 6 6 C 18 6 C 18 0 C 18 -6 C 12 -12 C 6 -18 C 0 -12 C
-6 -18 C -12 -12 C -18 -6 C -18 0 C -18 6 C -6 6 C -6 12 C -60 -84 5187 672 L 90 0 C 0 -126 5187 672 L -6 12 5325 654 L -18 6 C
-12 0 C -18 -6 C -12 -18 C -6 -30 C 0 -30 C 6 -24 C 12 -12 C 18 -6 C 6 0 C 18 6 C 12 12 C 6 18 C 0 6 C -6 18 C -12 12 C -18 6 C
-6 0 C -18 -6 C -12 -12 C -6 -18 C 66 0 5379 672 L -36 -48 C 18 0 C 12 -6 C 6 -6 C 6 -18 C 0 -12 C -6 -18 C -12 -12 C -18 -6 C
-18 0 C -18 6 C -6 6 C -6 12 C 12 6 5505 648 L 18 18 C 0 -126 C -6 -6 5619 558 L 6 -6 C 6 6 C -6 6 C -60 -84 5727 672 L 90 0 C
0 -126 5727 672 L 126 0 420 2895 L 0 54 420 2895 L 6 18 C 6 6 C 12 6 C 18 0 C 12 -6 C 6 -6 C 6 -18 C 0 -54 C 6 -12 462 3045 L
12 -12 C 18 -6 C 12 0 C 18 6 C 12 12 C 6 12 C 0 18 C -6 12 C -12 12 C -18 6 C -12 0 C -18 -6 C -12 -12 C -6 -12 C 0 -18 C
-12 -6 480 3195 L -6 -18 C 0 -18 C 6 -18 C 12 -6 C 12 6 C 6 12 C 6 30 C 6 12 C 12 6 C 6 0 C 12 -6 C 6 -18 C 0 -18 C -6 -18 C
-12 -6 C 102 0 420 3243 L 18 6 C 6 12 C 0 12 C 0 42 462 3225 L 0 -12 420 3345 L 6 -12 C 18 -6 C 102 0 C 0 42 462 3297 L
6 6 420 3375 L -6 6 C -6 -6 C 6 -6 C 84 0 462 3381 L 102 0 420 3435 L 18 6 C 6 12 C 0 12 C 0 42 462 3417 L 126 0 420 3597 L
0 54 420 3597 L 6 18 C 6 6 C 12 6 C 12 0 C 12 -6 C 6 -6 C 6 -18 C 0 -54 C 66 42 480 3639 L 0 72 498 3717 L -12 0 C -12 -6 C -6 -6 C
-6 -12 C 0 -18 C 6 -12 C 12 -12 C 18 -6 C 12 0 C 18 6 C 12 12 C 6 12 C 0 18 C -6 12 C -12 12 C -12 -6 480 3891 L -6 -18 C 0 -18 C
6 -18 C 12 -6 C 12 6 C 6 12 C 6 30 C 6 12 C 12 6 C 6 0 C 12 -6 C 6 -18 C 0 -18 C -6 -18 C -12 -6 C 6 6 420 3926 L -6 6 C -6 -6 C
6 -6 C 84 0 462 3932 L 126 0 420 4046 L -12 -12 480 4046 L -6 -12 C 0 -18 C 6 -12 C 12 -12 C 18 -6 C 12 0 C 18 6 C 12 12 C 6 12 C
0 18 C -6 12 C -12 12 C 60 0 462 4094 L 18 6 C 6 12 C 0 18 C -6 12 C -18 18 C 84 0 462 4160 L 84 0 462 4274 L -12 -12 480 4274 L
-6 -12 C 0 -18 C 6 -12 C 12 -12 C 18 -6 C 12 0 C 18 6 C 12 12 C 6 12 C 0 18 C -6 12 C -12 12 C 126 0 420 4322 L 12 -12 396 4508 L
18 -12 C 24 -12 C 30 -6 C 24 0 C 30 6 C 24 12 C 18 12 C 12 12 C -12 -6 480 4610 L -6 -18 C 0 -18 C 6 -18 C 12 -6 C 12 6 C 6 12 C
6 30 C 6 12 C 12 6 C 6 0 C 12 -6 C 6 -18 C 0 -18 C -6 -18 C -12 -6 C 0 72 498 4646 L -12 0 C -12 -6 C -6 -6 C -6 -12 C 0 -18 C
6 -12 C 12 -12 C 18 -6 C 12 0 C 18 6 C 12 12 C 6 12 C 0 18 C -6 12 C -12 12 C -12 -12 480 4826 L -6 -12 C 0 -18 C 6 -12 C 12 -12 C
18 -6 C 12 0 C 18 6 C 12 12 C 6 12 C 0 18 C -6 12 C -12 12 C 12 12 396 4862 L 18 12 C 24 12 C 30 6 C 24 0 C 30 -6 C 24 -12 C
18 -12 C 12 -12 C
/M16 {MB -4 -4 moveto 0 8 rlineto 8 0 rlineto 0 -8                              
rlineto closepath fill ME} bind def                                             
/MFAC      5.999 def    
4580 3217 M16 4580 3774 M16 4602 3626 M16 4602 4264 M16 4646 3698 M16 4646 4451 M16 4702 5442 M16 4702 3209 M16 4747 4188 M16
4748 2491 M16 4748 4320 M16 4835 2709 M16 4835 4189 M16 4893 3093 M16 4893 3727 M16 4939 3660 M16 4939 3655 M16 4995 3424 M16
4995 4302 M16 5040 3912 M16 5040 3457 M16 5128 3702 M16 5128 3139 M16 5176 6174 M16 5176 4444 M16 5219 3121 M16 5219 2708 M16
5221 3846 M16 5221 4152 M16 5266 5207 M16 5266 3395 M16 5304 4310 M16 5304 3444 M16 5349 3924 M16 5349 3406 M16 5434 2186 M16
5434 4888 M16 5461 6032 M16 5461 3758 M16 5511 5184 M16 5511 3259 M16 5569 3650 M16 5569 3618 M16 5623 4484 M16 5623 3639 M16
5674 2330 M16 5674 4576 M16 5716 3767 M16 5716 3165 M16 5759 4076 M16 5759 3234 M16 5761 5199 M16 5761 4700 M16 5817 2586 M16
5817 4239 M16 5865 2512 M16 5865 4774 M16 5905 4466 M16 5905 3274 M16 6043 3784 M16 6043 4086 M16 6054 3631 M16 6054 3809 M16
6073 4033 M16 6073 3382 M16 6120 3980 M16 6120 3772 M16 6310 4479 M16 6310 3248 M16
45 0 4557 2727 L 0 981 4580 2727 L 45 0 4557 3708 L 45 0 4557 3228 L 0 1093 4580 3228 L 45 0 4557 4321 L 45 0 4580 3240 L
0 771 4602 3240 L 45 0 4580 4011 L 45 0 4580 3159 L 0 2210 4602 3159 L 45 0 4580 5369 L 45 0 4623 3240 L 0 916 4646 3240 L
45 0 4623 4156 L 45 0 4623 3747 L 0 1407 4646 3747 L 45 0 4623 5154 L 45 0 4679 4210 L 0 2419 4702 4210 L 45 0 4679 2624 L
0 1171 4702 2624 L 45 0 4679 3795 L 45 0 4724 3410 L 0 1556 4747 3410 L 45 0 4724 4966 L 45 0 4726 1706 L 0 1570 4748 1706 L
45 0 4726 3276 L 45 0 4726 3745 L 0 1149 4748 3745 L 45 0 4726 4894 L 0 3283 4835 1170 L 45 0 4812 4453 L 45 0 4812 3405 L
0 1568 4835 3405 L 45 0 4812 4973 L 45 0 4870 1984 L 0 2218 4893 1984 L 45 0 4870 4202 L 45 0 4870 2969 L 0 1516 4893 2969 L
45 0 4870 4485 L 45 0 4916 2996 L 0 1328 4939 2996 L 45 0 4916 4324 L 45 0 4916 3090 L 0 1131 4939 3090 L 45 0 4916 4221 L
45 0 4973 1739 L 0 3370 4995 1739 L 45 0 4973 5109 L 45 0 4973 3469 L 0 1665 4995 3469 L 45 0 4973 5134 L 45 0 5017 2080 L
0 3664 5040 2080 L 45 0 5017 5744 L 45 0 5017 2769 L 0 1376 5040 2769 L 45 0 5017 4145 L 45 0 5106 2480 L 0 2444 5128 2480 L
45 0 5106 4924 L 45 0 5106 2372 L 0 1534 5128 2372 L 45 0 5106 3906 L 45 0 5153 4580 L 0 2049 5176 4580 L 45 0 5153 3618 L
0 1652 5176 3618 L 45 0 5153 5270 L 45 0 5197 2006 L 0 2229 5219 2006 L 45 0 5197 4235 L 45 0 5197 1773 L 0 1870 5219 1773 L
45 0 5197 3643 L 45 0 5198 2547 L 0 2598 5221 2547 L 45 0 5198 5145 L 45 0 5198 3271 L 0 1761 5221 3271 L 45 0 5198 5032 L
45 0 5243 3773 L 0 2856 5266 3773 L 45 0 5243 2761 L 0 1267 5266 2761 L 45 0 5243 4028 L 45 0 5282 3284 L 0 2052 5304 3284 L
45 0 5282 5336 L 45 0 5282 2780 L 0 1328 5304 2780 L 45 0 5282 4108 L 45 0 5327 3042 L 0 1763 5349 3042 L 45 0 5327 4805 L
45 0 5327 2701 L 0 1411 5349 2701 L 45 0 5327 4112 L 0 2061 5434 1170 L 45 0 5412 3231 L 45 0 5412 3870 L 0 2036 5434 3870 L
45 0 5412 5906 L 45 0 5439 4746 L 0 1883 5461 4746 L 45 0 5439 3009 L 0 1499 5461 3009 L 45 0 5439 4508 L 45 0 5489 3764 L
0 2840 5511 3764 L 45 0 5489 6604 L 45 0 5489 2558 L 0 1402 5511 2558 L 45 0 5489 3960 L 45 0 5546 2619 L 0 2063 5569 2619 L
45 0 5546 4682 L 45 0 5546 2962 L 0 1311 5569 2962 L 45 0 5546 4273 L 45 0 5601 3402 L 0 2164 5623 3402 L 45 0 5601 5566 L
45 0 5601 2774 L 0 1730 5623 2774 L 45 0 5601 4504 L 0 2558 5674 1170 L 45 0 5652 3728 L 45 0 5652 3429 L 0 2294 5674 3429 L
45 0 5652 5723 L 45 0 5694 2007 L 0 3520 5716 2007 L 45 0 5694 5527 L 45 0 5694 2016 L 0 2298 5716 2016 L 45 0 5694 4314 L
45 0 5736 2954 L 0 2244 5759 2954 L 45 0 5736 5198 L 45 0 5736 2554 L 0 1359 5759 2554 L 45 0 5736 3913 L 45 0 5738 4017 L
0 2363 5761 4017 L 45 0 5738 6380 L 45 0 5738 3709 L 0 1983 5761 3709 L 45 0 5738 5692 L 0 3095 5817 1170 L 45 0 5795 4265 L
45 0 5795 3012 L 0 2455 5817 3012 L 45 0 5795 5467 L 45 0 5842 1240 L 0 2545 5865 1240 L 45 0 5842 3785 L 45 0 5842 3815 L
0 1918 5865 3815 L 45 0 5842 5733 L 45 0 5883 3541 L 0 1849 5905 3541 L 45 0 5883 5390 L 45 0 5883 2361 L 0 1826 5905 2361 L
45 0 5883 4187 L 45 0 6020 2662 L 0 2244 6043 2662 L 45 0 6020 4906 L 45 0 6020 3332 L 0 1507 6043 3332 L 45 0 6020 4839 L
45 0 6032 2278 L 0 2706 6054 2278 L 45 0 6032 4984 L 45 0 6032 3287 L 0 1044 6054 3287 L 45 0 6032 4331 L 45 0 6051 3243 L
0 1580 6073 3243 L 45 0 6051 4823 L 45 0 6051 2860 L 0 1044 6073 2860 L 45 0 6051 3904 L 45 0 6097 3107 L 0 1747 6120 3107 L
45 0 6097 4854 L 45 0 6097 3352 L 0 840 6120 3352 L 45 0 6097 4192 L 45 0 6288 3301 L 0 2357 6310 3301 L 45 0 6288 5658 L
45 0 6288 2712 L 0 1071 6310 2712 L 45 0 6288 3783 L
1024 0 0 K 0 1024 0 K 1665 3557 M16 1666 3594 M16 1757 3390 M16 1758 3497 M16 1760 3605 M16 1787 3639 M16 1788 3782 M16
1852 3711 M16 1903 3773 M16 1903 3727 M16 1903 3751 M16 1903 3373 M16 1957 3707 M16 2060 3949 M16 2060 3752 M16 2113 3837 M16
2113 4107 M16 2190 3919 M16 2311 3857 M16 2311 3592 M16 2382 3801 M16 2382 4071 M16 2382 3856 M16 2457 3983 M16 2457 3712 M16
2457 3750 M16 2457 3954 M16 2542 3762 M16 2542 3798 M16 2542 4027 M16 2595 3772 M16 2598 3606 M16 2635 3749 M16 2715 3896 M16
2857 3651 M16 2913 3653 M16 2974 3777 M16 3111 3933 M16 3160 3734 M16 3160 3644 M16 3247 3706 M16 3279 3742 M16 3289 3761 M16
3294 3826 M16 3300 3800 M16 3319 4074 M16 3319 3482 M16 3319 3748 M16 3324 3988 M16 3374 3750 M16 3375 3784 M16 3376 3850 M16
3377 3702 M16 3377 3841 M16 3418 3721 M16 3471 3779 M16 3476 3636 M16 3500 3861 M16 3501 3725 M16 3524 3534 M16 3534 3751 M16
3577 3873 M16 3588 3722 M16 3607 3973 M16 3702 3651 M16 3708 3653 M16 3708 3629 M16 3718 3686 M16 3720 3631 M16 3726 3726 M16
3732 3716 M16 3734 3563 M16 3742 3809 M16 3744 3654 M16 3746 3817 M16 3747 3357 M16 3779 3574 M16 3780 3745 M16 3782 3702 M16
3793 3725 M16 3806 3523 M16 3825 3674 M16 3829 3665 M16 3838 3577 M16 3846 3566 M16 3848 3736 M16 3848 3532 M16 3870 3665 M16
3888 3474 M16 3889 3608 M16 3914 3585 M16 3915 3526 M16 3930 3618 M16 3939 3646 M16 3946 3580 M16 3962 3649 M16 3966 3678 M16
3971 3717 M16 3982 3737 M16 3984 3733 M16 4016 3950 M16 4018 3686 M16 4058 3635 M16 4063 3636 M16 4064 3646 M16 4074 3615 M16
4077 3625 M16 4079 3594 M16 4083 3611 M16 4085 3572 M16 4095 3517 M16 4106 3493 M16 4109 3505 M16 4115 3595 M16 4119 3665 M16
4140 3402 M16 4144 3635 M16 4152 3413 M16 4154 3679 M16 4160 3648 M16 4165 3608 M16 4185 3526 M16 4191 3592 M16 4192 3573 M16
4197 3506 M16 4210 3555 M16 4218 3581 M16 4220 3531 M16 4225 3543 M16 4231 3510 M16 4231 3499 M16 4256 3521 M16 4261 3639 M16
4274 3469 M16 4283 3566 M16 4284 3620 M16 4288 3611 M16 4288 3563 M16 4290 3500 M16 4292 3503 M16 4317 3418 M16 4321 3711 M16
4325 3627 M16 4340 3784 M16 4356 3562 M16 4356 3457 M16 4362 3610 M16 4365 3487 M16 4375 3616 M16 4380 3520 M16 4386 3568 M16
4404 3712 M16 4420 3788 M16 4420 3047 M16 4421 3866 M16 4452 3682 M16 4452 3760 M16 4454 3533 M16 4455 3617 M16 4487 3774 M16
4494 3583 M16 4498 3612 M16 4501 3745 M16 4524 3619 M16 4527 3653 M16 4546 3735 M16 4546 3445 M16 4569 3565 M16 4569 3496 M16
4602 3833 M16 4603 3672 M16 4622 3646 M16 4625 3923 M16 4636 3720 M16 4641 3776 M16 4666 3617 M16 4695 3686 M16 4702 3676 M16
4705 3899 M16 4737 3622 M16 4738 3839 M16 4739 3324 M16 4747 4007 M16 4748 3470 M16 4753 3635 M16 4780 3794 M16 4791 3742 M16
4793 3706 M16 4828 3709 M16 4835 3694 M16 4839 3715 M16 4843 3739 M16 4844 3714 M16 4878 3738 M16 4881 3752 M16 4893 3462 M16
4907 3815 M16 4939 3621 M16 4940 3652 M16 4953 3768 M16 4960 3656 M16 4966 3449 M16 4971 3567 M16 4995 3954 M16 5003 3584 M16
5019 3609 M16 5030 3588 M16 5040 3529 M16 5045 3644 M16 5051 3629 M16 5053 3514 M16 5073 3648 M16 5128 3527 M16 5129 3843 M16
5157 3705 M16 5165 3774 M16 5173 3793 M16 5176 3877 M16 5176 3722 M16 5186 3670 M16 5206 3763 M16 5214 3754 M16 5219 3548 M16
5221 3504 M16 5229 3839 M16 5248 3658 M16 5253 3675 M16 5254 3574 M16 5266 3684 M16 5286 3693 M16 5304 3470 M16 5307 3657 M16
5330 3536 M16 5331 3721 M16 5341 3623 M16 5349 3580 M16 5359 3517 M16 5379 3924 M16 5423 3621 M16 5426 4038 M16 5434 4071 M16
5434 4001 M16 5439 3821 M16 5461 3725 M16 5465 3653 M16 5469 4114 M16 5472 3409 M16 5476 3627 M16 5479 3859 M16 5487 3851 M16
5508 3768 M16 5509 3945 M16 5511 3941 M16 5523 3839 M16 5525 3716 M16 5528 3824 M16 5536 3556 M16 5543 3786 M16 5548 3729 M16
5559 3715 M16 5560 3621 M16 5560 3793 M16 5567 3765 M16 5568 3893 M16 5569 3770 M16 5570 3818 M16 5572 3708 M16 5586 3415 M16
5589 3977 M16 5591 3801 M16 5599 3766 M16 5599 3854 M16 5599 3777 M16 5609 3767 M16 5615 3887 M16 5615 3852 M16 5621 3810 M16
5623 3906 M16 5626 3867 M16 5636 3891 M16 5638 3756 M16 5650 3661 M16 5668 3821 M16 5674 3689 M16 5679 4018 M16 5689 3715 M16
5716 3738 M16 5724 3807 M16 5738 3741 M16 5749 3920 M16 5758 3765 M16 5761 4044 M16 5770 3760 M16 5772 3872 M16 5775 3703 M16
5794 3774 M16 5810 4037 M16 5810 3856 M16 5817 3787 M16 5817 3884 M16 5823 3868 M16 5828 3819 M16 5839 3804 M16 5850 3909 M16
5857 3898 M16 5858 3673 M16 5865 3974 M16 5871 3822 M16 5874 3744 M16 5887 3746 M16 5889 3950 M16 5892 3955 M16 5892 3927 M16
5899 3760 M16 5905 3864 M16 5910 3798 M16 5923 3765 M16 5926 3797 M16 5937 3805 M16 5947 3774 M16 5971 4156 M16 5975 3677 M16
5983 3822 M16 5990 3738 M16 6001 3727 M16 6009 3688 M16 6014 4000 M16 6024 3772 M16 6039 3733 M16 6043 3713 M16 6054 3795 M16
6054 3817 M16 6062 3826 M16 6073 3728 M16 6088 3650 M16 6105 3951 M16 6115 3686 M16 6120 3835 M16 6139 3596 M16 6148 3763 M16
6168 3733 M16 6169 3813 M16 6185 3901 M16 6198 3488 M16 6204 3635 M16 6209 3928 M16 6211 3646 M16 6224 3638 M16 6235 3523 M16
6250 3573 M16 6275 3725 M16 6288 3538 M16 6310 3734 M16 6310 3834 M16 6320 3926 M16 6331 3712 M16 6355 3649 M16 6357 3768 M16
6360 3795 M16 6376 4026 M16 6382 3684 M16 6397 3617 M16 6400 3855 M16 6409 3893 M16 6411 3824 M16 6411 3806 M16 6411 3944 M16
6421 3794 M16 6466 3949 M16 6468 3546 M16 6488 3766 M16 6490 3642 M16 6493 3827 M16 6504 3813 M16 6525 3804 M16 6535 4002 M16
6546 3804 M16 6573 3869 M16 6575 3850 M16 6599 3886 M16 6602 4016 M16 6610 3799 M16 6623 4106 M16 6623 3918 M16 6632 3811 M16
6635 3973 M16 6637 3809 M16 6639 3845 M16 6639 3944 M16 6640 3965 M16 6656 3986 M16 6666 3899 M16 6685 3889 M16 6688 3762 M16
6696 3947 M16 6709 3605 M16 6719 3886 M16 6725 3972 M16 6737 3900 M16 6744 3969 M16 6759 3822 M16 6760 3939 M16 6773 3752 M16
6786 3904 M16 6788 3726 M16 6797 3923 M16 6804 3593 M16 6805 3779 M16 6815 3903 M16 6818 3707 M16 6825 3899 M16 6828 3926 M16
6829 3956 M16 6852 3867 M16 6868 3861 M16 6871 3938 M16 6876 3920 M16 6882 3712 M16 6896 4193 M16 6908 4014 M16 6925 3850 M16
6927 3853 M16 6930 3707 M16 6951 3953 M16 6962 3821 M16 6968 4122 M16 6972 3776 M16 6973 3827 M16 6974 3794 M16 6974 4202 M16
6975 3867 M16 6977 3877 M16 6978 3891 M16 6991 3537 M16 7002 3784 M16 7007 3826 M16 7033 3611 M16 7038 3831 M16 7041 4002 M16
7042 3611 M16 7050 3824 M16 7052 3745 M16 7058 3654 M16 7060 3694 M16 7065 3774 M16 7078 3657 M16 7114 3686 M16 7116 3699 M16
7129 3599 M16 7142 3686 M16 7159 3496 M16 7161 3638 M16 7166 3889 M16 7180 3279 M16 7185 3730 M16 7191 3737 M16 7207 3562 M16
7212 3705 M16 7220 3660 M16 7223 4086 M16 7235 3697 M16 7254 3802 M16 7270 3520 M16 7288 3643 M16 7311 3868 M16 7326 3690 M16
7334 3742 M16 7369 3689 M16 7387 3502 M16 7388 3795 M16 7390 3757 M16 7409 3947 M16 7411 3766 M16 7417 3530 M16 7454 3813 M16
7470 3664 M16 7488 3780 M16 7494 3794 M16 7498 3770 M16 7539 3634 M16 7545 3941 M16 7558 3646 M16 7560 3730 M16 7560 3510 M16
7566 4027 M16 7579 3565 M16 7605 3435 M16 7611 3574 M16 7625 3617 M16 7627 3706 M16 7654 3642 M16 7688 3623 M16 7688 3662 M16
7706 3530 M16 7717 3820 M16 7728 3497 M16 7743 3769 M16 7747 3150 M16 7749 3559 M16 7750 3610 M16 7752 3367 M16 7795 3385 M16
7843 3615 M16 7853 3632 M16 7855 3484 M16 7859 3558 M16 7863 3628 M16 7892 3609 M16 7898 3656 M16 7919 3579 M16 7927 3581 M16
7935 3609 M16 7967 3410 M16 7980 3568 M16 7992 3697 M16 7997 3514 M16 8004 3477 M16 8018 3595 M16 8029 3717 M16 8063 3591 M16
8079 3789 M16 8089 3652 M16 8098 3584 M16 8105 3654 M16 8130 3654 M16 8159 3515 M16 8165 3690 M16 8167 3705 M16 8170 3645 M16
8181 3781 M16 8201 3655 M16 8202 3688 M16 8220 3918 M16 8247 3733 M16 8260 3794 M16 8287 3862 M16 8290 3733 M16 8302 3754 M16
8306 3641 M16 8314 3728 M16 8326 3773 M16 8329 3819 M16 8337 3728 M16 8348 3697 M16 8358 3756 M16 8359 3793 M16 8359 3827 M16
8406 3541 M16 8414 3780 M16 8447 3910 M16 8475 3970 M16 8487 3716 M16 8505 3910 M16 8531 3869 M16 8536 3679 M16 8539 3878 M16
8571 3696 M16
45 0 1643 3045 L 0 1023 1665 3045 L 45 0 1643 4068 L 45 0 1643 3083 L 0 1023 1666 3083 L 45 0 1643 4106 L 45 0 1735 2828 L
0 1124 1757 2828 L 45 0 1735 3952 L 45 0 1736 2984 L 0 1027 1758 2984 L 45 0 1736 4011 L 45 0 1738 3091 L 0 1028 1760 3091 L
45 0 1738 4119 L 45 0 1765 3090 L 0 1098 1787 3090 L 45 0 1765 4188 L 45 0 1765 3224 L 0 1116 1788 3224 L 45 0 1765 4340 L
45 0 1829 3196 L 0 1029 1852 3196 L 45 0 1829 4225 L 45 0 1880 3261 L 0 1023 1903 3261 L 45 0 1880 4284 L 45 0 1880 3211 L
0 1031 1903 3211 L 45 0 1880 4242 L 45 0 1881 3238 L 0 1026 1903 3238 L 45 0 1881 4264 L 45 0 1881 2860 L 0 1026 1903 2860 L
45 0 1881 3886 L 45 0 1935 3195 L 0 1024 1957 3195 L 45 0 1935 4219 L 45 0 2037 3435 L 0 1027 2060 3435 L 45 0 2037 4462 L
45 0 2037 3239 L 0 1026 2060 3239 L 45 0 2037 4265 L 45 0 2090 3324 L 0 1026 2113 3324 L 45 0 2090 4350 L 45 0 2090 3593 L
0 1028 2113 3593 L 45 0 2090 4621 L 45 0 2167 3402 L 0 1035 2190 3402 L 45 0 2167 4437 L 45 0 2289 3335 L 0 1043 2311 3335 L
45 0 2289 4378 L 45 0 2289 3064 L 0 1056 2311 3064 L 45 0 2289 4120 L 45 0 2359 3289 L 0 1024 2382 3289 L 45 0 2359 4313 L
45 0 2359 3549 L 0 1045 2382 3549 L 45 0 2359 4594 L 45 0 2359 3344 L 0 1023 2382 3344 L 45 0 2359 4367 L 45 0 2434 3468 L
0 1031 2457 3468 L 45 0 2434 4499 L 45 0 2435 3198 L 0 1028 2457 3198 L 45 0 2435 4226 L 45 0 2435 3236 L 0 1028 2457 3236 L
45 0 2435 4264 L 45 0 2435 3438 L 0 1032 2457 3438 L 45 0 2435 4470 L 45 0 2519 3248 L 0 1028 2542 3248 L 45 0 2519 4276 L
45 0 2520 3285 L 0 1027 2542 3285 L 45 0 2520 4312 L 45 0 2520 3513 L 0 1029 2542 3513 L 45 0 2520 4542 L 45 0 2572 3260 L
0 1023 2595 3260 L 45 0 2572 4283 L 45 0 2576 3094 L 0 1024 2598 3094 L 45 0 2576 4118 L 45 0 2612 3236 L 0 1026 2635 3236 L
45 0 2612 4262 L 45 0 2693 3384 L 0 1024 2715 3384 L 45 0 2693 4408 L 45 0 2835 3138 L 0 1026 2857 3138 L 45 0 2835 4164 L
45 0 2891 3137 L 0 1032 2913 3137 L 45 0 2891 4169 L 45 0 2952 3264 L 0 1026 2974 3264 L 45 0 2952 4290 L 45 0 3088 3420 L
0 1025 3111 3420 L 45 0 3088 4445 L 45 0 3138 3222 L 0 1025 3160 3222 L 45 0 3138 4247 L 45 0 3138 3132 L 0 1024 3160 3132 L
45 0 3138 4156 L 45 0 3224 3195 L 0 1023 3247 3195 L 45 0 3224 4218 L 45 0 3257 3231 L 0 1023 3279 3231 L 45 0 3257 4254 L
45 0 3266 3249 L 0 1024 3289 3249 L 45 0 3266 4273 L 45 0 3271 3314 L 0 1024 3294 3314 L 45 0 3271 4338 L 45 0 3278 3288 L
0 1023 3300 3288 L 45 0 3278 4311 L 45 0 3296 3562 L 0 1024 3319 3562 L 45 0 3296 4586 L 45 0 3296 2967 L 0 1029 3319 2967 L
45 0 3296 3996 L 45 0 3297 3235 L 0 1025 3319 3235 L 45 0 3297 4260 L 45 0 3302 3475 L 0 1026 3324 3475 L 45 0 3302 4501 L
45 0 3351 3238 L 0 1024 3374 3238 L 45 0 3351 4262 L 45 0 3353 3273 L 0 1022 3375 3273 L 45 0 3353 4295 L 45 0 3354 3339 L
0 1023 3376 3339 L 45 0 3354 4362 L 45 0 3354 3191 L 0 1023 3377 3191 L 45 0 3354 4214 L 45 0 3354 3330 L 0 1022 3377 3330 L
45 0 3354 4352 L 45 0 3396 3207 L 0 1029 3418 3207 L 45 0 3396 4236 L 45 0 3449 3262 L 0 1034 3471 3262 L 45 0 3449 4296 L
45 0 3454 3123 L 0 1025 3476 3123 L 45 0 3454 4148 L 45 0 3478 3349 L 0 1024 3500 3349 L 45 0 3478 4373 L 45 0 3479 3214 L
0 1023 3501 3214 L 45 0 3479 4237 L 45 0 3501 3020 L 0 1027 3524 3020 L 45 0 3501 4047 L 45 0 3511 3197 L 0 1108 3534 3197 L
45 0 3511 4305 L 45 0 3554 3361 L 0 1024 3577 3361 L 45 0 3554 4385 L 45 0 3566 3210 L 0 1024 3588 3210 L 45 0 3566 4234 L
45 0 3585 3388 L 0 1170 3607 3388 L 45 0 3585 4558 L 45 0 3680 3566 L 0 169 3702 3566 L 45 0 3680 3735 L 45 0 3686 3140 L
0 1025 3708 3140 L 45 0 3686 4165 L 45 0 3686 3117 L 0 1024 3708 3117 L 45 0 3686 4141 L 45 0 3696 3581 L 0 210 3718 3581 L
45 0 3696 3791 L 45 0 3697 3552 L 0 157 3720 3552 L 45 0 3697 3709 L 45 0 3704 3666 L 0 120 3726 3666 L 45 0 3704 3786 L
45 0 3710 3602 L 0 229 3732 3602 L 45 0 3710 3831 L 45 0 3712 3456 L 0 214 3734 3456 L 45 0 3712 3670 L 45 0 3720 3294 L
0 1030 3742 3294 L 45 0 3720 4324 L 45 0 3721 3495 L 0 318 3744 3495 L 45 0 3721 3813 L 45 0 3723 3635 L 0 364 3746 3635 L
45 0 3723 3999 L 45 0 3724 3167 L 0 380 3747 3167 L 45 0 3724 3547 L 45 0 3756 3525 L 0 98 3779 3525 L 45 0 3756 3623 L
45 0 3758 3234 L 0 1023 3780 3234 L 45 0 3758 4257 L 45 0 3760 3662 L 0 80 3782 3662 L 45 0 3760 3742 L 45 0 3771 3672 L
0 106 3793 3672 L 45 0 3771 3778 L 45 0 3784 3479 L 0 87 3806 3479 L 45 0 3784 3566 L 45 0 3803 3633 L 0 82 3825 3633 L
45 0 3803 3715 L 45 0 3806 3624 L 0 82 3829 3624 L 45 0 3806 3706 L 45 0 3816 3539 L 0 76 3838 3539 L 45 0 3816 3615 L
45 0 3824 3517 L 0 98 3846 3517 L 45 0 3824 3615 L 45 0 3825 3657 L 0 157 3848 3657 L 45 0 3825 3814 L 45 0 3825 3447 L
0 171 3848 3447 L 45 0 3825 3618 L 45 0 3848 3576 L 0 179 3870 3576 L 45 0 3848 3755 L 45 0 3865 3404 L 0 139 3888 3404 L
45 0 3865 3543 L 45 0 3867 3547 L 0 123 3889 3547 L 45 0 3867 3670 L 45 0 3891 3497 L 0 176 3914 3497 L 45 0 3891 3673 L
45 0 3893 3440 L 0 173 3915 3440 L 45 0 3893 3613 L 45 0 3907 3576 L 0 83 3930 3576 L 45 0 3907 3659 L 45 0 3917 3591 L
0 109 3939 3591 L 45 0 3917 3700 L 45 0 3923 3497 L 0 165 3946 3497 L 45 0 3923 3662 L 45 0 3939 3571 L 0 155 3962 3571 L
45 0 3939 3726 L 45 0 3944 3591 L 0 174 3966 3591 L 45 0 3944 3765 L 45 0 3949 3579 L 0 275 3971 3579 L 45 0 3949 3854 L
45 0 3960 3625 L 0 225 3982 3625 L 45 0 3960 3850 L 45 0 3961 3631 L 0 204 3984 3631 L 45 0 3961 3835 L 45 0 3994 3807 L
0 285 4016 3807 L 45 0 3994 4092 L 45 0 3995 3601 L 0 169 4018 3601 L 45 0 3995 3770 L 45 0 4035 3589 L 0 93 4058 3589 L
45 0 4035 3682 L 45 0 4040 3518 L 0 235 4063 3518 L 45 0 4040 3753 L 45 0 4041 3557 L 0 178 4064 3557 L 45 0 4041 3735 L
45 0 4051 3545 L 0 141 4074 3545 L 45 0 4051 3686 L 45 0 4054 3551 L 0 149 4077 3551 L 45 0 4054 3700 L 45 0 4056 3530 L
0 127 4079 3530 L 45 0 4056 3657 L 45 0 4061 3532 L 0 158 4083 3532 L 45 0 4061 3690 L 45 0 4062 3499 L 0 145 4085 3499 L
45 0 4062 3644 L 45 0 4072 3445 L 0 143 4095 3445 L 45 0 4072 3588 L 45 0 4084 3352 L 0 282 4106 3352 L 45 0 4084 3634 L
45 0 4086 3423 L 0 164 4109 3423 L 45 0 4086 3587 L 45 0 4093 3531 L 0 128 4115 3531 L 45 0 4093 3659 L 45 0 4096 3520 L
0 291 4119 3520 L 45 0 4096 3811 L 45 0 4117 3168 L 0 467 4140 3168 L 45 0 4117 3635 L 45 0 4122 3497 L 0 276 4144 3497 L
45 0 4122 3773 L 45 0 4130 3303 L 0 220 4152 3303 L 45 0 4130 3523 L 45 0 4131 3610 L 0 137 4154 3610 L 45 0 4131 3747 L
45 0 4138 3584 L 0 128 4160 3584 L 45 0 4138 3712 L 45 0 4143 3535 L 0 147 4165 3535 L 45 0 4143 3682 L 45 0 4162 3407 L
0 238 4185 3407 L 45 0 4162 3645 L 45 0 4168 3536 L 0 111 4191 3536 L 45 0 4168 3647 L 45 0 4170 3515 L 0 116 4192 3515 L
45 0 4170 3631 L 45 0 4175 3411 L 0 189 4197 3411 L 45 0 4175 3600 L 45 0 4187 3465 L 0 181 4210 3465 L 45 0 4187 3646 L
45 0 4196 3480 L 0 203 4218 3480 L 45 0 4196 3683 L 45 0 4197 3442 L 0 178 4220 3442 L 45 0 4197 3620 L 45 0 4202 3462 L
0 163 4225 3462 L 45 0 4202 3625 L 45 0 4208 3460 L 0 101 4231 3460 L 45 0 4208 3561 L 45 0 4208 3416 L 0 166 4231 3416 L
45 0 4208 3582 L 45 0 4234 3466 L 0 110 4256 3466 L 45 0 4234 3576 L 45 0 4239 3547 L 0 184 4261 3547 L 45 0 4239 3731 L
45 0 4252 3322 L 0 295 4274 3322 L 45 0 4252 3617 L 45 0 4261 3462 L 0 207 4283 3462 L 45 0 4261 3669 L 45 0 4261 3566 L
0 109 4284 3566 L 45 0 4261 3675 L 45 0 4266 3523 L 0 176 4288 3523 L 45 0 4266 3699 L 45 0 4266 3507 L 0 113 4288 3507 L
45 0 4266 3620 L 44 0 4268 3441 L 0 118 4290 3441 L 44 0 4268 3559 L 45 0 4269 3443 L 0 121 4292 3443 L 45 0 4269 3564 L
45 0 4295 3323 L 0 189 4317 3323 L 45 0 4295 3512 L 45 0 4298 3545 L 0 332 4321 3545 L 45 0 4298 3877 L 45 0 4303 3557 L
0 141 4325 3557 L 45 0 4303 3698 L 45 0 4317 3658 L 0 252 4340 3658 L 45 0 4317 3910 L 45 0 4333 3050 L 0 1024 4356 3050 L
45 0 4333 4074 L 45 0 4333 3366 L 0 182 4356 3366 L 45 0 4333 3548 L 45 0 4340 3556 L 0 108 4362 3556 L 45 0 4340 3664 L
45 0 4343 3397 L 0 179 4365 3397 L 45 0 4343 3576 L 45 0 4352 3548 L 0 135 4375 3548 L 45 0 4352 3683 L 45 0 4357 3455 L
0 129 4380 3455 L 45 0 4357 3584 L 45 0 4364 3483 L 0 171 4386 3483 L 45 0 4364 3654 L 45 0 4381 3576 L 0 272 4404 3576 L
45 0 4381 3848 L 45 0 4397 3628 L 0 320 4420 3628 L 45 0 4397 3948 L 45 0 4398 2787 L 0 520 4420 2787 L 45 0 4398 3307 L
45 0 4399 3654 L 0 423 4421 3654 L 45 0 4399 4077 L 45 0 4429 3552 L 0 260 4452 3552 L 45 0 4429 3812 L 45 0 4429 3676 L
0 168 4452 3676 L 45 0 4429 3844 L 45 0 4431 3344 L 0 379 4454 3344 L 45 0 4431 3723 L 44 0 4433 3562 L 0 110 4455 3562 L
44 0 4433 3672 L 45 0 4465 3726 L 0 96 4487 3726 L 45 0 4465 3822 L 45 0 4471 3066 L 0 1034 4494 3066 L 45 0 4471 4100 L
45 0 4476 3525 L 0 175 4498 3525 L 45 0 4476 3700 L 45 0 4479 3233 L 0 1024 4501 3233 L 45 0 4479 4257 L 45 0 4501 3560 L
0 118 4524 3560 L 45 0 4501 3678 L 45 0 4505 3605 L 0 96 4527 3605 L 45 0 4505 3701 L 45 0 4524 3220 L 0 1029 4546 3220 L
45 0 4524 4249 L 45 0 4524 3293 L 0 303 4546 3293 L 45 0 4524 3596 L 45 0 4546 3472 L 0 185 4569 3472 L 45 0 4546 3657 L
45 0 4546 3333 L 0 326 4569 3333 L 45 0 4546 3659 L 45 0 4580 3723 L 0 219 4602 3723 L 45 0 4580 3942 L 45 0 4580 3159 L
0 1025 4603 3159 L 45 0 4580 4184 L 45 0 4599 3132 L 0 1027 4622 3132 L 45 0 4599 4159 L 45 0 4602 3798 L 0 250 4625 3798 L
45 0 4602 4048 L 45 0 4614 3616 L 0 208 4636 3616 L 45 0 4614 3824 L 45 0 4618 3671 L 0 211 4641 3671 L 45 0 4618 3882 L
45 0 4644 3524 L 0 187 4666 3524 L 45 0 4644 3711 L 45 0 4673 3568 L 0 236 4695 3568 L 45 0 4673 3804 L 45 0 4679 3502 L
0 348 4702 3502 L 45 0 4679 3850 L 45 0 4682 3685 L 0 429 4705 3685 L 45 0 4682 4114 L 45 0 4715 3080 L 0 1085 4737 3080 L
45 0 4715 4165 L 45 0 4716 3306 L 0 1067 4738 3306 L 45 0 4716 4373 L 45 0 4716 2798 L 0 1052 4739 2798 L 45 0 4716 3850 L
45 0 4724 3753 L 0 508 4747 3753 L 45 0 4724 4261 L 45 0 4725 3302 L 0 336 4748 3302 L 45 0 4725 3638 L 45 0 4730 3535 L
0 200 4753 3535 L 45 0 4730 3735 L 45 0 4758 3593 L 0 401 4780 3593 L 45 0 4758 3994 L 45 0 4769 3698 L 0 88 4791 3698 L
45 0 4769 3786 L 45 0 4771 3656 L 0 99 4793 3656 L 45 0 4771 3755 L 45 0 4806 3594 L 0 229 4828 3594 L 45 0 4806 3823 L
45 0 4812 3525 L 0 338 4835 3525 L 45 0 4812 3863 L 45 0 4817 3192 L 0 1046 4839 3192 L 45 0 4817 4238 L 45 0 4820 3225 L
0 1028 4843 3225 L 45 0 4820 4253 L 45 0 4822 3619 L 0 190 4844 3619 L 45 0 4822 3809 L 45 0 4855 3654 L 0 168 4878 3654 L
45 0 4855 3822 L 45 0 4859 3686 L 0 132 4881 3686 L 45 0 4859 3818 L 45 0 4870 3311 L 0 301 4893 3311 L 45 0 4870 3612 L
45 0 4884 3686 L 0 257 4907 3686 L 45 0 4884 3943 L 45 0 4916 3546 L 0 151 4939 3546 L 45 0 4916 3697 L 45 0 4918 3599 L
0 106 4940 3599 L 45 0 4918 3705 L 45 0 4931 3255 L 0 1026 4953 3255 L 45 0 4931 4281 L 45 0 4937 3480 L 0 353 4960 3480 L
45 0 4937 3833 L 45 0 4944 3290 L 0 319 4966 3290 L 45 0 4944 3609 L 45 0 4948 3423 L 0 287 4971 3423 L 45 0 4948 3710 L
45 0 4973 3692 L 0 523 4995 3692 L 45 0 4973 4215 L 45 0 4980 3536 L 0 97 5003 3536 L 45 0 4980 3633 L 45 0 4996 3566 L
0 87 5019 3566 L 45 0 4996 3653 L 45 0 5008 3534 L 0 109 5030 3534 L 45 0 5008 3643 L 45 0 5017 3399 L 0 260 5040 3399 L
45 0 5017 3659 L 45 0 5022 3593 L 0 102 5045 3593 L 45 0 5022 3695 L 45 0 5028 3564 L 0 130 5051 3564 L 45 0 5028 3694 L
45 0 5030 3314 L 0 401 5053 3314 L 45 0 5030 3715 L 45 0 5051 3578 L 0 141 5073 3578 L 45 0 5051 3719 L 45 0 5106 3287 L
0 480 5128 3287 L 45 0 5106 3767 L 45 0 5107 3685 L 0 316 5129 3685 L 45 0 5107 4001 L 45 0 5134 3637 L 0 136 5157 3637 L
45 0 5134 3773 L 45 0 5142 3261 L 0 1025 5165 3261 L 45 0 5142 4286 L 45 0 5150 3744 L 0 98 5173 3744 L 45 0 5150 3842 L
45 0 5153 3738 L 0 279 5176 3738 L 45 0 5153 4017 L 45 0 5154 3210 L 0 1024 5176 3210 L 45 0 5154 4234 L 45 0 5163 3632 L
0 76 5186 3632 L 45 0 5163 3708 L 45 0 5184 3712 L 0 102 5206 3712 L 45 0 5184 3814 L 45 0 5192 3678 L 0 152 5214 3678 L
45 0 5192 3830 L 45 0 5197 3335 L 0 426 5219 3335 L 45 0 5197 3761 L 45 0 5198 3316 L 0 376 5221 3316 L 45 0 5198 3692 L
45 0 5206 3754 L 0 170 5229 3754 L 45 0 5206 3924 L 45 0 5226 3614 L 0 87 5248 3614 L 45 0 5226 3701 L 45 0 5230 3642 L
0 66 5253 3642 L 45 0 5230 3708 L 45 0 5232 3062 L 0 1023 5254 3062 L 45 0 5232 4085 L 45 0 5243 3550 L 0 269 5266 3550 L
45 0 5243 3819 L 45 0 5264 3649 L 0 87 5286 3649 L 45 0 5264 3736 L 45 0 5282 3364 L 0 213 5304 3364 L 45 0 5282 3577 L
45 0 5285 3628 L 0 58 5307 3628 L 45 0 5285 3686 L 45 0 5307 3461 L 0 150 5330 3461 L 45 0 5307 3611 L 45 0 5309 3630 L
0 182 5331 3630 L 45 0 5309 3812 L 45 0 5318 3560 L 0 126 5341 3560 L 45 0 5318 3686 L 45 0 5327 3405 L 0 350 5349 3405 L
45 0 5327 3755 L 45 0 5336 3004 L 0 1025 5359 3004 L 45 0 5336 4029 L 45 0 5357 3856 L 0 137 5379 3856 L 45 0 5357 3993 L
45 0 5400 3436 L 0 370 5423 3436 L 45 0 5400 3806 L 45 0 5403 3933 L 0 211 5426 3933 L 45 0 5403 4144 L 45 0 5411 3972 L
0 198 5434 3972 L 45 0 5411 4170 L 45 0 5412 3805 L 0 391 5434 3805 L 45 0 5412 4196 L 45 0 5416 3740 L 0 162 5439 3740 L
45 0 5416 3902 L 45 0 5439 3597 L 0 257 5461 3597 L 45 0 5439 3854 L 45 0 5442 3526 L 0 254 5465 3526 L 45 0 5442 3780 L
45 0 5447 3844 L 0 541 5469 3844 L 45 0 5447 4385 L 45 0 5450 3172 L 0 473 5472 3172 L 45 0 5450 3645 L 45 0 5453 3394 L
0 466 5476 3394 L 45 0 5453 3860 L 45 0 5456 3721 L 0 276 5479 3721 L 45 0 5456 3997 L 45 0 5464 3729 L 0 244 5487 3729 L
45 0 5464 3973 L 45 0 5485 3742 L 0 51 5508 3742 L 45 0 5485 3793 L 45 0 5487 3845 L 0 200 5509 3845 L 45 0 5487 4045 L
45 0 5489 3833 L 0 216 5511 3833 L 45 0 5489 4049 L 45 0 5501 3698 L 0 282 5523 3698 L 45 0 5501 3980 L 45 0 5503 3666 L
0 101 5525 3666 L 45 0 5503 3767 L 45 0 5506 3778 L 0 93 5528 3778 L 45 0 5506 3871 L 45 0 5514 3217 L 0 678 5536 3217 L
45 0 5514 3895 L 45 0 5520 3727 L 0 117 5543 3727 L 45 0 5520 3844 L 45 0 5525 3214 L 0 1030 5548 3214 L 45 0 5525 4244 L
45 0 5536 3658 L 0 114 5559 3658 L 45 0 5536 3772 L 45 0 5538 3489 L 0 264 5560 3489 L 45 0 5538 3753 L 45 0 5538 3743 L
0 100 5560 3743 L 45 0 5538 3843 L 45 0 5544 3712 L 0 106 5567 3712 L 45 0 5544 3818 L 45 0 5546 3765 L 0 255 5568 3765 L
45 0 5546 4020 L 45 0 5546 3586 L 0 367 5569 3586 L 45 0 5546 3953 L 45 0 5547 3687 L 0 262 5570 3687 L 45 0 5547 3949 L
45 0 5549 3196 L 0 1025 5572 3196 L 45 0 5549 4221 L 45 0 5564 3239 L 0 352 5586 3239 L 45 0 5564 3591 L 45 0 5567 3462 L
0 1030 5589 3462 L 45 0 5567 4492 L 45 0 5568 3287 L 0 1028 5591 3287 L 45 0 5568 4315 L 45 0 5576 3620 L 0 292 5599 3620 L
45 0 5576 3912 L 45 0 5576 3788 L 0 132 5599 3788 L 45 0 5576 3920 L 45 0 5576 3638 L 0 277 5599 3638 L 45 0 5576 3915 L
45 0 5586 3731 L 0 71 5609 3731 L 45 0 5586 3802 L 45 0 5592 3764 L 0 245 5615 3764 L 45 0 5592 4009 L 45 0 5592 3812 L
0 81 5615 3812 L 45 0 5592 3893 L 45 0 5599 3780 L 0 61 5621 3780 L 45 0 5599 3841 L 45 0 5601 3803 L 0 207 5623 3803 L
45 0 5601 4010 L 45 0 5604 3753 L 0 228 5626 3753 L 45 0 5604 3981 L 45 0 5613 3855 L 0 73 5636 3855 L 45 0 5613 3928 L
45 0 5615 3581 L 0 350 5638 3581 L 45 0 5615 3931 L 45 0 5628 3510 L 0 301 5650 3510 L 45 0 5628 3811 L 45 0 5645 3694 L
0 254 5668 3694 L 45 0 5645 3948 L 45 0 5652 3544 L 0 291 5674 3544 L 45 0 5652 3835 L 45 0 5657 3850 L 0 337 5679 3850 L
45 0 5657 4187 L 45 0 5666 3649 L 0 132 5689 3649 L 45 0 5666 3781 L 45 0 5694 3567 L 0 342 5716 3567 L 45 0 5694 3909 L
45 0 5701 3754 L 0 106 5724 3754 L 45 0 5701 3860 L 45 0 5716 3674 L 0 135 5738 3674 L 45 0 5716 3809 L 45 0 5727 3848 L
0 144 5749 3848 L 45 0 5727 3992 L 45 0 5735 3696 L 0 139 5758 3696 L 45 0 5735 3835 L 45 0 5738 3820 L 0 448 5761 3820 L
45 0 5738 4268 L 45 0 5748 3677 L 0 165 5770 3677 L 45 0 5748 3842 L 45 0 5749 3807 L 0 130 5772 3807 L 45 0 5749 3937 L
45 0 5753 3637 L 0 131 5775 3637 L 45 0 5753 3768 L 45 0 5772 3703 L 0 143 5794 3703 L 45 0 5772 3846 L 45 0 5788 3876 L
0 322 5810 3876 L 45 0 5788 4198 L 45 0 5788 3807 L 0 98 5810 3807 L 45 0 5788 3905 L 45 0 5794 3746 L 0 82 5817 3746 L
45 0 5794 3828 L 45 0 5795 3706 L 0 357 5817 3706 L 45 0 5795 4063 L 45 0 5800 3760 L 0 216 5823 3760 L 45 0 5800 3976 L
44 0 5806 3782 L 0 74 5828 3782 L 44 0 5806 3856 L 45 0 5816 3715 L 0 179 5839 3715 L 45 0 5816 3894 L 45 0 5828 3842 L
0 134 5850 3842 L 45 0 5828 3976 L 45 0 5834 3849 L 0 99 5857 3849 L 45 0 5834 3948 L 45 0 5836 3527 L 0 293 5858 3527 L
45 0 5836 3820 L 45 0 5842 3806 L 0 335 5865 3806 L 45 0 5842 4141 L 45 0 5849 3731 L 0 182 5871 3731 L 45 0 5849 3913 L
45 0 5852 3525 L 0 439 5874 3525 L 45 0 5852 3964 L 45 0 5865 3620 L 0 251 5887 3620 L 45 0 5865 3871 L 45 0 5866 3838 L
0 224 5889 3838 L 45 0 5866 4062 L 45 0 5870 3838 L 0 234 5892 3838 L 45 0 5870 4072 L 45 0 5870 3803 L 0 248 5892 3803 L
45 0 5870 4051 L 45 0 5876 3702 L 0 116 5899 3702 L 45 0 5876 3818 L 45 0 5883 3714 L 0 300 5905 3714 L 45 0 5883 4014 L
45 0 5887 3748 L 0 99 5910 3748 L 45 0 5887 3847 L 45 0 5900 3573 L 0 384 5923 3573 L 45 0 5900 3957 L 45 0 5903 3709 L
0 176 5926 3709 L 45 0 5903 3885 L 45 0 5914 3730 L 0 149 5937 3730 L 45 0 5914 3879 L 45 0 5924 3688 L 0 173 5947 3688 L
45 0 5924 3861 L 45 0 5948 3767 L 0 778 5971 3767 L 45 0 5948 4545 L 45 0 5953 3621 L 0 111 5975 3621 L 45 0 5953 3732 L
45 0 5961 3680 L 0 284 5983 3680 L 45 0 5961 3964 L 45 0 5967 3695 L 0 87 5990 3695 L 45 0 5967 3782 L 45 0 5978 3627 L
0 200 6001 3627 L 45 0 5978 3827 L 45 0 5987 3645 L 0 85 6009 3645 L 45 0 5987 3730 L 45 0 5991 3821 L 0 358 6014 3821 L
45 0 5991 4179 L 45 0 6001 3559 L 0 425 6024 3559 L 45 0 6001 3984 L 45 0 6017 3625 L 0 217 6039 3625 L 45 0 6017 3842 L
45 0 6020 3585 L 0 257 6043 3585 L 45 0 6020 3842 L 45 0 6031 3667 L 0 257 6054 3667 L 45 0 6031 3924 L 45 0 6032 3634 L
0 367 6054 3634 L 45 0 6032 4001 L 45 0 6039 3692 L 0 269 6062 3692 L 45 0 6039 3961 L 45 0 6051 3570 L 0 316 6073 3570 L
45 0 6051 3886 L 45 0 6065 3522 L 0 255 6088 3522 L 45 0 6065 3777 L 45 0 6082 3826 L 0 251 6105 3826 L 45 0 6082 4077 L
45 0 6092 3635 L 0 102 6115 3635 L 45 0 6092 3737 L 45 0 6097 3695 L 0 281 6120 3695 L 45 0 6097 3976 L 45 0 6117 3424 L
0 343 6139 3424 L 45 0 6117 3767 L 45 0 6126 3705 L 0 116 6148 3705 L 45 0 6126 3821 L 45 0 6145 3645 L 0 176 6168 3645 L
45 0 6145 3821 L 45 0 6147 3687 L 0 252 6169 3687 L 45 0 6147 3939 L 45 0 6163 3738 L 0 326 6185 3738 L 45 0 6163 4064 L
45 0 6175 3294 L 0 388 6198 3294 L 45 0 6175 3682 L 45 0 6182 3572 L 0 126 6204 3572 L 45 0 6182 3698 L 45 0 6187 3731 L
0 394 6209 3731 L 45 0 6187 4125 L 45 0 6188 3551 L 0 191 6211 3551 L 45 0 6188 3742 L 45 0 6201 3508 L 0 259 6224 3508 L
45 0 6201 3767 L 45 0 6213 3431 L 0 185 6235 3431 L 45 0 6213 3616 L 45 0 6227 3452 L 0 242 6250 3452 L 45 0 6227 3694 L
45 0 6253 3628 L 0 195 6275 3628 L 45 0 6253 3823 L 45 0 6266 3265 L 0 546 6288 3265 L 45 0 6266 3811 L 45 0 6288 3635 L
0 198 6310 3635 L 45 0 6288 3833 L 45 0 6288 3676 L 0 316 6310 3676 L 45 0 6288 3992 L 45 0 6298 3736 L 0 380 6320 3736 L
45 0 6298 4116 L 45 0 6309 3515 L 0 394 6331 3515 L 45 0 6309 3909 L 45 0 6333 3390 L 0 518 6355 3390 L 45 0 6333 3908 L
45 0 6334 3726 L 0 84 6357 3726 L 45 0 6334 3810 L 45 0 6337 3745 L 0 101 6360 3745 L 45 0 6337 3846 L 45 0 6354 3591 L
0 870 6376 3591 L 45 0 6354 4461 L 45 0 6360 3603 L 0 162 6382 3603 L 45 0 6360 3765 L 45 0 6374 3323 L 0 587 6397 3323 L
45 0 6374 3910 L 45 0 6377 3815 L 0 79 6400 3815 L 45 0 6377 3894 L 45 0 6387 3808 L 0 170 6409 3808 L 45 0 6387 3978 L
45 0 6388 3659 L 0 330 6411 3659 L 45 0 6388 3989 L 45 0 6389 3733 L 0 147 6411 3733 L 45 0 6389 3880 L 45 0 6389 3854 L
0 179 6411 3854 L 45 0 6389 4033 L 45 0 6398 3426 L 0 736 6421 3426 L 45 0 6398 4162 L 45 0 6443 3828 L 0 242 6466 3828 L
45 0 6443 4070 L 45 0 6445 3428 L 0 236 6468 3428 L 45 0 6445 3664 L 45 0 6466 3629 L 0 275 6488 3629 L 45 0 6466 3904 L
45 0 6467 3566 L 0 152 6490 3566 L 45 0 6467 3718 L 45 0 6470 3781 L 0 92 6493 3781 L 45 0 6470 3873 L 45 0 6481 3708 L
0 210 6504 3708 L 45 0 6481 3918 L 45 0 6502 3729 L 0 150 6525 3729 L 45 0 6502 3879 L 45 0 6512 3867 L 0 270 6535 3867 L
45 0 6512 4137 L 45 0 6523 3773 L 0 62 6546 3773 L 45 0 6523 3835 L 45 0 6550 3827 L 0 84 6573 3827 L 45 0 6550 3911 L
45 0 6552 3783 L 0 135 6575 3783 L 45 0 6552 3918 L 45 0 6576 3844 L 0 84 6599 3844 L 45 0 6576 3928 L 45 0 6580 3900 L
0 232 6602 3900 L 45 0 6580 4132 L 45 0 6588 3632 L 0 334 6610 3632 L 45 0 6588 3966 L 45 0 6600 4010 L 0 191 6623 4010 L
45 0 6600 4201 L 45 0 6600 3874 L 0 89 6623 3874 L 45 0 6600 3963 L 45 0 6610 3672 L 0 278 6632 3672 L 45 0 6610 3950 L
45 0 6613 3889 L 0 168 6635 3889 L 45 0 6613 4057 L 45 0 6614 3700 L 0 219 6637 3700 L 45 0 6614 3919 L 45 0 6616 3764 L
0 163 6639 3764 L 45 0 6616 3927 L 45 0 6616 3846 L 0 197 6639 3846 L 45 0 6616 4043 L 45 0 6618 3913 L 0 104 6640 3913 L
45 0 6618 4017 L 45 0 6634 3928 L 0 117 6656 3928 L 45 0 6634 4045 L 45 0 6643 3792 L 0 214 6666 3792 L 45 0 6643 4006 L
45 0 6663 3826 L 0 127 6685 3826 L 45 0 6663 3953 L 45 0 6666 3582 L 0 361 6688 3582 L 45 0 6666 3943 L 45 0 6674 3905 L
0 83 6696 3905 L 45 0 6674 3988 L 45 0 6687 3499 L 0 212 6709 3499 L 45 0 6687 3711 L 45 0 6697 3807 L 0 158 6719 3807 L
45 0 6697 3965 L 45 0 6703 3881 L 0 182 6725 3881 L 45 0 6703 4063 L 45 0 6714 3751 L 0 299 6737 3751 L 45 0 6714 4050 L
45 0 6722 3924 L 0 89 6744 3924 L 45 0 6722 4013 L 45 0 6737 3724 L 0 196 6759 3724 L 45 0 6737 3920 L 45 0 6738 3839 L
0 201 6760 3839 L 45 0 6738 4040 L 45 0 6751 3633 L 0 238 6773 3633 L 45 0 6751 3871 L 45 0 6764 3855 L 0 99 6786 3855 L
45 0 6764 3954 L 45 0 6765 3549 L 0 355 6788 3549 L 45 0 6765 3904 L 45 0 6775 3761 L 0 324 6797 3761 L 45 0 6775 4085 L
45 0 6781 3441 L 0 304 6804 3441 L 45 0 6781 3745 L 45 0 6783 3655 L 0 248 6805 3655 L 45 0 6783 3903 L 45 0 6792 3855 L
0 96 6815 3855 L 45 0 6792 3951 L 45 0 6796 3554 L 0 306 6818 3554 L 45 0 6796 3860 L 45 0 6802 3773 L 0 253 6825 3773 L
45 0 6802 4026 L 45 0 6805 3856 L 0 141 6828 3856 L 45 0 6805 3997 L 45 0 6807 3881 L 0 149 6829 3881 L 45 0 6807 4030 L
45 0 6829 3747 L 0 241 6852 3747 L 45 0 6829 3988 L 45 0 6845 3813 L 0 97 6868 3813 L 45 0 6845 3910 L 45 0 6849 3838 L
0 200 6871 3838 L 45 0 6849 4038 L 45 0 6853 3825 L 0 189 6876 3825 L 45 0 6853 4014 L 45 0 6860 3561 L 0 301 6882 3561 L
45 0 6860 3862 L 45 0 6874 4045 L 0 295 6896 4045 L 45 0 6874 4340 L 45 0 6886 3857 L 0 314 6908 3857 L 45 0 6886 4171 L
45 0 6903 3817 L 0 67 6925 3817 L 45 0 6903 3884 L 45 0 6905 3819 L 0 68 6927 3819 L 45 0 6905 3887 L 45 0 6908 3644 L
0 127 6930 3644 L 45 0 6908 3771 L 45 0 6929 3810 L 0 285 6951 3810 L 45 0 6929 4095 L 45 0 6940 3785 L 0 73 6962 3785 L
45 0 6940 3858 L 45 0 6946 3897 L 0 450 6968 3897 L 45 0 6946 4347 L 45 0 6949 3730 L 0 92 6972 3730 L 45 0 6949 3822 L
45 0 6951 3779 L 0 96 6973 3779 L 45 0 6951 3875 L 45 0 6951 3705 L 0 179 6974 3705 L 45 0 6951 3884 L 45 0 6951 3868 L
0 668 6974 3868 L 45 0 6951 4536 L 45 0 6953 3779 L 0 175 6975 3779 L 45 0 6953 3954 L 45 0 6954 3820 L 0 114 6977 3820 L
45 0 6954 3934 L 45 0 6956 3832 L 0 118 6978 3832 L 45 0 6956 3950 L 45 0 6968 3351 L 0 371 6991 3351 L 45 0 6968 3722 L
45 0 6980 3735 L 0 98 7002 3735 L 45 0 6980 3833 L 45 0 6984 3740 L 0 173 7007 3740 L 45 0 6984 3913 L 45 0 7010 3521 L
0 180 7033 3521 L 45 0 7010 3701 L 45 0 7015 3770 L 0 122 7038 3770 L 45 0 7015 3892 L 45 0 7018 3846 L 0 311 7041 3846 L
45 0 7018 4157 L 45 0 7020 3501 L 0 219 7042 3501 L 45 0 7020 3720 L 45 0 7028 3738 L 0 172 7050 3738 L 45 0 7028 3910 L
45 0 7029 3633 L 0 223 7052 3633 L 45 0 7029 3856 L 45 0 7036 3613 L 0 82 7058 3613 L 45 0 7036 3695 L 45 0 7037 3579 L
0 230 7060 3579 L 45 0 7037 3809 L 45 0 7042 3657 L 0 235 7065 3657 L 45 0 7042 3892 L 45 0 7055 3547 L 0 220 7078 3547 L
45 0 7055 3767 L 45 0 7092 3643 L 0 86 7114 3643 L 45 0 7092 3729 L 45 0 7094 3571 L 0 255 7116 3571 L 45 0 7094 3826 L
45 0 7106 3513 L 0 173 7129 3513 L 45 0 7106 3686 L 45 0 7120 3589 L 0 194 7142 3589 L 45 0 7120 3783 L 45 0 7137 3209 L
0 573 7159 3209 L 45 0 7137 3782 L 45 0 7138 3431 L 0 414 7161 3431 L 45 0 7138 3845 L 45 0 7143 3714 L 0 349 7166 3714 L
45 0 7143 4063 L 45 0 7158 3110 L 0 338 7180 3110 L 45 0 7158 3448 L 45 0 7162 3503 L 0 455 7185 3503 L 45 0 7162 3958 L
45 0 7169 3603 L 0 268 7191 3603 L 45 0 7169 3871 L 45 0 7185 3469 L 0 186 7207 3469 L 45 0 7185 3655 L 45 0 7190 3650 L
0 110 7212 3650 L 45 0 7190 3760 L 45 0 7198 3538 L 0 245 7220 3538 L 45 0 7198 3783 L 45 0 7201 3806 L 0 561 7223 3806 L
45 0 7201 4367 L 45 0 7212 3621 L 0 152 7235 3621 L 45 0 7212 3773 L 45 0 7231 3705 L 0 194 7254 3705 L 45 0 7231 3899 L
45 0 7247 3376 L 0 288 7270 3376 L 45 0 7247 3664 L 45 0 7265 3567 L 0 152 7288 3567 L 45 0 7265 3719 L 45 0 7289 3737 L
0 262 7311 3737 L 45 0 7289 3999 L 45 0 7304 3580 L 0 220 7326 3580 L 45 0 7304 3800 L 45 0 7311 3675 L 0 133 7334 3675 L
45 0 7311 3808 L 45 0 7347 3451 L 0 475 7369 3451 L 45 0 7347 3926 L 45 0 7364 3356 L 0 292 7387 3356 L 45 0 7364 3648 L
45 0 7366 3708 L 0 174 7388 3708 L 45 0 7366 3882 L 45 0 7368 3644 L 0 226 7390 3644 L 45 0 7368 3870 L 45 0 7387 3875 L
0 144 7409 3875 L 45 0 7387 4019 L 45 0 7388 3720 L 0 91 7411 3720 L 45 0 7388 3811 L 45 0 7395 3393 L 0 273 7417 3393 L
45 0 7395 3666 L 45 0 7432 3703 L 0 221 7454 3703 L 45 0 7432 3924 L 45 0 7448 3598 L 0 131 7470 3598 L 45 0 7448 3729 L
45 0 7465 3698 L 0 164 7488 3698 L 45 0 7465 3862 L 45 0 7472 3719 L 0 150 7494 3719 L 45 0 7472 3869 L 45 0 7475 3711 L
0 119 7498 3711 L 45 0 7475 3830 L 45 0 7517 3212 L 0 843 7539 3212 L 45 0 7517 4055 L 45 0 7523 3753 L 0 376 7545 3753 L
45 0 7523 4129 L 45 0 7536 3399 L 0 493 7558 3399 L 45 0 7536 3892 L 45 0 7537 3526 L 0 409 7560 3526 L 45 0 7537 3935 L
45 0 7537 3363 L 0 293 7560 3363 L 45 0 7537 3656 L 45 0 7544 3891 L 0 272 7566 3891 L 45 0 7544 4163 L 45 0 7557 3492 L
0 146 7579 3492 L 45 0 7557 3638 L 45 0 7582 3287 L 0 296 7605 3287 L 45 0 7582 3583 L 44 0 7589 3523 L 0 102 7611 3523 L
44 0 7589 3625 L 45 0 7603 3557 L 0 119 7625 3557 L 45 0 7603 3676 L 45 0 7605 3598 L 0 216 7627 3598 L 45 0 7605 3814 L
45 0 7632 3490 L 0 305 7654 3490 L 45 0 7632 3795 L 45 0 7666 3440 L 0 367 7688 3440 L 45 0 7666 3807 L 45 0 7666 3533 L
0 258 7688 3533 L 45 0 7666 3791 L 45 0 7683 3422 L 0 217 7706 3422 L 45 0 7683 3639 L 45 0 7695 3703 L 0 234 7717 3703 L
45 0 7695 3937 L 45 0 7706 3404 L 0 186 7728 3404 L 45 0 7706 3590 L 45 0 7720 3651 L 0 237 7743 3651 L 45 0 7720 3888 L
45 0 7725 2496 L 0 1307 7747 2496 L 45 0 7725 3803 L 45 0 7726 3461 L 0 195 7749 3461 L 45 0 7726 3656 L 45 0 7728 3548 L
0 125 7750 3548 L 45 0 7728 3673 L 45 0 7730 3139 L 0 457 7752 3139 L 45 0 7730 3596 L 45 0 7773 3289 L 0 191 7795 3289 L
45 0 7773 3480 L 45 0 7821 3508 L 0 213 7843 3508 L 45 0 7821 3721 L 45 0 7831 3563 L 0 137 7853 3563 L 45 0 7831 3700 L
45 0 7832 3413 L 0 142 7855 3413 L 45 0 7832 3555 L 45 0 7837 3481 L 0 154 7859 3481 L 45 0 7837 3635 L 45 0 7840 3583 L
0 91 7863 3583 L 45 0 7840 3674 L 45 0 7869 3412 L 0 394 7892 3412 L 45 0 7869 3806 L 45 0 7875 3496 L 0 320 7898 3496 L
45 0 7875 3816 L 45 0 7896 3517 L 0 125 7919 3517 L 45 0 7896 3642 L 45 0 7904 3549 L 0 64 7927 3549 L 45 0 7904 3613 L
45 0 7912 3553 L 0 112 7935 3553 L 45 0 7912 3665 L 45 0 7944 3314 L 0 191 7967 3314 L 45 0 7944 3505 L 45 0 7957 3507 L
0 122 7980 3507 L 45 0 7957 3629 L 45 0 7970 3585 L 0 224 7992 3585 L 45 0 7970 3809 L 45 0 7975 3455 L 0 118 7997 3455 L
45 0 7975 3573 L 45 0 7981 3411 L 0 132 8004 3411 L 45 0 7981 3543 L 45 0 7996 3522 L 0 146 8018 3522 L 45 0 7996 3668 L
45 0 8007 3469 L 0 497 8029 3469 L 45 0 8007 3966 L 45 0 8041 3513 L 0 155 8063 3513 L 45 0 8041 3668 L 45 0 8057 3686 L
0 205 8079 3686 L 45 0 8057 3891 L 45 0 8066 3552 L 0 200 8089 3552 L 45 0 8066 3752 L 45 0 8075 3471 L 0 227 8098 3471 L
45 0 8075 3698 L 45 0 8082 3543 L 0 222 8105 3543 L 45 0 8082 3765 L 45 0 8108 3575 L 0 159 8130 3575 L 45 0 8108 3734 L
45 0 8137 3382 L 0 265 8159 3382 L 45 0 8137 3647 L 45 0 8143 3535 L 0 311 8165 3535 L 45 0 8143 3846 L 45 0 8145 3639 L
0 131 8167 3639 L 45 0 8145 3770 L 45 0 8148 3545 L 0 200 8170 3545 L 45 0 8148 3745 L 45 0 8159 3691 L 0 180 8181 3691 L
45 0 8159 3871 L 45 0 8178 3586 L 0 137 8201 3586 L 45 0 8178 3723 L 45 0 8180 3615 L 0 146 8202 3615 L 45 0 8180 3761 L
45 0 8197 3772 L 0 292 8220 3772 L 45 0 8197 4064 L 45 0 8225 3660 L 0 146 8247 3660 L 45 0 8225 3806 L 45 0 8237 3687 L
0 214 8260 3687 L 45 0 8237 3901 L 45 0 8265 3778 L 0 167 8287 3778 L 45 0 8265 3945 L 45 0 8268 3550 L 0 365 8290 3550 L
45 0 8268 3915 L 45 0 8279 3695 L 0 118 8302 3695 L 45 0 8279 3813 L 45 0 8284 3554 L 0 174 8306 3554 L 45 0 8284 3728 L
45 0 8292 3579 L 0 298 8314 3579 L 45 0 8292 3877 L 45 0 8303 3635 L 0 276 8326 3635 L 45 0 8303 3911 L 45 0 8307 3720 L
0 198 8329 3720 L 45 0 8307 3918 L 45 0 8314 3642 L 0 173 8337 3642 L 45 0 8314 3815 L 45 0 8326 3587 L 0 221 8348 3587 L
45 0 8326 3808 L 45 0 8335 3598 L 0 315 8358 3598 L 45 0 8335 3913 L 45 0 8337 3677 L 0 233 8359 3677 L 45 0 8337 3910 L
45 0 8337 3761 L 0 133 8359 3761 L 45 0 8337 3894 L 45 0 8383 3433 L 0 215 8406 3433 L 45 0 8383 3648 L 45 0 8391 3744 L
0 73 8414 3744 L 45 0 8391 3817 L 45 0 8425 3838 L 0 144 8447 3838 L 45 0 8425 3982 L 45 0 8452 3808 L 0 324 8475 3808 L
45 0 8452 4132 L 45 0 8465 3625 L 0 182 8487 3625 L 45 0 8465 3807 L 45 0 8483 3810 L 0 200 8505 3810 L 45 0 8483 4010 L
45 0 8508 3719 L 0 300 8531 3719 L 45 0 8508 4019 L 45 0 8513 3529 L 0 299 8536 3529 L 45 0 8513 3828 L 45 0 8516 3797 L
0 162 8539 3797 L 45 0 8516 3959 L 45 0 8548 3557 L 0 278 8571 3557 L 45 0 8548 3835 L
1024 0 1024 K 4436 3517 M16 4679 3696 M16 5097 3913 M16 5895 3781 M16 6938 3825 M16 6983 3741 M16 7674 3902 M16
45 0 4413 3369 L 0 296 4436 3369 L 45 0 4413 3665 L 45 0 4657 3474 L 0 443 4679 3474 L 45 0 4657 3917 L 45 0 5075 3623 L
0 579 5097 3623 L 45 0 5075 4202 L 45 0 5873 3635 L 0 292 5895 3635 L 45 0 5873 3927 L 45 0 6916 3708 L 0 235 6938 3708 L
45 0 6916 3943 L 45 0 6961 3563 L 0 357 6983 3563 L 45 0 6961 3920 L 45 0 7651 3645 L 0 514 7674 3645 L 45 0 7651 4159 L
0 1024 1024 K 3707 2560 M16 3707 2523 M16 3721 1625 M16 4027 3615 M16 4702 5637 M16 4702 4810 M16 4979 4613 M16 4990 3450 M16
4997 3758 M16 5082 3801 M16 5243 3815 M16 5290 3673 M16 5424 3369 M16 5549 3656 M16 5559 3654 M16 5570 4363 M16 5613 3769 M16
5628 3494 M16 5714 3713 M16 5772 3371 M16 5905 4165 M16 5916 3572 M16 5930 3099 M16 5985 4028 M16 5988 3996 M16 6192 3948 M16
6273 3331 M16 6289 3827 M16 6319 4053 M16 6496 3297 M16 6515 4075 M16 6637 3480 M16 6637 4209 M16 6826 4154 M16 6929 3963 M16
6973 3170 M16 7076 3767 M16 7124 3731 M16 7166 4375 M16 7310 3630 M16 7654 4920 M16 7707 3882 M16 7755 3995 M16 7795 4285 M16
7853 4122 M16 7895 3861 M16 7954 3560 M16 7997 4328 M16 8459 3826 M16
45 0 3684 1970 L 0 1180 3707 1970 L 45 0 3684 3150 L 45 0 3684 1909 L 0 1228 3707 1909 L 45 0 3684 3137 L 0 995 3721 1170 L
45 0 3699 2165 L 45 0 4005 3044 L 0 1142 4027 3044 L 45 0 4005 4186 L 45 0 4679 4972 L 0 1331 4702 4972 L 45 0 4679 6303 L
45 0 4679 4144 L 0 1332 4702 4144 L 45 0 4679 5476 L 45 0 4956 4012 L 0 1201 4979 4012 L 45 0 4956 5213 L 45 0 4968 2758 L
0 1384 4990 2758 L 45 0 4968 4142 L 45 0 4974 3180 L 0 1155 4997 3180 L 45 0 4974 4335 L 45 0 5059 3094 L 0 1414 5082 3094 L
45 0 5059 4508 L 45 0 5221 3289 L 0 1053 5243 3289 L 45 0 5221 4342 L 45 0 5267 3111 L 0 1124 5290 3111 L 45 0 5267 4235 L
45 0 5402 2832 L 0 1074 5424 2832 L 45 0 5402 3906 L 45 0 5527 2989 L 0 1333 5549 2989 L 45 0 5527 4322 L 45 0 5536 3158 L
0 992 5559 3158 L 45 0 5536 4150 L 45 0 5548 3846 L 0 1033 5570 3846 L 45 0 5548 4879 L 45 0 5591 3051 L 0 1436 5613 3051 L
45 0 5591 4487 L 45 0 5605 2932 L 0 1124 5628 2932 L 45 0 5605 4056 L 45 0 5692 2955 L 0 1516 5714 2955 L 45 0 5692 4471 L
45 0 5749 2617 L 0 1507 5772 2617 L 45 0 5749 4124 L 45 0 5882 3359 L 0 1613 5905 3359 L 45 0 5882 4972 L 45 0 5894 2963 L
0 1217 5916 2963 L 45 0 5894 4180 L 45 0 5908 2469 L 0 1260 5930 2469 L 45 0 5908 3729 L 45 0 5963 3519 L 0 1017 5985 3519 L
45 0 5963 4536 L 45 0 5966 3412 L 0 1168 5988 3412 L 45 0 5966 4580 L 45 0 6169 3232 L 0 1433 6192 3232 L 45 0 6169 4665 L
45 0 6251 2752 L 0 1158 6273 2752 L 45 0 6251 3910 L 45 0 6267 3186 L 0 1281 6289 3186 L 45 0 6267 4467 L 45 0 6296 3386 L
0 1335 6319 3386 L 45 0 6296 4721 L 44 0 6474 2467 L 0 1660 6496 2467 L 44 0 6474 4127 L 45 0 6493 3278 L 0 1593 6515 3278 L
45 0 6493 4871 L 45 0 6614 2841 L 0 1278 6637 2841 L 45 0 6614 4119 L 45 0 6614 3619 L 0 1179 6637 3619 L 45 0 6614 4798 L
45 0 6804 3524 L 0 1260 6826 3524 L 45 0 6804 4784 L 45 0 6906 3417 L 0 1092 6929 3417 L 45 0 6906 4509 L 45 0 6951 2597 L
0 1146 6973 2597 L 45 0 6951 3743 L 45 0 7053 3226 L 0 1081 7076 3226 L 45 0 7053 4307 L 45 0 7102 3191 L 0 1079 7124 3191 L
45 0 7102 4270 L 45 0 7143 3679 L 0 1393 7166 3679 L 45 0 7143 5072 L 45 0 7287 3081 L 0 1098 7310 3081 L 45 0 7287 4179 L
45 0 7632 4243 L 0 1355 7654 4243 L 45 0 7632 5598 L 45 0 7685 2863 L 0 2038 7707 2863 L 45 0 7685 4901 L 45 0 7733 3219 L
0 1551 7755 3219 L 45 0 7733 4770 L 45 0 7773 3550 L 0 1471 7795 3550 L 45 0 7773 5021 L 45 0 7830 3515 L 0 1214 7853 3515 L
45 0 7830 4729 L 45 0 7873 2724 L 0 2274 7895 2724 L 45 0 7873 4998 L 45 0 7931 2910 L 0 1301 7954 2910 L 45 0 7931 4211 L
45 0 7975 3281 L 0 2094 7997 3281 L 45 0 7975 5375 L 45 0 8436 2857 L 0 1937 8459 2857 L 45 0 8436 4794 L
0 0 0 K
PGPLOT restore showpage
%%PageTrailer
%%PageBoundingBox: 24 17 588 721
 
%%Trailer
%%BoundingBox: 24 17 588 721
%%DocumentFonts: 
%%Pages: 1
%%EOF
