{
    "J1744-1134_Rcvr1_2_GASP_efac": 1.0179967284909557,
    "J1744-1134_Rcvr1_2_GASP_log10_ecorr": -6.5559070305422606,
    "J1744-1134_Rcvr1_2_GASP_log10_equad": -6.6418054247931,
    "J1744-1134_Rcvr1_2_GUPPI_efac": 1.210551551220906,
    "J1744-1134_Rcvr1_2_GUPPI_log10_ecorr": -6.4640541149790103,
    "J1744-1134_Rcvr1_2_GUPPI_log10_equad": -6.7315162499119587,
    "J1744-1134_Rcvr_800_GASP_efac": 1.1708197073225741,
    "J1744-1134_Rcvr_800_GASP_log10_ecorr": -6.3709968152801313,
    "J1744-1134_Rcvr_800_GASP_log10_equad": -6.4796103600790342,
    "J1744-1134_Rcvr_800_GUPPI_efac": 1.0462025540260633,
    "J1744-1134_Rcvr_800_GUPPI_log10_ecorr": -6.5309698374270084,
    "J1744-1134_Rcvr_800_GUPPI_log10_equad": -6.5540502959160314,
    "J1744-1134_dm_gamma": 3.1369490344736484,
    "J1744-1134_dm_kappa": 5.1860726692526429,
    "J1744-1134_dm_lf0": -7.6182524765256483,
    "J1744-1134_dm_log10_A": -13.38403306311382,
    "J1744-1134_gamma": 4.6828508785018936,
    "J1744-1134_log10_A": -14.565939547804543
}