%!PS-Adobe-3.0 EPSF-3.0
%%For: bperera
%%Title: PGPLOT PostScript plot
%%Creator: PGPLOT [PSDRIV 6.6]
%%CreationDate:  6-Jun-2016 10:50
%%BoundingBox: (atend)
%%DocumentFonts: (atend)
%%LanguageLevel: 1
%%Orientation: Landscape
%%Pages: (atend)
%%EndComments
%%BeginProlog
/L {moveto rlineto currentpoint stroke moveto} bind def
/C {rlineto currentpoint stroke moveto} bind def
/D {moveto 0 0 rlineto currentpoint stroke moveto} bind def
/LW {5 mul setlinewidth} bind def
/BP {newpath moveto} bind def
/LP /rlineto load def
/EP {rlineto closepath eofill} bind def
/MB {gsave translate MFAC dup scale 1 setlinewidth 2 setlinecap 0 setlinejoin newpath} bind def
/ME /grestore load def
/CC {0 360 arc stroke} bind def
/FC {0 360 arc fill} bind def
/G {1024 div setgray} bind def
/K {3 -1 roll 1024 div 3 -1 roll 1024 div 3 -1 roll 1024 div setrgbcolor} bind def
% Uncomment next line to convert color to grey shades
%/K {3 -1 roll 3413 div 3 -1 roll 1739 div 3 -1 roll 9309 div add add setgray} bind def
%%EndProlog
%%BeginSetup
/#copies 1 def
%%EndSetup
 
%%Page: 1 1
%%BeginPageSetup
/PGPLOT save def
0.072 0.072 scale
8149 250 translate 90 rotate
1 setlinejoin 1 setlinecap 1 LW 1
%%EndPageSetup
%%PageBoundingBox: (atend)
1024 1024 1024 K 1 LW 0 0 BP 9749 0 LP 0 7799 LP -9749 0 EP 0 0 0 K
8286 0 975 1170 L -8286 0 9261 6629 L 0 -5459 C 0 45 1250 1170 L 0 45 1566 1170 L 0 90 1881 1170 L 0 45 2197 1170 L 0 45 2513 1170 L
0 45 2828 1170 L 0 45 3144 1170 L 0 90 3460 1170 L 0 45 3775 1170 L 0 45 4091 1170 L 0 45 4407 1170 L 0 45 4722 1170 L
0 90 5038 1170 L 0 45 5353 1170 L 0 45 5669 1170 L 0 45 5985 1170 L 0 45 6300 1170 L 0 90 6616 1170 L 0 45 6932 1170 L
0 45 7247 1170 L 0 45 7563 1170 L 0 45 7879 1170 L 0 90 8194 1170 L 0 45 8510 1170 L 0 45 8826 1170 L 0 45 9141 1170 L
0 45 1250 6584 L 0 45 1566 6584 L 0 90 1881 6539 L 0 45 2197 6584 L 0 45 2513 6584 L 0 45 2828 6584 L 0 45 3144 6584 L
0 90 3460 6539 L 0 45 3775 6584 L 0 45 4091 6584 L 0 45 4407 6584 L 0 45 4722 6584 L 0 90 5038 6539 L 0 45 5353 6584 L
0 45 5669 6584 L 0 45 5985 6584 L 0 45 6300 6584 L 0 90 6616 6539 L 0 45 6932 6584 L 0 45 7247 6584 L 0 45 7563 6584 L
0 45 7879 6584 L 0 90 8194 6539 L 0 45 8510 6584 L 0 45 8826 6584 L 0 45 9141 6584 L -60 0 1671 1062 L -6 -54 C 6 6 C 18 6 C 18 0 C
18 -6 C 12 -12 C 6 -18 C 0 -12 C -6 -18 C -12 -12 C -18 -6 C -18 0 C -18 6 C -6 6 C -6 12 C 66 0 1731 1062 L -36 -48 C 18 0 C
12 -6 C 6 -6 C 6 -18 C 0 -12 C -6 -18 C -12 -12 C -18 -6 C -18 0 C -18 6 C -6 6 C -6 12 C -60 0 1911 1062 L -6 -54 C 6 6 C 18 6 C
18 0 C 18 -6 C 12 -12 C 6 -18 C 0 -12 C -6 -18 C -12 -12 C -18 -6 C -18 0 C -18 6 C -6 6 C -6 12 C -18 -6 1995 1062 L -12 -18 C
-6 -30 C 0 -18 C 6 -30 C 12 -18 C 18 -6 C 12 0 C 18 6 C 12 18 C 6 30 C 0 18 C -6 30 C -12 18 C -18 6 C -12 0 C -18 -6 2115 1062 L
-12 -18 C -6 -30 C 0 -18 C 6 -30 C 12 -18 C 18 -6 C 12 0 C 18 6 C 12 18 C 6 30 C 0 18 C -6 30 C -12 18 C -18 6 C -12 0 C
-60 0 3250 1062 L -6 -54 C 6 6 C 18 6 C 18 0 C 18 -6 C 12 -12 C 6 -18 C 0 -12 C -6 -18 C -12 -12 C -18 -6 C -18 0 C -18 6 C -6 6 C
-6 12 C -60 -84 3358 1062 L 90 0 C 0 -126 3358 1062 L -18 -6 3454 1062 L -12 -18 C -6 -30 C 0 -18 C 6 -30 C 12 -18 C 18 -6 C 12 0 C
18 6 C 12 18 C 6 30 C 0 18 C -6 30 C -12 18 C -18 6 C -12 0 C -18 -6 3574 1062 L -12 -18 C -6 -30 C 0 -18 C 6 -30 C 12 -18 C 18 -6 C
12 0 C 18 6 C 12 18 C 6 30 C 0 18 C -6 30 C -12 18 C -18 6 C -12 0 C -18 -6 3694 1062 L -12 -18 C -6 -30 C 0 -18 C 6 -30 C 12 -18 C
18 -6 C 12 0 C 18 6 C 12 18 C 6 30 C 0 18 C -6 30 C -12 18 C -18 6 C -12 0 C -60 0 4828 1062 L -6 -54 C 6 6 C 18 6 C 18 0 C 18 -6 C
12 -12 C 6 -18 C 0 -12 C -6 -18 C -12 -12 C -18 -6 C -18 0 C -18 6 C -6 6 C -6 12 C -60 -84 4936 1062 L 90 0 C 0 -126 4936 1062 L
-60 0 5068 1062 L -6 -54 C 6 6 C 18 6 C 18 0 C 18 -6 C 12 -12 C 6 -18 C 0 -12 C -6 -18 C -12 -12 C -18 -6 C -18 0 C -18 6 C -6 6 C
-6 12 C -18 -6 5152 1062 L -12 -18 C -6 -30 C 0 -18 C 6 -30 C 12 -18 C 18 -6 C 12 0 C 18 6 C 12 18 C 6 30 C 0 18 C -6 30 C -12 18 C
-18 6 C -12 0 C -18 -6 5272 1062 L -12 -18 C -6 -30 C 0 -18 C 6 -30 C 12 -18 C 18 -6 C 12 0 C 18 6 C 12 18 C 6 30 C 0 18 C -6 30 C
-12 18 C -18 6 C -12 0 C -60 0 6406 1062 L -6 -54 C 6 6 C 18 6 C 18 0 C 18 -6 C 12 -12 C 6 -18 C 0 -12 C -6 -18 C -12 -12 C -18 -6 C
-18 0 C -18 6 C -6 6 C -6 12 C -60 0 6526 1062 L -6 -54 C 6 6 C 18 6 C 18 0 C 18 -6 C 12 -12 C 6 -18 C 0 -12 C -6 -18 C -12 -12 C
-18 -6 C -18 0 C -18 6 C -6 6 C -6 12 C -18 -6 6610 1062 L -12 -18 C -6 -30 C 0 -18 C 6 -30 C 12 -18 C 18 -6 C 12 0 C 18 6 C 12 18 C
6 30 C 0 18 C -6 30 C -12 18 C -18 6 C -12 0 C -18 -6 6730 1062 L -12 -18 C -6 -30 C 0 -18 C 6 -30 C 12 -18 C 18 -6 C 12 0 C 18 6 C
12 18 C 6 30 C 0 18 C -6 30 C -12 18 C -18 6 C -12 0 C -18 -6 6850 1062 L -12 -18 C -6 -30 C 0 -18 C 6 -30 C 12 -18 C 18 -6 C 12 0 C
18 6 C 12 18 C 6 30 C 0 18 C -6 30 C -12 18 C -18 6 C -12 0 C -60 0 7984 1062 L -6 -54 C 6 6 C 18 6 C 18 0 C 18 -6 C 12 -12 C
6 -18 C 0 -12 C -6 -18 C -12 -12 C -18 -6 C -18 0 C -18 6 C -6 6 C -6 12 C -60 0 8104 1062 L -6 -54 C 6 6 C 18 6 C 18 0 C 18 -6 C
12 -12 C 6 -18 C 0 -12 C -6 -18 C -12 -12 C -18 -6 C -18 0 C -18 6 C -6 6 C -6 12 C -60 0 8224 1062 L -6 -54 C 6 6 C 18 6 C 18 0 C
18 -6 C 12 -12 C 6 -18 C 0 -12 C -6 -18 C -12 -12 C -18 -6 C -18 0 C -18 6 C -6 6 C -6 12 C -18 -6 8308 1062 L -12 -18 C -6 -30 C
0 -18 C 6 -30 C 12 -18 C 18 -6 C 12 0 C 18 6 C 12 18 C 6 30 C 0 18 C -6 30 C -12 18 C -18 6 C -12 0 C -18 -6 8428 1062 L -12 -18 C
-6 -30 C 0 -18 C 6 -30 C 12 -18 C 18 -6 C 12 0 C 18 6 C 12 18 C 6 30 C 0 18 C -6 30 C -12 18 C -18 6 C -12 0 C 90 0 975 1721 L
45 0 975 2632 L 90 0 975 3542 L 45 0 975 4452 L 90 0 975 5362 L 45 0 975 6272 L 0 108 784 1339 L -6 0 742 1495 L -12 6 C -6 6 C
-6 12 C 0 24 C 6 12 C 6 6 C 12 6 C 12 0 C 12 -6 C 18 -12 C 60 -60 C 0 84 C 84 84 742 1615 L 84 -84 742 1699 L -6 12 736 1759 L
-18 18 C 126 0 C 6 -18 712 1897 L 18 -12 C 30 -6 C 18 0 C 30 6 C 18 12 C 6 18 C 0 12 C -6 18 C -18 12 C -30 6 C -18 0 C -30 -6 C
-18 -12 C -6 -18 C 0 -12 C 0 81 702 1981 L 0 -45 648 2147 L 40 -4 C -4 4 C -5 14 C 0 13 C 5 14 C 9 9 C 13 4 C 9 0 C 14 -4 C 9 -9 C
4 -14 C 0 -13 C -4 -14 C -5 -4 C -9 -5 C 6 -18 712 3536 L 18 -12 C 30 -6 C 18 0 C 30 6 C 18 12 C 6 18 C 0 12 C -6 18 C -18 12 C
-30 6 C -18 0 C -30 -6 C -18 -12 C -6 -18 C 0 -12 C -6 0 742 5057 L -12 6 C -6 6 C -6 12 C 0 24 C 6 12 C 6 6 C 12 6 C 12 0 C 12 -6 C
18 -12 C 60 -60 C 0 84 C 84 84 742 5177 L 84 -84 742 5261 L -6 12 736 5321 L -18 18 C 126 0 C 6 -18 712 5459 L 18 -12 C 30 -6 C
18 0 C 30 6 C 18 12 C 6 18 C 0 12 C -6 18 C -18 12 C -30 6 C -18 0 C -30 -6 C -18 -12 C -6 -18 C 0 -12 C 0 81 702 5543 L
0 -45 648 5710 L 40 -5 C -4 5 C -5 13 C 0 14 C 5 13 C 9 9 C 13 5 C 9 0 C 14 -5 C 9 -9 C 4 -13 C 0 -14 C -4 -13 C -5 -5 C -9 -4 C
0 5459 9261 1170 L -48 0 9261 1543 L -48 0 9261 2042 L -48 0 9261 2542 L -48 0 9261 3042 L -97 0 9261 3542 L 6 -18 9389 3536 L
18 -12 C 30 -6 C 18 0 C 30 6 C 18 12 C 6 18 C 0 12 C -6 18 C -18 12 C -30 6 C -18 0 C -30 -6 C -18 -12 C -6 -18 C 0 -12 C
-48 0 9261 4042 L -48 0 9261 4541 L -48 0 9261 5041 L -48 0 9261 5541 L -97 0 9261 6041 L 0 -60 9389 5802 L 54 -6 C -6 6 C -6 18 C
0 18 C 6 18 C 12 12 C 18 6 C 12 0 C 18 -6 C 12 -12 C 6 -18 C 0 -18 C -6 -18 C -6 -6 C -12 -6 C 84 84 9419 5856 L 84 -84 9419 5940 L
-6 12 9413 6000 L -18 18 C 126 0 C 6 -18 9389 6138 L 18 -12 C 30 -6 C 18 0 C 30 6 C 18 12 C 6 18 C 0 12 C -6 18 C -18 12 C -30 6 C
-18 0 C -30 -6 C -18 -12 C -6 -18 C 0 -12 C 0 81 9378 6222 L 0 50 9324 6343 L 36 -27 C 0 13 C 5 9 C 4 5 C 14 4 C 9 0 C 13 -4 C
9 -9 C 5 -14 C 0 -13 C -5 -14 C -4 -4 C -9 -5 C -48 0 9261 6540 L
61 0 9688 2730 L 0 54 9688 2730 L 6 18 C 6 6 C 12 6 C 12 0 C 12 -6 C 6 -6 C 6 -18 C 0 -54 C 1 0 9748 2772 L -7 -3 9749 2919 L
-6 -6 C -6 -12 C 0 -18 C 6 -12 C 12 -12 C 1 -1 C -12 -6 9748 3024 L -6 -18 C 0 -18 C 6 -18 C 12 -6 C 1 0 C 6 6 9688 3060 L -6 6 C
-6 -6 C 6 -6 C 19 0 9730 3066 L 61 0 9688 3180 L -12 -12 9748 3180 L -6 -12 C 0 -18 C 6 -12 C 12 -12 C 1 -1 C 19 0 9730 3228 L
19 0 9730 3294 L 19 0 9730 3408 L -12 -12 9748 3408 L -6 -12 C 0 -18 C 6 -12 C 12 -12 C 1 -1 C 61 0 9688 3456 L 6 6 9688 3594 L
-6 6 C -6 -6 C 6 -6 C 19 0 9730 3600 L 19 0 9730 3648 L -13 14 9749 3652 L -6 12 C 0 18 C 6 12 C 13 4 C 19 0 9730 3858 L
-12 12 9748 3858 L -6 12 C 0 18 C 6 11 C 12 12 C 1 1 C 19 0 9730 3971 L 19 0 9730 4037 L 61 0 9688 4085 L -12 -6 9748 4193 L
-6 -18 C 0 -18 C 6 -18 C 12 -6 C 1 1 C -7 -4 9749 4299 L -6 -6 C -6 -12 C 0 -18 C 6 -12 C 12 -12 C 1 0 C 19 0 9730 4439 L
-12 12 9748 4439 L -6 12 C 0 18 C 6 12 C 12 12 C 1 1 C -7 -4 9749 4617 L -6 -6 C -6 -12 C 0 -18 C 6 -12 C 12 -12 C 1 0 C
19 0 9730 4661 L -1 0 9749 4667 L -12 12 C -6 12 C 0 18 C 6 6 9688 4733 L -6 6 C -6 -6 C 6 -6 C 19 0 9730 4739 L 6 -12 9730 4811 L
12 -12 C 1 0 C -1 -1 9749 4854 L -12 -12 C -6 -12 C 0 -18 C 61 0 9688 4967 L -12 -12 9748 4967 L -6 -12 C 0 -18 C 6 -12 C 12 -12 C
1 0 C -12 -6 9748 5075 L -6 -18 C 0 -18 C 6 -18 C 12 -6 C 1 1 C
0 -96 3171 7145 L -6 -18 C -6 -6 C -12 -6 C -12 0 C -12 6 C -6 6 C -6 18 C 0 12 C -18 -6 3249 7145 L -12 -18 C -6 -30 C 0 -18 C
6 -30 C 12 -18 C 18 -6 C 12 0 C 18 6 C 12 18 C 6 30 C 0 18 C -6 30 C -12 18 C -18 6 C -12 0 C -60 -126 3417 7145 L 84 0 3333 7145 L
12 6 3471 7121 L 18 18 C 0 -126 C 12 6 3591 7121 L 18 18 C 0 -126 C 108 0 3699 7073 L -6 12 3927 7127 L -18 6 C -12 0 C -18 -6 C
-12 -18 C -6 -30 C 0 -30 C 6 -24 C 12 -12 C 18 -6 C 6 0 C 18 6 C 12 12 C 6 18 C 0 6 C -6 18 C -12 12 C -18 6 C -6 0 C -18 -6 C
-12 -12 C -6 -18 C -18 -6 3999 7145 L -6 -12 C 0 -12 C 6 -12 C 12 -6 C 24 -6 C 18 -6 C 12 -12 C 6 -12 C 0 -18 C -6 -12 C -6 -6 C
-18 -6 C -24 0 C -18 6 C -6 6 C -6 12 C 0 18 C 6 12 C 12 12 C 18 6 C 24 6 C 12 6 C 6 12 C 0 12 C -6 12 C -18 6 C -24 0 C
66 0 4101 7145 L -36 -48 C 18 0 C 12 -6 C 6 -6 C 6 -18 C 0 -12 C -6 -18 C -12 -12 C -18 -6 C -18 0 C -18 6 C -6 6 C -6 12 C
-18 -6 4245 7145 L -12 -18 C -6 -30 C 0 -18 C 6 -30 C 12 -18 C 18 -6 C 12 0 C 18 6 C 12 18 C 6 30 C 0 18 C -6 30 C -12 18 C -18 6 C
-12 0 C -12 -12 4473 7169 L -12 -18 C -12 -24 C -6 -30 C 0 -24 C 6 -30 C 12 -24 C 12 -18 C 12 -12 C 30 -126 4503 7145 L
-30 -126 4563 7145 L 30 -126 4563 7145 L -30 -126 4623 7145 L 0 -84 4659 7103 L 6 18 4659 7067 L 12 12 C 12 6 C 18 0 C
0 -84 4737 7103 L 18 18 4737 7079 L 12 6 C 18 0 C 12 -6 C 6 -18 C 0 -60 C 18 18 4803 7079 L 12 6 C 18 0 C 12 -6 C 6 -18 C 0 -60 C
-6 12 4977 7085 L -18 6 C -18 0 C -18 -6 C -6 -12 C 6 -12 C 12 -6 C 30 -6 C 12 -6 C 6 -12 C 0 -6 C -6 -12 C -18 -6 C -18 0 C -18 6 C
-6 12 C 108 0 5115 7091 L 108 0 5115 7055 L 12 6 5379 7121 L 18 18 C 0 -126 C -6 -6 5493 7031 L 6 -6 C 6 6 C -6 6 C
-60 -126 5625 7145 L 84 0 5541 7145 L -60 -126 5745 7145 L 84 0 5661 7145 L -18 -6 5811 7145 L -6 -12 C 0 -12 C 6 -12 C 12 -6 C
24 -6 C 18 -6 C 12 -12 C 6 -12 C 0 -18 C -6 -12 C -6 -6 C -18 -6 C -24 0 C -18 6 C -6 6 C -6 12 C 0 18 C 6 12 C 12 12 C 18 6 C
24 6 C 12 6 C 6 12 C 0 12 C -6 12 C -18 6 C -24 0 C -36 -126 6021 7103 L -6 -30 6015 7079 L 0 -18 C 12 -12 C 12 0 C 12 6 C 12 12 C
12 24 C -12 -42 6081 7103 L -6 -24 C 0 -12 C 6 -6 C 12 0 C 12 12 C 6 12 C -6 12 6189 7085 L -18 6 C -18 0 C -18 -6 C -6 -12 C
6 -12 C 12 -6 C 30 -6 C 12 -6 C 6 -12 C 0 -6 C -6 -12 C -18 -6 C -18 0 C -18 6 C -6 12 C 12 -12 6225 7169 L 12 -18 C 12 -24 C
6 -30 C 0 -24 C -6 -30 C -12 -24 C -12 -18 C -12 -12 C 0 -126 6411 7103 L 12 12 6411 7085 L 12 6 C 18 0 C 12 -6 C 12 -12 C 6 -18 C
0 -12 C -6 -18 C -12 -12 C -12 -6 C -18 0 C -12 6 C -12 12 C -12 -6 6549 7103 L -12 -12 C -6 -18 C 0 -12 C 6 -18 C 12 -12 C 12 -6 C
18 0 C 12 6 C 12 12 C 6 18 C 0 12 C -6 18 C -12 12 C -12 6 C -18 0 C -6 12 6699 7085 L -18 6 C -18 0 C -18 -6 C -6 -12 C 6 -12 C
12 -6 C 30 -6 C 12 -6 C 6 -12 C 0 -6 C -6 -12 C -18 -6 C -18 0 C -18 6 C -6 12 C 0 -102 6747 7145 L 6 -18 C 12 -6 C 12 0 C
42 0 6729 7103 L 108 0 6813 7073 L -12 0 7005 7145 L -12 -6 C -6 -18 C 0 -102 C 42 0 6957 7103 L 6 -6 7035 7145 L 6 6 C -6 6 C
-6 -6 C 0 -84 7041 7103 L 0 -102 7095 7145 L 6 -18 C 12 -6 C 12 0 C 42 0 7077 7103 L 0 -126 4959 672 L 48 -126 4959 672 L
-48 -126 5055 672 L 0 -126 5055 672 L 0 -96 5151 672 L -6 -18 C -6 -6 C -12 -6 C -12 0 C -12 6 C -6 6 C -6 18 C 0 12 C
0 -126 5199 672 L 42 0 5199 672 L 18 -6 C 12 -12 C 6 -12 C 6 -18 C 0 -30 C -6 -18 C -6 -12 C -12 -12 C -18 -6 C -42 0 C
126 0 420 2895 L 0 54 420 2895 L 6 18 C 6 6 C 12 6 C 18 0 C 12 -6 C 6 -6 C 6 -18 C 0 -54 C 6 -12 462 3045 L 12 -12 C 18 -6 C 12 0 C
18 6 C 12 12 C 6 12 C 0 18 C -6 12 C -12 12 C -18 6 C -12 0 C -18 -6 C -12 -12 C -6 -12 C 0 -18 C -12 -6 480 3195 L -6 -18 C 0 -18 C
6 -18 C 12 -6 C 12 6 C 6 12 C 6 30 C 6 12 C 12 6 C 6 0 C 12 -6 C 6 -18 C 0 -18 C -6 -18 C -12 -6 C 102 0 420 3243 L 18 6 C 6 12 C
0 12 C 0 42 462 3225 L 0 -12 420 3345 L 6 -12 C 18 -6 C 102 0 C 0 42 462 3297 L 6 6 420 3375 L -6 6 C -6 -6 C 6 -6 C 84 0 462 3381 L
102 0 420 3435 L 18 6 C 6 12 C 0 12 C 0 42 462 3417 L 126 0 420 3597 L 0 54 420 3597 L 6 18 C 6 6 C 12 6 C 12 0 C 12 -6 C 6 -6 C
6 -18 C 0 -54 C 66 42 480 3639 L 0 72 498 3717 L -12 0 C -12 -6 C -6 -6 C -6 -12 C 0 -18 C 6 -12 C 12 -12 C 18 -6 C 12 0 C 18 6 C
12 12 C 6 12 C 0 18 C -6 12 C -12 12 C -12 -6 480 3891 L -6 -18 C 0 -18 C 6 -18 C 12 -6 C 12 6 C 6 12 C 6 30 C 6 12 C 12 6 C 6 0 C
12 -6 C 6 -18 C 0 -18 C -6 -18 C -12 -6 C 6 6 420 3926 L -6 6 C -6 -6 C 6 -6 C 84 0 462 3932 L 126 0 420 4046 L -12 -12 480 4046 L
-6 -12 C 0 -18 C 6 -12 C 12 -12 C 18 -6 C 12 0 C 18 6 C 12 12 C 6 12 C 0 18 C -6 12 C -12 12 C 60 0 462 4094 L 18 6 C 6 12 C 0 18 C
-6 12 C -18 18 C 84 0 462 4160 L 84 0 462 4274 L -12 -12 480 4274 L -6 -12 C 0 -18 C 6 -12 C 12 -12 C 18 -6 C 12 0 C 18 6 C 12 12 C
6 12 C 0 18 C -6 12 C -12 12 C 126 0 420 4322 L 12 -12 396 4508 L 18 -12 C 24 -12 C 30 -6 C 24 0 C 30 6 C 24 12 C 18 12 C 12 12 C
-12 -6 480 4610 L -6 -18 C 0 -18 C 6 -18 C 12 -6 C 12 6 C 6 12 C 6 30 C 6 12 C 12 6 C 6 0 C 12 -6 C 6 -18 C 0 -18 C -6 -18 C
-12 -6 C 0 72 498 4646 L -12 0 C -12 -6 C -6 -6 C -6 -12 C 0 -18 C 6 -12 C 12 -12 C 18 -6 C 12 0 C 18 6 C 12 12 C 6 12 C 0 18 C
-6 12 C -12 12 C -12 -12 480 4826 L -6 -12 C 0 -18 C 6 -12 C 12 -12 C 18 -6 C 12 0 C 18 6 C 12 12 C 6 12 C 0 18 C -6 12 C -12 12 C
12 12 396 4862 L 18 12 C 24 12 C 30 6 C 24 0 C 30 -6 C 24 -12 C 18 -12 C 12 -12 C
1024 0 0 K
/M16 {MB -4 -4 moveto 0 8 rlineto 8 0 rlineto 0 -8                              
rlineto closepath fill ME} bind def                                             
/MFAC      5.999 def    
1665 3467 M16 1728 2809 M16 1731 4157 M16 1825 3427 M16 1828 3823 M16 1936 2380 M16 2144 3502 M16 2144 3451 M16 2146 3281 M16
2215 3659 M16 2219 3719 M16 2250 3150 M16 2594 3567 M16 2634 4617 M16 2725 3897 M16 2751 3481 M16 2754 3240 M16 2823 3504 M16
2886 3939 M16 2889 2678 M16 2934 3538 M16 2977 3656 M16 3084 3682 M16 3148 3637 M16 3201 3073 M16 3326 4180 M16 3443 2266 M16
3443 4019 M16 3736 3813 M16 3737 3890 M16 3783 3408 M16 3840 2576 M16 3841 3411 M16 3843 3504 M16 3893 3646 M16 3931 4682 M16
4095 3884 M16 4095 3676 M16 4162 3134 M16 4217 3803 M16 4265 3554 M16 4391 3577 M16 4757 3686 M16 4844 5229 M16 4888 3352 M16
4998 3884 M16 5004 3324 M16 5005 3126 M16 5061 3007 M16 5064 2931 M16 5124 3693 M16 5125 3993 M16 5181 3550 M16 5260 3717 M16
5320 3807 M16 5322 3130 M16 5322 3421 M16 5454 4020 M16 5493 3735 M16 5641 3262 M16 5769 3559 M16 5832 4415 M16 5833 3281 M16
5876 3094 M16 5876 4260 M16 5990 3699 M16 5996 3638 M16 6027 2858 M16 6053 2896 M16 6085 6174 M16 6157 3555 M16 6217 4397 M16
6248 5369 M16 6249 2958 M16 6321 2891 M16 6393 3497 M16 6449 3952 M16 6585 3371 M16 6742 3421 M16 6745 3503 M16 6793 3178 M16
6849 3825 M16 6853 2783 M16 6987 3544 M16 7076 2339 M16 7132 3302 M16 7189 3406 M16 7190 4981 M16 7259 3347 M16 7400 4148 M16
7400 3357 M16 7469 3267 M16 7542 3913 M16 7545 3403 M16 7595 3130 M16 7598 3592 M16 7652 3900 M16 7653 3749 M16 7712 2973 M16
7712 3128 M16 7771 3504 M16 7772 3212 M16 7772 3980 M16 7894 3625 M16 7964 3567 M16 8062 3283 M16 8102 4015 M16 8168 3358 M16
8172 3495 M16 8222 3903 M16 8284 2843 M16 8414 3540 M16 8499 3404 M16 8568 3467 M16
45 0 1643 3299 L 0 336 1665 3299 L 45 0 1643 3635 L 45 0 1705 2478 L 0 662 1728 2478 L 45 0 1705 3140 L 45 0 1708 3433 L
0 1447 1731 3433 L 45 0 1708 4880 L 45 0 1803 3099 L 0 656 1825 3099 L 45 0 1803 3755 L 45 0 1806 3169 L 0 1307 1828 3169 L
45 0 1806 4476 L 45 0 1914 1616 L 0 1527 1936 1616 L 45 0 1914 3143 L 45 0 2121 3417 L 0 171 2144 3417 L 45 0 2121 3588 L
45 0 2121 3321 L 0 261 2144 3321 L 45 0 2121 3582 L 45 0 2123 3076 L 0 411 2146 3076 L 45 0 2123 3487 L 45 0 2193 3489 L
0 339 2215 3489 L 45 0 2193 3828 L 45 0 2197 3292 L 0 854 2219 3292 L 45 0 2197 4146 L 45 0 2228 2801 L 0 697 2250 2801 L
45 0 2228 3498 L 45 0 2571 3404 L 0 327 2594 3404 L 45 0 2571 3731 L 45 0 2612 4101 L 0 1033 2634 4101 L 45 0 2612 5134 L
45 0 2703 3532 L 0 731 2725 3532 L 45 0 2703 4263 L 45 0 2728 3259 L 0 443 2751 3259 L 45 0 2728 3702 L 45 0 2732 2811 L
0 857 2754 2811 L 45 0 2732 3668 L 45 0 2800 3298 L 0 412 2823 3298 L 45 0 2800 3710 L 45 0 2864 3705 L 0 467 2886 3705 L
45 0 2864 4172 L 45 0 2867 1762 L 0 1832 2889 1762 L 45 0 2867 3594 L 45 0 2911 3091 L 0 893 2934 3091 L 45 0 2911 3984 L
45 0 2955 3587 L 0 138 2977 3587 L 45 0 2955 3725 L 45 0 3062 3561 L 0 243 3084 3561 L 45 0 3062 3804 L 45 0 3125 3424 L
0 426 3148 3424 L 45 0 3125 3850 L 45 0 3179 2518 L 0 1109 3201 2518 L 45 0 3179 3627 L 45 0 3304 3413 L 0 1534 3326 3413 L
45 0 3304 4947 L 0 2330 3443 1170 L 45 0 3421 3500 L 45 0 3421 3166 L 0 1706 3443 3166 L 45 0 3421 4872 L 45 0 3713 3304 L
0 1019 3736 3304 L 45 0 3713 4323 L 45 0 3714 3220 L 0 1340 3737 3220 L 45 0 3714 4560 L 45 0 3760 3306 L 0 203 3783 3306 L
45 0 3760 3509 L 45 0 3817 1456 L 0 2239 3840 1456 L 45 0 3817 3695 L 45 0 3818 3023 L 0 776 3841 3023 L 45 0 3818 3799 L
45 0 3820 3372 L 0 264 3843 3372 L 45 0 3820 3636 L 45 0 3871 3245 L 0 802 3893 3245 L 45 0 3871 4047 L 45 0 3908 4241 L
0 882 3931 4241 L 45 0 3908 5123 L 45 0 4073 3360 L 0 1049 4095 3360 L 45 0 4073 4409 L 45 0 4073 3376 L 0 600 4095 3376 L
45 0 4073 3976 L 45 0 4139 2842 L 0 585 4162 2842 L 45 0 4139 3427 L 45 0 4195 3337 L 0 932 4217 3337 L 45 0 4195 4269 L
45 0 4242 3402 L 0 304 4265 3402 L 45 0 4242 3706 L 45 0 4369 3165 L 0 825 4391 3165 L 45 0 4369 3990 L 45 0 4734 2775 L
0 1823 4757 2775 L 45 0 4734 4598 L 45 0 4821 4149 L 0 2160 4844 4149 L 45 0 4821 6309 L 45 0 4865 2912 L 0 880 4888 2912 L
45 0 4865 3792 L 45 0 4976 3322 L 0 1125 4998 3322 L 45 0 4976 4447 L 45 0 4982 2771 L 0 1105 5004 2771 L 45 0 4982 3876 L
45 0 4982 2379 L 0 1494 5005 2379 L 45 0 4982 3873 L 45 0 5038 2647 L 0 719 5061 2647 L 45 0 5038 3366 L 45 0 5042 2573 L
0 717 5064 2573 L 45 0 5042 3290 L 45 0 5102 3245 L 0 896 5124 3245 L 45 0 5102 4141 L 45 0 5102 3683 L 0 621 5125 3683 L
45 0 5102 4304 L 45 0 5158 2751 L 0 1597 5181 2751 L 45 0 5158 4348 L 45 0 5238 3371 L 0 692 5260 3371 L 45 0 5238 4063 L
45 0 5297 3127 L 0 1360 5320 3127 L 45 0 5297 4487 L 45 0 5300 2773 L 0 715 5322 2773 L 45 0 5300 3488 L 45 0 5300 2892 L
0 1057 5322 2892 L 45 0 5300 3949 L 45 0 5432 2988 L 0 2063 5454 2988 L 45 0 5432 5051 L 45 0 5471 3333 L 0 805 5493 3333 L
45 0 5471 4138 L 45 0 5619 2805 L 0 914 5641 2805 L 45 0 5619 3719 L 45 0 5747 3101 L 0 917 5769 3101 L 45 0 5747 4018 L
45 0 5810 3389 L 0 2052 5832 3389 L 45 0 5810 5441 L 45 0 5810 2786 L 0 990 5833 2786 L 45 0 5810 3776 L 45 0 5854 2536 L
0 1117 5876 2536 L 45 0 5854 3653 L 45 0 5854 3791 L 0 938 5876 3791 L 45 0 5854 4729 L 45 0 5967 3065 L 0 1268 5990 3065 L
45 0 5967 4333 L 45 0 5974 3121 L 0 1035 5996 3121 L 45 0 5974 4156 L 45 0 6005 2216 L 0 1285 6027 2216 L 45 0 6005 3501 L
45 0 6031 2458 L 0 875 6053 2458 L 45 0 6031 3333 L 45 0 6062 4925 L 0 1704 6085 4925 L 45 0 6134 3334 L 0 443 6157 3334 L
45 0 6134 3777 L 45 0 6194 3136 L 0 2522 6217 3136 L 45 0 6194 5658 L 45 0 6226 4639 L 0 1460 6248 4639 L 45 0 6226 6099 L
45 0 6226 2778 L 0 360 6249 2778 L 45 0 6226 3138 L 45 0 6298 1900 L 0 1983 6321 1900 L 45 0 6298 3883 L 45 0 6370 3130 L
0 734 6393 3130 L 45 0 6370 3864 L 45 0 6427 2992 L 0 1920 6449 2992 L 45 0 6427 4912 L 46 0 6562 3110 L 0 522 6585 3110 L
46 0 6562 3632 L 45 0 6720 3203 L 0 436 6742 3203 L 45 0 6720 3639 L 45 0 6723 3211 L 0 585 6745 3211 L 45 0 6723 3796 L
45 0 6770 2881 L 0 594 6793 2881 L 45 0 6770 3475 L 45 0 6827 3267 L 0 1116 6849 3267 L 45 0 6827 4383 L 45 0 6830 2358 L
0 849 6853 2358 L 45 0 6830 3207 L 45 0 6965 3122 L 0 844 6987 3122 L 45 0 6965 3966 L 45 0 7053 1324 L 0 2031 7076 1324 L
45 0 7053 3355 L 45 0 7110 2933 L 0 738 7132 2933 L 45 0 7110 3671 L 45 0 7167 1489 L 0 3835 7189 1489 L 45 0 7167 5324 L
45 0 7167 4298 L 0 1366 7190 4298 L 45 0 7167 5664 L 45 0 7237 3100 L 0 494 7259 3100 L 45 0 7237 3594 L 45 0 7377 3802 L
0 692 7400 3802 L 45 0 7377 4494 L 45 0 7377 3054 L 0 605 7400 3054 L 45 0 7377 3659 L 45 0 7447 3005 L 0 525 7469 3005 L
45 0 7447 3530 L 45 0 7519 3660 L 0 507 7542 3660 L 45 0 7519 4167 L 45 0 7522 3125 L 0 557 7545 3125 L 45 0 7522 3682 L
45 0 7573 2437 L 0 1386 7595 2437 L 45 0 7573 3823 L 45 0 7576 3273 L 0 638 7598 3273 L 45 0 7576 3911 L 45 0 7629 3580 L
0 640 7652 3580 L 45 0 7629 4220 L 45 0 7630 3486 L 0 527 7653 3486 L 45 0 7630 4013 L 0 4700 7712 1170 L 45 0 7689 5870 L
45 0 7689 2765 L 0 725 7712 2765 L 45 0 7689 3490 L 45 0 7749 2936 L 0 1136 7771 2936 L 45 0 7749 4072 L 45 0 7750 2639 L
0 1147 7772 2639 L 45 0 7750 3786 L 45 0 7750 3523 L 0 914 7772 3523 L 45 0 7750 4437 L 45 0 7872 2546 L 0 2159 7894 2546 L
45 0 7872 4705 L 45 0 7941 3438 L 0 257 7964 3438 L 45 0 7941 3695 L 45 0 8039 3052 L 0 463 8062 3052 L 45 0 8039 3515 L
45 0 8080 3613 L 0 804 8102 3613 L 45 0 8080 4417 L 45 0 8146 2768 L 0 1180 8168 2768 L 45 0 8146 3948 L 45 0 8149 2668 L
0 1655 8172 2668 L 45 0 8149 4323 L 45 0 8199 3535 L 0 736 8222 3535 L 45 0 8199 4271 L 45 0 8262 1945 L 0 1796 8284 1945 L
45 0 8262 3741 L 45 0 8391 3443 L 0 195 8414 3443 L 45 0 8391 3638 L 45 0 8477 2323 L 0 2162 8499 2323 L 45 0 8477 4485 L
45 0 8546 3266 L 0 401 8568 3266 L 45 0 8546 3667 L
0 1024 0 K 1725 3119 M16 1725 3908 M16 1725 3655 M16 1725 3588 M16 1781 3561 M16 1781 3492 M16 1784 3232 M16 1784 3198 M16
1831 2940 M16 1831 2302 M16 1883 3475 M16 1883 3307 M16 1885 3271 M16 1885 4481 M16 1986 2250 M16 1986 2727 M16 2036 3269 M16
2036 3463 M16 2042 5287 M16 2090 3316 M16 2149 3526 M16 2149 3389 M16 2231 3502 M16 2247 3552 M16 2342 3641 M16 2344 3610 M16
2344 3607 M16 2386 3525 M16 2389 3404 M16 2389 4951 M16 2389 3725 M16 2471 4095 M16 2477 3102 M16 2524 3632 M16 2590 3545 M16
2615 3807 M16 2637 3711 M16 2723 3772 M16 2728 4106 M16 2755 3635 M16 2760 3091 M16 2817 3477 M16 2826 3642 M16 2879 3502 M16
2880 3459 M16 2930 3291 M16 2975 4124 M16 2975 4187 M16 2983 3013 M16 3034 3767 M16 3088 2699 M16 3088 4376 M16 3088 3887 M16
3144 3537 M16 3197 3510 M16 3201 3733 M16 3248 3587 M16 3248 3576 M16 3251 3531 M16 3251 3645 M16 3320 3632 M16 3437 3533 M16
3437 3630 M16 3545 3529 M16 3547 3390 M16 3588 3145 M16 4092 3516 M16 4092 3531 M16 4092 3566 M16 4092 3530 M16 4214 3523 M16
4215 3761 M16 4265 3268 M16 4331 3640 M16 4335 4071 M16 4385 3673 M16 4425 3449 M16 4482 3308 M16 4485 3659 M16 4510 3717 M16
4513 3801 M16 4516 3582 M16 4536 3592 M16 4567 2315 M16 4583 3494 M16 4640 3498 M16 4642 3360 M16 4677 3097 M16 4684 3837 M16
4753 3434 M16 4838 3958 M16 4885 3616 M16 4926 3157 M16 4932 3554 M16 4995 3427 M16 4995 2776 M16 5002 3008 M16 5055 3434 M16
5058 3617 M16 5121 3476 M16 5127 3497 M16 5178 3523 M16 5184 3473 M16 5237 2994 M16 5317 3622 M16 5382 3678 M16 5385 3271 M16
5451 3458 M16 5492 3341 M16 5575 3800 M16 5575 3483 M16 5640 2892 M16 5640 3382 M16 5764 3331 M16 5764 3412 M16 5766 3392 M16
5766 3460 M16 5827 3506 M16 5827 3355 M16 5873 3362 M16 5936 4338 M16 5993 3356 M16 6024 3926 M16 6025 3663 M16 6081 3328 M16
6160 3402 M16 6163 3575 M16 6245 3263 M16 6317 3198 M16 6396 3345 M16 6446 3488 M16 6526 3445 M16 6581 1989 M16 6582 3385 M16
6588 3728 M16 6657 3377 M16 6660 5274 M16 6734 3965 M16 6736 3550 M16 6739 3434 M16 6786 3260 M16 6846 3524 M16 6919 3584 M16
7036 3669 M16 7070 3932 M16 7080 3571 M16 7130 3844 M16 7255 3542 M16 7262 3281 M16 7350 3253 M16 7397 3437 M16 7403 3665 M16
7467 3780 M16 7473 3371 M16 7543 3519 M16 7593 3518 M16 7599 3295 M16 7646 3888 M16 7648 3687 M16 7649 3383 M16 7650 3593 M16
7705 4041 M16 7706 3506 M16 7766 4516 M16 7766 3345 M16 7835 3360 M16 7894 3562 M16 7895 3186 M16 7901 3465 M16 7966 3469 M16
8017 3630 M16 8058 3642 M16 8058 3672 M16 8064 3852 M16 8099 3542 M16 8108 3470 M16 8218 3543 M16 8282 3813 M16 8348 3452 M16
8417 3282 M16 8448 3523 M16 8455 3719 M16 8503 3634 M16 8565 3362 M16 8571 4113 M16
45 0 1703 1782 L 0 2674 1725 1782 L 45 0 1703 4456 L 45 0 1703 3595 L 0 626 1725 3595 L 45 0 1703 4221 L 45 0 1703 2955 L
0 1400 1725 2955 L 45 0 1703 4355 L 45 0 1703 3100 L 0 976 1725 3100 L 45 0 1703 4076 L 45 0 1759 3300 L 0 521 1781 3300 L
45 0 1759 3821 L 45 0 1759 2948 L 0 1088 1781 2948 L 45 0 1759 4036 L 45 0 1762 3137 L 0 191 1784 3137 L 45 0 1762 3328 L
45 0 1762 3077 L 0 242 1784 3077 L 45 0 1762 3319 L 45 0 1809 2268 L 0 1343 1831 2268 L 45 0 1809 3611 L 45 0 1809 1634 L
0 1336 1831 1634 L 45 0 1809 2970 L 45 0 1860 3347 L 0 256 1883 3347 L 45 0 1860 3603 L 45 0 1860 3266 L 0 83 1883 3266 L
45 0 1860 3349 L 45 0 1863 2367 L 0 1808 1885 2367 L 45 0 1863 4175 L 45 0 1863 3877 L 0 1208 1885 3877 L 45 0 1863 5085 L
45 0 1964 1781 L 0 938 1986 1781 L 45 0 1964 2719 L 45 0 1964 1808 L 0 1838 1986 1808 L 45 0 1964 3646 L 45 0 2014 2870 L
0 799 2036 2870 L 45 0 2014 3669 L 45 0 2014 3304 L 0 319 2036 3304 L 45 0 2014 3623 L 45 0 2019 3854 L 0 2775 2042 3854 L
45 0 2067 3174 L 0 284 2090 3174 L 45 0 2067 3458 L 45 0 2127 3322 L 0 408 2149 3322 L 45 0 2127 3730 L 45 0 2127 3181 L
0 415 2149 3181 L 45 0 2127 3596 L 45 0 2208 3364 L 0 275 2231 3364 L 45 0 2208 3639 L 45 0 2225 3364 L 0 376 2247 3364 L
45 0 2225 3740 L 45 0 2320 3551 L 0 179 2342 3551 L 45 0 2320 3730 L 45 0 2322 3456 L 0 309 2344 3456 L 45 0 2322 3765 L
45 0 2322 3437 L 0 340 2344 3437 L 45 0 2322 3777 L 45 0 2363 3275 L 0 501 2386 3275 L 45 0 2363 3776 L 45 0 2366 2954 L
0 900 2389 2954 L 45 0 2366 3854 L 45 0 2366 3973 L 0 1956 2389 3973 L 45 0 2366 5929 L 45 0 2366 3572 L 0 306 2389 3572 L
45 0 2366 3878 L 45 0 2449 3575 L 0 1041 2471 3575 L 45 0 2449 4616 L 45 0 2455 2687 L 0 830 2477 2687 L 45 0 2455 3517 L
45 0 2501 3554 L 0 155 2524 3554 L 45 0 2501 3709 L 45 0 2568 3098 L 0 894 2590 3098 L 45 0 2568 3992 L 45 0 2593 3498 L
0 618 2615 3498 L 45 0 2593 4116 L 45 0 2615 3599 L 0 223 2637 3599 L 45 0 2615 3822 L 45 0 2700 3601 L 0 341 2723 3601 L
45 0 2700 3942 L 45 0 2706 3731 L 0 750 2728 3731 L 45 0 2706 4481 L 45 0 2732 3374 L 0 522 2755 3374 L 45 0 2732 3896 L
45 0 2738 2740 L 0 701 2760 2740 L 45 0 2738 3441 L 45 0 2794 3334 L 0 287 2817 3334 L 45 0 2794 3621 L 45 0 2804 3454 L
0 376 2826 3454 L 45 0 2804 3830 L 45 0 2857 3181 L 0 642 2879 3181 L 45 0 2857 3823 L 45 0 2857 3269 L 0 381 2880 3269 L
45 0 2857 3650 L 45 0 2908 2800 L 0 982 2930 2800 L 45 0 2908 3782 L 45 0 2952 3575 L 0 1099 2975 3575 L 45 0 2952 4674 L
45 0 2952 3095 L 0 2183 2975 3095 L 45 0 2952 5278 L 45 0 2961 2385 L 0 1257 2983 2385 L 45 0 2961 3642 L 46 0 3011 3563 L
0 408 3034 3563 L 46 0 3011 3971 L 45 0 3065 1852 L 0 1693 3088 1852 L 45 0 3065 3545 L 45 0 3065 3457 L 0 1838 3088 3457 L
45 0 3065 5295 L 45 0 3065 3615 L 0 544 3088 3615 L 45 0 3065 4159 L 45 0 3122 3462 L 0 149 3144 3462 L 45 0 3122 3611 L
45 0 3175 3347 L 0 326 3197 3347 L 45 0 3175 3673 L 45 0 3178 3665 L 0 136 3201 3665 L 45 0 3178 3801 L 45 0 3225 3344 L
0 485 3248 3344 L 45 0 3225 3829 L 45 0 3225 3494 L 0 164 3248 3494 L 45 0 3225 3658 L 45 0 3228 3436 L 0 190 3251 3436 L
45 0 3228 3626 L 45 0 3228 3541 L 0 208 3251 3541 L 45 0 3228 3749 L 45 0 3298 3568 L 0 128 3320 3568 L 45 0 3298 3696 L
45 0 3414 3419 L 0 227 3437 3419 L 45 0 3414 3646 L 45 0 3414 3522 L 0 216 3437 3522 L 45 0 3414 3738 L 45 0 3522 3438 L
0 181 3545 3438 L 45 0 3522 3619 L 45 0 3524 3309 L 0 162 3547 3309 L 45 0 3524 3471 L 45 0 3566 2690 L 0 910 3588 2690 L
45 0 3566 3600 L 45 0 4069 3488 L 0 57 4092 3488 L 45 0 4069 3545 L 45 0 4069 3510 L 0 42 4092 3510 L 45 0 4069 3552 L
45 0 4069 3521 L 0 90 4092 3521 L 45 0 4069 3611 L 45 0 4069 3505 L 0 49 4092 3505 L 45 0 4069 3554 L 45 0 4192 3467 L
0 113 4214 3467 L 45 0 4192 3580 L 45 0 4193 3502 L 0 519 4215 3502 L 45 0 4193 4021 L 45 0 4243 2936 L 0 663 4265 2936 L
45 0 4243 3599 L 45 0 4309 3506 L 0 269 4331 3506 L 45 0 4309 3775 L 45 0 4312 3505 L 0 1133 4335 3505 L 45 0 4312 4638 L
45 0 4362 3583 L 0 180 4385 3583 L 45 0 4362 3763 L 45 0 4403 3092 L 0 715 4425 3092 L 45 0 4403 3807 L 45 0 4460 2916 L
0 784 4482 2916 L 45 0 4460 3700 L 45 0 4462 3206 L 0 905 4485 3206 L 45 0 4462 4111 L 45 0 4487 3401 L 0 632 4510 3401 L
45 0 4487 4033 L 45 0 4491 3601 L 0 400 4513 3601 L 45 0 4491 4001 L 45 0 4494 3504 L 0 156 4516 3504 L 45 0 4494 3660 L
45 0 4513 3542 L 0 100 4536 3542 L 45 0 4513 3642 L 45 0 4544 1322 L 0 1986 4567 1322 L 45 0 4544 3308 L 45 0 4560 3259 L
0 470 4583 3259 L 45 0 4560 3729 L 45 0 4618 3300 L 0 397 4640 3300 L 45 0 4618 3697 L 45 0 4620 3104 L 0 512 4642 3104 L
45 0 4620 3616 L 45 0 4654 2759 L 0 676 4677 2759 L 45 0 4654 3435 L 45 0 4661 3083 L 0 1508 4684 3083 L 45 0 4661 4591 L
45 0 4731 3287 L 0 294 4753 3287 L 45 0 4731 3581 L 45 0 4815 3286 L 0 1344 4838 3286 L 45 0 4815 4630 L 45 0 4862 3074 L
0 1085 4885 3074 L 45 0 4862 4159 L 45 0 4903 2865 L 0 583 4926 2865 L 45 0 4903 3448 L 45 0 4909 3342 L 0 425 4932 3342 L
45 0 4909 3767 L 45 0 4973 3157 L 0 540 4995 3157 L 45 0 4973 3697 L 45 0 4973 2038 L 0 1475 4995 2038 L 45 0 4973 3513 L
45 0 4979 2457 L 0 1102 5002 2457 L 45 0 4979 3559 L 45 0 5032 3269 L 0 330 5055 3269 L 45 0 5032 3599 L 45 0 5036 3425 L
0 383 5058 3425 L 45 0 5036 3808 L 45 0 5099 3206 L 0 540 5121 3206 L 45 0 5099 3746 L 45 0 5105 3363 L 0 269 5127 3363 L
45 0 5105 3632 L 45 0 5155 3281 L 0 485 5178 3281 L 45 0 5155 3766 L 45 0 5162 3339 L 0 268 5184 3339 L 45 0 5162 3607 L
45 0 5215 2435 L 0 1118 5237 2435 L 45 0 5215 3553 L 45 0 5294 3469 L 0 306 5317 3469 L 45 0 5294 3775 L 45 0 5360 3470 L
0 416 5382 3470 L 45 0 5360 3886 L 45 0 5363 3065 L 0 412 5385 3065 L 45 0 5363 3477 L 45 0 5429 3317 L 0 281 5451 3317 L
45 0 5429 3598 L 45 0 5470 3143 L 0 396 5492 3143 L 45 0 5470 3539 L 45 0 5552 3466 L 0 668 5575 3466 L 45 0 5552 4134 L
45 0 5552 3256 L 0 455 5575 3256 L 45 0 5552 3711 L 45 0 5618 2076 L 0 1632 5640 2076 L 45 0 5618 3708 L 45 0 5618 3055 L
0 654 5640 3055 L 45 0 5618 3709 L 45 0 5741 3036 L 0 590 5764 3036 L 45 0 5741 3626 L 45 0 5741 2649 L 0 1526 5764 2649 L
45 0 5741 4175 L 45 0 5744 3314 L 0 157 5766 3314 L 45 0 5744 3471 L 45 0 5744 3388 L 0 144 5766 3388 L 45 0 5744 3532 L
45 0 5804 3386 L 0 239 5827 3386 L 45 0 5804 3625 L 45 0 5804 3232 L 0 246 5827 3232 L 45 0 5804 3478 L 45 0 5851 3226 L
0 273 5873 3226 L 45 0 5851 3499 L 45 0 5914 3855 L 0 967 5936 3855 L 45 0 5914 4822 L 45 0 5971 3224 L 0 263 5993 3224 L
45 0 5971 3487 L 45 0 6002 3671 L 0 510 6024 3671 L 45 0 6002 4181 L 45 0 6003 3340 L 0 646 6025 3340 L 45 0 6003 3986 L
45 0 6059 3163 L 0 331 6081 3163 L 45 0 6059 3494 L 45 0 6138 3252 L 0 300 6160 3252 L 45 0 6138 3552 L 45 0 6140 3365 L
0 421 6163 3365 L 45 0 6140 3786 L 45 0 6223 3107 L 0 313 6245 3107 L 45 0 6223 3420 L 45 0 6294 2987 L 0 423 6317 2987 L
45 0 6294 3410 L 45 0 6374 3097 L 0 495 6396 3097 L 45 0 6374 3592 L 45 0 6423 3305 L 0 365 6446 3305 L 45 0 6423 3670 L
45 0 6503 3313 L 0 263 6526 3313 L 45 0 6503 3576 L 45 0 6559 1322 L 0 1335 6581 1322 L 45 0 6559 2657 L 45 0 6559 3153 L
0 464 6582 3153 L 45 0 6559 3617 L 45 0 6566 3521 L 0 414 6588 3521 L 45 0 6566 3935 L 45 0 6635 3011 L 0 732 6657 3011 L
45 0 6635 3743 L 45 0 6638 4666 L 0 1215 6660 4666 L 45 0 6638 5881 L 45 0 6711 3341 L 0 1247 6734 3341 L 45 0 6711 4588 L
45 0 6713 3314 L 0 472 6736 3314 L 45 0 6713 3786 L 45 0 6716 3263 L 0 342 6739 3263 L 45 0 6716 3605 L 45 0 6763 3097 L
0 325 6786 3097 L 45 0 6763 3422 L 45 0 6824 3387 L 0 275 6846 3387 L 45 0 6824 3662 L 45 0 6896 3189 L 0 789 6919 3189 L
45 0 6896 3978 L 45 0 7013 3515 L 0 308 7036 3515 L 45 0 7013 3823 L 45 0 7047 3273 L 0 1317 7070 3273 L 45 0 7047 4590 L
45 0 7057 3266 L 0 610 7080 3266 L 45 0 7057 3876 L 45 0 7107 3338 L 0 1012 7130 3338 L 45 0 7107 4350 L 45 0 7233 3384 L
0 315 7255 3384 L 45 0 7233 3699 L 45 0 7239 3039 L 0 485 7262 3039 L 45 0 7239 3524 L 45 0 7327 2917 L 0 672 7350 2917 L
45 0 7327 3589 L 45 0 7374 3290 L 0 293 7397 3290 L 45 0 7374 3583 L 45 0 7381 3500 L 0 329 7403 3500 L 45 0 7381 3829 L
45 0 7444 3597 L 0 367 7467 3597 L 45 0 7444 3964 L 45 0 7451 3146 L 0 450 7473 3146 L 45 0 7451 3596 L 45 0 7520 3383 L
0 273 7543 3383 L 45 0 7520 3656 L 45 0 7570 3340 L 0 355 7593 3340 L 45 0 7570 3695 L 45 0 7577 2870 L 0 850 7599 2870 L
45 0 7577 3720 L 45 0 7624 3512 L 0 752 7646 3512 L 45 0 7624 4264 L 45 0 7626 2994 L 0 1385 7648 2994 L 45 0 7626 4379 L
45 0 7626 3149 L 0 468 7649 3149 L 45 0 7626 3617 L 45 0 7627 3317 L 0 552 7650 3317 L 45 0 7627 3869 L 45 0 7683 3524 L
0 1035 7705 3524 L 45 0 7683 4559 L 45 0 7683 3363 L 0 287 7706 3363 L 45 0 7683 3650 L 45 0 7744 3582 L 0 1867 7766 3582 L
45 0 7744 5449 L 45 0 7744 3122 L 0 447 7766 3122 L 45 0 7744 3569 L 45 0 7813 3141 L 0 438 7835 3141 L 45 0 7813 3579 L
45 0 7872 3310 L 0 505 7894 3310 L 45 0 7872 3815 L 45 0 7873 2928 L 0 515 7895 2928 L 45 0 7873 3443 L 45 0 7879 3327 L
0 276 7901 3327 L 45 0 7879 3603 L 45 0 7944 3325 L 0 288 7966 3325 L 45 0 7944 3613 L 45 0 7995 3474 L 0 312 8017 3474 L
45 0 7995 3786 L 45 0 8035 2883 L 0 1517 8058 2883 L 45 0 8035 4400 L 45 0 8036 3436 L 0 471 8058 3436 L 45 0 8036 3907 L
45 0 8042 3627 L 0 450 8064 3627 L 45 0 8042 4077 L 45 0 8077 3411 L 0 263 8099 3411 L 45 0 8077 3674 L 45 0 8086 3334 L
0 271 8108 3334 L 45 0 8086 3605 L 45 0 8196 3288 L 0 509 8218 3288 L 45 0 8196 3797 L 45 0 8259 3652 L 0 322 8282 3652 L
45 0 8259 3974 L 45 0 8326 3255 L 0 394 8348 3255 L 45 0 8326 3649 L 45 0 8394 3058 L 0 448 8417 3058 L 45 0 8394 3506 L
45 0 8426 3391 L 0 264 8448 3391 L 45 0 8426 3655 L 45 0 8432 3245 L 0 949 8455 3245 L 45 0 8432 4194 L 45 0 8480 3487 L
0 294 8503 3487 L 45 0 8480 3781 L 45 0 8542 3189 L 0 345 8565 3189 L 45 0 8542 3534 L 45 0 8548 3611 L 0 1005 8571 3611 L
45 0 8548 4616 L
1024 0 1024 K 0 1024 1024 K 2096 3431 M16 2144 2895 M16 2146 3402 M16 2146 3688 M16 2219 2874 M16 2527 2921 M16 2594 3657 M16
2634 3654 M16 2725 3761 M16 2751 3374 M16 2754 3763 M16 2889 3762 M16 2977 4089 M16 3084 3696 M16 3201 4732 M16 3443 3265 M16
3547 3315 M16 3737 3327 M16 3783 3844 M16 4095 3318 M16 4162 3500 M16 4265 3528 M16 4391 3694 M16 4646 3238 M16 4667 3069 M16
4680 3089 M16 4759 3816 M16 4759 3814 M16 4844 3766 M16 4888 3143 M16 4929 3451 M16 4998 3300 M16 5004 3434 M16 5061 4979 M16
5064 3264 M16 5065 3372 M16 5124 3500 M16 5125 3214 M16 5181 3580 M16 5187 3279 M16 5260 3780 M16 5320 3306 M16 5322 3731 M16
5389 3805 M16 5454 4117 M16 5493 3243 M16 5833 3571 M16 5876 3759 M16 5876 3529 M16 5940 4161 M16 5990 4174 M16 5996 3535 M16
6027 3697 M16 6085 3265 M16 6157 2847 M16 6217 3239 M16 6248 4038 M16 6249 3224 M16 6321 3463 M16 6393 3278 M16 6449 3230 M16
6532 3319 M16 6585 3575 M16 6742 2904 M16 6745 3395 M16 6793 3797 M16 6849 4065 M16 6853 3237 M16 6924 2385 M16 6987 3124 M16
7076 3706 M16 7079 3727 M16 7132 3659 M16 7189 3106 M16 7190 3446 M16 7259 3156 M16 7400 2952 M16 7400 3782 M16 7469 3657 M16
7542 4067 M16 7545 4263 M16 7595 3489 M16 7598 3249 M16 7652 3450 M16 7653 1625 M16 7712 4281 M16 7771 3621 M16 7772 3686 M16
7894 3668 M16 7900 3598 M16 7964 3998 M16 8062 3471 M16 8102 3318 M16 8168 4630 M16 8222 3177 M16 8284 3845 M16 8345 3667 M16
8414 3324 M16 8451 5418 M16 8499 3153 M16 8568 3485 M16
45 0 2074 3172 L 0 519 2096 3172 L 45 0 2074 3691 L 45 0 2121 2220 L 0 1350 2144 2220 L 45 0 2121 3570 L 45 0 2123 3114 L
0 577 2146 3114 L 45 0 2123 3691 L 45 0 2124 3473 L 0 431 2146 3473 L 45 0 2124 3904 L 45 0 2197 2175 L 0 1397 2219 2175 L
45 0 2197 3572 L 45 0 2505 2397 L 0 1047 2527 2397 L 45 0 2505 3444 L 45 0 2571 3362 L 0 589 2594 3362 L 45 0 2571 3951 L
45 0 2612 3457 L 0 393 2634 3457 L 45 0 2612 3850 L 45 0 2703 3543 L 0 436 2725 3543 L 45 0 2703 3979 L 45 0 2728 3174 L
0 399 2751 3174 L 45 0 2728 3573 L 45 0 2732 3421 L 0 684 2754 3421 L 45 0 2732 4105 L 45 0 2867 3308 L 0 908 2889 3308 L
45 0 2867 4216 L 45 0 2955 3455 L 0 1267 2977 3455 L 45 0 2955 4722 L 45 0 3062 3410 L 0 572 3084 3410 L 45 0 3062 3982 L
45 0 3179 4070 L 0 1325 3201 4070 L 45 0 3179 5395 L 45 0 3421 2639 L 0 1251 3443 2639 L 45 0 3421 3890 L 45 0 3524 2984 L
0 662 3547 2984 L 45 0 3524 3646 L 45 0 3714 2981 L 0 692 3737 2981 L 45 0 3714 3673 L 45 0 3760 3399 L 0 889 3783 3399 L
45 0 3760 4288 L 45 0 4073 2853 L 0 930 4095 2853 L 45 0 4073 3783 L 45 0 4139 3270 L 0 460 4162 3270 L 45 0 4139 3730 L
45 0 4242 3368 L 0 319 4265 3368 L 45 0 4242 3687 L 45 0 4369 3238 L 0 912 4391 3238 L 45 0 4369 4150 L 45 0 4623 2948 L
0 580 4646 2948 L 45 0 4623 3528 L 45 0 4645 2608 L 0 921 4667 2608 L 45 0 4645 3529 L 45 0 4658 2737 L 0 703 4680 2737 L
45 0 4658 3440 L 45 0 4736 3521 L 0 590 4759 3521 L 45 0 4736 4111 L 45 0 4736 3430 L 0 768 4759 3430 L 45 0 4736 4198 L
45 0 4821 3516 L 0 501 4844 3516 L 45 0 4821 4017 L 45 0 4865 2641 L 0 1004 4888 2641 L 45 0 4865 3645 L 45 0 4906 3259 L
0 384 4929 3259 L 45 0 4906 3643 L 45 0 4976 3085 L 0 430 4998 3085 L 45 0 4976 3515 L 45 0 4982 3100 L 0 667 5004 3100 L
45 0 4982 3767 L 45 0 5038 4312 L 0 1335 5061 4312 L 45 0 5038 5647 L 45 0 5042 2888 L 0 752 5064 2888 L 45 0 5042 3640 L
45 0 5042 3110 L 0 524 5065 3110 L 45 0 5042 3634 L 45 0 5102 3208 L 0 585 5124 3208 L 45 0 5102 3793 L 45 0 5102 2938 L
0 553 5125 2938 L 45 0 5102 3491 L 45 0 5158 2960 L 0 1239 5181 2960 L 45 0 5158 4199 L 45 0 5164 3035 L 0 489 5187 3035 L
45 0 5164 3524 L 45 0 5238 3348 L 0 863 5260 3348 L 45 0 5238 4211 L 45 0 5297 2766 L 0 1080 5320 2766 L 45 0 5297 3846 L
45 0 5300 3110 L 0 1241 5322 3110 L 45 0 5300 4351 L 45 0 5367 3603 L 0 404 5389 3603 L 45 0 5367 4007 L 45 0 5432 3528 L
0 1179 5454 3528 L 45 0 5432 4707 L 45 0 5471 2902 L 0 682 5493 2902 L 45 0 5471 3584 L 45 0 5810 3166 L 0 809 5833 3166 L
45 0 5810 3975 L 45 0 5854 3536 L 0 445 5876 3536 L 45 0 5854 3981 L 45 0 5854 3232 L 0 595 5876 3232 L 45 0 5854 3827 L
45 0 5917 3726 L 0 871 5940 3726 L 45 0 5917 4597 L 45 0 5967 3279 L 0 1790 5990 3279 L 45 0 5967 5069 L 45 0 5974 2768 L
0 1535 5996 2768 L 45 0 5974 4303 L 45 0 6005 3350 L 0 693 6027 3350 L 45 0 6005 4043 L 45 0 6062 3096 L 0 338 6085 3096 L
45 0 6062 3434 L 45 0 6134 2432 L 0 831 6157 2432 L 45 0 6134 3263 L 45 0 6194 3150 L 0 179 6217 3150 L 45 0 6194 3329 L
45 0 6226 3546 L 0 984 6248 3546 L 45 0 6226 4530 L 45 0 6226 2793 L 0 862 6249 2793 L 45 0 6226 3655 L 45 0 6298 3266 L
0 393 6321 3266 L 45 0 6298 3659 L 45 0 6370 3003 L 0 550 6393 3003 L 45 0 6370 3553 L 45 0 6427 3044 L 0 373 6449 3044 L
45 0 6427 3417 L 45 0 6510 3058 L 0 522 6532 3058 L 45 0 6510 3580 L 46 0 6562 3314 L 0 521 6585 3314 L 46 0 6562 3835 L
45 0 6720 2563 L 0 682 6742 2563 L 45 0 6720 3245 L 45 0 6723 3126 L 0 538 6745 3126 L 45 0 6723 3664 L 45 0 6770 3378 L
0 837 6793 3378 L 45 0 6770 4215 L 45 0 6827 2943 L 0 2245 6849 2943 L 45 0 6827 5188 L 45 0 6830 3067 L 0 341 6853 3067 L
45 0 6830 3408 L 45 0 6902 1372 L 0 2027 6924 1372 L 45 0 6902 3399 L 45 0 6965 2865 L 0 518 6987 2865 L 45 0 6965 3383 L
45 0 7053 3275 L 0 862 7076 3275 L 45 0 7053 4137 L 45 0 7056 3410 L 0 634 7079 3410 L 45 0 7056 4044 L 45 0 7110 3146 L
0 1026 7132 3146 L 45 0 7110 4172 L 45 0 7167 2683 L 0 845 7189 2683 L 45 0 7167 3528 L 45 0 7167 2883 L 0 1125 7190 2883 L
45 0 7167 4008 L 45 0 7237 2715 L 0 883 7259 2715 L 45 0 7237 3598 L 45 0 7377 1769 L 0 2366 7400 1769 L 45 0 7377 4135 L
45 0 7377 3308 L 0 948 7400 3308 L 45 0 7377 4256 L 45 0 7447 3097 L 0 1120 7469 3097 L 45 0 7447 4217 L 45 0 7519 3773 L
0 589 7542 3773 L 45 0 7519 4362 L 45 0 7522 3657 L 0 1212 7545 3657 L 45 0 7522 4869 L 45 0 7573 3276 L 0 427 7595 3276 L
45 0 7573 3703 L 45 0 7576 2851 L 0 795 7598 2851 L 45 0 7576 3646 L 45 0 7629 3045 L 0 810 7652 3045 L 45 0 7629 3855 L
0 1529 7653 1170 L 45 0 7630 2699 L 45 0 7689 3608 L 0 1347 7712 3608 L 45 0 7689 4955 L 45 0 7749 3452 L 0 337 7771 3452 L
45 0 7749 3789 L 45 0 7750 3416 L 0 541 7772 3416 L 45 0 7750 3957 L 45 0 7872 3196 L 0 944 7894 3196 L 45 0 7872 4140 L
45 0 7878 3402 L 0 392 7900 3402 L 45 0 7878 3794 L 45 0 7941 3343 L 0 1311 7964 3343 L 45 0 7941 4654 L 45 0 8039 3181 L
0 580 8062 3181 L 45 0 8039 3761 L 45 0 8080 2967 L 0 701 8102 2967 L 45 0 8080 3668 L 45 0 8146 4081 L 0 1098 8168 4081 L
45 0 8146 5179 L 45 0 8199 2888 L 0 577 8222 2888 L 45 0 8199 3465 L 45 0 8262 3559 L 0 572 8284 3559 L 45 0 8262 4131 L
45 0 8322 3487 L 0 360 8345 3487 L 45 0 8322 3847 L 45 0 8391 3067 L 0 513 8414 3067 L 45 0 8391 3580 L 45 0 8429 4533 L
0 1770 8451 4533 L 45 0 8429 6303 L 45 0 8477 1818 L 0 2669 8499 1818 L 45 0 8477 4487 L 45 0 8546 3242 L 0 485 8568 3242 L
45 0 8546 3727 L
0 0 0 K
PGPLOT restore showpage
%%PageTrailer
%%PageBoundingBox: 24 17 588 721
 
%%Trailer
%%BoundingBox: 24 17 588 721
%%DocumentFonts: 
%%Pages: 1
%%EOF
