%!PS-Adobe-3.0 EPSF-3.0
%%For: bperera
%%Title: PGPLOT PostScript plot
%%Creator: PGPLOT [PSDRIV 6.6]
%%CreationDate: 26-May-2016 15:29
%%BoundingBox: (atend)
%%DocumentFonts: (atend)
%%LanguageLevel: 1
%%Orientation: Landscape
%%Pages: (atend)
%%EndComments
%%BeginProlog
/L {moveto rlineto currentpoint stroke moveto} bind def
/C {rlineto currentpoint stroke moveto} bind def
/D {moveto 0 0 rlineto currentpoint stroke moveto} bind def
/LW {5 mul setlinewidth} bind def
/BP {newpath moveto} bind def
/LP /rlineto load def
/EP {rlineto closepath eofill} bind def
/MB {gsave translate MFAC dup scale 1 setlinewidth 2 setlinecap 0 setlinejoin newpath} bind def
/ME /grestore load def
/CC {0 360 arc stroke} bind def
/FC {0 360 arc fill} bind def
/G {1024 div setgray} bind def
/K {3 -1 roll 1024 div 3 -1 roll 1024 div 3 -1 roll 1024 div setrgbcolor} bind def
% Uncomment next line to convert color to grey shades
%/K {3 -1 roll 3413 div 3 -1 roll 1739 div 3 -1 roll 9309 div add add setgray} bind def
%%EndProlog
%%BeginSetup
/#copies 1 def
%%EndSetup
 
%%Page: 1 1
%%BeginPageSetup
/PGPLOT save def
0.072 0.072 scale
8149 250 translate 90 rotate
1 setlinejoin 1 setlinecap 1 LW 1
%%EndPageSetup
%%PageBoundingBox: (atend)
1024 1024 1024 K 1 LW 0 0 BP 9749 0 LP 0 7799 LP -9749 0 EP 0 0 0 K
8286 0 975 1170 L -8286 0 9261 6629 L 0 -5459 C 0 45 1058 1170 L 0 45 1297 1170 L 0 90 1536 1170 L 0 45 1775 1170 L 0 45 2013 1170 L
0 45 2252 1170 L 0 45 2491 1170 L 0 90 2730 1170 L 0 45 2969 1170 L 0 45 3207 1170 L 0 45 3446 1170 L 0 45 3685 1170 L
0 90 3924 1170 L 0 45 4163 1170 L 0 45 4402 1170 L 0 45 4640 1170 L 0 45 4879 1170 L 0 90 5118 1170 L 0 45 5357 1170 L
0 45 5596 1170 L 0 45 5835 1170 L 0 45 6073 1170 L 0 90 6312 1170 L 0 45 6551 1170 L 0 45 6790 1170 L 0 45 7029 1170 L
0 45 7268 1170 L 0 90 7506 1170 L 0 45 7745 1170 L 0 45 7984 1170 L 0 45 8223 1170 L 0 45 8462 1170 L 0 90 8701 1170 L
0 45 8939 1170 L 0 45 9178 1170 L 0 45 1058 6584 L 0 45 1297 6584 L 0 90 1536 6539 L 0 45 1775 6584 L 0 45 2013 6584 L
0 45 2252 6584 L 0 45 2491 6584 L 0 90 2730 6539 L 0 45 2969 6584 L 0 45 3207 6584 L 0 45 3446 6584 L 0 45 3685 6584 L
0 90 3924 6539 L 0 45 4163 6584 L 0 45 4402 6584 L 0 45 4640 6584 L 0 45 4879 6584 L 0 90 5118 6539 L 0 45 5357 6584 L
0 45 5596 6584 L 0 45 5835 6584 L 0 45 6073 6584 L 0 90 6312 6539 L 0 45 6551 6584 L 0 45 6790 6584 L 0 45 7029 6584 L
0 45 7268 6584 L 0 90 7506 6539 L 0 45 7745 6584 L 0 45 7984 6584 L 0 45 8223 6584 L 0 45 8462 6584 L 0 90 8701 6539 L
0 45 8939 6584 L 0 45 9178 6584 L 108 0 1242 990 L 12 6 1410 1038 L 18 18 C 0 -126 C -60 0 1584 1062 L -6 -54 C 6 6 C 18 6 C 18 0 C
18 -6 C 12 -12 C 6 -18 C 0 -12 C -6 -18 C -12 -12 C -18 -6 C -18 0 C -18 6 C -6 6 C -6 12 C -18 -6 1668 1062 L -12 -18 C -6 -30 C
0 -18 C 6 -30 C 12 -18 C 18 -6 C 12 0 C 18 6 C 12 18 C 6 30 C 0 18 C -6 30 C -12 18 C -18 6 C -12 0 C -18 -6 1788 1062 L -12 -18 C
-6 -30 C 0 -18 C 6 -30 C 12 -18 C 18 -6 C 12 0 C 18 6 C 12 18 C 6 30 C 0 18 C -6 30 C -12 18 C -18 6 C -12 0 C 108 0 2436 990 L
12 6 2604 1038 L 18 18 C 0 -126 C -18 -6 2742 1062 L -12 -18 C -6 -30 C 0 -18 C 6 -30 C 12 -18 C 18 -6 C 12 0 C 18 6 C 12 18 C
6 30 C 0 18 C -6 30 C -12 18 C -18 6 C -12 0 C -18 -6 2862 1062 L -12 -18 C -6 -30 C 0 -18 C 6 -30 C 12 -18 C 18 -6 C 12 0 C 18 6 C
12 18 C 6 30 C 0 18 C -6 30 C -12 18 C -18 6 C -12 0 C -18 -6 2982 1062 L -12 -18 C -6 -30 C 0 -18 C 6 -30 C 12 -18 C 18 -6 C 12 0 C
18 6 C 12 18 C 6 30 C 0 18 C -6 30 C -12 18 C -18 6 C -12 0 C 108 0 3690 990 L -60 0 3912 1062 L -6 -54 C 6 6 C 18 6 C 18 0 C
18 -6 C 12 -12 C 6 -18 C 0 -12 C -6 -18 C -12 -12 C -18 -6 C -18 0 C -18 6 C -6 6 C -6 12 C -18 -6 3996 1062 L -12 -18 C -6 -30 C
0 -18 C 6 -30 C 12 -18 C 18 -6 C 12 0 C 18 6 C 12 18 C 6 30 C 0 18 C -6 30 C -12 18 C -18 6 C -12 0 C -18 -6 4116 1062 L -12 -18 C
-6 -30 C 0 -18 C 6 -30 C 12 -18 C 18 -6 C 12 0 C 18 6 C 12 18 C 6 30 C 0 18 C -6 30 C -12 18 C -18 6 C -12 0 C -18 -6 5112 1062 L
-12 -18 C -6 -30 C 0 -18 C 6 -30 C 12 -18 C 18 -6 C 12 0 C 18 6 C 12 18 C 6 30 C 0 18 C -6 30 C -12 18 C -18 6 C -12 0 C
-60 0 6222 1062 L -6 -54 C 6 6 C 18 6 C 18 0 C 18 -6 C 12 -12 C 6 -18 C 0 -12 C -6 -18 C -12 -12 C -18 -6 C -18 0 C -18 6 C -6 6 C
-6 12 C -18 -6 6306 1062 L -12 -18 C -6 -30 C 0 -18 C 6 -30 C 12 -18 C 18 -6 C 12 0 C 18 6 C 12 18 C 6 30 C 0 18 C -6 30 C -12 18 C
-18 6 C -12 0 C -18 -6 6426 1062 L -12 -18 C -6 -30 C 0 -18 C 6 -30 C 12 -18 C 18 -6 C 12 0 C 18 6 C 12 18 C 6 30 C 0 18 C -6 30 C
-12 18 C -18 6 C -12 0 C 12 6 7302 1038 L 18 18 C 0 -126 C -18 -6 7440 1062 L -12 -18 C -6 -30 C 0 -18 C 6 -30 C 12 -18 C 18 -6 C
12 0 C 18 6 C 12 18 C 6 30 C 0 18 C -6 30 C -12 18 C -18 6 C -12 0 C -18 -6 7560 1062 L -12 -18 C -6 -30 C 0 -18 C 6 -30 C 12 -18 C
18 -6 C 12 0 C 18 6 C 12 18 C 6 30 C 0 18 C -6 30 C -12 18 C -18 6 C -12 0 C -18 -6 7680 1062 L -12 -18 C -6 -30 C 0 -18 C 6 -30 C
12 -18 C 18 -6 C 12 0 C 18 6 C 12 18 C 6 30 C 0 18 C -6 30 C -12 18 C -18 6 C -12 0 C 12 6 8497 1038 L 18 18 C 0 -126 C
-60 0 8671 1062 L -6 -54 C 6 6 C 18 6 C 18 0 C 18 -6 C 12 -12 C 6 -18 C 0 -12 C -6 -18 C -12 -12 C -18 -6 C -18 0 C -18 6 C -6 6 C
-6 12 C -18 -6 8755 1062 L -12 -18 C -6 -30 C 0 -18 C 6 -30 C 12 -18 C 18 -6 C 12 0 C 18 6 C 12 18 C 6 30 C 0 18 C -6 30 C -12 18 C
-18 6 C -12 0 C -18 -6 8874 1062 L -12 -18 C -6 -30 C 0 -18 C 6 -30 C 12 -18 C 18 -6 C 12 0 C 18 6 C 12 18 C 6 30 C 0 18 C -6 30 C
-12 18 C -18 6 C -12 0 C 45 0 975 1380 L 45 0 975 1598 L 90 0 975 1816 L 45 0 975 2035 L 45 0 975 2253 L 45 0 975 2471 L
45 0 975 2689 L 90 0 975 2908 L 45 0 975 3126 L 45 0 975 3344 L 45 0 975 3562 L 45 0 975 3781 L 90 0 975 3999 L 45 0 975 4217 L
45 0 975 4435 L 45 0 975 4654 L 45 0 975 4872 L 90 0 975 5090 L 45 0 975 5308 L 45 0 975 5527 L 45 0 975 5745 L 45 0 975 5963 L
90 0 975 6181 L 45 0 975 6400 L 45 0 975 6618 L 0 108 784 1434 L 0 -60 712 1656 L 54 -6 C -6 6 C -6 18 C 0 18 C 6 18 C 12 12 C
18 6 C 12 0 C 18 -6 C 12 -12 C 6 -18 C 0 -18 C -6 -18 C -6 -6 C -12 -6 C 84 84 742 1710 L 84 -84 742 1794 L -6 12 736 1854 L
-18 18 C 126 0 C 6 -18 712 1992 L 18 -12 C 30 -6 C 18 0 C 30 6 C 18 12 C 6 18 C 0 12 C -6 18 C -18 12 C -30 6 C -18 0 C -30 -6 C
-18 -12 C -6 -18 C 0 -12 C 0 81 702 2076 L 0 -45 648 2242 L 40 -4 C -4 4 C -5 14 C 0 13 C 5 14 C 9 9 C 13 4 C 9 0 C 14 -4 C 9 -9 C
4 -14 C 0 -13 C -4 -14 C -5 -4 C -9 -5 C 6 -18 712 2902 L 18 -12 C 30 -6 C 18 0 C 30 6 C 18 12 C 6 18 C 0 12 C -6 18 C -18 12 C
-30 6 C -18 0 C -30 -6 C -18 -12 C -6 -18 C 0 -12 C 0 -60 712 3760 L 54 -6 C -6 6 C -6 18 C 0 18 C 6 18 C 12 12 C 18 6 C 12 0 C
18 -6 C 12 -12 C 6 -18 C 0 -18 C -6 -18 C -6 -6 C -12 -6 C 84 84 742 3814 L 84 -84 742 3898 L -6 12 736 3958 L -18 18 C 126 0 C
6 -18 712 4096 L 18 -12 C 30 -6 C 18 0 C 30 6 C 18 12 C 6 18 C 0 12 C -6 18 C -18 12 C -30 6 C -18 0 C -30 -6 C -18 -12 C -6 -18 C
0 -12 C 0 81 702 4180 L 0 -45 648 4347 L 40 -5 C -4 5 C -5 13 C 0 14 C 5 13 C 9 9 C 13 5 C 9 0 C 14 -5 C 9 -9 C 4 -13 C 0 -14 C
-4 -13 C -5 -5 C -9 -4 C -6 12 736 4923 L -18 18 C 126 0 C 6 -18 712 5061 L 18 -12 C 30 -6 C 18 0 C 30 6 C 18 12 C 6 18 C 0 12 C
-6 18 C -18 12 C -30 6 C -18 0 C -30 -6 C -18 -12 C -6 -18 C 0 -12 C 0 81 702 5145 L 63 -45 648 5303 L 0 67 C 94 0 648 5303 L
-6 12 736 5799 L -18 18 C 126 0 C 6 -6 826 5913 L 6 6 C -6 6 C -6 -6 C 0 -60 712 6033 L 54 -6 C -6 6 C -6 18 C 0 18 C 6 18 C 12 12 C
18 6 C 12 0 C 18 -6 C 12 -12 C 6 -18 C 0 -18 C -6 -18 C -6 -6 C -12 -6 C 84 84 742 6087 L 84 -84 742 6171 L -6 12 736 6231 L
-18 18 C 126 0 C 6 -18 712 6369 L 18 -12 C 30 -6 C 18 0 C 30 6 C 18 12 C 6 18 C 0 12 C -6 18 C -18 12 C -30 6 C -18 0 C -30 -6 C
-18 -12 C -6 -18 C 0 -12 C 0 81 702 6453 L 63 -45 648 6610 L 0 68 C 94 0 648 6610 L
0 5459 9261 1170 L -48 0 9261 1350 L -97 0 9261 1609 L 0 108 9461 1345 L 6 -18 9389 1531 L 18 -12 C 30 -6 C 18 0 C 30 6 C 18 12 C
6 18 C 0 12 C -6 18 C -18 12 C -30 6 C -18 0 C -30 -6 C -18 -12 C -6 -18 C 0 -12 C 6 -6 9503 1627 L 6 6 C -6 6 C -6 -6 C
6 -18 9389 1711 L 18 -12 C 30 -6 C 18 0 C 30 6 C 18 12 C 6 18 C 0 12 C -6 18 C -18 12 C -30 6 C -18 0 C -30 -6 C -18 -12 C -6 -18 C
0 -12 C -6 12 9413 1813 L -18 18 C 126 0 C -48 0 9261 1869 L -48 0 9261 2129 L -48 0 9261 2388 L -48 0 9261 2648 L -97 0 9261 2908 L
6 -18 9389 2902 L 18 -12 C 30 -6 C 18 0 C 30 6 C 18 12 C 6 18 C 0 12 C -6 18 C -18 12 C -30 6 C -18 0 C -30 -6 C -18 -12 C -6 -18 C
0 -12 C -48 0 9261 3167 L -48 0 9261 3427 L -48 0 9261 3687 L -48 0 9261 3946 L -97 0 9261 4206 L 6 -18 9389 4050 L 18 -12 C 30 -6 C
18 0 C 30 6 C 18 12 C 6 18 C 0 12 C -6 18 C -18 12 C -30 6 C -18 0 C -30 -6 C -18 -12 C -6 -18 C 0 -12 C 6 -6 9503 4146 L 6 6 C
-6 6 C -6 -6 C 6 -18 9389 4230 L 18 -12 C 30 -6 C 18 0 C 30 6 C 18 12 C 6 18 C 0 12 C -6 18 C -18 12 C -30 6 C -18 0 C -30 -6 C
-18 -12 C -6 -18 C 0 -12 C -6 12 9413 4332 L -18 18 C 126 0 C -48 0 9261 4466 L -48 0 9261 4725 L -48 0 9261 4985 L
-48 0 9261 5245 L -97 0 9261 5504 L 6 -18 9389 5348 L 18 -12 C 30 -6 C 18 0 C 30 6 C 18 12 C 6 18 C 0 12 C -6 18 C -18 12 C -30 6 C
-18 0 C -30 -6 C -18 -12 C -6 -18 C 0 -12 C 6 -6 9503 5444 L 6 6 C -6 6 C -6 -6 C 6 -18 9389 5528 L 18 -12 C 30 -6 C 18 0 C 30 6 C
18 12 C 6 18 C 0 12 C -6 18 C -18 12 C -30 6 C -18 0 C -30 -6 C -18 -12 C -6 -18 C 0 -12 C -6 0 9419 5618 L -12 6 C -6 6 C -6 12 C
0 24 C 6 12 C 6 6 C 12 6 C 12 0 C 12 -6 C 18 -12 C 60 -60 C 0 84 C -48 0 9261 5764 L -48 0 9261 6024 L -48 0 9261 6283 L
-48 0 9261 6543 L
61 0 9688 2730 L 0 54 9688 2730 L 6 18 C 6 6 C 12 6 C 12 0 C 12 -6 C 6 -6 C 6 -18 C 0 -54 C 1 0 9748 2772 L -7 -3 9749 2919 L
-6 -6 C -6 -12 C 0 -18 C 6 -12 C 12 -12 C 1 -1 C -12 -6 9748 3024 L -6 -18 C 0 -18 C 6 -18 C 12 -6 C 1 0 C 6 6 9688 3060 L -6 6 C
-6 -6 C 6 -6 C 19 0 9730 3066 L 61 0 9688 3180 L -12 -12 9748 3180 L -6 -12 C 0 -18 C 6 -12 C 12 -12 C 1 -1 C 19 0 9730 3228 L
19 0 9730 3294 L 19 0 9730 3408 L -12 -12 9748 3408 L -6 -12 C 0 -18 C 6 -12 C 12 -12 C 1 -1 C 61 0 9688 3456 L 6 6 9688 3594 L
-6 6 C -6 -6 C 6 -6 C 19 0 9730 3600 L 19 0 9730 3648 L -13 14 9749 3652 L -6 12 C 0 18 C 6 12 C 13 4 C 19 0 9730 3858 L
-12 12 9748 3858 L -6 12 C 0 18 C 6 11 C 12 12 C 1 1 C 19 0 9730 3971 L 19 0 9730 4037 L 61 0 9688 4085 L -12 -6 9748 4193 L
-6 -18 C 0 -18 C 6 -18 C 12 -6 C 1 1 C -7 -4 9749 4299 L -6 -6 C -6 -12 C 0 -18 C 6 -12 C 12 -12 C 1 0 C 19 0 9730 4439 L
-12 12 9748 4439 L -6 12 C 0 18 C 6 12 C 12 12 C 1 1 C -7 -4 9749 4617 L -6 -6 C -6 -12 C 0 -18 C 6 -12 C 12 -12 C 1 0 C
19 0 9730 4661 L -1 0 9749 4667 L -12 12 C -6 12 C 0 18 C 6 6 9688 4733 L -6 6 C -6 -6 C 6 -6 C 19 0 9730 4739 L 6 -12 9730 4811 L
12 -12 C 1 0 C -1 -1 9749 4854 L -12 -12 C -6 -12 C 0 -18 C 61 0 9688 4967 L -12 -12 9748 4967 L -6 -12 C 0 -18 C 6 -12 C 12 -12 C
1 0 C -12 -6 9748 5075 L -6 -18 C 0 -18 C 6 -18 C 12 -6 C 1 1 C
0 -96 3111 7145 L -6 -18 C -6 -6 C -12 -6 C -12 0 C -12 6 C -6 6 C -6 18 C 0 12 C 0 6 3159 7115 L 6 12 C 6 6 C 12 6 C 24 0 C 12 -6 C
6 -6 C 6 -12 C 0 -12 C -6 -12 C -12 -18 C -60 -60 C 84 0 C -18 -6 3309 7145 L -12 -18 C -6 -30 C 0 -18 C 6 -30 C 12 -18 C 18 -6 C
12 0 C 18 6 C 12 18 C 6 30 C 0 18 C -6 30 C -12 18 C -18 6 C -12 0 C 66 0 3405 7145 L -36 -48 C 18 0 C 12 -6 C 6 -6 C 6 -18 C
0 -12 C -6 -18 C -12 -12 C -18 -6 C -18 0 C -18 6 C -6 6 C -6 12 C 66 0 3525 7145 L -36 -48 C 18 0 C 12 -6 C 6 -6 C 6 -18 C 0 -12 C
-6 -18 C -12 -12 C -18 -6 C -18 0 C -18 6 C -6 6 C -6 12 C 0 -108 3693 7127 L 108 0 3639 7073 L 12 6 3807 7121 L 18 18 C 0 -126 C
-60 -126 3993 7145 L 84 0 3909 7145 L 66 0 4041 7145 L -36 -48 C 18 0 C 12 -6 C 6 -6 C 6 -18 C 0 -12 C -6 -18 C -12 -12 C -18 -6 C
-18 0 C -18 6 C -6 6 C -6 12 C -60 -84 4209 7145 L 90 0 C 0 -126 4209 7145 L -12 -12 4413 7169 L -12 -18 C -12 -24 C -6 -30 C
0 -24 C 6 -30 C 12 -24 C 12 -18 C 12 -12 C 30 -126 4443 7145 L -30 -126 4503 7145 L 30 -126 4503 7145 L -30 -126 4563 7145 L
0 -84 4599 7103 L 6 18 4599 7067 L 12 12 C 12 6 C 18 0 C 0 -84 4677 7103 L 18 18 4677 7079 L 12 6 C 18 0 C 12 -6 C 6 -18 C 0 -60 C
18 18 4743 7079 L 12 6 C 18 0 C 12 -6 C 6 -18 C 0 -60 C -6 12 4917 7085 L -18 6 C -18 0 C -18 -6 C -6 -12 C 6 -12 C 12 -6 C 30 -6 C
12 -6 C 6 -12 C 0 -6 C -6 -12 C -18 -6 C -18 0 C -18 6 C -6 12 C 108 0 5055 7091 L 108 0 5055 7055 L 12 6 5319 7121 L 18 18 C
0 -126 C 0 6 5427 7115 L 6 12 C 6 6 C 12 6 C 24 0 C 12 -6 C 6 -6 C 6 -12 C 0 -12 C -6 -12 C -12 -18 C -60 -60 C 84 0 C
-6 -6 5553 7031 L 6 -6 C 6 6 C -6 6 C -6 12 5679 7127 L -18 6 C -12 0 C -18 -6 C -12 -18 C -6 -30 C 0 -30 C 6 -24 C 12 -12 C 18 -6 C
6 0 C 18 6 C 12 12 C 6 18 C 0 6 C -6 18 C -12 12 C -18 6 C -6 0 C -18 -6 C -12 -12 C -6 -18 C -60 -84 5781 7145 L 90 0 C
0 -126 5781 7145 L -60 0 5913 7145 L -6 -54 C 6 6 C 18 6 C 18 0 C 18 -6 C 12 -12 C 6 -18 C 0 -12 C -6 -18 C -12 -12 C -18 -6 C
-18 0 C -18 6 C -6 6 C -6 12 C -36 -126 6081 7103 L -6 -30 6075 7079 L 0 -18 C 12 -12 C 12 0 C 12 6 C 12 12 C 12 24 C
-12 -42 6141 7103 L -6 -24 C 0 -12 C 6 -6 C 12 0 C 12 12 C 6 12 C -6 12 6249 7085 L -18 6 C -18 0 C -18 -6 C -6 -12 C 6 -12 C
12 -6 C 30 -6 C 12 -6 C 6 -12 C 0 -6 C -6 -12 C -18 -6 C -18 0 C -18 6 C -6 12 C 12 -12 6285 7169 L 12 -18 C 12 -24 C 6 -30 C
0 -24 C -6 -30 C -12 -24 C -12 -18 C -12 -12 C 0 -126 6471 7103 L 12 12 6471 7085 L 12 6 C 18 0 C 12 -6 C 12 -12 C 6 -18 C 0 -12 C
-6 -18 C -12 -12 C -12 -6 C -18 0 C -12 6 C -12 12 C -12 -6 6609 7103 L -12 -12 C -6 -18 C 0 -12 C 6 -18 C 12 -12 C 12 -6 C 18 0 C
12 6 C 12 12 C 6 18 C 0 12 C -6 18 C -12 12 C -12 6 C -18 0 C -6 12 6759 7085 L -18 6 C -18 0 C -18 -6 C -6 -12 C 6 -12 C 12 -6 C
30 -6 C 12 -6 C 6 -12 C 0 -6 C -6 -12 C -18 -6 C -18 0 C -18 6 C -6 12 C 0 -102 6807 7145 L 6 -18 C 12 -6 C 12 0 C 42 0 6789 7103 L
108 0 6873 7073 L -12 0 7065 7145 L -12 -6 C -6 -18 C 0 -102 C 42 0 7017 7103 L 6 -6 7095 7145 L 6 6 C -6 6 C -6 -6 C
0 -84 7101 7103 L 0 -102 7155 7145 L 6 -18 C 12 -6 C 12 0 C 42 0 7137 7103 L 0 -126 4491 672 L 48 -126 4491 672 L
-48 -126 4587 672 L 0 -126 4587 672 L 0 -96 4683 672 L -6 -18 C -6 -6 C -12 -6 C -12 0 C -12 6 C -6 6 C -6 18 C 0 12 C
0 -126 4731 672 L 42 0 4731 672 L 18 -6 C 12 -12 C 6 -12 C 6 -18 C 0 -30 C -6 -18 C -6 -12 C -12 -12 C -18 -6 C -42 0 C
108 0 4857 600 L -60 0 5079 672 L -6 -54 C 6 6 C 18 6 C 18 0 C 18 -6 C 12 -12 C 6 -18 C 0 -12 C -6 -18 C -12 -12 C -18 -6 C -18 0 C
-18 6 C -6 6 C -6 12 C -60 0 5199 672 L -6 -54 C 6 6 C 18 6 C 18 0 C 18 -6 C 12 -12 C 6 -18 C 0 -12 C -6 -18 C -12 -12 C -18 -6 C
-18 0 C -18 6 C -6 6 C -6 12 C 66 0 5259 672 L -36 -48 C 18 0 C 12 -6 C 6 -6 C 6 -18 C 0 -12 C -6 -18 C -12 -12 C -18 -6 C -18 0 C
-18 6 C -6 6 C -6 12 C -60 -84 5427 672 L 90 0 C 0 -126 5427 672 L 66 0 5499 672 L -36 -48 C 18 0 C 12 -6 C 6 -6 C 6 -18 C 0 -12 C
-6 -18 C -12 -12 C -18 -6 C -18 0 C -18 6 C -6 6 C -6 12 C -6 -6 5619 558 L 6 -6 C 6 6 C -6 6 C -18 -6 5697 672 L -6 -12 C 0 -12 C
6 -12 C 12 -6 C 24 -6 C 18 -6 C 12 -12 C 6 -12 C 0 -18 C -6 -12 C -6 -6 C -18 -6 C -24 0 C -18 6 C -6 6 C -6 12 C 0 18 C 6 12 C
12 12 C 18 6 C 24 6 C 12 6 C 6 12 C 0 12 C -6 12 C -18 6 C -24 0 C 126 0 420 2895 L 0 54 420 2895 L 6 18 C 6 6 C 12 6 C 18 0 C
12 -6 C 6 -6 C 6 -18 C 0 -54 C 6 -12 462 3045 L 12 -12 C 18 -6 C 12 0 C 18 6 C 12 12 C 6 12 C 0 18 C -6 12 C -12 12 C -18 6 C
-12 0 C -18 -6 C -12 -12 C -6 -12 C 0 -18 C -12 -6 480 3195 L -6 -18 C 0 -18 C 6 -18 C 12 -6 C 12 6 C 6 12 C 6 30 C 6 12 C 12 6 C
6 0 C 12 -6 C 6 -18 C 0 -18 C -6 -18 C -12 -6 C 102 0 420 3243 L 18 6 C 6 12 C 0 12 C 0 42 462 3225 L 0 -12 420 3345 L 6 -12 C
18 -6 C 102 0 C 0 42 462 3297 L 6 6 420 3375 L -6 6 C -6 -6 C 6 -6 C 84 0 462 3381 L 102 0 420 3435 L 18 6 C 6 12 C 0 12 C
0 42 462 3417 L 126 0 420 3597 L 0 54 420 3597 L 6 18 C 6 6 C 12 6 C 12 0 C 12 -6 C 6 -6 C 6 -18 C 0 -54 C 66 42 480 3639 L
0 72 498 3717 L -12 0 C -12 -6 C -6 -6 C -6 -12 C 0 -18 C 6 -12 C 12 -12 C 18 -6 C 12 0 C 18 6 C 12 12 C 6 12 C 0 18 C -6 12 C
-12 12 C -12 -6 480 3891 L -6 -18 C 0 -18 C 6 -18 C 12 -6 C 12 6 C 6 12 C 6 30 C 6 12 C 12 6 C 6 0 C 12 -6 C 6 -18 C 0 -18 C
-6 -18 C -12 -6 C 6 6 420 3926 L -6 6 C -6 -6 C 6 -6 C 84 0 462 3932 L 126 0 420 4046 L -12 -12 480 4046 L -6 -12 C 0 -18 C 6 -12 C
12 -12 C 18 -6 C 12 0 C 18 6 C 12 12 C 6 12 C 0 18 C -6 12 C -12 12 C 60 0 462 4094 L 18 6 C 6 12 C 0 18 C -6 12 C -18 18 C
84 0 462 4160 L 84 0 462 4274 L -12 -12 480 4274 L -6 -12 C 0 -18 C 6 -12 C 12 -12 C 18 -6 C 12 0 C 18 6 C 12 12 C 6 12 C 0 18 C
-6 12 C -12 12 C 126 0 420 4322 L 12 -12 396 4508 L 18 -12 C 24 -12 C 30 -6 C 24 0 C 30 6 C 24 12 C 18 12 C 12 12 C
-12 -6 480 4610 L -6 -18 C 0 -18 C 6 -18 C 12 -6 C 12 6 C 6 12 C 6 30 C 6 12 C 12 6 C 6 0 C 12 -6 C 6 -18 C 0 -18 C -6 -18 C
-12 -6 C 0 72 498 4646 L -12 0 C -12 -6 C -6 -6 C -6 -12 C 0 -18 C 6 -12 C 12 -12 C 18 -6 C 12 0 C 18 6 C 12 12 C 6 12 C 0 18 C
-6 12 C -12 12 C -12 -12 480 4826 L -6 -12 C 0 -18 C 6 -12 C 12 -12 C 18 -6 C 12 0 C 18 6 C 12 12 C 6 12 C 0 18 C -6 12 C -12 12 C
12 12 396 4862 L 18 12 C 24 12 C 30 6 C 24 0 C 30 -6 C 24 -12 C 18 -12 C 12 -12 C
1024 0 0 K 0 1024 0 K
/M16 {MB -4 -4 moveto 0 8 rlineto 8 0 rlineto 0 -8                              
rlineto closepath fill ME} bind def                                             
/MFAC      5.999 def    
1665 2282 M16 1718 3255 M16 1858 2698 M16 1870 3004 M16 1877 2466 M16 1896 3638 M16 3164 3164 M16 3180 3179 M16 3247 2984 M16
3368 2815 M16 3457 3079 M16 3476 3123 M16 3595 2927 M16 3597 2754 M16 3640 2452 M16 3664 3528 M16 3671 2745 M16 3726 3634 M16
3878 3635 M16 3956 3287 M16 3971 3125 M16 3991 2681 M16 4011 2712 M16 4021 2729 M16 4030 1814 M16 4083 2541 M16 4097 2853 M16
4100 3035 M16 4113 4270 M16 4119 2916 M16 4135 2954 M16 4138 2304 M16 4157 2446 M16 4179 3369 M16 4199 1986 M16 4217 2455 M16
4237 3351 M16 4245 3225 M16 4264 2213 M16 4333 2954 M16 4381 2869 M16 4383 3205 M16 4423 2974 M16 4435 3140 M16 4438 2536 M16
4440 2726 M16 4459 3016 M16 4474 2958 M16 4493 3038 M16 4502 2763 M16 4519 3454 M16 4531 2825 M16 4541 2663 M16 4560 3201 M16
4576 2264 M16 4581 3504 M16 4619 2745 M16 4629 2549 M16 4655 2370 M16 4664 3031 M16 4684 2118 M16 4707 3290 M16 4728 2968 M16
4743 2715 M16 4777 2435 M16 4794 1780 M16 4817 2735 M16 4839 2761 M16 4884 3009 M16 4903 3274 M16 4928 3112 M16 4939 2953 M16
4983 2753 M16 4986 2624 M16 5002 2738 M16 5017 3430 M16 5040 3028 M16 5064 2888 M16 5089 3036 M16 5133 2930 M16 5166 3673 M16
5200 2602 M16 5205 1964 M16 5230 2695 M16 5259 1834 M16 5264 3059 M16 5293 2249 M16 5302 3269 M16 5336 2598 M16 5370 3973 M16
5400 2963 M16 5429 3774 M16 5465 3297 M16 5519 3126 M16 5617 3206 M16 5632 2477 M16 5645 2955 M16 5680 2583 M16 5717 2752 M16
5755 2640 M16 5821 3342 M16 5826 3131 M16 5853 2849 M16 5857 2788 M16 5870 2966 M16 5883 3004 M16 5900 3092 M16 5931 2821 M16
5939 2469 M16 5953 3026 M16 5994 2442 M16 6003 2936 M16 6044 3328 M16 6084 3335 M16 6107 3150 M16 6148 2330 M16 6187 2601 M16
6226 2826 M16 6262 3211 M16 6291 2943 M16 6318 2757 M16 6367 2910 M16 6374 3507 M16 6386 3591 M16 6391 3051 M16 6399 2543 M16
6427 2778 M16 6430 2194 M16 6449 2525 M16 6480 2796 M16 6489 3158 M16 6525 2887 M16 6538 2533 M16 6558 3191 M16 6579 2483 M16
6594 2882 M16 6624 2525 M16 6636 2836 M16 6639 3149 M16 6689 3898 M16 6732 2903 M16 6739 2025 M16 6779 2757 M16 6804 2988 M16
6810 2759 M16 6831 1625 M16 6868 3046 M16 6912 2153 M16 6923 2798 M16 6927 2305 M16 6936 1744 M16 6963 3037 M16 7023 3324 M16
7043 2786 M16 7060 3155 M16 7089 3322 M16 7122 3093 M16 7143 2986 M16 7177 3086 M16 7203 3580 M16 7210 2330 M16 7217 2875 M16
7241 2851 M16 7292 2697 M16 7487 3633 M16 7575 2716 M16 7644 2592 M16 7651 2667 M16 7677 2999 M16 7697 3006 M16 7751 6174 M16
7758 2006 M16 7805 2714 M16 7835 2710 M16 7884 3899 M16 7899 2939 M16 7971 2672 M16 8028 3053 M16 8053 3161 M16 8068 2422 M16
8130 2471 M16 8166 2815 M16 8211 3458 M16 8263 2755 M16 8268 2667 M16 8303 2269 M16 8318 5155 M16 8385 3016 M16 8451 3138 M16
8453 2364 M16 8503 3422 M16 8521 2962 M16 8553 3914 M16 8571 2650 M16
45 0 1643 1784 L 0 996 1665 1784 L 45 0 1643 2780 L 45 0 1695 2643 L 0 1225 1718 2643 L 45 0 1695 3868 L 45 0 1836 2158 L
0 1080 1858 2158 L 45 0 1836 3238 L 45 0 1848 2593 L 0 822 1870 2593 L 45 0 1848 3415 L 45 0 1855 1658 L 0 1616 1877 1658 L
45 0 1855 3274 L 45 0 1874 2991 L 0 1295 1896 2991 L 45 0 1874 4286 L 45 0 3141 2568 L 0 1192 3164 2568 L 45 0 3141 3760 L
45 0 3158 2090 L 0 2178 3180 2090 L 45 0 3158 4268 L 45 0 3224 2700 L 0 568 3247 2700 L 45 0 3224 3268 L 45 0 3346 2405 L
0 819 3368 2405 L 45 0 3346 3224 L 45 0 3434 2578 L 0 1002 3457 2578 L 45 0 3434 3580 L 45 0 3453 2963 L 0 321 3476 2963 L
45 0 3453 3284 L 45 0 3572 2839 L 0 177 3595 2839 L 45 0 3572 3016 L 45 0 3575 2506 L 0 497 3597 2506 L 45 0 3575 3003 L
45 0 3617 1858 L 0 1187 3640 1858 L 45 0 3617 3045 L 45 0 3641 2908 L 0 1240 3664 2908 L 45 0 3641 4148 L 45 0 3648 2599 L
0 291 3671 2599 L 45 0 3648 2890 L 45 0 3703 3074 L 0 1120 3726 3074 L 45 0 3703 4194 L 45 0 3856 3062 L 0 1146 3878 3062 L
45 0 3856 4208 L 45 0 3934 2702 L 0 1170 3956 2702 L 45 0 3934 3872 L 45 0 3949 2704 L 0 843 3971 2704 L 45 0 3949 3547 L
0 3152 3991 1170 L 45 0 3968 4322 L 45 0 3988 1880 L 0 1665 4011 1880 L 45 0 3988 3545 L 45 0 3998 1950 L 0 1557 4021 1950 L
45 0 3998 3507 L 0 1353 4030 1170 L 45 0 4008 2523 L 45 0 4060 1998 L 0 1086 4083 1998 L 45 0 4060 3084 L 45 0 4075 2742 L
0 221 4097 2742 L 45 0 4075 2963 L 45 0 4077 2851 L 0 369 4100 2851 L 45 0 4077 3220 L 45 0 4091 3192 L 0 2156 4113 3192 L
45 0 4091 5348 L 45 0 4096 2529 L 0 773 4119 2529 L 45 0 4096 3302 L 45 0 4113 2303 L 0 1302 4135 2303 L 45 0 4113 3605 L
45 0 4115 1782 L 0 1044 4138 1782 L 45 0 4115 2826 L 45 0 4134 2050 L 0 792 4157 2050 L 45 0 4134 2842 L 45 0 4156 3007 L
0 725 4179 3007 L 45 0 4156 3732 L 0 2849 4199 1170 L 45 0 4177 4019 L 45 0 4194 1484 L 0 1942 4217 1484 L 45 0 4194 3426 L
45 0 4215 2733 L 0 1236 4237 2733 L 45 0 4215 3969 L 45 0 4222 2662 L 0 1126 4245 2662 L 45 0 4222 3788 L 45 0 4242 1563 L
0 1300 4264 1563 L 45 0 4242 2863 L 45 0 4310 2691 L 0 525 4333 2691 L 45 0 4310 3216 L 45 0 4359 2124 L 0 1490 4381 2124 L
45 0 4359 3614 L 45 0 4360 2823 L 0 765 4383 2823 L 45 0 4360 3588 L 45 0 4401 2740 L 0 468 4423 2740 L 45 0 4401 3208 L
45 0 4413 2773 L 0 734 4435 2773 L 45 0 4413 3507 L 45 0 4415 2274 L 0 523 4438 2274 L 45 0 4415 2797 L 45 0 4417 2379 L
0 694 4440 2379 L 45 0 4417 3073 L 45 0 4436 2804 L 0 424 4459 2804 L 45 0 4436 3228 L 45 0 4452 2671 L 0 574 4474 2671 L
45 0 4452 3245 L 45 0 4470 2792 L 0 491 4493 2792 L 45 0 4470 3283 L 45 0 4480 2640 L 0 246 4502 2640 L 45 0 4480 2886 L
45 0 4497 3110 L 0 688 4519 3110 L 45 0 4497 3798 L 45 0 4508 2637 L 0 376 4531 2637 L 45 0 4508 3013 L 45 0 4518 2436 L
0 454 4541 2436 L 45 0 4518 2890 L 45 0 4537 2917 L 0 567 4560 2917 L 45 0 4537 3484 L 45 0 4553 1998 L 0 533 4576 1998 L
45 0 4553 2531 L 45 0 4558 3160 L 0 688 4581 3160 L 45 0 4558 3848 L 45 0 4596 2495 L 0 501 4619 2495 L 45 0 4596 2996 L
45 0 4606 2144 L 0 810 4629 2144 L 45 0 4606 2954 L 45 0 4633 1804 L 0 1133 4655 1804 L 45 0 4633 2937 L 45 0 4642 2892 L
0 278 4664 2892 L 45 0 4642 3170 L 45 0 4661 1688 L 0 860 4684 1688 L 45 0 4661 2548 L 45 0 4685 2985 L 0 609 4707 2985 L
45 0 4685 3594 L 45 0 4705 2695 L 0 547 4728 2695 L 45 0 4705 3242 L 45 0 4721 2471 L 0 487 4743 2471 L 45 0 4721 2958 L
45 0 4754 1892 L 0 1086 4777 1892 L 45 0 4754 2978 L 45 0 4772 1198 L 0 1164 4794 1198 L 45 0 4772 2362 L 45 0 4794 2287 L
0 896 4817 2287 L 45 0 4794 3183 L 45 0 4816 2072 L 0 1378 4839 2072 L 45 0 4816 3450 L 45 0 4861 2738 L 0 542 4884 2738 L
45 0 4861 3280 L 45 0 4880 2874 L 0 800 4903 2874 L 45 0 4880 3674 L 45 0 4906 2808 L 0 608 4928 2808 L 45 0 4906 3416 L
45 0 4916 2644 L 0 618 4939 2644 L 45 0 4916 3262 L 45 0 4961 2539 L 0 428 4983 2539 L 45 0 4961 2967 L 45 0 4964 2356 L
0 535 4986 2356 L 45 0 4964 2891 L 45 0 4979 2379 L 0 717 5002 2379 L 45 0 4979 3096 L 45 0 4995 2514 L 0 1832 5017 2514 L
45 0 4995 4346 L 45 0 5018 2781 L 0 494 5040 2781 L 45 0 5018 3275 L 45 0 5042 2493 L 0 791 5064 2493 L 45 0 5042 3284 L
45 0 5066 2546 L 0 979 5089 2546 L 45 0 5066 3525 L 45 0 5111 2739 L 0 383 5133 2739 L 45 0 5111 3122 L 45 0 5144 3239 L
0 868 5166 3239 L 45 0 5144 4107 L 45 0 5177 2485 L 0 235 5200 2485 L 45 0 5177 2720 L 45 0 5182 1339 L 0 1249 5205 1339 L
45 0 5182 2588 L 45 0 5208 2215 L 0 960 5230 2215 L 45 0 5208 3175 L 0 1346 5259 1170 L 45 0 5236 2516 L 45 0 5242 2871 L
0 376 5264 2871 L 45 0 5242 3247 L 45 0 5271 1421 L 0 1656 5293 1421 L 45 0 5271 3077 L 45 0 5280 2904 L 0 731 5302 2904 L
45 0 5280 3635 L 45 0 5314 1975 L 0 1245 5336 1975 L 45 0 5314 3220 L 45 0 5347 3385 L 0 1175 5370 3385 L 45 0 5347 4560 L
45 0 5378 2733 L 0 459 5400 2733 L 45 0 5378 3192 L 45 0 5407 3366 L 0 815 5429 3366 L 45 0 5407 4181 L 45 0 5442 2868 L
0 857 5465 2868 L 45 0 5442 3725 L 45 0 5497 2894 L 0 464 5519 2894 L 45 0 5497 3358 L 45 0 5594 2939 L 0 534 5617 2939 L
45 0 5594 3473 L 45 0 5609 2130 L 0 694 5632 2130 L 45 0 5609 2824 L 45 0 5623 2338 L 0 1234 5645 2338 L 45 0 5623 3572 L
45 0 5658 2257 L 0 652 5680 2257 L 45 0 5658 2909 L 45 0 5695 2423 L 0 659 5717 2423 L 45 0 5695 3082 L 45 0 5733 2370 L
0 540 5755 2370 L 45 0 5733 2910 L 45 0 5798 3087 L 0 509 5821 3087 L 45 0 5798 3596 L 45 0 5804 2891 L 0 480 5826 2891 L
45 0 5804 3371 L 45 0 5830 2599 L 0 500 5853 2599 L 45 0 5830 3099 L 45 0 5835 2606 L 0 364 5857 2606 L 45 0 5835 2970 L
45 0 5847 2625 L 0 681 5870 2625 L 45 0 5847 3306 L 45 0 5861 2848 L 0 312 5883 2848 L 45 0 5861 3160 L 45 0 5877 2885 L
0 414 5900 2885 L 45 0 5877 3299 L 45 0 5909 2607 L 0 428 5931 2607 L 45 0 5909 3035 L 45 0 5916 1986 L 0 966 5939 1986 L
45 0 5916 2952 L 45 0 5931 2373 L 0 1305 5953 2373 L 45 0 5931 3678 L 45 0 5971 2118 L 0 648 5994 2118 L 45 0 5971 2766 L
45 0 5980 2818 L 0 235 6003 2818 L 45 0 5980 3053 L 45 0 6021 3025 L 0 606 6044 3025 L 45 0 6021 3631 L 45 0 6062 2899 L
0 872 6084 2899 L 45 0 6062 3771 L 45 0 6085 2952 L 0 395 6107 2952 L 45 0 6085 3347 L 45 0 6126 1954 L 0 751 6148 1954 L
45 0 6126 2705 L 45 0 6164 2259 L 0 684 6187 2259 L 45 0 6164 2943 L 45 0 6204 2686 L 0 281 6226 2686 L 45 0 6204 2967 L
45 0 6240 2922 L 0 578 6262 2922 L 45 0 6240 3500 L 45 0 6269 2561 L 0 763 6291 2561 L 45 0 6269 3324 L 45 0 6295 1835 L
0 1845 6318 1835 L 45 0 6295 3680 L 45 0 6344 2662 L 0 496 6367 2662 L 45 0 6344 3158 L 45 0 6352 2829 L 0 1357 6374 2829 L
45 0 6352 4186 L 45 0 6364 2942 L 0 1299 6386 2942 L 45 0 6364 4241 L 45 0 6368 2645 L 0 812 6391 2645 L 45 0 6368 3457 L
45 0 6376 2191 L 0 705 6399 2191 L 45 0 6376 2896 L 45 0 6404 2569 L 0 418 6427 2569 L 45 0 6404 2987 L 45 0 6407 1517 L
0 1354 6430 1517 L 45 0 6407 2871 L 45 0 6426 2156 L 0 737 6449 2156 L 45 0 6426 2893 L 45 0 6457 2352 L 0 889 6480 2352 L
45 0 6457 3241 L 45 0 6466 2774 L 0 769 6489 2774 L 45 0 6466 3543 L 45 0 6502 2666 L 0 441 6525 2666 L 45 0 6502 3107 L
45 0 6516 1846 L 0 1374 6538 1846 L 45 0 6516 3220 L 45 0 6535 2949 L 0 483 6558 2949 L 45 0 6535 3432 L 45 0 6556 1916 L
0 1133 6579 1916 L 45 0 6556 3049 L 45 0 6571 2553 L 0 657 6594 2553 L 45 0 6571 3210 L 45 0 6602 2023 L 0 1004 6624 2023 L
45 0 6602 3027 L 45 0 6614 2634 L 0 403 6636 2634 L 45 0 6614 3037 L 45 0 6616 2654 L 0 989 6639 2654 L 45 0 6616 3643 L
45 0 6666 2148 L 0 3499 6689 2148 L 45 0 6666 5647 L 44 0 6710 2666 L 0 474 6732 2666 L 44 0 6710 3140 L 0 1715 6739 1170 L
45 0 6716 2885 L 45 0 6757 1952 L 0 1610 6779 1952 L 45 0 6757 3562 L 45 0 6781 2777 L 0 421 6804 2777 L 45 0 6781 3198 L
45 0 6788 2134 L 0 1251 6810 2134 L 45 0 6788 3385 L 0 1318 6831 1170 L 45 0 6809 2488 L 45 0 6845 2826 L 0 441 6868 2826 L
45 0 6845 3267 L 45 0 6890 1775 L 0 757 6912 1775 L 45 0 6890 2532 L 45 0 6900 2487 L 0 622 6923 2487 L 45 0 6900 3109 L
0 2676 6927 1170 L 45 0 6904 3846 L 0 1611 6936 1170 L 45 0 6914 2781 L 45 0 6941 2624 L 0 826 6963 2624 L 45 0 6941 3450 L
45 0 7000 2896 L 0 857 7023 2896 L 45 0 7000 3753 L 45 0 7021 2171 L 0 1229 7043 2171 L 45 0 7021 3400 L 45 0 7037 2731 L
0 847 7060 2731 L 45 0 7037 3578 L 45 0 7066 2939 L 0 766 7089 2939 L 45 0 7066 3705 L 45 0 7099 2904 L 0 378 7122 2904 L
45 0 7099 3282 L 45 0 7121 2161 L 0 1650 7143 2161 L 45 0 7121 3811 L 45 0 7154 2364 L 0 1443 7177 2364 L 45 0 7154 3807 L
44 0 7181 2796 L 0 1567 7203 2796 L 44 0 7181 4363 L 0 2485 7210 1170 L 45 0 7188 3655 L 45 0 7195 2164 L 0 1422 7217 2164 L
45 0 7195 3586 L 45 0 7219 2086 L 0 1529 7241 2086 L 45 0 7219 3615 L 45 0 7269 2402 L 0 589 7292 2402 L 45 0 7269 2991 L
45 0 7465 3334 L 0 597 7487 3334 L 45 0 7465 3931 L 45 0 7553 2471 L 0 490 7575 2471 L 45 0 7553 2961 L 45 0 7621 1753 L
0 1677 7644 1753 L 45 0 7621 3430 L 45 0 7629 2427 L 0 479 7651 2427 L 45 0 7629 2906 L 45 0 7654 2384 L 0 1230 7677 2384 L
45 0 7654 3614 L 45 0 7674 2613 L 0 787 7697 2613 L 45 0 7674 3400 L 45 0 7728 5124 L 0 1505 7751 5124 L 0 1982 7758 1170 L
45 0 7735 3152 L 45 0 7783 2456 L 0 516 7805 2456 L 45 0 7783 2972 L 45 0 7812 2365 L 0 689 7835 2365 L 45 0 7812 3054 L
45 0 7862 2888 L 0 2022 7884 2888 L 45 0 7862 4910 L 45 0 7877 2604 L 0 670 7899 2604 L 45 0 7877 3274 L 45 0 7948 2393 L
0 557 7971 2393 L 45 0 7948 2950 L 45 0 8005 2719 L 0 668 8028 2719 L 45 0 8005 3387 L 45 0 8031 2213 L 0 1896 8053 2213 L
45 0 8031 4109 L 45 0 8046 1885 L 0 1074 8068 1885 L 45 0 8046 2959 L 45 0 8107 1192 L 0 2558 8130 1192 L 45 0 8107 3750 L
45 0 8143 2640 L 0 350 8166 2640 L 45 0 8143 2990 L 45 0 8189 2980 L 0 956 8211 2980 L 45 0 8189 3936 L 45 0 8240 1718 L
0 2074 8263 1718 L 45 0 8240 3792 L 45 0 8246 2435 L 0 465 8268 2435 L 45 0 8246 2900 L 45 0 8281 1395 L 0 1749 8303 1395 L
45 0 8281 3144 L 45 0 8295 3763 L 0 2784 8318 3763 L 45 0 8295 6547 L 45 0 8362 2662 L 0 709 8385 2662 L 45 0 8362 3371 L
45 0 8429 2598 L 0 1080 8451 2598 L 45 0 8429 3678 L 45 0 8431 1377 L 0 1974 8453 1377 L 45 0 8431 3351 L 45 0 8481 2716 L
0 1411 8503 2716 L 45 0 8481 4127 L 45 0 8498 2669 L 0 587 8521 2669 L 45 0 8498 3256 L 45 0 8531 2863 L 0 2101 8553 2863 L
45 0 8531 4964 L 45 0 8548 2074 L 0 1152 8571 2074 L 45 0 8548 3226 L
1024 0 1024 K 0 1024 1024 K 0 0 0 K
PGPLOT restore showpage
%%PageTrailer
%%PageBoundingBox: 24 17 588 721
 
%%Trailer
%%BoundingBox: 24 17 588 721
%%DocumentFonts: 
%%Pages: 1
%%EOF
