%!PS-Adobe-3.0 EPSF-3.0
%%For: bperera
%%Title: PGPLOT PostScript plot
%%Creator: PGPLOT [PSDRIV 6.6]
%%CreationDate:  6-Jun-2016 12:00
%%BoundingBox: (atend)
%%DocumentFonts: (atend)
%%LanguageLevel: 1
%%Orientation: Landscape
%%Pages: (atend)
%%EndComments
%%BeginProlog
/L {moveto rlineto currentpoint stroke moveto} bind def
/C {rlineto currentpoint stroke moveto} bind def
/D {moveto 0 0 rlineto currentpoint stroke moveto} bind def
/LW {5 mul setlinewidth} bind def
/BP {newpath moveto} bind def
/LP /rlineto load def
/EP {rlineto closepath eofill} bind def
/MB {gsave translate MFAC dup scale 1 setlinewidth 2 setlinecap 0 setlinejoin newpath} bind def
/ME /grestore load def
/CC {0 360 arc stroke} bind def
/FC {0 360 arc fill} bind def
/G {1024 div setgray} bind def
/K {3 -1 roll 1024 div 3 -1 roll 1024 div 3 -1 roll 1024 div setrgbcolor} bind def
% Uncomment next line to convert color to grey shades
%/K {3 -1 roll 3413 div 3 -1 roll 1739 div 3 -1 roll 9309 div add add setgray} bind def
%%EndProlog
%%BeginSetup
/#copies 1 def
%%EndSetup
 
%%Page: 1 1
%%BeginPageSetup
/PGPLOT save def
0.072 0.072 scale
8149 250 translate 90 rotate
1 setlinejoin 1 setlinecap 1 LW 1
%%EndPageSetup
%%PageBoundingBox: (atend)
1024 1024 1024 K 1 LW 0 0 BP 9749 0 LP 0 7799 LP -9749 0 EP 0 0 0 K
8286 0 975 1170 L -8286 0 9261 6629 L 0 -5459 C 0 45 1015 1170 L 0 45 1330 1170 L 0 45 1646 1170 L 0 90 1962 1170 L 0 45 2277 1170 L
0 45 2593 1170 L 0 45 2909 1170 L 0 45 3224 1170 L 0 90 3540 1170 L 0 45 3856 1170 L 0 45 4171 1170 L 0 45 4487 1170 L
0 45 4802 1170 L 0 90 5118 1170 L 0 45 5434 1170 L 0 45 5749 1170 L 0 45 6065 1170 L 0 45 6381 1170 L 0 90 6696 1170 L
0 45 7012 1170 L 0 45 7328 1170 L 0 45 7643 1170 L 0 45 7959 1170 L 0 90 8274 1170 L 0 45 8590 1170 L 0 45 8906 1170 L
0 45 9221 1170 L 0 45 1015 6584 L 0 45 1330 6584 L 0 45 1646 6584 L 0 90 1962 6539 L 0 45 2277 6584 L 0 45 2593 6584 L
0 45 2909 6584 L 0 45 3224 6584 L 0 90 3540 6539 L 0 45 3856 6584 L 0 45 4171 6584 L 0 45 4487 6584 L 0 45 4802 6584 L
0 90 5118 6539 L 0 45 5434 6584 L 0 45 5749 6584 L 0 45 6065 6584 L 0 45 6381 6584 L 0 90 6696 6539 L 0 45 7012 6584 L
0 45 7328 6584 L 0 45 7643 6584 L 0 45 7959 6584 L 0 90 8274 6539 L 0 45 8590 6584 L 0 45 8906 6584 L 0 45 9221 6584 L
108 0 1668 990 L 12 6 1836 1038 L 18 18 C 0 -126 C -18 -6 1974 1062 L -12 -18 C -6 -30 C 0 -18 C 6 -30 C 12 -18 C 18 -6 C 12 0 C
18 6 C 12 18 C 6 30 C 0 18 C -6 30 C -12 18 C -18 6 C -12 0 C -18 -6 2094 1062 L -12 -18 C -6 -30 C 0 -18 C 6 -30 C 12 -18 C 18 -6 C
12 0 C 18 6 C 12 18 C 6 30 C 0 18 C -6 30 C -12 18 C -18 6 C -12 0 C -18 -6 2214 1062 L -12 -18 C -6 -30 C 0 -18 C 6 -30 C 12 -18 C
18 -6 C 12 0 C 18 6 C 12 18 C 6 30 C 0 18 C -6 30 C -12 18 C -18 6 C -12 0 C 108 0 3306 990 L -60 0 3528 1062 L -6 -54 C 6 6 C
18 6 C 18 0 C 18 -6 C 12 -12 C 6 -18 C 0 -12 C -6 -18 C -12 -12 C -18 -6 C -18 0 C -18 6 C -6 6 C -6 12 C -18 -6 3612 1062 L
-12 -18 C -6 -30 C 0 -18 C 6 -30 C 12 -18 C 18 -6 C 12 0 C 18 6 C 12 18 C 6 30 C 0 18 C -6 30 C -12 18 C -18 6 C -12 0 C
-18 -6 3732 1062 L -12 -18 C -6 -30 C 0 -18 C 6 -30 C 12 -18 C 18 -6 C 12 0 C 18 6 C 12 18 C 6 30 C 0 18 C -6 30 C -12 18 C -18 6 C
-12 0 C -18 -6 5112 1062 L -12 -18 C -6 -30 C 0 -18 C 6 -30 C 12 -18 C 18 -6 C 12 0 C 18 6 C 12 18 C 6 30 C 0 18 C -6 30 C -12 18 C
-18 6 C -12 0 C -60 0 6606 1062 L -6 -54 C 6 6 C 18 6 C 18 0 C 18 -6 C 12 -12 C 6 -18 C 0 -12 C -6 -18 C -12 -12 C -18 -6 C -18 0 C
-18 6 C -6 6 C -6 12 C -18 -6 6690 1062 L -12 -18 C -6 -30 C 0 -18 C 6 -30 C 12 -18 C 18 -6 C 12 0 C 18 6 C 12 18 C 6 30 C 0 18 C
-6 30 C -12 18 C -18 6 C -12 0 C -18 -6 6810 1062 L -12 -18 C -6 -30 C 0 -18 C 6 -30 C 12 -18 C 18 -6 C 12 0 C 18 6 C 12 18 C 6 30 C
0 18 C -6 30 C -12 18 C -18 6 C -12 0 C 12 6 8070 1038 L 18 18 C 0 -126 C -18 -6 8208 1062 L -12 -18 C -6 -30 C 0 -18 C 6 -30 C
12 -18 C 18 -6 C 12 0 C 18 6 C 12 18 C 6 30 C 0 18 C -6 30 C -12 18 C -18 6 C -12 0 C -18 -6 8328 1062 L -12 -18 C -6 -30 C 0 -18 C
6 -30 C 12 -18 C 18 -6 C 12 0 C 18 6 C 12 18 C 6 30 C 0 18 C -6 30 C -12 18 C -18 6 C -12 0 C -18 -6 8448 1062 L -12 -18 C -6 -30 C
0 -18 C 6 -30 C 12 -18 C 18 -6 C 12 0 C 18 6 C 12 18 C 6 30 C 0 18 C -6 30 C -12 18 C -18 6 C -12 0 C 45 0 975 1323 L
90 0 975 1987 L 45 0 975 2651 L 90 0 975 3315 L 45 0 975 3979 L 90 0 975 4642 L 45 0 975 5306 L 90 0 975 5970 L 0 108 784 1604 L
84 -60 712 1814 L 0 90 C 126 0 712 1814 L 84 84 742 1880 L 84 -84 742 1964 L -6 12 736 2024 L -18 18 C 126 0 C 6 -18 712 2162 L
18 -12 C 30 -6 C 18 0 C 30 6 C 18 12 C 6 18 C 0 12 C -6 18 C -18 12 C -30 6 C -18 0 C -30 -6 C -18 -12 C -6 -18 C 0 -12 C
0 81 702 2246 L 0 -45 648 2412 L 40 -4 C -4 4 C -5 14 C 0 13 C 5 14 C 9 9 C 13 4 C 9 0 C 14 -4 C 9 -9 C 4 -14 C 0 -13 C -4 -14 C
-5 -4 C -9 -5 C 0 108 784 2932 L -6 0 742 3088 L -12 6 C -6 6 C -6 12 C 0 24 C 6 12 C 6 6 C 12 6 C 12 0 C 12 -6 C 18 -12 C 60 -60 C
0 84 C 84 84 742 3208 L 84 -84 742 3292 L -6 12 736 3352 L -18 18 C 126 0 C 6 -18 712 3490 L 18 -12 C 30 -6 C 18 0 C 30 6 C 18 12 C
6 18 C 0 12 C -6 18 C -18 12 C -30 6 C -18 0 C -30 -6 C -18 -12 C -6 -18 C 0 -12 C 0 81 702 3574 L 0 -45 648 3740 L 40 -4 C -4 4 C
-5 14 C 0 13 C 5 14 C 9 9 C 13 4 C 9 0 C 14 -4 C 9 -9 C 4 -14 C 0 -13 C -4 -14 C -5 -4 C -9 -5 C 6 -18 712 4636 L 18 -12 C 30 -6 C
18 0 C 30 6 C 18 12 C 6 18 C 0 12 C -6 18 C -18 12 C -30 6 C -18 0 C -30 -6 C -18 -12 C -6 -18 C 0 -12 C -6 0 742 5666 L -12 6 C
-6 6 C -6 12 C 0 24 C 6 12 C 6 6 C 12 6 C 12 0 C 12 -6 C 18 -12 C 60 -60 C 0 84 C 84 84 742 5786 L 84 -84 742 5870 L
-6 12 736 5930 L -18 18 C 126 0 C 6 -18 712 6068 L 18 -12 C 30 -6 C 18 0 C 30 6 C 18 12 C 6 18 C 0 12 C -6 18 C -18 12 C -30 6 C
-18 0 C -30 -6 C -18 -12 C -6 -18 C 0 -12 C 0 80 702 6152 L 0 -45 648 6318 L 40 -5 C -4 5 C -5 13 C 0 14 C 5 13 C 9 9 C 13 5 C 9 0 C
14 -5 C 9 -9 C 4 -13 C 0 -14 C -4 -13 C -5 -5 C -9 -4 C
0 5459 9261 1170 L -48 0 9261 1665 L -97 0 9261 2161 L 0 108 9461 1779 L 0 -60 9389 2001 L 54 -6 C -6 6 C -6 18 C 0 18 C 6 18 C
12 12 C 18 6 C 12 0 C 18 -6 C 12 -12 C 6 -18 C 0 -18 C -6 -18 C -6 -6 C -12 -6 C 84 84 9419 2055 L 84 -84 9419 2139 L
-6 12 9413 2199 L -18 17 C 126 0 C 6 -18 9389 2336 L 18 -12 C 30 -6 C 18 0 C 30 6 C 18 12 C 6 18 C 0 12 C -6 18 C -18 12 C -30 6 C
-18 0 C -30 -6 C -18 -12 C -6 -18 C 0 -12 C 0 81 9378 2420 L 0 49 9324 2542 L 36 -27 C 0 14 C 5 9 C 4 4 C 14 5 C 9 0 C 13 -5 C
9 -9 C 5 -13 C 0 -14 C -5 -13 C -4 -5 C -9 -4 C -48 0 9261 2658 L -48 0 9261 3154 L -48 0 9261 3650 L -48 0 9261 4146 L
-97 0 9261 4642 L 6 -18 9389 4636 L 18 -12 C 30 -6 C 18 0 C 30 6 C 18 12 C 6 18 C 0 12 C -6 18 C -18 12 C -30 6 C -18 0 C -30 -6 C
-18 -12 C -6 -18 C 0 -12 C -48 0 9261 5139 L -48 0 9261 5635 L -48 0 9261 6131 L -48 0 9261 6627 L
61 0 9688 2730 L 0 54 9688 2730 L 6 18 C 6 6 C 12 6 C 12 0 C 12 -6 C 6 -6 C 6 -18 C 0 -54 C 1 0 9748 2772 L -7 -3 9749 2919 L
-6 -6 C -6 -12 C 0 -18 C 6 -12 C 12 -12 C 1 -1 C -12 -6 9748 3024 L -6 -18 C 0 -18 C 6 -18 C 12 -6 C 1 0 C 6 6 9688 3060 L -6 6 C
-6 -6 C 6 -6 C 19 0 9730 3066 L 61 0 9688 3180 L -12 -12 9748 3180 L -6 -12 C 0 -18 C 6 -12 C 12 -12 C 1 -1 C 19 0 9730 3228 L
19 0 9730 3294 L 19 0 9730 3408 L -12 -12 9748 3408 L -6 -12 C 0 -18 C 6 -12 C 12 -12 C 1 -1 C 61 0 9688 3456 L 6 6 9688 3594 L
-6 6 C -6 -6 C 6 -6 C 19 0 9730 3600 L 19 0 9730 3648 L -13 14 9749 3652 L -6 12 C 0 18 C 6 12 C 13 4 C 19 0 9730 3858 L
-12 12 9748 3858 L -6 12 C 0 18 C 6 11 C 12 12 C 1 1 C 19 0 9730 3971 L 19 0 9730 4037 L 61 0 9688 4085 L -12 -6 9748 4193 L
-6 -18 C 0 -18 C 6 -18 C 12 -6 C 1 1 C -7 -4 9749 4299 L -6 -6 C -6 -12 C 0 -18 C 6 -12 C 12 -12 C 1 0 C 19 0 9730 4439 L
-12 12 9748 4439 L -6 12 C 0 18 C 6 12 C 12 12 C 1 1 C -7 -4 9749 4617 L -6 -6 C -6 -12 C 0 -18 C 6 -12 C 12 -12 C 1 0 C
19 0 9730 4661 L -1 0 9749 4667 L -12 12 C -6 12 C 0 18 C 6 6 9688 4733 L -6 6 C -6 -6 C 6 -6 C 19 0 9730 4739 L 6 -12 9730 4811 L
12 -12 C 1 0 C -1 -1 9749 4854 L -12 -12 C -6 -12 C 0 -18 C 61 0 9688 4967 L -12 -12 9748 4967 L -6 -12 C 0 -18 C 6 -12 C 12 -12 C
1 0 C -12 -6 9748 5075 L -6 -18 C 0 -18 C 6 -18 C 12 -6 C 1 1 C
0 -96 3171 7145 L -6 -18 C -6 -6 C -12 -6 C -12 0 C -12 6 C -6 6 C -6 18 C 0 12 C 12 6 3231 7121 L 18 18 C 0 -126 C
-18 -6 3369 7145 L -12 -18 C -6 -30 C 0 -18 C 6 -30 C 12 -18 C 18 -6 C 12 0 C 18 6 C 12 18 C 6 30 C 0 18 C -6 30 C -12 18 C -18 6 C
-12 0 C -60 -84 3513 7145 L 90 0 C 0 -126 3513 7145 L -60 0 3645 7145 L -6 -54 C 6 6 C 18 6 C 18 0 C 18 -6 C 12 -12 C 6 -18 C
0 -12 C -6 -18 C -12 -12 C -18 -6 C -18 0 C -18 6 C -6 6 C -6 12 C 108 0 3699 7073 L -60 -84 3909 7145 L 90 0 C 0 -126 3909 7145 L
-60 0 4041 7145 L -6 -54 C 6 6 C 18 6 C 18 0 C 18 -6 C 12 -12 C 6 -18 C 0 -12 C -6 -18 C -12 -12 C -18 -6 C -18 0 C -18 6 C -6 6 C
-6 12 C -18 -6 4125 7145 L -12 -18 C -6 -30 C 0 -18 C 6 -30 C 12 -18 C 18 -6 C 12 0 C 18 6 C 12 18 C 6 30 C 0 18 C -6 30 C -12 18 C
-18 6 C -12 0 C -6 -18 4287 7103 L -12 -12 C -18 -6 C -6 0 C -18 6 C -12 12 C -6 18 C 0 6 C 6 18 C 12 12 C 18 6 C 6 0 C 18 -6 C
12 -12 C 6 -24 C 0 -30 C -6 -30 C -12 -18 C -18 -6 C -12 0 C -18 6 C -6 12 C -12 -12 4473 7169 L -12 -18 C -12 -24 C -6 -30 C
0 -24 C 6 -30 C 12 -24 C 12 -18 C 12 -12 C 30 -126 4503 7145 L -30 -126 4563 7145 L 30 -126 4563 7145 L -30 -126 4623 7145 L
0 -84 4659 7103 L 6 18 4659 7067 L 12 12 C 12 6 C 18 0 C 0 -84 4737 7103 L 18 18 4737 7079 L 12 6 C 18 0 C 12 -6 C 6 -18 C 0 -60 C
18 18 4803 7079 L 12 6 C 18 0 C 12 -6 C 6 -18 C 0 -60 C -6 12 4977 7085 L -18 6 C -18 0 C -18 -6 C -6 -12 C 6 -12 C 12 -6 C 30 -6 C
12 -6 C 6 -12 C 0 -6 C -6 -12 C -18 -6 C -18 0 C -18 6 C -6 12 C 108 0 5115 7091 L 108 0 5115 7055 L 66 0 5373 7145 L -36 -48 C
18 0 C 12 -6 C 6 -6 C 6 -18 C 0 -12 C -6 -18 C -12 -12 C -18 -6 C -18 0 C -18 6 C -6 6 C -6 12 C -6 -6 5493 7031 L 6 -6 C 6 6 C
-6 6 C -60 -84 5601 7145 L 90 0 C 0 -126 5601 7145 L -6 12 5739 7127 L -18 6 C -12 0 C -18 -6 C -12 -18 C -6 -30 C 0 -30 C 6 -24 C
12 -12 C 18 -6 C 6 0 C 18 6 C 12 12 C 6 18 C 0 6 C -6 18 C -12 12 C -18 6 C -6 0 C -18 -6 C -12 -12 C -6 -18 C -18 -6 5817 7145 L
-12 -18 C -6 -30 C 0 -18 C 6 -30 C 12 -18 C 18 -6 C 12 0 C 18 6 C 12 18 C 6 30 C 0 18 C -6 30 C -12 18 C -18 6 C -12 0 C
-36 -126 6021 7103 L -6 -30 6015 7079 L 0 -18 C 12 -12 C 12 0 C 12 6 C 12 12 C 12 24 C -12 -42 6081 7103 L -6 -24 C 0 -12 C 6 -6 C
12 0 C 12 12 C 6 12 C -6 12 6189 7085 L -18 6 C -18 0 C -18 -6 C -6 -12 C 6 -12 C 12 -6 C 30 -6 C 12 -6 C 6 -12 C 0 -6 C -6 -12 C
-18 -6 C -18 0 C -18 6 C -6 12 C 12 -12 6225 7169 L 12 -18 C 12 -24 C 6 -30 C 0 -24 C -6 -30 C -12 -24 C -12 -18 C -12 -12 C
0 -126 6411 7103 L 12 12 6411 7085 L 12 6 C 18 0 C 12 -6 C 12 -12 C 6 -18 C 0 -12 C -6 -18 C -12 -12 C -12 -6 C -18 0 C -12 6 C
-12 12 C -12 -6 6549 7103 L -12 -12 C -6 -18 C 0 -12 C 6 -18 C 12 -12 C 12 -6 C 18 0 C 12 6 C 12 12 C 6 18 C 0 12 C -6 18 C -12 12 C
-12 6 C -18 0 C -6 12 6699 7085 L -18 6 C -18 0 C -18 -6 C -6 -12 C 6 -12 C 12 -6 C 30 -6 C 12 -6 C 6 -12 C 0 -6 C -6 -12 C -18 -6 C
-18 0 C -18 6 C -6 12 C 0 -102 6747 7145 L 6 -18 C 12 -6 C 12 0 C 42 0 6729 7103 L 108 0 6813 7073 L -12 0 7005 7145 L -12 -6 C
-6 -18 C 0 -102 C 42 0 6957 7103 L 6 -6 7035 7145 L 6 6 C -6 6 C -6 -6 C 0 -84 7041 7103 L 0 -102 7095 7145 L 6 -18 C 12 -6 C 12 0 C
42 0 7077 7103 L 0 -126 4491 672 L 48 -126 4491 672 L -48 -126 4587 672 L 0 -126 4587 672 L 0 -96 4683 672 L -6 -18 C -6 -6 C
-12 -6 C -12 0 C -12 6 C -6 6 C -6 18 C 0 12 C 0 -126 4731 672 L 42 0 4731 672 L 18 -6 C 12 -12 C 6 -12 C 6 -18 C 0 -30 C -6 -18 C
-6 -12 C -12 -12 C -18 -6 C -42 0 C 108 0 4857 600 L -60 0 5079 672 L -6 -54 C 6 6 C 18 6 C 18 0 C 18 -6 C 12 -12 C 6 -18 C 0 -12 C
-6 -18 C -12 -12 C -18 -6 C -18 0 C -18 6 C -6 6 C -6 12 C -60 -84 5187 672 L 90 0 C 0 -126 5187 672 L -60 0 5319 672 L -6 -54 C
6 6 C 18 6 C 18 0 C 18 -6 C 12 -12 C 6 -18 C 0 -12 C -6 -18 C -12 -12 C -18 -6 C -18 0 C -18 6 C -6 6 C -6 12 C 0 6 5373 642 L
6 12 C 6 6 C 12 6 C 24 0 C 12 -6 C 6 -6 C 6 -12 C 0 -12 C -6 -12 C -12 -18 C -60 -60 C 84 0 C -60 0 5559 672 L -6 -54 C 6 6 C 18 6 C
18 0 C 18 -6 C 12 -12 C 6 -18 C 0 -12 C -6 -18 C -12 -12 C -18 -6 C -18 0 C -18 6 C -6 6 C -6 12 C -6 -6 5619 558 L 6 -6 C 6 6 C
-6 6 C -60 -126 5751 672 L 84 0 5667 672 L 126 0 420 2895 L 0 54 420 2895 L 6 18 C 6 6 C 12 6 C 18 0 C 12 -6 C 6 -6 C 6 -18 C
0 -54 C 6 -12 462 3045 L 12 -12 C 18 -6 C 12 0 C 18 6 C 12 12 C 6 12 C 0 18 C -6 12 C -12 12 C -18 6 C -12 0 C -18 -6 C -12 -12 C
-6 -12 C 0 -18 C -12 -6 480 3195 L -6 -18 C 0 -18 C 6 -18 C 12 -6 C 12 6 C 6 12 C 6 30 C 6 12 C 12 6 C 6 0 C 12 -6 C 6 -18 C 0 -18 C
-6 -18 C -12 -6 C 102 0 420 3243 L 18 6 C 6 12 C 0 12 C 0 42 462 3225 L 0 -12 420 3345 L 6 -12 C 18 -6 C 102 0 C 0 42 462 3297 L
6 6 420 3375 L -6 6 C -6 -6 C 6 -6 C 84 0 462 3381 L 102 0 420 3435 L 18 6 C 6 12 C 0 12 C 0 42 462 3417 L 126 0 420 3597 L
0 54 420 3597 L 6 18 C 6 6 C 12 6 C 12 0 C 12 -6 C 6 -6 C 6 -18 C 0 -54 C 66 42 480 3639 L 0 72 498 3717 L -12 0 C -12 -6 C -6 -6 C
-6 -12 C 0 -18 C 6 -12 C 12 -12 C 18 -6 C 12 0 C 18 6 C 12 12 C 6 12 C 0 18 C -6 12 C -12 12 C -12 -6 480 3891 L -6 -18 C 0 -18 C
6 -18 C 12 -6 C 12 6 C 6 12 C 6 30 C 6 12 C 12 6 C 6 0 C 12 -6 C 6 -18 C 0 -18 C -6 -18 C -12 -6 C 6 6 420 3926 L -6 6 C -6 -6 C
6 -6 C 84 0 462 3932 L 126 0 420 4046 L -12 -12 480 4046 L -6 -12 C 0 -18 C 6 -12 C 12 -12 C 18 -6 C 12 0 C 18 6 C 12 12 C 6 12 C
0 18 C -6 12 C -12 12 C 60 0 462 4094 L 18 6 C 6 12 C 0 18 C -6 12 C -18 18 C 84 0 462 4160 L 84 0 462 4274 L -12 -12 480 4274 L
-6 -12 C 0 -18 C 6 -12 C 12 -12 C 18 -6 C 12 0 C 18 6 C 12 12 C 6 12 C 0 18 C -6 12 C -12 12 C 126 0 420 4322 L 12 -12 396 4508 L
18 -12 C 24 -12 C 30 -6 C 24 0 C 30 6 C 24 12 C 18 12 C 12 12 C -12 -6 480 4610 L -6 -18 C 0 -18 C 6 -18 C 12 -6 C 12 6 C 6 12 C
6 30 C 6 12 C 12 6 C 6 0 C 12 -6 C 6 -18 C 0 -18 C -6 -18 C -12 -6 C 0 72 498 4646 L -12 0 C -12 -6 C -6 -6 C -6 -12 C 0 -18 C
6 -12 C 12 -12 C 18 -6 C 12 0 C 18 6 C 12 12 C 6 12 C 0 18 C -6 12 C -12 12 C -12 -12 480 4826 L -6 -12 C 0 -18 C 6 -12 C 12 -12 C
18 -6 C 12 0 C 18 6 C 12 12 C 6 12 C 0 18 C -6 12 C -12 12 C 12 12 396 4862 L 18 12 C 24 12 C 30 6 C 24 0 C 30 -6 C 24 -12 C
18 -12 C 12 -12 C
1024 0 0 K
/M16 {MB -4 -4 moveto 0 8 rlineto 8 0 rlineto 0 -8                              
rlineto closepath fill ME} bind def                                             
/MFAC      5.999 def    
1665 4753 M16 1730 4551 M16 1828 4724 M16 1828 4445 M16 1936 4933 M16 2037 5029 M16 2096 4742 M16 2144 4841 M16 2144 4536 M16
2152 4555 M16 2215 4673 M16 2219 4653 M16 2250 4596 M16 2471 4846 M16 2527 4891 M16 2597 4457 M16 2634 4471 M16 2725 4852 M16
2750 4727 M16 2823 4765 M16 2886 3986 M16 2886 4292 M16 2933 4234 M16 2977 4557 M16 3082 4499 M16 3084 4660 M16 3148 4445 M16
3201 4542 M16 3324 4521 M16 3324 4218 M16 3326 4151 M16 3326 4306 M16 3355 4308 M16 3355 4387 M16 3440 4404 M16 3443 4405 M16
3736 4723 M16 3783 4801 M16 3839 4449 M16 3839 4369 M16 3931 5018 M16 4095 4920 M16 4161 5003 M16 4217 4564 M16 4268 4684 M16
4388 4450 M16 4489 4958 M16 4664 4885 M16 4680 4250 M16 4756 5393 M16 4756 4923 M16 4844 4734 M16 4888 4710 M16 4998 4292 M16
5061 5123 M16 5061 4656 M16 5064 4113 M16 5124 4988 M16 5260 4862 M16 5319 5309 M16 5389 3695 M16 5454 5026 M16 5493 4642 M16
5569 4714 M16 5641 4867 M16 5836 5024 M16 5871 4505 M16 5989 4410 M16 5996 4449 M16 6027 4842 M16 6087 4672 M16 6156 4604 M16
6157 4309 M16 6163 3970 M16 6217 4791 M16 6248 4490 M16 6320 4582 M16 6392 4143 M16 6393 4290 M16 6447 4275 M16 6532 4485 M16
6585 4668 M16 6748 4357 M16 6749 4805 M16 6790 4458 M16 6792 4599 M16 6849 4293 M16 6924 4546 M16 6987 4919 M16 7075 4608 M16
7075 4353 M16 7132 4316 M16 7189 4585 M16 7256 4613 M16 7350 4590 M16 7399 5041 M16 7469 4834 M16 7541 4601 M16 7595 4425 M16
7651 4505 M16 7711 4968 M16 7771 4730 M16 7840 4525 M16 7898 4759 M16 7963 4670 M16 8062 4621 M16 8064 4702 M16 8067 5033 M16
8102 4962 M16 8168 4711 M16 8221 4404 M16 8285 4771 M16 8344 5256 M16 8348 5018 M16 8414 4696 M16 8451 4394 M16 8499 4697 M16
8504 4959 M16 8568 4410 M16
45 0 1643 4491 L 0 525 1665 4491 L 45 0 1643 5016 L 45 0 1708 4350 L 0 402 1730 4350 L 45 0 1708 4752 L 45 0 1805 4381 L
0 687 1828 4381 L 45 0 1805 5068 L 45 0 1805 4180 L 0 530 1828 4180 L 45 0 1805 4710 L 45 0 1914 4766 L 0 335 1936 4766 L
45 0 1914 5101 L 45 0 2014 4856 L 0 347 2037 4856 L 45 0 2014 5203 L 45 0 2074 4581 L 0 322 2096 4581 L 45 0 2074 4903 L
45 0 2121 4643 L 0 395 2144 4643 L 45 0 2121 5038 L 45 0 2121 4341 L 0 389 2144 4341 L 45 0 2121 4730 L 45 0 2130 4417 L
0 277 2152 4417 L 45 0 2130 4694 L 45 0 2193 4525 L 0 295 2215 4525 L 45 0 2193 4820 L 44 0 2197 4505 L 0 296 2219 4505 L
44 0 2197 4801 L 45 0 2228 4476 L 0 239 2250 4476 L 45 0 2228 4715 L 45 0 2448 4589 L 0 514 2471 4589 L 45 0 2448 5103 L
45 0 2504 4632 L 0 517 2527 4632 L 45 0 2504 5149 L 45 0 2574 4258 L 0 398 2597 4258 L 45 0 2574 4656 L 45 0 2612 4251 L
0 440 2634 4251 L 45 0 2612 4691 L 45 0 2703 4677 L 0 350 2725 4677 L 45 0 2703 5027 L 45 0 2728 4562 L 0 330 2750 4562 L
45 0 2728 4892 L 45 0 2801 4505 L 0 521 2823 4505 L 45 0 2801 5026 L 45 0 2863 3761 L 0 449 2886 3761 L 45 0 2863 4210 L
45 0 2864 4112 L 0 360 2886 4112 L 45 0 2864 4472 L 45 0 2910 3925 L 0 618 2933 3925 L 45 0 2910 4543 L 45 0 2955 4369 L
0 375 2977 4369 L 45 0 2955 4744 L 45 0 3060 4066 L 0 866 3082 4066 L 45 0 3060 4932 L 45 0 3062 4465 L 0 390 3084 4465 L
45 0 3062 4855 L 45 0 3125 4218 L 0 454 3148 4218 L 45 0 3125 4672 L 45 0 3179 4351 L 0 382 3201 4351 L 45 0 3179 4733 L
45 0 3302 4296 L 0 449 3324 4296 L 45 0 3302 4745 L 45 0 3302 4003 L 0 431 3324 4003 L 45 0 3302 4434 L 45 0 3304 3928 L
0 445 3326 3928 L 45 0 3304 4373 L 45 0 3304 4145 L 0 322 3326 4145 L 45 0 3304 4467 L 45 0 3332 3933 L 0 749 3355 3933 L
45 0 3332 4682 L 45 0 3332 4162 L 0 450 3355 4162 L 45 0 3332 4612 L 45 0 3418 4278 L 0 253 3440 4278 L 45 0 3418 4531 L
45 0 3421 4177 L 0 455 3443 4177 L 45 0 3421 4632 L 45 0 3714 4593 L 0 260 3736 4593 L 45 0 3714 4853 L 45 0 3760 4516 L
0 571 3783 4516 L 45 0 3760 5087 L 45 0 3817 4170 L 0 557 3839 4170 L 45 0 3817 4727 L 45 0 3817 4238 L 0 262 3839 4238 L
45 0 3817 4500 L 45 0 3908 4854 L 0 328 3931 4854 L 45 0 3908 5182 L 45 0 4073 4769 L 0 303 4095 4769 L 45 0 4073 5072 L
45 0 4139 4862 L 0 282 4161 4862 L 45 0 4139 5144 L 45 0 4195 4429 L 0 270 4217 4429 L 45 0 4195 4699 L 45 0 4246 4543 L
0 282 4268 4543 L 45 0 4246 4825 L 45 0 4366 4265 L 0 370 4388 4265 L 45 0 4366 4635 L 45 0 4466 4726 L 0 464 4489 4726 L
45 0 4466 5190 L 45 0 4642 4476 L 0 818 4664 4476 L 45 0 4642 5294 L 45 0 4657 3967 L 0 567 4680 3967 L 45 0 4657 4534 L
45 0 4734 4898 L 0 989 4756 4898 L 45 0 4734 5887 L 45 0 4734 4643 L 0 560 4756 4643 L 45 0 4734 5203 L 45 0 4821 4300 L
0 869 4844 4300 L 45 0 4821 5169 L 45 0 4865 4403 L 0 615 4888 4403 L 45 0 4865 5018 L 45 0 4976 4046 L 0 492 4998 4046 L
45 0 4976 4538 L 45 0 5038 4876 L 0 494 5061 4876 L 45 0 5038 5370 L 45 0 5039 4394 L 0 524 5061 4394 L 45 0 5039 4918 L
45 0 5042 2825 L 0 2577 5064 2825 L 45 0 5042 5402 L 45 0 5101 4678 L 0 619 5124 4678 L 45 0 5101 5297 L 45 0 5237 4647 L
0 429 5260 4647 L 45 0 5237 5076 L 45 0 5297 5043 L 0 532 5319 5043 L 45 0 5297 5575 L 45 0 5366 2956 L 0 1477 5389 2956 L
45 0 5366 4433 L 45 0 5432 4742 L 0 568 5454 4742 L 45 0 5432 5310 L 45 0 5470 4231 L 0 822 5493 4231 L 45 0 5470 5053 L
45 0 5546 4408 L 0 611 5569 4408 L 45 0 5546 5019 L 45 0 5618 4583 L 0 568 5641 4583 L 45 0 5618 5151 L 45 0 5813 4772 L
0 504 5836 4772 L 45 0 5813 5276 L 45 0 5848 4327 L 0 356 5871 4327 L 45 0 5848 4683 L 45 0 5967 4166 L 0 487 5989 4166 L
45 0 5967 4653 L 45 0 5973 4241 L 0 415 5996 4241 L 45 0 5973 4656 L 45 0 6004 4627 L 0 429 6027 4627 L 45 0 6004 5056 L
45 0 6064 4446 L 0 453 6087 4446 L 45 0 6064 4899 L 45 0 6134 4247 L 0 713 6156 4247 L 45 0 6134 4960 L 45 0 6135 3674 L
0 1270 6157 3674 L 45 0 6135 4944 L 45 0 6140 2393 L 0 3155 6163 2393 L 45 0 6140 5548 L 45 0 6194 4542 L 0 498 6217 4542 L
45 0 6194 5040 L 45 0 6225 4254 L 0 473 6248 4254 L 45 0 6225 4727 L 45 0 6297 4337 L 0 490 6320 4337 L 45 0 6297 4827 L
45 0 6370 3903 L 0 481 6392 3903 L 45 0 6370 4384 L 45 0 6370 4100 L 0 380 6393 4100 L 45 0 6370 4480 L 45 0 6424 4108 L
0 335 6447 4108 L 45 0 6424 4443 L 45 0 6509 4337 L 0 296 6532 4337 L 45 0 6509 4633 L 45 0 6562 4472 L 0 391 6585 4472 L
45 0 6562 4863 L 45 0 6725 4183 L 0 347 6748 4183 L 45 0 6725 4530 L 45 0 6726 4619 L 0 373 6749 4619 L 45 0 6726 4992 L
45 0 6767 4276 L 0 364 6790 4276 L 45 0 6767 4640 L 45 0 6769 4415 L 0 367 6792 4415 L 45 0 6769 4782 L 45 0 6827 4081 L
0 424 6849 4081 L 45 0 6827 4505 L 45 0 6902 4314 L 0 463 6924 4314 L 45 0 6902 4777 L 45 0 6965 4642 L 0 554 6987 4642 L
45 0 6965 5196 L 45 0 7053 4347 L 0 521 7075 4347 L 45 0 7053 4868 L 45 0 7053 4135 L 0 436 7075 4135 L 45 0 7053 4571 L
45 0 7109 4076 L 0 480 7132 4076 L 45 0 7109 4556 L 45 0 7166 4310 L 0 550 7189 4310 L 45 0 7166 4860 L 45 0 7233 4303 L
0 620 7256 4303 L 45 0 7233 4923 L 45 0 7328 4199 L 0 782 7350 4199 L 45 0 7328 4981 L 45 0 7377 4713 L 0 655 7399 4713 L
45 0 7377 5368 L 45 0 7446 4573 L 0 522 7469 4573 L 45 0 7446 5095 L 45 0 7519 4371 L 0 459 7541 4371 L 45 0 7519 4830 L
45 0 7572 4218 L 0 414 7595 4218 L 45 0 7572 4632 L 45 0 7629 4292 L 0 427 7651 4292 L 45 0 7629 4719 L 45 0 7689 4727 L
0 483 7711 4727 L 45 0 7689 5210 L 45 0 7748 4496 L 0 469 7771 4496 L 45 0 7748 4965 L 45 0 7818 4299 L 0 452 7840 4299 L
45 0 7818 4751 L 45 0 7875 4560 L 0 398 7898 4560 L 45 0 7875 4958 L 45 0 7940 4480 L 0 381 7963 4480 L 45 0 7940 4861 L
45 0 8039 4401 L 0 441 8062 4401 L 45 0 8039 4842 L 45 0 8041 4535 L 0 333 8064 4535 L 45 0 8041 4868 L 45 0 8044 4856 L
0 354 8067 4856 L 45 0 8044 5210 L 45 0 8079 4771 L 0 383 8102 4771 L 45 0 8079 5154 L 45 0 8145 4559 L 0 303 8168 4559 L
45 0 8145 4862 L 45 0 8199 4206 L 0 396 8221 4206 L 45 0 8199 4602 L 45 0 8262 4541 L 0 459 8285 4541 L 45 0 8262 5000 L
45 0 8322 4881 L 0 750 8344 4881 L 45 0 8322 5631 L 45 0 8325 4747 L 0 542 8348 4747 L 45 0 8325 5289 L 45 0 8391 4452 L
0 489 8414 4452 L 45 0 8391 4941 L 45 0 8429 4121 L 0 545 8451 4121 L 45 0 8429 4666 L 45 0 8477 4423 L 0 548 8499 4423 L
45 0 8477 4971 L 45 0 8482 4685 L 0 547 8504 4685 L 45 0 8482 5232 L 45 0 8546 4168 L 0 484 8568 4168 L 45 0 8546 4652 L
0 1024 0 K 1725 4508 M16 1725 5308 M16 1725 4474 M16 1782 4422 M16 1782 4635 M16 1831 5474 M16 1831 5024 M16 1885 4792 M16
1885 4319 M16 2036 4754 M16 2036 4698 M16 2140 4657 M16 2140 4788 M16 2149 5056 M16 2149 5035 M16 2228 4538 M16 2247 4530 M16
2344 4675 M16 2348 4854 M16 2386 4814 M16 2474 4928 M16 2524 4877 M16 2590 4686 M16 2599 4358 M16 2599 4464 M16 2631 4532 M16
2637 4592 M16 2722 4495 M16 2722 4497 M16 2728 4629 M16 2755 4702 M16 2817 4664 M16 2826 4761 M16 2826 4372 M16 2826 4040 M16
2826 4741 M16 2880 4425 M16 2883 4381 M16 2930 4423 M16 2975 4165 M16 2975 4595 M16 2981 4426 M16 3034 4411 M16 3088 4451 M16
3091 4686 M16 3100 4448 M16 3200 4771 M16 3204 4518 M16 3204 4752 M16 3249 4276 M16 3317 4369 M16 3317 4096 M16 3320 4494 M16
3352 4243 M16 3352 4334 M16 3436 4189 M16 3443 4539 M16 3503 4671 M16 3538 4775 M16 3544 4547 M16 3588 4620 M16 3664 4583 M16
4214 4474 M16 4265 4625 M16 4331 4344 M16 4384 4694 M16 4438 4605 M16 4482 4822 M16 4533 5091 M16 4535 4621 M16 4576 4771 M16
4645 4649 M16 4677 4658 M16 4752 4722 M16 4838 4700 M16 4885 4850 M16 4925 4814 M16 4932 4698 M16 4995 4761 M16 5001 4769 M16
5058 4896 M16 5121 4935 M16 5127 4833 M16 5178 4811 M16 5256 5159 M16 5256 5451 M16 5256 4967 M16 5317 4879 M16 5386 5356 M16
5386 4841 M16 5386 4851 M16 5451 4930 M16 5490 4937 M16 5572 5286 M16 5572 4656 M16 5638 4927 M16 5638 4460 M16 5638 5052 M16
5638 4433 M16 5764 4817 M16 5764 4466 M16 5827 4623 M16 5827 4846 M16 5839 4727 M16 5873 4676 M16 5937 4501 M16 5993 4509 M16
6024 4718 M16 6081 4589 M16 6151 4320 M16 6151 4622 M16 6220 4482 M16 6245 4872 M16 6317 4370 M16 6396 4105 M16 6444 4396 M16
6528 4432 M16 6581 4674 M16 6657 4794 M16 6733 4511 M16 6735 4728 M16 6787 4497 M16 6845 4532 M16 6918 4617 M16 6979 4594 M16
7035 4175 M16 7039 4733 M16 7069 4156 M16 7069 4366 M16 7078 4455 M16 7129 4383 M16 7161 4574 M16 7255 4494 M16 7261 4615 M16
7350 4839 M16 7396 4935 M16 7403 5028 M16 7466 4461 M16 7466 4768 M16 7466 4427 M16 7472 4736 M16 7541 4522 M16 7593 4802 M16
7599 4558 M16 7646 4569 M16 7648 4629 M16 7702 4475 M16 7766 4609 M16 7834 4754 M16 7894 4912 M16 7900 4556 M16 7958 4699 M16
8017 4774 M16 8057 4653 M16 8105 4834 M16 8168 4521 M16 8218 4709 M16 8281 4869 M16 8347 4696 M16 8410 5149 M16 8410 4513 M16
8416 4910 M16 8448 4745 M16 8455 4614 M16 8502 4592 M16 8504 4608 M16 8570 4846 M16 8571 4665 M16
45 0 1702 4056 L 0 904 1725 4056 L 45 0 1702 4960 L 45 0 1702 4833 L 0 949 1725 4833 L 45 0 1702 5782 L 45 0 1703 4183 L
0 583 1725 4183 L 45 0 1703 4766 L 45 0 1759 4140 L 0 564 1782 4140 L 45 0 1759 4704 L 45 0 1759 4324 L 0 623 1782 4324 L
45 0 1759 4947 L 45 0 1809 5072 L 0 805 1831 5072 L 45 0 1809 5877 L 45 0 1809 4626 L 0 796 1831 4626 L 45 0 1809 5422 L
45 0 1862 4483 L 0 619 1885 4483 L 45 0 1862 5102 L 45 0 1862 4039 L 0 559 1885 4039 L 45 0 1862 4598 L 45 0 2013 4513 L
0 482 2036 4513 L 45 0 2013 4995 L 45 0 2013 4477 L 0 443 2036 4477 L 45 0 2013 4920 L 45 0 2118 4394 L 0 526 2140 4394 L
45 0 2118 4920 L 45 0 2118 4543 L 0 490 2140 4543 L 45 0 2118 5033 L 45 0 2127 4803 L 0 506 2149 4803 L 45 0 2127 5309 L
45 0 2127 4818 L 0 434 2149 4818 L 45 0 2127 5252 L 45 0 2206 4281 L 0 514 2228 4281 L 45 0 2206 4795 L 45 0 2225 4406 L
0 249 2247 4406 L 45 0 2225 4655 L 45 0 2322 4565 L 0 219 2344 4565 L 45 0 2322 4784 L 45 0 2326 4735 L 0 239 2348 4735 L
45 0 2326 4974 L 45 0 2364 4724 L 0 180 2386 4724 L 45 0 2364 4904 L 45 0 2452 4790 L 0 276 2474 4790 L 45 0 2452 5066 L
45 0 2501 4780 L 0 195 2524 4780 L 45 0 2501 4975 L 45 0 2568 4577 L 0 219 2590 4577 L 45 0 2568 4796 L 45 0 2577 4121 L
0 475 2599 4121 L 45 0 2577 4596 L 45 0 2577 4316 L 0 296 2599 4316 L 45 0 2577 4612 L 45 0 2608 4436 L 0 192 2631 4436 L
45 0 2608 4628 L 45 0 2615 4492 L 0 200 2637 4492 L 45 0 2615 4692 L 45 0 2700 4220 L 0 549 2722 4220 L 45 0 2700 4769 L
45 0 2700 4186 L 0 622 2722 4186 L 45 0 2700 4808 L 45 0 2706 4513 L 0 232 2728 4513 L 45 0 2706 4745 L 45 0 2732 4612 L
0 181 2755 4612 L 45 0 2732 4793 L 45 0 2794 4549 L 0 229 2817 4549 L 45 0 2794 4778 L 45 0 2803 4593 L 0 336 2826 4593 L
45 0 2803 4929 L 45 0 2804 3813 L 0 1117 2826 3813 L 45 0 2804 4930 L 45 0 2804 3542 L 0 997 2826 3542 L 45 0 2804 4539 L
45 0 2804 4589 L 0 305 2826 4589 L 45 0 2804 4894 L 45 0 2857 4329 L 0 192 2880 4329 L 45 0 2857 4521 L 45 0 2860 4276 L
0 210 2883 4276 L 45 0 2860 4486 L 45 0 2907 4332 L 0 181 2930 4332 L 45 0 2907 4513 L 45 0 2952 3854 L 0 622 2975 3854 L
45 0 2952 4476 L 45 0 2952 4305 L 0 579 2975 4305 L 45 0 2952 4884 L 45 0 2958 4287 L 0 277 2981 4287 L 45 0 2958 4564 L
45 0 3011 4286 L 0 251 3034 4286 L 45 0 3011 4537 L 45 0 3065 4326 L 0 250 3088 4326 L 45 0 3065 4576 L 45 0 3068 4550 L
0 273 3091 4550 L 45 0 3068 4823 L 45 0 3077 4331 L 0 233 3100 4331 L 45 0 3077 4564 L 45 0 3178 4630 L 0 282 3200 4630 L
45 0 3178 4912 L 45 0 3181 4193 L 0 649 3204 4193 L 45 0 3181 4842 L 45 0 3181 4407 L 0 689 3204 4407 L 45 0 3181 5096 L
45 0 3226 4153 L 0 246 3249 4153 L 45 0 3226 4399 L 45 0 3294 4095 L 0 549 3317 4095 L 45 0 3294 4644 L 45 0 3294 3811 L
0 570 3317 3811 L 45 0 3294 4381 L 45 0 3298 4388 L 0 212 3320 4388 L 45 0 3298 4600 L 45 0 3330 3956 L 0 574 3352 3956 L
45 0 3330 4530 L 45 0 3330 4033 L 0 602 3352 4033 L 45 0 3330 4635 L 45 0 3414 4085 L 0 208 3436 4085 L 45 0 3414 4293 L
45 0 3421 4430 L 0 218 3443 4430 L 45 0 3421 4648 L 45 0 3481 4504 L 0 334 3503 4504 L 45 0 3481 4838 L 45 0 3516 4664 L
0 223 3538 4664 L 45 0 3516 4887 L 45 0 3522 3974 L 0 1146 3544 3974 L 45 0 3522 5120 L 45 0 3566 4512 L 0 216 3588 4512 L
45 0 3566 4728 L 45 0 3642 4450 L 0 265 3664 4450 L 45 0 3642 4715 L 45 0 4191 4336 L 0 276 4214 4336 L 45 0 4191 4612 L
45 0 4243 4515 L 0 220 4265 4515 L 45 0 4243 4735 L 45 0 4309 4206 L 0 275 4331 4206 L 45 0 4309 4481 L 45 0 4362 4592 L
0 204 4384 4592 L 45 0 4362 4796 L 45 0 4416 4438 L 0 334 4438 4438 L 45 0 4416 4772 L 45 0 4460 4675 L 0 293 4482 4675 L
45 0 4460 4968 L 45 0 4511 4913 L 0 357 4533 4913 L 45 0 4511 5270 L 45 0 4512 4457 L 0 329 4535 4457 L 45 0 4512 4786 L
45 0 4554 4561 L 0 421 4576 4561 L 45 0 4554 4982 L 45 0 4623 4471 L 0 357 4645 4471 L 45 0 4623 4828 L 45 0 4655 4550 L
0 215 4677 4550 L 45 0 4655 4765 L 45 0 4730 4553 L 0 339 4752 4553 L 45 0 4730 4892 L 45 0 4815 4564 L 0 272 4838 4564 L
45 0 4815 4836 L 45 0 4862 4636 L 0 429 4885 4636 L 45 0 4862 5065 L 45 0 4903 4610 L 0 408 4925 4610 L 45 0 4903 5018 L
45 0 4909 4496 L 0 404 4932 4496 L 45 0 4909 4900 L 45 0 4973 4613 L 0 295 4995 4613 L 45 0 4973 4908 L 45 0 4979 4626 L
0 286 5001 4626 L 45 0 4979 4912 L 45 0 5036 4746 L 0 300 5058 4746 L 45 0 5036 5046 L 45 0 5099 4775 L 0 321 5121 4775 L
45 0 5099 5096 L 45 0 5105 4672 L 0 322 5127 4672 L 45 0 5105 4994 L 45 0 5155 4651 L 0 319 5178 4651 L 45 0 5155 4970 L
45 0 5234 4977 L 0 364 5256 4977 L 45 0 5234 5341 L 45 0 5234 5135 L 0 632 5256 5135 L 45 0 5234 5767 L 45 0 5234 4659 L
0 616 5256 4659 L 45 0 5234 5275 L 45 0 5294 4715 L 0 327 5317 4715 L 45 0 5294 5042 L 45 0 5363 4814 L 0 1083 5386 4814 L
45 0 5363 5897 L 45 0 5363 4268 L 0 1146 5386 4268 L 45 0 5363 5414 L 45 0 5363 4665 L 0 373 5386 4665 L 45 0 5363 5038 L
45 0 5429 4773 L 0 314 5451 4773 L 45 0 5429 5087 L 45 0 5467 4787 L 0 301 5490 4787 L 45 0 5467 5088 L 45 0 5549 5006 L
0 561 5572 5006 L 45 0 5549 5567 L 45 0 5549 4382 L 0 547 5572 4382 L 45 0 5549 4929 L 45 0 5615 4666 L 0 521 5638 4666 L
45 0 5615 5187 L 45 0 5615 4178 L 0 564 5638 4178 L 45 0 5615 4742 L 45 0 5615 4772 L 0 559 5638 4772 L 45 0 5615 5331 L
45 0 5615 4137 L 0 592 5638 4137 L 45 0 5615 4729 L 45 0 5741 4557 L 0 519 5764 4557 L 45 0 5741 5076 L 45 0 5741 4216 L
0 499 5764 4216 L 45 0 5741 4715 L 45 0 5804 4383 L 0 480 5827 4383 L 45 0 5804 4863 L 45 0 5804 4611 L 0 470 5827 4611 L
45 0 5804 5081 L 45 0 5817 4585 L 0 284 5839 4585 L 45 0 5817 4869 L 45 0 5851 4513 L 0 325 5873 4513 L 45 0 5851 4838 L
45 0 5914 4323 L 0 357 5937 4323 L 45 0 5914 4680 L 45 0 5971 4365 L 0 288 5993 4365 L 45 0 5971 4653 L 45 0 6001 4563 L
0 310 6024 4563 L 45 0 6001 4873 L 45 0 6058 4429 L 0 320 6081 4429 L 45 0 6058 4749 L 45 0 6128 3805 L 0 1029 6151 3805 L
45 0 6128 4834 L 45 0 6128 4453 L 0 339 6151 4453 L 45 0 6128 4792 L 45 0 6198 4295 L 0 374 6220 4295 L 45 0 6198 4669 L
45 0 6223 4686 L 0 373 6245 4686 L 45 0 6223 5059 L 45 0 6294 4191 L 0 358 6317 4191 L 45 0 6294 4549 L 45 0 6373 3959 L
0 293 6396 3959 L 45 0 6373 4252 L 45 0 6421 4225 L 0 342 6444 4225 L 45 0 6421 4567 L 45 0 6506 4273 L 0 317 6528 4273 L
45 0 6506 4590 L 45 0 6559 4528 L 0 292 6581 4528 L 45 0 6559 4820 L 45 0 6635 4627 L 0 333 6657 4627 L 45 0 6635 4960 L
45 0 6710 4342 L 0 338 6733 4342 L 45 0 6710 4680 L 45 0 6713 4572 L 0 313 6735 4572 L 45 0 6713 4885 L 45 0 6764 4345 L
0 304 6787 4345 L 45 0 6764 4649 L 45 0 6823 4368 L 0 328 6845 4368 L 45 0 6823 4696 L 45 0 6895 4452 L 0 330 6918 4452 L
45 0 6895 4782 L 45 0 6956 4432 L 0 324 6979 4432 L 45 0 6956 4756 L 45 0 7013 3956 L 0 439 7035 3956 L 45 0 7013 4395 L
45 0 7016 4564 L 0 338 7039 4564 L 45 0 7016 4902 L 45 0 7047 3939 L 0 434 7069 3939 L 45 0 7047 4373 L 45 0 7047 4194 L
0 344 7069 4194 L 45 0 7047 4538 L 45 0 7056 4281 L 0 347 7078 4281 L 45 0 7056 4628 L 45 0 7107 4237 L 0 293 7129 4237 L
45 0 7107 4530 L 45 0 7138 4424 L 0 301 7161 4424 L 45 0 7138 4725 L 45 0 7232 4345 L 0 297 7255 4345 L 45 0 7232 4642 L
44 0 7239 4468 L 0 295 7261 4468 L 44 0 7239 4763 L 45 0 7328 4617 L 0 444 7350 4617 L 45 0 7328 5061 L 45 0 7374 4704 L
0 462 7396 4704 L 45 0 7374 5166 L 45 0 7380 4850 L 0 355 7403 4850 L 45 0 7380 5205 L 45 0 7443 4041 L 0 841 7466 4041 L
45 0 7443 4882 L 45 0 7443 4380 L 0 777 7466 4380 L 45 0 7443 5157 L 45 0 7443 4280 L 0 294 7466 4280 L 45 0 7443 4574 L
45 0 7449 4582 L 0 307 7472 4582 L 45 0 7449 4889 L 45 0 7519 4382 L 0 281 7541 4382 L 45 0 7519 4663 L 45 0 7570 4644 L
0 315 7593 4644 L 45 0 7570 4959 L 45 0 7576 4402 L 0 312 7599 4402 L 45 0 7576 4714 L 45 0 7624 4416 L 0 306 7646 4416 L
45 0 7624 4722 L 45 0 7626 4482 L 0 294 7648 4482 L 45 0 7626 4776 L 45 0 7680 4339 L 0 273 7702 4339 L 45 0 7680 4612 L
45 0 7743 4457 L 0 303 7766 4457 L 45 0 7743 4760 L 45 0 7812 4596 L 0 316 7834 4596 L 45 0 7812 4912 L 45 0 7872 4750 L
0 324 7894 4750 L 45 0 7872 5074 L 45 0 7878 4392 L 0 327 7900 4392 L 45 0 7878 4719 L 45 0 7935 4526 L 0 347 7958 4526 L
45 0 7935 4873 L 45 0 7995 4630 L 0 289 8017 4630 L 45 0 7995 4919 L 45 0 8035 4498 L 0 311 8057 4498 L 45 0 8035 4809 L
45 0 8082 4692 L 0 284 8105 4692 L 45 0 8082 4976 L 45 0 8146 4378 L 0 285 8168 4378 L 45 0 8146 4663 L 45 0 8196 4567 L
0 285 8218 4567 L 45 0 8196 4852 L 45 0 8259 4718 L 0 301 8281 4718 L 45 0 8259 5019 L 45 0 8324 4544 L 0 304 8347 4544 L
45 0 8324 4848 L 45 0 8387 4917 L 0 464 8410 4917 L 45 0 8387 5381 L 44 0 8388 4360 L 0 306 8410 4360 L 44 0 8388 4666 L
45 0 8394 4758 L 0 304 8416 4758 L 45 0 8394 5062 L 45 0 8426 4537 L 0 416 8448 4537 L 45 0 8426 4953 L 45 0 8432 4447 L
0 334 8455 4447 L 45 0 8432 4781 L 45 0 8479 4433 L 0 319 8502 4433 L 45 0 8479 4752 L 45 0 8482 4454 L 0 308 8504 4454 L
45 0 8482 4762 L 45 0 8548 4682 L 0 329 8570 4682 L 45 0 8548 5011 L 45 0 8548 4461 L 0 407 8571 4461 L 45 0 8548 4868 L
1024 0 1024 K 0 1024 1024 K 1936 4896 M16 1983 5197 M16 2096 4916 M16 2144 5240 M16 2152 4086 M16 2215 5808 M16 2219 4398 M16
2250 3680 M16 2383 5289 M16 2527 4851 M16 2594 4414 M16 2634 3206 M16 2725 5177 M16 2750 4190 M16 2823 4341 M16 2886 5179 M16
2886 4158 M16 2889 4639 M16 2933 3887 M16 2977 1625 M16 3084 3924 M16 3148 4755 M16 3201 4004 M16 3440 3525 M16 3443 3900 M16
3544 4821 M16 3736 5517 M16 3839 6174 M16 3931 5194 M16 3979 3640 M16 4161 5446 M16 4268 4636 M16 4388 4349 M16 4489 5633 M16
4664 4971 M16 4667 4508 M16 4680 5010 M16 4756 4651 M16 4756 4567 M16 4841 5422 M16 4844 4853 M16 4888 3990 M16 4929 4697 M16
4929 4510 M16 4998 4091 M16 5061 4678 M16 5061 4572 M16 5064 4318 M16 5124 5279 M16 5181 4156 M16 5260 5262 M16 5319 4228 M16
5319 4456 M16 5389 5220 M16 5389 4521 M16 5454 5488 M16 5493 5216 M16 5836 4916 M16 5871 4232 M16 5996 4823 M16 6027 5104 M16
6087 4474 M16 6156 5557 M16 6157 4476 M16 6163 4745 M16 6217 4520 M16 6248 4695 M16 6320 4703 M16 6392 4182 M16 6393 5697 M16
6447 3717 M16 6449 4537 M16 6532 4354 M16 6585 4201 M16 6748 4121 M16 6749 4305 M16 6790 4228 M16 6792 4406 M16 6849 4841 M16
6987 4556 M16 7075 4130 M16 7132 4788 M16 7189 4897 M16 7256 5285 M16 7350 4275 M16 7399 4836 M16 7469 5659 M16 7541 3692 M16
7595 4527 M16 7651 4519 M16 7711 5394 M16 7771 4781 M16 7840 4494 M16 7898 4669 M16 7963 4584 M16 8062 4846 M16 8064 4716 M16
8067 5701 M16 8102 5035 M16 8168 5251 M16 8221 4553 M16 8285 4777 M16 8344 4666 M16 8348 5077 M16 8414 3881 M16 8451 4635 M16
8455 4301 M16 8499 4358 M16 8504 4778 M16 8568 4735 M16
45 0 1914 4280 L 0 1232 1936 4280 L 45 0 1914 5512 L 45 0 1961 4562 L 0 1270 1983 4562 L 45 0 1961 5832 L 45 0 2074 4480 L
0 871 2096 4480 L 45 0 2074 5351 L 45 0 2121 4720 L 0 1040 2144 4720 L 45 0 2121 5760 L 45 0 2130 3355 L 0 1461 2152 3355 L
45 0 2130 4816 L 45 0 2193 4705 L 0 1924 2215 4705 L 44 0 2197 3354 L 0 2088 2219 3354 L 44 0 2197 5442 L 45 0 2228 2986 L
0 1388 2250 2986 L 45 0 2228 4374 L 45 0 2360 4726 L 0 1125 2383 4726 L 45 0 2360 5851 L 45 0 2504 4303 L 0 1096 2527 4303 L
45 0 2504 5399 L 45 0 2571 3927 L 0 974 2594 3927 L 45 0 2571 4901 L 45 0 2612 2275 L 0 1861 2634 2275 L 45 0 2612 4136 L
45 0 2703 4384 L 0 1587 2725 4384 L 45 0 2703 5971 L 45 0 2728 3579 L 0 1222 2750 3579 L 45 0 2728 4801 L 45 0 2801 3818 L
0 1045 2823 3818 L 45 0 2801 4863 L 45 0 2863 3562 L 0 3067 2886 3562 L 45 0 2864 3153 L 0 2011 2886 3153 L 45 0 2864 5164 L
45 0 2867 3490 L 0 2298 2889 3490 L 45 0 2867 5788 L 45 0 2910 2785 L 0 2205 2933 2785 L 45 0 2910 4990 L 0 1825 2977 1170 L
45 0 2955 2995 L 45 0 3062 3024 L 0 1799 3084 3024 L 45 0 3062 4823 L 45 0 3125 3747 L 0 2016 3148 3747 L 45 0 3125 5763 L
45 0 3179 3149 L 0 1711 3201 3149 L 45 0 3179 4860 L 45 0 3418 1856 L 0 3338 3440 1856 L 45 0 3418 5194 L 45 0 3421 2361 L
0 3078 3443 2361 L 45 0 3421 5439 L 45 0 3522 3203 L 0 3235 3544 3203 L 45 0 3522 6438 L 45 0 3714 4522 L 0 1990 3736 4522 L
45 0 3714 6512 L 45 0 3817 5438 L 0 1191 3839 5438 L 45 0 3908 4218 L 0 1951 3931 4218 L 45 0 3908 6169 L 45 0 3956 2314 L
0 2652 3979 2314 L 45 0 3956 4966 L 45 0 4139 4573 L 0 1745 4161 4573 L 45 0 4139 6318 L 45 0 4246 3727 L 0 1818 4268 3727 L
45 0 4246 5545 L 45 0 4366 3724 L 0 1249 4388 3724 L 45 0 4366 4973 L 45 0 4466 4696 L 0 1874 4489 4696 L 45 0 4466 6570 L
45 0 4642 4371 L 0 1201 4664 4371 L 45 0 4642 5572 L 45 0 4645 3890 L 0 1237 4667 3890 L 45 0 4645 5127 L 45 0 4657 4357 L
0 1305 4680 4357 L 45 0 4657 5662 L 45 0 4734 3872 L 0 1558 4756 3872 L 45 0 4734 5430 L 45 0 4734 3943 L 0 1247 4756 3943 L
45 0 4734 5190 L 45 0 4818 4767 L 0 1309 4841 4767 L 45 0 4818 6076 L 45 0 4821 4187 L 0 1332 4844 4187 L 45 0 4821 5519 L
45 0 4865 3349 L 0 1282 4888 3349 L 45 0 4865 4631 L 45 0 4906 4098 L 0 1198 4929 4098 L 45 0 4906 5296 L 45 0 4907 3909 L
0 1202 4929 3909 L 45 0 4907 5111 L 45 0 4976 3451 L 0 1280 4998 3451 L 45 0 4976 4731 L 45 0 5038 4074 L 0 1209 5061 4074 L
45 0 5038 5283 L 45 0 5039 3960 L 0 1223 5061 3960 L 45 0 5039 5183 L 45 0 5042 3698 L 0 1239 5064 3698 L 45 0 5042 4937 L
45 0 5101 4624 L 0 1310 5124 4624 L 45 0 5101 5934 L 45 0 5159 3546 L 0 1221 5181 3546 L 45 0 5159 4767 L 45 0 5237 4657 L
0 1210 5260 4657 L 45 0 5237 5867 L 45 0 5297 3499 L 0 1459 5319 3499 L 45 0 5297 4958 L 45 0 5297 3821 L 0 1271 5319 3821 L
45 0 5297 5092 L 45 0 5366 4484 L 0 1473 5389 4484 L 45 0 5366 5957 L 45 0 5366 3886 L 0 1270 5389 3886 L 45 0 5366 5156 L
45 0 5432 4790 L 0 1397 5454 4790 L 45 0 5432 6187 L 45 0 5471 4610 L 0 1211 5493 4610 L 45 0 5471 5821 L 45 0 5813 4505 L
0 823 5836 4505 L 45 0 5813 5328 L 45 0 5848 3654 L 0 1157 5871 3654 L 45 0 5848 4811 L 45 0 5973 4007 L 0 1632 5996 4007 L
45 0 5973 5639 L 45 0 6004 4557 L 0 1095 6027 4557 L 45 0 6004 5652 L 45 0 6064 3923 L 0 1103 6087 3923 L 45 0 6064 5026 L
45 0 6134 5021 L 0 1072 6156 5021 L 45 0 6134 6093 L 45 0 6135 4070 L 0 813 6157 4070 L 45 0 6135 4883 L 45 0 6140 4394 L
0 702 6163 4394 L 45 0 6140 5096 L 45 0 6194 4107 L 0 827 6217 4107 L 45 0 6194 4934 L 45 0 6225 4172 L 0 1047 6248 4172 L
45 0 6225 5219 L 45 0 6297 4157 L 0 1091 6320 4157 L 45 0 6297 5248 L 45 0 6370 3696 L 0 973 6392 3696 L 45 0 6370 4669 L
45 0 6370 5074 L 0 1246 6393 5074 L 45 0 6370 6320 L 45 0 6424 3309 L 0 815 6447 3309 L 45 0 6424 4124 L 45 0 6427 4098 L
0 878 6449 4098 L 45 0 6427 4976 L 45 0 6509 3754 L 0 1201 6532 3754 L 45 0 6509 4955 L 45 0 6562 3547 L 0 1307 6585 3547 L
45 0 6562 4854 L 45 0 6725 3767 L 0 707 6748 3767 L 45 0 6725 4474 L 45 0 6726 3955 L 0 701 6749 3955 L 45 0 6726 4656 L
45 0 6767 3726 L 0 1004 6790 3726 L 45 0 6767 4730 L 45 0 6769 3953 L 0 907 6792 3953 L 45 0 6769 4860 L 45 0 6827 4367 L
0 948 6849 4367 L 45 0 6827 5315 L 45 0 6965 3946 L 0 1220 6987 3946 L 45 0 6965 5166 L 45 0 7053 3597 L 0 1066 7075 3597 L
45 0 7053 4663 L 45 0 7109 4160 L 0 1255 7132 4160 L 45 0 7109 5415 L 45 0 7166 4286 L 0 1222 7189 4286 L 45 0 7166 5508 L
45 0 7233 4888 L 0 794 7256 4888 L 45 0 7233 5682 L 45 0 7328 3868 L 0 815 7350 3868 L 45 0 7328 4683 L 45 0 7377 4223 L
0 1226 7399 4223 L 45 0 7377 5449 L 45 0 7446 5129 L 0 1060 7469 5129 L 45 0 7446 6189 L 45 0 7519 3242 L 0 899 7541 3242 L
45 0 7519 4141 L 45 0 7572 4191 L 0 673 7595 4191 L 45 0 7572 4864 L 45 0 7629 3989 L 0 1061 7651 3989 L 45 0 7629 5050 L
45 0 7689 5039 L 0 709 7711 5039 L 45 0 7689 5748 L 45 0 7748 4372 L 0 818 7771 4372 L 45 0 7748 5190 L 45 0 7818 4003 L
0 982 7840 4003 L 45 0 7818 4985 L 45 0 7875 4208 L 0 921 7898 4208 L 45 0 7875 5129 L 45 0 7940 4202 L 0 764 7963 4202 L
45 0 7940 4966 L 45 0 8039 4423 L 0 846 8062 4423 L 45 0 8039 5269 L 45 0 8041 4163 L 0 1107 8064 4163 L 45 0 8041 5270 L
45 0 8044 5182 L 0 1039 8067 5182 L 45 0 8044 6221 L 45 0 8079 4523 L 0 1024 8102 4523 L 45 0 8079 5547 L 45 0 8145 4893 L
0 717 8168 4893 L 45 0 8145 5610 L 45 0 8199 4090 L 0 927 8221 4090 L 45 0 8199 5017 L 45 0 8262 4367 L 0 821 8285 4367 L
45 0 8262 5188 L 45 0 8322 4261 L 0 810 8344 4261 L 45 0 8322 5071 L 45 0 8325 4787 L 0 579 8348 4787 L 45 0 8325 5366 L
45 0 8391 3446 L 0 869 8414 3446 L 45 0 8391 4315 L 45 0 8429 4148 L 0 975 8451 4148 L 45 0 8429 5123 L 45 0 8432 3900 L
0 802 8455 3900 L 45 0 8432 4702 L 45 0 8477 4059 L 0 598 8499 4059 L 45 0 8477 4657 L 45 0 8482 4501 L 0 554 8504 4501 L
45 0 8482 5055 L 45 0 8546 4173 L 0 1124 8568 4173 L 45 0 8546 5297 L
0 0 0 K
PGPLOT restore showpage
%%PageTrailer
%%PageBoundingBox: 24 17 588 721
 
%%Trailer
%%BoundingBox: 24 17 588 721
%%DocumentFonts: 
%%Pages: 1
%%EOF
