%!PS-Adobe-3.0 EPSF-3.0
%%For: bperera
%%Title: PGPLOT PostScript plot
%%Creator: PGPLOT [PSDRIV 6.6]
%%CreationDate: 26-May-2016 15:17
%%BoundingBox: (atend)
%%DocumentFonts: (atend)
%%LanguageLevel: 1
%%Orientation: Landscape
%%Pages: (atend)
%%EndComments
%%BeginProlog
/L {moveto rlineto currentpoint stroke moveto} bind def
/C {rlineto currentpoint stroke moveto} bind def
/D {moveto 0 0 rlineto currentpoint stroke moveto} bind def
/LW {5 mul setlinewidth} bind def
/BP {newpath moveto} bind def
/LP /rlineto load def
/EP {rlineto closepath eofill} bind def
/MB {gsave translate MFAC dup scale 1 setlinewidth 2 setlinecap 0 setlinejoin newpath} bind def
/ME /grestore load def
/CC {0 360 arc stroke} bind def
/FC {0 360 arc fill} bind def
/G {1024 div setgray} bind def
/K {3 -1 roll 1024 div 3 -1 roll 1024 div 3 -1 roll 1024 div setrgbcolor} bind def
% Uncomment next line to convert color to grey shades
%/K {3 -1 roll 3413 div 3 -1 roll 1739 div 3 -1 roll 9309 div add add setgray} bind def
%%EndProlog
%%BeginSetup
/#copies 1 def
%%EndSetup
 
%%Page: 1 1
%%BeginPageSetup
/PGPLOT save def
0.072 0.072 scale
8149 250 translate 90 rotate
1 setlinejoin 1 setlinecap 1 LW 1
%%EndPageSetup
%%PageBoundingBox: (atend)
1024 1024 1024 K 1 LW 0 0 BP 9749 0 LP 0 7799 LP -9749 0 EP 0 0 0 K
8286 0 975 1170 L -8286 0 9261 6629 L 0 -5459 C 0 45 1058 1170 L 0 45 1284 1170 L 0 45 1509 1170 L 0 90 1735 1170 L 0 45 1960 1170 L
0 45 2186 1170 L 0 45 2412 1170 L 0 45 2637 1170 L 0 90 2863 1170 L 0 45 3088 1170 L 0 45 3314 1170 L 0 45 3539 1170 L
0 45 3765 1170 L 0 90 3990 1170 L 0 45 4216 1170 L 0 45 4441 1170 L 0 45 4667 1170 L 0 45 4893 1170 L 0 90 5118 1170 L
0 45 5344 1170 L 0 45 5569 1170 L 0 45 5795 1170 L 0 45 6020 1170 L 0 90 6246 1170 L 0 45 6471 1170 L 0 45 6697 1170 L
0 45 6922 1170 L 0 45 7148 1170 L 0 90 7374 1170 L 0 45 7599 1170 L 0 45 7825 1170 L 0 45 8050 1170 L 0 45 8276 1170 L
0 90 8501 1170 L 0 45 8727 1170 L 0 45 8952 1170 L 0 45 9178 1170 L 0 45 1058 6584 L 0 45 1284 6584 L 0 45 1509 6584 L
0 90 1735 6539 L 0 45 1960 6584 L 0 45 2186 6584 L 0 45 2412 6584 L 0 45 2637 6584 L 0 90 2863 6539 L 0 45 3088 6584 L
0 45 3314 6584 L 0 45 3539 6584 L 0 45 3765 6584 L 0 90 3990 6539 L 0 45 4216 6584 L 0 45 4441 6584 L 0 45 4667 6584 L
0 45 4893 6584 L 0 90 5118 6539 L 0 45 5344 6584 L 0 45 5569 6584 L 0 45 5795 6584 L 0 45 6020 6584 L 0 90 6246 6539 L
0 45 6471 6584 L 0 45 6697 6584 L 0 45 6922 6584 L 0 45 7148 6584 L 0 90 7374 6539 L 0 45 7599 6584 L 0 45 7825 6584 L
0 45 8050 6584 L 0 45 8276 6584 L 0 90 8501 6539 L 0 45 8727 6584 L 0 45 8952 6584 L 0 45 9178 6584 L 108 0 1441 990 L
12 6 1609 1038 L 18 18 C 0 -126 C -60 0 1783 1062 L -6 -54 C 6 6 C 18 6 C 18 0 C 18 -6 C 12 -12 C 6 -18 C 0 -12 C -6 -18 C -12 -12 C
-18 -6 C -18 0 C -18 6 C -6 6 C -6 12 C -18 -6 1867 1062 L -12 -18 C -6 -30 C 0 -18 C 6 -30 C 12 -18 C 18 -6 C 12 0 C 18 6 C 12 18 C
6 30 C 0 18 C -6 30 C -12 18 C -18 6 C -12 0 C -18 -6 1987 1062 L -12 -18 C -6 -30 C 0 -18 C 6 -30 C 12 -18 C 18 -6 C 12 0 C 18 6 C
12 18 C 6 30 C 0 18 C -6 30 C -12 18 C -18 6 C -12 0 C 108 0 2569 990 L 12 6 2737 1038 L 18 18 C 0 -126 C -18 -6 2875 1062 L
-12 -18 C -6 -30 C 0 -18 C 6 -30 C 12 -18 C 18 -6 C 12 0 C 18 6 C 12 18 C 6 30 C 0 18 C -6 30 C -12 18 C -18 6 C -12 0 C
-18 -6 2995 1062 L -12 -18 C -6 -30 C 0 -18 C 6 -30 C 12 -18 C 18 -6 C 12 0 C 18 6 C 12 18 C 6 30 C 0 18 C -6 30 C -12 18 C -18 6 C
-12 0 C -18 -6 3115 1062 L -12 -18 C -6 -30 C 0 -18 C 6 -30 C 12 -18 C 18 -6 C 12 0 C 18 6 C 12 18 C 6 30 C 0 18 C -6 30 C -12 18 C
-18 6 C -12 0 C 108 0 3756 990 L -60 0 3978 1062 L -6 -54 C 6 6 C 18 6 C 18 0 C 18 -6 C 12 -12 C 6 -18 C 0 -12 C -6 -18 C -12 -12 C
-18 -6 C -18 0 C -18 6 C -6 6 C -6 12 C -18 -6 4062 1062 L -12 -18 C -6 -30 C 0 -18 C 6 -30 C 12 -18 C 18 -6 C 12 0 C 18 6 C 12 18 C
6 30 C 0 18 C -6 30 C -12 18 C -18 6 C -12 0 C -18 -6 4182 1062 L -12 -18 C -6 -30 C 0 -18 C 6 -30 C 12 -18 C 18 -6 C 12 0 C 18 6 C
12 18 C 6 30 C 0 18 C -6 30 C -12 18 C -18 6 C -12 0 C -18 -6 5112 1062 L -12 -18 C -6 -30 C 0 -18 C 6 -30 C 12 -18 C 18 -6 C 12 0 C
18 6 C 12 18 C 6 30 C 0 18 C -6 30 C -12 18 C -18 6 C -12 0 C -60 0 6156 1062 L -6 -54 C 6 6 C 18 6 C 18 0 C 18 -6 C 12 -12 C
6 -18 C 0 -12 C -6 -18 C -12 -12 C -18 -6 C -18 0 C -18 6 C -6 6 C -6 12 C -18 -6 6240 1062 L -12 -18 C -6 -30 C 0 -18 C 6 -30 C
12 -18 C 18 -6 C 12 0 C 18 6 C 12 18 C 6 30 C 0 18 C -6 30 C -12 18 C -18 6 C -12 0 C -18 -6 6360 1062 L -12 -18 C -6 -30 C 0 -18 C
6 -30 C 12 -18 C 18 -6 C 12 0 C 18 6 C 12 18 C 6 30 C 0 18 C -6 30 C -12 18 C -18 6 C -12 0 C 12 6 7170 1038 L 18 18 C 0 -126 C
-18 -6 7308 1062 L -12 -18 C -6 -30 C 0 -18 C 6 -30 C 12 -18 C 18 -6 C 12 0 C 18 6 C 12 18 C 6 30 C 0 18 C -6 30 C -12 18 C -18 6 C
-12 0 C -18 -6 7428 1062 L -12 -18 C -6 -30 C 0 -18 C 6 -30 C 12 -18 C 18 -6 C 12 0 C 18 6 C 12 18 C 6 30 C 0 18 C -6 30 C -12 18 C
-18 6 C -12 0 C -18 -6 7548 1062 L -12 -18 C -6 -30 C 0 -18 C 6 -30 C 12 -18 C 18 -6 C 12 0 C 18 6 C 12 18 C 6 30 C 0 18 C -6 30 C
-12 18 C -18 6 C -12 0 C 12 6 8297 1038 L 18 18 C 0 -126 C -60 0 8471 1062 L -6 -54 C 6 6 C 18 6 C 18 0 C 18 -6 C 12 -12 C 6 -18 C
0 -12 C -6 -18 C -12 -12 C -18 -6 C -18 0 C -18 6 C -6 6 C -6 12 C -18 -6 8555 1062 L -12 -18 C -6 -30 C 0 -18 C 6 -30 C 12 -18 C
18 -6 C 12 0 C 18 6 C 12 18 C 6 30 C 0 18 C -6 30 C -12 18 C -18 6 C -12 0 C -18 -6 8675 1062 L -12 -18 C -6 -30 C 0 -18 C 6 -30 C
12 -18 C 18 -6 C 12 0 C 18 6 C 12 18 C 6 30 C 0 18 C -6 30 C -12 18 C -18 6 C -12 0 C 90 0 975 1345 L 45 0 975 1641 L
45 0 975 1938 L 45 0 975 2235 L 45 0 975 2532 L 90 0 975 2829 L 45 0 975 3125 L 45 0 975 3422 L 45 0 975 3719 L 45 0 975 4016 L
90 0 975 4312 L 45 0 975 4609 L 45 0 975 4906 L 45 0 975 5203 L 45 0 975 5499 L 90 0 975 5796 L 45 0 975 6093 L 45 0 975 6390 L
0 108 784 1088 L -6 12 736 1256 L -18 18 C 126 0 C 6 -18 712 1394 L 18 -12 C 30 -6 C 18 0 C 30 6 C 18 12 C 6 18 C 0 12 C -6 18 C
-18 12 C -30 6 C -18 0 C -30 -6 C -18 -12 C -6 -18 C 0 -12 C 0 81 702 1478 L 63 -45 648 1635 L 0 68 C 94 0 648 1635 L
0 108 784 2446 L 0 -60 712 2668 L 54 -6 C -6 6 C -6 18 C 0 18 C 6 18 C 12 12 C 18 6 C 12 0 C 18 -6 C 12 -12 C 6 -18 C 0 -18 C
-6 -18 C -6 -6 C -12 -6 C 84 84 742 2722 L 84 -84 742 2806 L -6 12 736 2866 L -18 18 C 126 0 C 6 -18 712 3004 L 18 -12 C 30 -6 C
18 0 C 30 6 C 18 12 C 6 18 C 0 12 C -6 18 C -18 12 C -30 6 C -18 0 C -30 -6 C -18 -12 C -6 -18 C 0 -12 C 0 81 702 3088 L
0 -45 648 3254 L 40 -4 C -4 4 C -5 14 C 0 13 C 5 14 C 9 9 C 13 4 C 9 0 C 14 -4 C 9 -9 C 4 -14 C 0 -13 C -4 -14 C -5 -4 C -9 -5 C
6 -18 712 4306 L 18 -12 C 30 -6 C 18 0 C 30 6 C 18 12 C 6 18 C 0 12 C -6 18 C -18 12 C -30 6 C -18 0 C -30 -6 C -18 -12 C -6 -18 C
0 -12 C 0 -60 712 5557 L 54 -6 C -6 6 C -6 18 C 0 18 C 6 18 C 12 12 C 18 6 C 12 0 C 18 -6 C 12 -12 C 6 -18 C 0 -18 C -6 -18 C
-6 -6 C -12 -6 C 84 84 742 5611 L 84 -84 742 5695 L -6 12 736 5755 L -18 18 C 126 0 C 6 -18 712 5893 L 18 -12 C 30 -6 C 18 0 C
30 6 C 18 12 C 6 18 C 0 12 C -6 18 C -18 12 C -30 6 C -18 0 C -30 -6 C -18 -12 C -6 -18 C 0 -12 C 0 81 702 5977 L 0 -45 648 6144 L
40 -5 C -4 5 C -5 13 C 0 14 C 5 13 C 9 9 C 13 5 C 9 0 C 14 -5 C 9 -9 C 4 -13 C 0 -14 C -4 -13 C -5 -5 C -9 -4 C
0 5459 9261 1170 L -48 0 9261 1262 L -97 0 9261 1540 L 0 108 9461 1276 L 6 -18 9389 1462 L 18 -12 C 30 -6 C 18 0 C 30 6 C 18 12 C
6 18 C 0 12 C -6 18 C -18 12 C -30 6 C -18 0 C -30 -6 C -18 -12 C -6 -18 C 0 -12 C 6 -6 9503 1558 L 6 6 C -6 6 C -6 -6 C
6 -18 9389 1642 L 18 -12 C 30 -6 C 18 0 C 30 6 C 18 12 C 6 18 C 0 12 C -6 18 C -18 12 C -30 6 C -18 0 C -30 -6 C -18 -12 C -6 -18 C
0 -12 C -6 12 9413 1744 L -18 18 C 126 0 C -48 0 9261 1817 L -48 0 9261 2094 L -48 0 9261 2371 L -48 0 9261 2649 L -97 0 9261 2926 L
0 108 9461 2543 L 0 -60 9389 2765 L 54 -6 C -6 6 C -6 18 C 0 18 C 6 18 C 12 12 C 18 6 C 12 0 C 18 -6 C 12 -12 C 6 -18 C 0 -18 C
-6 -18 C -6 -6 C -12 -6 C 84 84 9419 2819 L 84 -84 9419 2903 L -6 12 9413 2963 L -18 18 C 126 0 C 6 -18 9389 3101 L 18 -12 C 30 -6 C
18 0 C 30 6 C 18 12 C 6 18 C 0 12 C -6 18 C -18 12 C -30 6 C -18 0 C -30 -6 C -18 -12 C -6 -18 C 0 -12 C 0 81 9378 3185 L
0 49 9324 3307 L 36 -27 C 0 14 C 5 9 C 4 4 C 14 5 C 9 0 C 13 -5 C 9 -9 C 5 -13 C 0 -14 C -5 -13 C -4 -5 C -9 -4 C -48 0 9261 3203 L
-48 0 9261 3481 L -48 0 9261 3758 L -48 0 9261 4035 L -97 0 9261 4312 L 6 -18 9389 4306 L 18 -12 C 30 -6 C 18 0 C 30 6 C 18 12 C
6 18 C 0 12 C -6 18 C -18 12 C -30 6 C -18 0 C -30 -6 C -18 -12 C -6 -18 C 0 -12 C -48 0 9261 4590 L -48 0 9261 4867 L
-48 0 9261 5144 L -48 0 9261 5421 L -97 0 9261 5699 L 0 -60 9389 5460 L 54 -6 C -6 6 C -6 18 C 0 18 C 6 18 C 12 12 C 18 6 C 12 0 C
18 -6 C 12 -12 C 6 -18 C 0 -18 C -6 -18 C -6 -6 C -12 -6 C 84 84 9419 5514 L 84 -84 9419 5598 L -6 12 9413 5658 L -18 18 C 126 0 C
6 -18 9389 5796 L 18 -12 C 30 -6 C 18 0 C 30 6 C 18 12 C 6 18 C 0 12 C -6 18 C -18 12 C -30 6 C -18 0 C -30 -6 C -18 -12 C -6 -18 C
0 -12 C 0 81 9378 5880 L 0 50 9324 6001 L 36 -27 C 0 13 C 5 9 C 4 5 C 14 4 C 9 0 C 13 -4 C 9 -9 C 5 -14 C 0 -13 C -5 -14 C -4 -4 C
-9 -5 C -48 0 9261 5976 L -48 0 9261 6253 L -48 0 9261 6530 L
61 0 9688 2730 L 0 54 9688 2730 L 6 18 C 6 6 C 12 6 C 12 0 C 12 -6 C 6 -6 C 6 -18 C 0 -54 C 1 0 9748 2772 L -7 -3 9749 2919 L
-6 -6 C -6 -12 C 0 -18 C 6 -12 C 12 -12 C 1 -1 C -12 -6 9748 3024 L -6 -18 C 0 -18 C 6 -18 C 12 -6 C 1 0 C 6 6 9688 3060 L -6 6 C
-6 -6 C 6 -6 C 19 0 9730 3066 L 61 0 9688 3180 L -12 -12 9748 3180 L -6 -12 C 0 -18 C 6 -12 C 12 -12 C 1 -1 C 19 0 9730 3228 L
19 0 9730 3294 L 19 0 9730 3408 L -12 -12 9748 3408 L -6 -12 C 0 -18 C 6 -12 C 12 -12 C 1 -1 C 61 0 9688 3456 L 6 6 9688 3594 L
-6 6 C -6 -6 C 6 -6 C 19 0 9730 3600 L 19 0 9730 3648 L -13 14 9749 3652 L -6 12 C 0 18 C 6 12 C 13 4 C 19 0 9730 3858 L
-12 12 9748 3858 L -6 12 C 0 17 C 6 12 C 12 12 C 1 1 C 19 0 9730 3971 L 19 0 9730 4037 L 61 0 9688 4085 L -12 -6 9748 4193 L
-6 -18 C 0 -18 C 6 -18 C 12 -6 C 1 1 C -7 -4 9749 4299 L -6 -6 C -6 -12 C 0 -18 C 6 -12 C 12 -12 C 1 0 C 19 0 9730 4439 L
-12 12 9748 4439 L -6 12 C 0 18 C 6 12 C 12 12 C 1 1 C -7 -4 9749 4617 L -6 -6 C -6 -12 C 0 -18 C 6 -12 C 12 -12 C 1 0 C
19 0 9730 4661 L -1 0 9749 4667 L -12 12 C -6 12 C 0 18 C 6 6 9688 4733 L -6 6 C -6 -6 C 6 -6 C 19 0 9730 4739 L 6 -12 9730 4811 L
12 -12 C 1 0 C -1 -1 9749 4854 L -12 -12 C -6 -12 C 0 -18 C 61 0 9688 4967 L -12 -12 9748 4967 L -6 -12 C 0 -18 C 6 -12 C 12 -12 C
1 0 C -12 -6 9748 5075 L -6 -18 C 0 -18 C 6 -18 C 12 -6 C 1 1 C
0 -96 3171 7145 L -6 -18 C -6 -6 C -12 -6 C -12 0 C -12 6 C -6 6 C -6 18 C 0 12 C 12 6 3231 7121 L 18 18 C 0 -126 C
-18 -6 3363 7145 L -6 -12 C 0 -12 C 6 -12 C 12 -6 C 24 -6 C 18 -6 C 12 -12 C 6 -12 C 0 -18 C -6 -12 C -6 -6 C -18 -6 C -24 0 C
-18 6 C -6 6 C -6 12 C 0 18 C 6 12 C 12 12 C 18 6 C 24 6 C 12 6 C 6 12 C 0 12 C -6 12 C -18 6 C -24 0 C -18 -6 3489 7145 L -12 -18 C
-6 -30 C 0 -18 C 6 -30 C 12 -18 C 18 -6 C 12 0 C 18 6 C 12 18 C 6 30 C 0 18 C -6 30 C -12 18 C -18 6 C -12 0 C -60 -84 3633 7145 L
90 0 C 0 -126 3633 7145 L 108 0 3699 7073 L 0 6 3855 7115 L 6 12 C 6 6 C 12 6 C 24 0 C 12 -6 C 6 -6 C 6 -12 C 0 -12 C -6 -12 C
-12 -18 C -60 -60 C 84 0 C -60 -126 4053 7145 L 84 0 3969 7145 L 12 6 4107 7121 L 18 18 C 0 -126 C -60 -126 4293 7145 L
84 0 4209 7145 L -12 -12 4473 7169 L -12 -18 C -12 -24 C -6 -30 C 0 -24 C 6 -30 C 12 -24 C 12 -18 C 12 -12 C 30 -126 4503 7145 L
-30 -126 4563 7145 L 30 -126 4563 7145 L -30 -126 4623 7145 L 0 -84 4659 7103 L 6 18 4659 7067 L 12 12 C 12 6 C 18 0 C
0 -84 4737 7103 L 18 18 4737 7079 L 12 6 C 18 0 C 12 -6 C 6 -18 C 0 -60 C 18 18 4803 7079 L 12 6 C 18 0 C 12 -6 C 6 -18 C 0 -60 C
-6 12 4977 7085 L -18 6 C -18 0 C -18 -6 C -6 -12 C 6 -12 C 12 -6 C 30 -6 C 12 -6 C 6 -12 C 0 -6 C -6 -12 C -18 -6 C -18 0 C -18 6 C
-6 12 C 108 0 5115 7091 L 108 0 5115 7055 L 66 0 5373 7145 L -36 -48 C 18 0 C 12 -6 C 6 -6 C 6 -18 C 0 -12 C -6 -18 C -12 -12 C
-18 -6 C -18 0 C -18 6 C -6 6 C -6 12 C -6 -6 5493 7031 L 6 -6 C 6 6 C -6 6 C -18 -6 5577 7145 L -12 -18 C -6 -30 C 0 -18 C 6 -30 C
12 -18 C 18 -6 C 12 0 C 18 6 C 12 18 C 6 30 C 0 18 C -6 30 C -12 18 C -18 6 C -12 0 C -60 -84 5721 7145 L 90 0 C 0 -126 5721 7145 L
-60 -84 5841 7145 L 90 0 C 0 -126 5841 7145 L -36 -126 6021 7103 L -6 -30 6015 7079 L 0 -18 C 12 -12 C 12 0 C 12 6 C 12 12 C 12 24 C
-12 -42 6081 7103 L -6 -24 C 0 -12 C 6 -6 C 12 0 C 12 12 C 6 12 C -6 12 6189 7085 L -18 6 C -18 0 C -18 -6 C -6 -12 C 6 -12 C
12 -6 C 30 -6 C 12 -6 C 6 -12 C 0 -6 C -6 -12 C -18 -6 C -18 0 C -18 6 C -6 12 C 12 -12 6225 7169 L 12 -18 C 12 -24 C 6 -30 C
0 -24 C -6 -30 C -12 -24 C -12 -18 C -12 -12 C 0 -126 6411 7103 L 12 12 6411 7085 L 12 6 C 18 0 C 12 -6 C 12 -12 C 6 -18 C 0 -12 C
-6 -18 C -12 -12 C -12 -6 C -18 0 C -12 6 C -12 12 C -12 -6 6549 7103 L -12 -12 C -6 -18 C 0 -12 C 6 -18 C 12 -12 C 12 -6 C 18 0 C
12 6 C 12 12 C 6 18 C 0 12 C -6 18 C -12 12 C -12 6 C -18 0 C -6 12 6699 7085 L -18 6 C -18 0 C -18 -6 C -6 -12 C 6 -12 C 12 -6 C
30 -6 C 12 -6 C 6 -12 C 0 -6 C -6 -12 C -18 -6 C -18 0 C -18 6 C -6 12 C 0 -102 6747 7145 L 6 -18 C 12 -6 C 12 0 C 42 0 6729 7103 L
108 0 6813 7073 L -12 0 7005 7145 L -12 -6 C -6 -18 C 0 -102 C 42 0 6957 7103 L 6 -6 7035 7145 L 6 6 C -6 6 C -6 -6 C
0 -84 7041 7103 L 0 -102 7095 7145 L 6 -18 C 12 -6 C 12 0 C 42 0 7077 7103 L 0 -126 4491 672 L 48 -126 4491 672 L
-48 -126 4587 672 L 0 -126 4587 672 L 0 -96 4683 672 L -6 -18 C -6 -6 C -12 -6 C -12 0 C -12 6 C -6 6 C -6 18 C 0 12 C
0 -126 4731 672 L 42 0 4731 672 L 18 -6 C 12 -12 C 6 -12 C 6 -18 C 0 -30 C -6 -18 C -6 -12 C -12 -12 C -18 -6 C -42 0 C
108 0 4857 600 L -60 0 5079 672 L -6 -54 C 6 6 C 18 6 C 18 0 C 18 -6 C 12 -12 C 6 -18 C 0 -12 C -6 -18 C -12 -12 C -18 -6 C -18 0 C
-18 6 C -6 6 C -6 12 C -60 0 5199 672 L -6 -54 C 6 6 C 18 6 C 18 0 C 18 -6 C 12 -12 C 6 -18 C 0 -12 C -6 -18 C -12 -12 C -18 -6 C
-18 0 C -18 6 C -6 6 C -6 12 C 0 6 5253 642 L 6 12 C 6 6 C 12 6 C 24 0 C 12 -6 C 6 -6 C 6 -12 C 0 -12 C -6 -12 C -12 -18 C -60 -60 C
84 0 C -6 -18 5445 630 L -12 -12 C -18 -6 C -6 0 C -18 6 C -12 12 C -6 18 C 0 6 C 6 18 C 12 12 C 18 6 C 6 0 C 18 -6 C 12 -12 C
6 -24 C 0 -30 C -6 -30 C -12 -18 C -18 -6 C -12 0 C -18 6 C -6 12 C -60 -126 5571 672 L 84 0 5487 672 L -6 -6 5619 558 L 6 -6 C
6 6 C -6 6 C 0 6 5673 642 L 6 12 C 6 6 C 12 6 C 24 0 C 12 -6 C 6 -6 C 6 -12 C 0 -12 C -6 -12 C -12 -18 C -60 -60 C 84 0 C
126 0 420 2895 L 0 54 420 2895 L 6 18 C 6 6 C 12 6 C 18 0 C 12 -6 C 6 -6 C 6 -18 C 0 -54 C 6 -12 462 3045 L 12 -12 C 18 -6 C 12 0 C
18 6 C 12 12 C 6 12 C 0 18 C -6 12 C -12 12 C -18 6 C -12 0 C -18 -6 C -12 -12 C -6 -12 C 0 -18 C -12 -6 480 3195 L -6 -18 C 0 -18 C
6 -18 C 12 -6 C 12 6 C 6 12 C 6 30 C 6 12 C 12 6 C 6 0 C 12 -6 C 6 -18 C 0 -18 C -6 -18 C -12 -6 C 102 0 420 3243 L 18 6 C 6 12 C
0 12 C 0 42 462 3225 L 0 -12 420 3345 L 6 -12 C 18 -6 C 102 0 C 0 42 462 3297 L 6 6 420 3375 L -6 6 C -6 -6 C 6 -6 C 84 0 462 3381 L
102 0 420 3435 L 18 6 C 6 12 C 0 12 C 0 42 462 3417 L 126 0 420 3597 L 0 54 420 3597 L 6 18 C 6 6 C 12 6 C 12 0 C 12 -6 C 6 -6 C
6 -18 C 0 -54 C 66 42 480 3639 L 0 72 498 3717 L -12 0 C -12 -6 C -6 -6 C -6 -12 C 0 -18 C 6 -12 C 12 -12 C 18 -6 C 12 0 C 18 6 C
12 12 C 6 12 C 0 18 C -6 12 C -12 12 C -12 -6 480 3891 L -6 -18 C 0 -18 C 6 -18 C 12 -6 C 12 6 C 6 12 C 6 30 C 6 12 C 12 6 C 6 0 C
12 -6 C 6 -18 C 0 -18 C -6 -18 C -12 -6 C 6 6 420 3926 L -6 6 C -6 -6 C 6 -6 C 84 0 462 3932 L 126 0 420 4046 L -12 -12 480 4046 L
-6 -12 C 0 -18 C 6 -12 C 12 -12 C 18 -6 C 12 0 C 18 6 C 12 12 C 6 12 C 0 18 C -6 12 C -12 12 C 60 0 462 4094 L 18 6 C 6 12 C 0 18 C
-6 12 C -18 18 C 84 0 462 4160 L 84 0 462 4274 L -12 -12 480 4274 L -6 -12 C 0 -18 C 6 -12 C 12 -12 C 18 -6 C 12 0 C 18 6 C 12 12 C
6 12 C 0 18 C -6 12 C -12 12 C 126 0 420 4322 L 12 -12 396 4508 L 18 -12 C 24 -12 C 30 -6 C 24 0 C 30 6 C 24 12 C 18 12 C 12 12 C
-12 -6 480 4610 L -6 -18 C 0 -18 C 6 -18 C 12 -6 C 12 6 C 6 12 C 6 30 C 6 12 C 12 6 C 6 0 C 12 -6 C 6 -18 C 0 -18 C -6 -18 C
-12 -6 C 0 72 498 4646 L -12 0 C -12 -6 C -6 -6 C -6 -12 C 0 -18 C 6 -12 C 12 -12 C 18 -6 C 12 0 C 18 6 C 12 12 C 6 12 C 0 18 C
-6 12 C -12 12 C -12 -12 480 4826 L -6 -12 C 0 -18 C 6 -12 C 12 -12 C 18 -6 C 12 0 C 18 6 C 12 12 C 6 12 C 0 18 C -6 12 C -12 12 C
12 12 396 4862 L 18 12 C 24 12 C 30 6 C 24 0 C 30 -6 C 24 -12 C 18 -12 C 12 -12 C
1024 0 0 K 0 1024 0 K
/M16 {MB -4 -4 moveto 0 8 rlineto 8 0 rlineto 0 -8                              
rlineto closepath fill ME} bind def                                             
/MFAC      5.999 def    
1665 4459 M16 1728 4157 M16 1731 4325 M16 1742 5098 M16 1794 4825 M16 1857 4187 M16 1974 4139 M16 2266 4382 M16 2428 4542 M16
2482 4341 M16 2529 4135 M16 2558 4399 M16 2655 4398 M16 2729 4375 M16 2801 4521 M16 2867 4410 M16 2986 4308 M16 3067 4316 M16
3213 4543 M16 3292 4574 M16 3359 4536 M16 3406 4425 M16 3447 4376 M16 3530 4493 M16 3751 4386 M16 3800 4471 M16 3930 4401 M16
4043 4361 M16 4117 4491 M16 4119 2992 M16 4171 4616 M16 4290 4603 M16 4407 4219 M16 4545 4425 M16 4576 3903 M16 4605 4350 M16
4655 4445 M16 4713 4399 M16 4776 4439 M16 4810 4340 M16 4832 5008 M16 4891 4202 M16 4981 4231 M16 5006 4439 M16 5019 4177 M16
5132 4690 M16 5147 4799 M16 5183 4342 M16 5271 4377 M16 5334 4430 M16 5379 4387 M16 5404 3218 M16 5440 4262 M16 5458 4451 M16
5498 4387 M16 5514 3484 M16 5557 4428 M16 5557 4077 M16 5687 4415 M16 5703 1625 M16 5755 4311 M16 5773 4384 M16 5797 4652 M16
5833 3843 M16 5836 4144 M16 5892 4641 M16 5894 4190 M16 5899 4419 M16 5937 4425 M16 6000 4707 M16 6050 4436 M16 6097 4334 M16
6137 4820 M16 6187 4339 M16 6193 4426 M16 6227 4319 M16 6247 4324 M16 6333 4232 M16 6373 4435 M16 6434 5171 M16 6452 4633 M16
6470 4171 M16 6501 4315 M16 6510 3813 M16 6556 6174 M16 6625 4467 M16 6641 3783 M16 6681 4304 M16 6776 3621 M16 6837 4503 M16
6875 4403 M16 6942 4411 M16 6969 4317 M16 7003 4208 M16 7019 2675 M16 7050 4417 M16 7064 4369 M16 7102 3881 M16 7149 4645 M16
7293 4866 M16 7469 4397 M16 7503 4422 M16 7622 3698 M16 7669 4601 M16 7770 4181 M16 7797 4459 M16 7847 4536 M16 7878 3930 M16
7894 4225 M16 7946 3501 M16 8024 4640 M16 8071 4155 M16 8195 3194 M16 8323 4389 M16 8436 4299 M16 8571 4535 M16
45 0 1643 4285 L 0 348 1665 4285 L 45 0 1643 4633 L 45 0 1706 3984 L 0 346 1728 3984 L 45 0 1706 4330 L 45 0 1708 4136 L
0 378 1731 4136 L 45 0 1708 4514 L 45 0 1719 4675 L 0 847 1742 4675 L 45 0 1719 5522 L 45 0 1771 4493 L 0 664 1794 4493 L
45 0 1771 5157 L 45 0 1834 3560 L 0 1254 1857 3560 L 45 0 1834 4814 L 45 0 1951 4031 L 0 216 1974 4031 L 45 0 1951 4247 L
45 0 2243 4309 L 0 147 2266 4309 L 45 0 2243 4456 L 45 0 2405 4382 L 0 319 2428 4382 L 45 0 2405 4701 L 45 0 2459 4254 L
0 173 2482 4254 L 45 0 2459 4427 L 45 0 2507 3983 L 0 304 2529 3983 L 45 0 2507 4287 L 45 0 2536 4185 L 0 428 2558 4185 L
45 0 2536 4613 L 45 0 2633 4347 L 0 102 2655 4347 L 45 0 2633 4449 L 45 0 2707 4317 L 0 117 2729 4317 L 45 0 2707 4434 L
45 0 2779 4471 L 0 100 2801 4471 L 45 0 2779 4571 L 45 0 2844 4265 L 0 291 2867 4265 L 45 0 2844 4556 L 45 0 2963 4042 L
0 532 2986 4042 L 45 0 2963 4574 L 45 0 3044 4034 L 0 563 3067 4034 L 45 0 3044 4597 L 45 0 3190 4372 L 0 343 3213 4372 L
45 0 3190 4715 L 45 0 3269 4462 L 0 223 3292 4462 L 45 0 3269 4685 L 45 0 3337 4384 L 0 305 3359 4384 L 45 0 3337 4689 L
45 0 3384 4368 L 0 114 3406 4368 L 45 0 3384 4482 L 45 0 3424 4334 L 0 83 3447 4334 L 45 0 3424 4417 L 45 0 3508 4287 L
0 411 3530 4287 L 45 0 3508 4698 L 45 0 3728 4336 L 0 100 3751 4336 L 45 0 3728 4436 L 45 0 3778 4162 L 0 618 3800 4162 L
45 0 3778 4780 L 45 0 3908 4346 L 0 111 3930 4346 L 45 0 3908 4457 L 45 0 4020 4217 L 0 288 4043 4217 L 45 0 4020 4505 L
45 0 4095 4342 L 0 299 4117 4342 L 45 0 4095 4641 L 45 0 4097 2034 L 0 1915 4119 2034 L 45 0 4097 3949 L 45 0 4149 2051 L
0 4578 4171 2051 L 45 0 4268 4418 L 0 370 4290 4418 L 45 0 4268 4788 L 45 0 4385 3915 L 0 608 4407 3915 L 45 0 4385 4523 L
45 0 4522 4352 L 0 146 4545 4352 L 45 0 4522 4498 L 45 0 4554 3393 L 0 1021 4576 3393 L 45 0 4554 4414 L 45 0 4583 4307 L
0 85 4605 4307 L 45 0 4583 4392 L 45 0 4632 4393 L 0 103 4655 4393 L 45 0 4632 4496 L 45 0 4691 4358 L 0 83 4713 4358 L
45 0 4691 4441 L 45 0 4754 4299 L 0 280 4776 4299 L 45 0 4754 4579 L 45 0 4787 4294 L 0 91 4810 4294 L 45 0 4787 4385 L
45 0 4810 4377 L 0 1261 4832 4377 L 45 0 4810 5638 L 45 0 4869 3779 L 0 847 4891 3779 L 45 0 4869 4626 L 45 0 4958 4090 L
0 282 4981 4090 L 45 0 4958 4372 L 45 0 4983 3850 L 0 1178 5006 3850 L 45 0 4983 5028 L 45 0 4997 4026 L 0 302 5019 4026 L
45 0 4997 4328 L 45 0 5109 4475 L 0 430 5132 4475 L 45 0 5109 4905 L 45 0 5125 3992 L 0 1615 5147 3992 L 45 0 5125 5607 L
45 0 5161 4305 L 0 74 5183 4305 L 45 0 5161 4379 L 45 0 5249 4009 L 0 737 5271 4009 L 45 0 5249 4746 L 45 0 5312 4383 L
0 94 5334 4383 L 45 0 5312 4477 L 45 0 5357 4344 L 0 85 5379 4344 L 45 0 5357 4429 L 45 0 5381 1490 L 0 3455 5404 1490 L
45 0 5381 4945 L 45 0 5417 3629 L 0 1265 5440 3629 L 45 0 5417 4894 L 45 0 5435 4388 L 0 126 5458 4388 L 45 0 5435 4514 L
45 0 5476 4335 L 0 104 5498 4335 L 45 0 5476 4439 L 44 0 5492 2497 L 0 1973 5514 2497 L 44 0 5492 4470 L 45 0 5534 4376 L
0 104 5557 4376 L 45 0 5534 4480 L 45 0 5534 3801 L 0 553 5557 3801 L 45 0 5534 4354 L 45 0 5665 4368 L 0 95 5687 4368 L
45 0 5665 4463 L 0 2587 5703 1170 L 45 0 5680 3757 L 45 0 5732 4004 L 0 613 5755 4004 L 45 0 5732 4617 L 45 0 5750 4285 L
0 198 5773 4285 L 45 0 5750 4483 L 45 0 5775 4391 L 0 523 5797 4391 L 45 0 5775 4914 L 45 0 5811 3524 L 0 639 5833 3524 L
45 0 5811 4163 L 45 0 5813 3661 L 0 966 5836 3661 L 45 0 5813 4627 L 45 0 5869 4499 L 0 284 5892 4499 L 45 0 5869 4783 L
45 0 5872 2875 L 0 2630 5894 2875 L 45 0 5872 5505 L 45 0 5876 4377 L 0 84 5899 4377 L 45 0 5876 4461 L 45 0 5914 4364 L
0 122 5937 4364 L 45 0 5914 4486 L 45 0 5977 3852 L 0 1709 6000 3852 L 45 0 5977 5561 L 45 0 6027 3537 L 0 1798 6050 3537 L
45 0 6027 5335 L 45 0 6074 4126 L 0 417 6097 4126 L 45 0 6074 4543 L 45 0 6115 4331 L 0 977 6137 4331 L 45 0 6115 5308 L
45 0 6164 4284 L 0 111 6187 4284 L 45 0 6164 4395 L 45 0 6171 4234 L 0 385 6193 4234 L 45 0 6171 4619 L 45 0 6205 4184 L
0 270 6227 4184 L 45 0 6205 4454 L 45 0 6225 3982 L 0 684 6247 3982 L 45 0 6225 4666 L 45 0 6310 3187 L 0 2090 6333 3187 L
45 0 6310 5277 L 45 0 6351 4217 L 0 436 6373 4217 L 45 0 6351 4653 L 45 0 6411 4690 L 0 963 6434 4690 L 45 0 6411 5653 L
45 0 6429 3982 L 0 1301 6452 3982 L 45 0 6429 5283 L 45 0 6447 3868 L 0 605 6470 3868 L 45 0 6447 4473 L 45 0 6479 4110 L
0 410 6501 4110 L 45 0 6479 4520 L 45 0 6488 3302 L 0 1022 6510 3302 L 45 0 6488 4324 L 45 0 6533 5335 L 0 1294 6556 5335 L
45 0 6603 4367 L 0 200 6625 4367 L 45 0 6603 4567 L 45 0 6619 3051 L 0 1464 6641 3051 L 45 0 6619 4515 L 45 0 6659 4044 L
0 519 6681 4044 L 45 0 6659 4563 L 45 0 6753 2850 L 0 1542 6776 2850 L 45 0 6753 4392 L 45 0 6814 4390 L 0 227 6837 4390 L
45 0 6814 4617 L 45 0 6852 3302 L 0 2202 6875 3302 L 45 0 6852 5504 L 45 0 6920 4283 L 0 257 6942 4283 L 45 0 6920 4540 L
45 0 6947 4014 L 0 607 6969 4014 L 45 0 6947 4621 L 45 0 6981 3927 L 0 562 7003 3927 L 45 0 6981 4489 L 45 0 6996 1945 L
0 1460 7019 1945 L 45 0 6996 3405 L 45 0 7028 4300 L 0 234 7050 4300 L 45 0 7028 4534 L 45 0 7041 4144 L 0 451 7064 4144 L
45 0 7041 4595 L 45 0 7080 3330 L 0 1101 7102 3330 L 45 0 7080 4431 L 45 0 7127 4429 L 0 431 7149 4429 L 45 0 7127 4860 L
45 0 7271 4448 L 0 836 7293 4448 L 45 0 7271 5284 L 45 0 7446 4320 L 0 154 7469 4320 L 45 0 7446 4474 L 45 0 7480 3645 L
0 1554 7503 3645 L 45 0 7480 5199 L 45 0 7599 3217 L 0 963 7622 3217 L 45 0 7599 4180 L 45 0 7647 3999 L 0 1204 7669 3999 L
45 0 7647 5203 L 45 0 7748 4038 L 0 286 7770 4038 L 45 0 7748 4324 L 45 0 7775 4379 L 0 160 7797 4379 L 45 0 7775 4539 L
45 0 7824 4149 L 0 774 7847 4149 L 45 0 7824 4923 L 45 0 7856 3628 L 0 604 7878 3628 L 45 0 7856 4232 L 45 0 7871 3910 L
0 630 7894 3910 L 45 0 7871 4540 L 45 0 7923 2885 L 0 1231 7946 2885 L 45 0 7923 4116 L 45 0 8002 4032 L 0 1216 8024 4032 L
45 0 8002 5248 L 45 0 8049 3698 L 0 914 8071 3698 L 45 0 8049 4612 L 45 0 8173 2202 L 0 1983 8195 2202 L 45 0 8173 4185 L
45 0 8301 4321 L 0 135 8323 4321 L 45 0 8301 4456 L 45 0 8414 4221 L 0 157 8436 4221 L 45 0 8414 4378 L 45 0 8548 4458 L
0 154 8571 4458 L 45 0 8548 4612 L
1024 0 1024 K 0 1024 1024 K 0 0 0 K
PGPLOT restore showpage
%%PageTrailer
%%PageBoundingBox: 24 17 588 721
 
%%Trailer
%%BoundingBox: 24 17 588 721
%%DocumentFonts: 
%%Pages: 1
%%EOF
