poln    freq        ndmp   nbin     value
  0 2346.875000      0      0       1.9119
  0 2346.875000      0      1       0.9616
  0 2346.875000      0      2       0.3291
  0 2346.875000      0      3       0.0169
  0 2346.875000      0      4      -0.0062
  0 2346.875000      0      5       0.0161
  0 2346.875000      0      6       0.0082
  0 2346.875000      0      7      -0.0162
  0 2346.875000      0      8       0.0037
  0 2346.875000      0      9      -0.0217
  0 2346.875000      0     10      -0.0283
  0 2346.875000      0     11       0.0041
  0 2346.875000      0     12      -0.0234
  0 2346.875000      0     13      -0.0104
  0 2346.875000      0     14      -0.0065
  0 2346.875000      0     15       0.0072
  0 2346.875000      0     16       0.0177
  0 2346.875000      0     17       0.0343
  0 2346.875000      0     18       0.0094
  0 2346.875000      0     19      -0.0101
  0 2346.875000      0     20       0.0124
  0 2346.875000      0     21       0.0146
  0 2346.875000      0     22       0.0086
  0 2346.875000      0     23      -0.0108
  0 2346.875000      0     24      -0.0106
  0 2346.875000      0     25       0.0124
  0 2346.875000      0     26       0.0075
  0 2346.875000      0     27      -0.0119
  0 2346.875000      0     28       0.0046
  0 2346.875000      0     29      -0.0003
  0 2346.875000      0     30       0.0160
  0 2346.875000      0     31       0.0365
  0 2346.875000      0     32       0.3067
  0 2346.875000      0     33       0.6465
  0 2346.875000      0     34       0.4707
  0 2346.875000      0     35       0.0789
  0 2346.875000      0     36       0.0057
  0 2346.875000      0     37      -0.0080
  0 2346.875000      0     38       0.0090
  0 2346.875000      0     39       0.0025
  0 2346.875000      0     40       0.0054
  0 2346.875000      0     41      -0.0012
  0 2346.875000      0     42      -0.0027
  0 2346.875000      0     43      -0.0156
  0 2346.875000      0     44      -0.0029
  0 2346.875000      0     45      -0.0148
  0 2346.875000      0     46       0.0103
  0 2346.875000      0     47       0.0630
  0 2346.875000      0     48       0.0300
  0 2346.875000      0     49       0.0303
  0 2346.875000      0     50       0.0376
  0 2346.875000      0     51       0.0005
  0 2346.875000      0     52       0.0007
  0 2346.875000      0     53       0.0160
  0 2346.875000      0     54      -0.0061
  0 2346.875000      0     55       0.0016
  0 2346.875000      0     56      -0.0046
  0 2346.875000      0     57       0.0118
  0 2346.875000      0     58      -0.0223
  0 2346.875000      0     59       0.0085
  0 2346.875000      0     60       0.0333
  0 2346.875000      0     61       0.0339
  0 2346.875000      0     62       0.2402
  0 2346.875000      0     63       1.0463
