{
    "J1600-3053_Rcvr1_2_GASP_efac": 1.0861574612319698,
    "J1600-3053_Rcvr1_2_GASP_log10_ecorr": -8.1308502316831515,
    "J1600-3053_Rcvr1_2_GASP_log10_equad": -7.3070818833608415,
    "J1600-3053_Rcvr1_2_GUPPI_efac": 1.0561651849611713,
    "J1600-3053_Rcvr1_2_GUPPI_log10_ecorr": -6.8527620166130498,
    "J1600-3053_Rcvr1_2_GUPPI_log10_equad": -8.323455681451609,
    "J1600-3053_Rcvr_800_GASP_efac": 1.1471817650926996,
    "J1600-3053_Rcvr_800_GASP_log10_ecorr": -6.8646631663602999,
    "J1600-3053_Rcvr_800_GASP_log10_equad": -7.7720580466622327,
    "J1600-3053_Rcvr_800_GUPPI_efac": 1.1275910380453804,
    "J1600-3053_Rcvr_800_GUPPI_log10_ecorr": -6.1491709310578848,
    "J1600-3053_Rcvr_800_GUPPI_log10_equad": -7.9342651705203266,
    "J1600-3053_dm_gamma": 1.2600341008431328,
    "J1600-3053_dm_kappa": 2.4400707400182666,
    "J1600-3053_dm_lf0": -8.2621799483257643,
    "J1600-3053_dm_log10_A": -13.310878354326103,
    "J1600-3053_gamma": 2.3423879948095152,
    "J1600-3053_log10_A": -16.527544394020588
}