{
    "J1640+2224_430_ASP_efac": 1.0766401425012697,
    "J1640+2224_430_ASP_log10_ecorr": -8.5242571338380326,
    "J1640+2224_430_ASP_log10_equad": -6.2396219032633358,
    "J1640+2224_430_PUPPI_efac": 1.0855070880834023,
    "J1640+2224_430_PUPPI_log10_ecorr": -6.2668940264615118,
    "J1640+2224_430_PUPPI_log10_equad": -6.8950606555606422,
    "J1640+2224_L-wide_ASP_efac": 1.0715336551950998,
    "J1640+2224_L-wide_ASP_log10_ecorr": -7.1285820275849732,
    "J1640+2224_L-wide_ASP_log10_equad": -8.3861945153483308,
    "J1640+2224_L-wide_PUPPI_efac": 1.2371024841624196,
    "J1640+2224_L-wide_PUPPI_log10_ecorr": -8.3374213994232544,
    "J1640+2224_L-wide_PUPPI_log10_equad": -8.6487164876369143,
    "J1640+2224_dm_gamma": 3.0356728716110202,
    "J1640+2224_dm_kappa": 2.1822581920999289,
    "J1640+2224_dm_lf0": -8.2573109081413438,
    "J1640+2224_dm_log10_A": -13.855650138990001,
    "J1640+2224_gamma": 0.24254435019298648,
    "J1640+2224_log10_A": -12.986912339477705
}