{
    "J1918-0642_Rcvr1_2_GASP_efac": 1.0404678614683835,
    "J1918-0642_Rcvr1_2_GASP_log10_ecorr": -8.3225513934177879,
    "J1918-0642_Rcvr1_2_GASP_log10_equad": -8.4043515819534385,
    "J1918-0642_Rcvr1_2_GUPPI_efac": 1.0986122695060507,
    "J1918-0642_Rcvr1_2_GUPPI_log10_ecorr": -6.9039614131115759,
    "J1918-0642_Rcvr1_2_GUPPI_log10_equad": -8.174833104256237,
    "J1918-0642_Rcvr_800_GASP_efac": 1.0692345253606785,
    "J1918-0642_Rcvr_800_GASP_log10_ecorr": -6.5851326576478595,
    "J1918-0642_Rcvr_800_GASP_log10_equad": -7.806043263665341,
    "J1918-0642_Rcvr_800_GUPPI_efac": 1.0903055178757348,
    "J1918-0642_Rcvr_800_GUPPI_log10_ecorr": -8.238009094826122,
    "J1918-0642_Rcvr_800_GUPPI_log10_equad": -8.420669127608706,
    "J1918-0642_dm_gamma": 2.7748673053191637,
    "J1918-0642_dm_kappa": 1.8122351575693694,
    "J1918-0642_dm_lf0": -8.3863587308222503,
    "J1918-0642_dm_log10_A": -13.276226280132541,
    "J1918-0642_gamma": 2.6004959263495144,
    "J1918-0642_log10_A": -14.722040631790287
}