%!PS-Adobe-3.0 EPSF-3.0
%%For: bperera
%%Title: PGPLOT PostScript plot
%%Creator: PGPLOT [PSDRIV 6.6]
%%CreationDate: 26-May-2016 15:23
%%BoundingBox: (atend)
%%DocumentFonts: (atend)
%%LanguageLevel: 1
%%Orientation: Landscape
%%Pages: (atend)
%%EndComments
%%BeginProlog
/L {moveto rlineto currentpoint stroke moveto} bind def
/C {rlineto currentpoint stroke moveto} bind def
/D {moveto 0 0 rlineto currentpoint stroke moveto} bind def
/LW {5 mul setlinewidth} bind def
/BP {newpath moveto} bind def
/LP /rlineto load def
/EP {rlineto closepath eofill} bind def
/MB {gsave translate MFAC dup scale 1 setlinewidth 2 setlinecap 0 setlinejoin newpath} bind def
/ME /grestore load def
/CC {0 360 arc stroke} bind def
/FC {0 360 arc fill} bind def
/G {1024 div setgray} bind def
/K {3 -1 roll 1024 div 3 -1 roll 1024 div 3 -1 roll 1024 div setrgbcolor} bind def
% Uncomment next line to convert color to grey shades
%/K {3 -1 roll 3413 div 3 -1 roll 1739 div 3 -1 roll 9309 div add add setgray} bind def
%%EndProlog
%%BeginSetup
/#copies 1 def
%%EndSetup
 
%%Page: 1 1
%%BeginPageSetup
/PGPLOT save def
0.072 0.072 scale
8149 250 translate 90 rotate
1 setlinejoin 1 setlinecap 1 LW 1
%%EndPageSetup
%%PageBoundingBox: (atend)
1024 1024 1024 K 1 LW 0 0 BP 9749 0 LP 0 7799 LP -9749 0 EP 0 0 0 K
8286 0 975 1170 L -8286 0 9261 6629 L 0 -5459 C 0 45 1074 1170 L 0 90 1326 1170 L 0 45 1579 1170 L 0 45 1832 1170 L 0 45 2085 1170 L
0 45 2338 1170 L 0 90 2590 1170 L 0 45 2843 1170 L 0 45 3096 1170 L 0 45 3349 1170 L 0 45 3601 1170 L 0 90 3854 1170 L
0 45 4107 1170 L 0 45 4360 1170 L 0 45 4613 1170 L 0 45 4865 1170 L 0 90 5118 1170 L 0 45 5371 1170 L 0 45 5624 1170 L
0 45 5876 1170 L 0 45 6129 1170 L 0 90 6382 1170 L 0 45 6635 1170 L 0 45 6888 1170 L 0 45 7140 1170 L 0 45 7393 1170 L
0 90 7646 1170 L 0 45 7899 1170 L 0 45 8151 1170 L 0 45 8404 1170 L 0 45 8657 1170 L 0 90 8910 1170 L 0 45 9163 1170 L
0 45 1074 6584 L 0 90 1326 6539 L 0 45 1579 6584 L 0 45 1832 6584 L 0 45 2085 6584 L 0 45 2338 6584 L 0 90 2590 6539 L
0 45 2843 6584 L 0 45 3096 6584 L 0 45 3349 6584 L 0 45 3601 6584 L 0 90 3854 6539 L 0 45 4107 6584 L 0 45 4360 6584 L
0 45 4613 6584 L 0 45 4865 6584 L 0 90 5118 6539 L 0 45 5371 6584 L 0 45 5624 6584 L 0 45 5876 6584 L 0 45 6129 6584 L
0 90 6382 6539 L 0 45 6635 6584 L 0 45 6888 6584 L 0 45 7140 6584 L 0 45 7393 6584 L 0 90 7646 6539 L 0 45 7899 6584 L
0 45 8151 6584 L 0 45 8404 6584 L 0 45 8657 6584 L 0 90 8910 6539 L 0 45 9163 6584 L 108 0 1032 990 L 12 6 1200 1038 L 18 18 C
0 -126 C -60 0 1374 1062 L -6 -54 C 6 6 C 18 6 C 18 0 C 18 -6 C 12 -12 C 6 -18 C 0 -12 C -6 -18 C -12 -12 C -18 -6 C -18 0 C -18 6 C
-6 6 C -6 12 C -18 -6 1458 1062 L -12 -18 C -6 -30 C 0 -18 C 6 -30 C 12 -18 C 18 -6 C 12 0 C 18 6 C 12 18 C 6 30 C 0 18 C -6 30 C
-12 18 C -18 6 C -12 0 C -18 -6 1578 1062 L -12 -18 C -6 -30 C 0 -18 C 6 -30 C 12 -18 C 18 -6 C 12 0 C 18 6 C 12 18 C 6 30 C 0 18 C
-6 30 C -12 18 C -18 6 C -12 0 C 108 0 2296 990 L 12 6 2464 1038 L 18 18 C 0 -126 C -18 -6 2602 1062 L -12 -18 C -6 -30 C 0 -18 C
6 -30 C 12 -18 C 18 -6 C 12 0 C 18 6 C 12 18 C 6 30 C 0 18 C -6 30 C -12 18 C -18 6 C -12 0 C -18 -6 2722 1062 L -12 -18 C -6 -30 C
0 -18 C 6 -30 C 12 -18 C 18 -6 C 12 0 C 18 6 C 12 18 C 6 30 C 0 18 C -6 30 C -12 18 C -18 6 C -12 0 C -18 -6 2842 1062 L -12 -18 C
-6 -30 C 0 -18 C 6 -30 C 12 -18 C 18 -6 C 12 0 C 18 6 C 12 18 C 6 30 C 0 18 C -6 30 C -12 18 C -18 6 C -12 0 C 108 0 3620 990 L
-60 0 3842 1062 L -6 -54 C 6 6 C 18 6 C 18 0 C 18 -6 C 12 -12 C 6 -18 C 0 -12 C -6 -18 C -12 -12 C -18 -6 C -18 0 C -18 6 C -6 6 C
-6 12 C -18 -6 3926 1062 L -12 -18 C -6 -30 C 0 -18 C 6 -30 C 12 -18 C 18 -6 C 12 0 C 18 6 C 12 18 C 6 30 C 0 18 C -6 30 C -12 18 C
-18 6 C -12 0 C -18 -6 4046 1062 L -12 -18 C -6 -30 C 0 -18 C 6 -30 C 12 -18 C 18 -6 C 12 0 C 18 6 C 12 18 C 6 30 C 0 18 C -6 30 C
-12 18 C -18 6 C -12 0 C -18 -6 5112 1062 L -12 -18 C -6 -30 C 0 -18 C 6 -30 C 12 -18 C 18 -6 C 12 0 C 18 6 C 12 18 C 6 30 C 0 18 C
-6 30 C -12 18 C -18 6 C -12 0 C -60 0 6292 1062 L -6 -54 C 6 6 C 18 6 C 18 0 C 18 -6 C 12 -12 C 6 -18 C 0 -12 C -6 -18 C -12 -12 C
-18 -6 C -18 0 C -18 6 C -6 6 C -6 12 C -18 -6 6376 1062 L -12 -18 C -6 -30 C 0 -18 C 6 -30 C 12 -18 C 18 -6 C 12 0 C 18 6 C 12 18 C
6 30 C 0 18 C -6 30 C -12 18 C -18 6 C -12 0 C -18 -6 6496 1062 L -12 -18 C -6 -30 C 0 -18 C 6 -30 C 12 -18 C 18 -6 C 12 0 C 18 6 C
12 18 C 6 30 C 0 18 C -6 30 C -12 18 C -18 6 C -12 0 C 12 6 7442 1038 L 18 18 C 0 -126 C -18 -6 7580 1062 L -12 -18 C -6 -30 C
0 -18 C 6 -30 C 12 -18 C 18 -6 C 12 0 C 18 6 C 12 18 C 6 30 C 0 18 C -6 30 C -12 18 C -18 6 C -12 0 C -18 -6 7700 1062 L -12 -18 C
-6 -30 C 0 -18 C 6 -30 C 12 -18 C 18 -6 C 12 0 C 18 6 C 12 18 C 6 30 C 0 18 C -6 30 C -12 18 C -18 6 C -12 0 C -18 -6 7820 1062 L
-12 -18 C -6 -30 C 0 -18 C 6 -30 C 12 -18 C 18 -6 C 12 0 C 18 6 C 12 18 C 6 30 C 0 18 C -6 30 C -12 18 C -18 6 C -12 0 C
12 6 8706 1038 L 18 18 C 0 -126 C -60 0 8880 1062 L -6 -54 C 6 6 C 18 6 C 18 0 C 18 -6 C 12 -12 C 6 -18 C 0 -12 C -6 -18 C -12 -12 C
-18 -6 C -18 0 C -18 6 C -6 6 C -6 12 C -18 -6 8964 1062 L -12 -18 C -6 -30 C 0 -18 C 6 -30 C 12 -18 C 18 -6 C 12 0 C 18 6 C 12 18 C
6 30 C 0 18 C -6 30 C -12 18 C -18 6 C -12 0 C -18 -6 9084 1062 L -12 -18 C -6 -30 C 0 -18 C 6 -30 C 12 -18 C 18 -6 C 12 0 C 18 6 C
12 18 C 6 30 C 0 18 C -6 30 C -12 18 C -18 6 C -12 0 C 90 0 975 1230 L 45 0 975 1535 L 45 0 975 1841 L 45 0 975 2146 L
45 0 975 2451 L 90 0 975 2756 L 45 0 975 3062 L 45 0 975 3367 L 45 0 975 3672 L 45 0 975 3978 L 90 0 975 4283 L 45 0 975 4588 L
45 0 975 4894 L 45 0 975 5199 L 45 0 975 5504 L 90 0 975 5809 L 45 0 975 6115 L 45 0 975 6420 L 0 108 784 973 L -6 12 736 1141 L
-18 18 C 126 0 C 6 -18 712 1279 L 18 -12 C 30 -6 C 18 0 C 30 6 C 18 12 C 6 18 C 0 12 C -6 18 C -18 12 C -30 6 C -18 0 C -30 -6 C
-18 -12 C -6 -18 C 0 -12 C 0 81 702 1363 L 0 -45 648 1530 L 40 -5 C -4 5 C -5 13 C 0 14 C 5 13 C 9 9 C 13 5 C 9 0 C 14 -5 C 9 -9 C
4 -13 C 0 -14 C -4 -13 C -5 -5 C -9 -4 C 6 -18 712 2750 L 18 -12 C 30 -6 C 18 0 C 30 6 C 18 12 C 6 18 C 0 12 C -6 18 C -18 12 C
-30 6 C -18 0 C -30 -6 C -18 -12 C -6 -18 C 0 -12 C -6 12 736 4116 L -18 18 C 126 0 C 6 -18 712 4254 L 18 -12 C 30 -6 C 18 0 C
30 6 C 18 12 C 6 18 C 0 12 C -6 18 C -18 12 C -30 6 C -18 0 C -30 -6 C -18 -12 C -6 -18 C 0 -12 C 0 81 702 4338 L 0 -45 648 4505 L
40 -5 C -4 5 C -5 13 C 0 14 C 5 13 C 9 9 C 13 5 C 9 0 C 14 -5 C 9 -9 C 4 -13 C 0 -14 C -4 -13 C -5 -5 C -9 -4 C -6 0 742 5505 L
-12 6 C -6 6 C -6 12 C 0 24 C 6 12 C 6 6 C 12 6 C 12 0 C 12 -6 C 18 -12 C 60 -60 C 0 84 C 84 84 742 5625 L 84 -84 742 5709 L
-6 12 736 5769 L -18 18 C 126 0 C 6 -18 712 5907 L 18 -12 C 30 -6 C 18 0 C 30 6 C 18 12 C 6 18 C 0 12 C -6 18 C -18 12 C -30 6 C
-18 0 C -30 -6 C -18 -12 C -6 -18 C 0 -12 C 0 81 702 5991 L 0 -45 648 6157 L 40 -4 C -4 4 C -5 14 C 0 13 C 5 14 C 9 9 C 13 4 C 9 0 C
14 -4 C 9 -9 C 4 -14 C 0 -13 C -4 -14 C -5 -4 C -9 -5 C
0 5459 9261 1170 L -97 0 9261 1344 L 0 108 9461 961 L -6 0 9419 1117 L -12 6 C -6 6 C -6 12 C 0 24 C 6 12 C 6 6 C 12 6 C 12 0 C
12 -6 C 18 -12 C 60 -60 C 0 84 C 84 84 9419 1237 L 84 -84 9419 1321 L -6 12 9413 1381 L -18 18 C 126 0 C 6 -18 9389 1519 L 18 -12 C
30 -6 C 18 0 C 30 6 C 18 12 C 6 18 C 0 12 C -6 18 C -18 12 C -30 6 C -18 0 C -30 -6 C -18 -12 C -6 -18 C 0 -12 C 0 81 9378 1603 L
0 49 9324 1725 L 36 -27 C 0 14 C 5 9 C 4 4 C 14 5 C 9 0 C 13 -5 C 9 -9 C 5 -13 C 0 -14 C -5 -13 C -4 -5 C -9 -4 C -48 0 9261 2050 L
-97 0 9261 2756 L 6 -18 9389 2750 L 18 -12 C 30 -6 C 18 0 C 30 6 C 18 12 C 6 18 C 0 12 C -6 18 C -18 12 C -30 6 C -18 0 C -30 -6 C
-18 -12 C -6 -18 C 0 -12 C -48 0 9261 3463 L -97 0 9261 4169 L -6 0 9419 3864 L -12 6 C -6 6 C -6 12 C 0 24 C 6 12 C 6 6 C 12 6 C
12 0 C 12 -6 C 18 -12 C 60 -60 C 0 84 C 84 84 9419 3984 L 84 -84 9419 4068 L -6 12 9413 4128 L -18 18 C 126 0 C 6 -18 9389 4266 L
18 -12 C 30 -6 C 18 0 C 30 6 C 18 12 C 6 18 C 0 12 C -6 18 C -18 12 C -30 6 C -18 0 C -30 -6 C -18 -12 C -6 -18 C 0 -12 C
0 81 9378 4350 L 0 50 9324 4471 L 36 -27 C 0 13 C 5 9 C 4 5 C 14 4 C 9 0 C 13 -4 C 9 -9 C 5 -14 C 0 -13 C -5 -14 C -4 -4 C -9 -5 C
-48 0 9261 4875 L -97 0 9261 5581 L 84 -60 9389 5330 L 0 90 C 126 0 9389 5330 L 84 84 9419 5396 L 84 -84 9419 5480 L
-6 12 9413 5540 L -18 18 C 126 0 C 6 -18 9389 5678 L 18 -12 C 30 -6 C 18 0 C 30 6 C 18 12 C 6 18 C 0 12 C -6 18 C -18 12 C -30 6 C
-18 0 C -30 -6 C -18 -12 C -6 -18 C 0 -12 C 0 81 9378 5762 L 0 49 9324 5884 L 36 -27 C 0 14 C 5 9 C 4 4 C 14 5 C 9 0 C 13 -5 C
9 -9 C 5 -13 C 0 -14 C -5 -13 C -4 -5 C -9 -4 C -48 0 9261 6287 L
61 0 9688 2730 L 0 54 9688 2730 L 6 18 C 6 6 C 12 6 C 12 0 C 12 -6 C 6 -6 C 6 -18 C 0 -54 C 1 0 9748 2772 L -7 -3 9749 2919 L
-6 -6 C -6 -12 C 0 -18 C 6 -12 C 12 -12 C 1 -1 C -12 -6 9748 3024 L -6 -18 C 0 -18 C 6 -18 C 12 -6 C 1 0 C 6 6 9688 3060 L -6 6 C
-6 -6 C 6 -6 C 19 0 9730 3066 L 61 0 9688 3180 L -12 -12 9748 3180 L -6 -12 C 0 -18 C 6 -12 C 12 -12 C 1 -1 C 19 0 9730 3228 L
19 0 9730 3294 L 19 0 9730 3408 L -12 -12 9748 3408 L -6 -12 C 0 -18 C 6 -12 C 12 -12 C 1 -1 C 61 0 9688 3456 L 6 6 9688 3594 L
-6 6 C -6 -6 C 6 -6 C 19 0 9730 3600 L 19 0 9730 3648 L -13 14 9749 3652 L -6 12 C 0 18 C 6 12 C 13 4 C 19 0 9730 3858 L
-12 12 9748 3858 L -6 12 C 0 18 C 6 11 C 12 12 C 1 1 C 19 0 9730 3971 L 19 0 9730 4037 L 61 0 9688 4085 L -12 -6 9748 4193 L
-6 -18 C 0 -18 C 6 -18 C 12 -6 C 1 1 C -7 -4 9749 4299 L -6 -6 C -6 -12 C 0 -18 C 6 -12 C 12 -12 C 1 0 C 19 0 9730 4439 L
-12 12 9748 4439 L -6 12 C 0 18 C 6 12 C 12 12 C 1 1 C -7 -4 9749 4617 L -6 -6 C -6 -12 C 0 -18 C 6 -12 C 12 -12 C 1 0 C
19 0 9730 4661 L -1 0 9749 4667 L -12 12 C -6 12 C 0 18 C 6 6 9688 4733 L -6 6 C -6 -6 C 6 -6 C 19 0 9730 4739 L 6 -12 9730 4811 L
12 -12 C 1 0 C -1 -1 9749 4854 L -12 -12 C -6 -12 C 0 -18 C 61 0 9688 4967 L -12 -12 9748 4967 L -6 -12 C 0 -18 C 6 -12 C 12 -12 C
1 0 C -12 -6 9748 5075 L -6 -18 C 0 -18 C 6 -18 C 12 -6 C 1 1 C
0 -96 3171 7145 L -6 -18 C -6 -6 C -12 -6 C -12 0 C -12 6 C -6 6 C -6 18 C 0 12 C 12 6 3231 7121 L 18 18 C 0 -126 C
-6 -18 3411 7103 L -12 -12 C -18 -6 C -6 0 C -18 6 C -12 12 C -6 18 C 0 6 C 6 18 C 12 12 C 18 6 C 6 0 C 18 -6 C 12 -12 C 6 -24 C
0 -30 C -6 -30 C -12 -18 C -18 -6 C -12 0 C -18 6 C -6 12 C 12 6 3471 7121 L 18 18 C 0 -126 C 12 6 3591 7121 L 18 18 C 0 -126 C
0 -108 3753 7127 L 108 0 3699 7073 L 12 6 3867 7121 L 18 18 C 0 -126 C 66 0 3981 7145 L -36 -48 C 18 0 C 12 -6 C 6 -6 C 6 -18 C
0 -12 C -6 -18 C -12 -12 C -18 -6 C -18 0 C -18 6 C -6 6 C -6 12 C -60 -84 4149 7145 L 90 0 C 0 -126 4149 7145 L
-60 -126 4293 7145 L 84 0 4209 7145 L -12 -12 4473 7169 L -12 -18 C -12 -24 C -6 -30 C 0 -24 C 6 -30 C 12 -24 C 12 -18 C 12 -12 C
30 -126 4503 7145 L -30 -126 4563 7145 L 30 -126 4563 7145 L -30 -126 4623 7145 L 0 -84 4659 7103 L 6 18 4659 7067 L 12 12 C 12 6 C
18 0 C 0 -84 4737 7103 L 18 18 4737 7079 L 12 6 C 18 0 C 12 -6 C 6 -18 C 0 -60 C 18 18 4803 7079 L 12 6 C 18 0 C 12 -6 C 6 -18 C
0 -60 C -6 12 4977 7085 L -18 6 C -18 0 C -18 -6 C -6 -12 C 6 -12 C 12 -6 C 30 -6 C 12 -6 C 6 -12 C 0 -6 C -6 -12 C -18 -6 C -18 0 C
-18 6 C -6 12 C 108 0 5115 7091 L 108 0 5115 7055 L 12 6 5379 7121 L 18 18 C 0 -126 C -6 -6 5493 7031 L 6 -6 C 6 6 C -6 6 C
12 6 5559 7121 L 18 18 C 0 -126 C -18 -6 5697 7145 L -12 -18 C -6 -30 C 0 -18 C 6 -30 C 12 -18 C 18 -6 C 12 0 C 18 6 C 12 18 C
6 30 C 0 18 C -6 30 C -12 18 C -18 6 C -12 0 C 66 0 5793 7145 L -36 -48 C 18 0 C 12 -6 C 6 -6 C 6 -18 C 0 -12 C -6 -18 C -12 -12 C
-18 -6 C -18 0 C -18 6 C -6 6 C -6 12 C -36 -126 6021 7103 L -6 -30 6015 7079 L 0 -18 C 12 -12 C 12 0 C 12 6 C 12 12 C 12 24 C
-12 -42 6081 7103 L -6 -24 C 0 -12 C 6 -6 C 12 0 C 12 12 C 6 12 C -6 12 6189 7085 L -18 6 C -18 0 C -18 -6 C -6 -12 C 6 -12 C
12 -6 C 30 -6 C 12 -6 C 6 -12 C 0 -6 C -6 -12 C -18 -6 C -18 0 C -18 6 C -6 12 C 12 -12 6225 7169 L 12 -18 C 12 -24 C 6 -30 C
0 -24 C -6 -30 C -12 -24 C -12 -18 C -12 -12 C 0 -126 6411 7103 L 12 12 6411 7085 L 12 6 C 18 0 C 12 -6 C 12 -12 C 6 -18 C 0 -12 C
-6 -18 C -12 -12 C -12 -6 C -18 0 C -12 6 C -12 12 C -12 -6 6549 7103 L -12 -12 C -6 -18 C 0 -12 C 6 -18 C 12 -12 C 12 -6 C 18 0 C
12 6 C 12 12 C 6 18 C 0 12 C -6 18 C -12 12 C -12 6 C -18 0 C -6 12 6699 7085 L -18 6 C -18 0 C -18 -6 C -6 -12 C 6 -12 C 12 -6 C
30 -6 C 12 -6 C 6 -12 C 0 -6 C -6 -12 C -18 -6 C -18 0 C -18 6 C -6 12 C 0 -102 6747 7145 L 6 -18 C 12 -6 C 12 0 C 42 0 6729 7103 L
108 0 6813 7073 L -12 0 7005 7145 L -12 -6 C -6 -18 C 0 -102 C 42 0 6957 7103 L 6 -6 7035 7145 L 6 6 C -6 6 C -6 -6 C
0 -84 7041 7103 L 0 -102 7095 7145 L 6 -18 C 12 -6 C 12 0 C 42 0 7077 7103 L 0 -126 4491 672 L 48 -126 4491 672 L
-48 -126 4587 672 L 0 -126 4587 672 L 0 -96 4683 672 L -6 -18 C -6 -6 C -12 -6 C -12 0 C -12 6 C -6 6 C -6 18 C 0 12 C
0 -126 4731 672 L 42 0 4731 672 L 18 -6 C 12 -12 C 6 -12 C 6 -18 C 0 -30 C -6 -18 C -6 -12 C -12 -12 C -18 -6 C -42 0 C
108 0 4857 600 L -60 0 5079 672 L -6 -54 C 6 6 C 18 6 C 18 0 C 18 -6 C 12 -12 C 6 -18 C 0 -12 C -6 -18 C -12 -12 C -18 -6 C -18 0 C
-18 6 C -6 6 C -6 12 C -60 0 5199 672 L -6 -54 C 6 6 C 18 6 C 18 0 C 18 -6 C 12 -12 C 6 -18 C 0 -12 C -6 -18 C -12 -12 C -18 -6 C
-18 0 C -18 6 C -6 6 C -6 12 C -60 -84 5307 672 L 90 0 C 0 -126 5307 672 L -6 12 5445 654 L -18 6 C -12 0 C -18 -6 C -12 -18 C
-6 -30 C 0 -30 C 6 -24 C 12 -12 C 18 -6 C 6 0 C 18 6 C 12 12 C 6 18 C 0 6 C -6 18 C -12 12 C -18 6 C -6 0 C -18 -6 C -12 -12 C
-6 -18 C 12 6 5505 648 L 18 18 C 0 -126 C -6 -6 5619 558 L 6 -6 C 6 6 C -6 6 C -60 -84 5727 672 L 90 0 C 0 -126 5727 672 L
126 0 420 2895 L 0 54 420 2895 L 6 18 C 6 6 C 12 6 C 18 0 C 12 -6 C 6 -6 C 6 -18 C 0 -54 C 6 -12 462 3045 L 12 -12 C 18 -6 C 12 0 C
18 6 C 12 12 C 6 12 C 0 18 C -6 12 C -12 12 C -18 6 C -12 0 C -18 -6 C -12 -12 C -6 -12 C 0 -18 C -12 -6 480 3195 L -6 -18 C 0 -18 C
6 -18 C 12 -6 C 12 6 C 6 12 C 6 30 C 6 12 C 12 6 C 6 0 C 12 -6 C 6 -18 C 0 -18 C -6 -18 C -12 -6 C 102 0 420 3243 L 18 6 C 6 12 C
0 12 C 0 42 462 3225 L 0 -12 420 3345 L 6 -12 C 18 -6 C 102 0 C 0 42 462 3297 L 6 6 420 3375 L -6 6 C -6 -6 C 6 -6 C 84 0 462 3381 L
102 0 420 3435 L 18 6 C 6 12 C 0 12 C 0 42 462 3417 L 126 0 420 3597 L 0 54 420 3597 L 6 18 C 6 6 C 12 6 C 12 0 C 12 -6 C 6 -6 C
6 -18 C 0 -54 C 66 42 480 3639 L 0 72 498 3717 L -12 0 C -12 -6 C -6 -6 C -6 -12 C 0 -18 C 6 -12 C 12 -12 C 18 -6 C 12 0 C 18 6 C
12 12 C 6 12 C 0 18 C -6 12 C -12 12 C -12 -6 480 3891 L -6 -18 C 0 -18 C 6 -18 C 12 -6 C 12 6 C 6 12 C 6 30 C 6 12 C 12 6 C 6 0 C
12 -6 C 6 -18 C 0 -18 C -6 -18 C -12 -6 C 6 6 420 3926 L -6 6 C -6 -6 C 6 -6 C 84 0 462 3932 L 126 0 420 4046 L -12 -12 480 4046 L
-6 -12 C 0 -18 C 6 -12 C 12 -12 C 18 -6 C 12 0 C 18 6 C 12 12 C 6 12 C 0 18 C -6 12 C -12 12 C 60 0 462 4094 L 18 6 C 6 12 C 0 18 C
-6 12 C -18 18 C 84 0 462 4160 L 84 0 462 4274 L -12 -12 480 4274 L -6 -12 C 0 -18 C 6 -12 C 12 -12 C 18 -6 C 12 0 C 18 6 C 12 12 C
6 12 C 0 18 C -6 12 C -12 12 C 126 0 420 4322 L 12 -12 396 4508 L 18 -12 C 24 -12 C 30 -6 C 24 0 C 30 6 C 24 12 C 18 12 C 12 12 C
-12 -6 480 4610 L -6 -18 C 0 -18 C 6 -18 C 12 -6 C 12 6 C 6 12 C 6 30 C 6 12 C 12 6 C 6 0 C 12 -6 C 6 -18 C 0 -18 C -6 -18 C
-12 -6 C 0 72 498 4646 L -12 0 C -12 -6 C -6 -6 C -6 -12 C 0 -18 C 6 -12 C 12 -12 C 18 -6 C 12 0 C 18 6 C 12 12 C 6 12 C 0 18 C
-6 12 C -12 12 C -12 -12 480 4826 L -6 -12 C 0 -18 C 6 -12 C 12 -12 C 18 -6 C 12 0 C 18 6 C 12 12 C 6 12 C 0 18 C -6 12 C -12 12 C
12 12 396 4862 L 18 12 C 24 12 C 30 6 C 24 0 C 30 -6 C 24 -12 C 18 -12 C 12 -12 C
1024 0 0 K 0 1024 0 K
/M16 {MB -4 -4 moveto 0 8 rlineto 8 0 rlineto 0 -8                              
rlineto closepath fill ME} bind def                                             
/MFAC      5.999 def    
1665 2851 M16 1670 3016 M16 1681 2715 M16 1683 2504 M16 1728 2732 M16 1814 2616 M16 2016 2955 M16 2107 2782 M16 2162 2549 M16
2220 2916 M16 2371 2623 M16 2399 2760 M16 2520 2414 M16 2747 2832 M16 2825 2644 M16 2936 2676 M16 3075 2886 M16 3206 2652 M16
3256 2409 M16 3256 2598 M16 3314 2428 M16 3425 2886 M16 3589 2756 M16 3692 2504 M16 3773 2640 M16 3776 2606 M16 3831 3342 M16
3838 2800 M16 3876 2413 M16 3899 2702 M16 3970 2632 M16 4000 2688 M16 4065 2702 M16 4081 2699 M16 4148 2611 M16 4161 3849 M16
4191 2835 M16 4264 2526 M16 4303 2424 M16 4396 2785 M16 4409 3171 M16 4439 2405 M16 4479 2490 M16 4557 2623 M16 4580 2539 M16
4632 2778 M16 4706 2200 M16 4741 2860 M16 4771 2985 M16 4887 1777 M16 4948 2733 M16 4955 2940 M16 5000 1812 M16 5043 1625 M16
5087 2655 M16 5096 2716 M16 5135 2701 M16 5142 2805 M16 5180 2098 M16 5195 2773 M16 5326 2972 M16 5353 3180 M16 5392 2908 M16
5430 3516 M16 5478 3414 M16 5500 2572 M16 5517 2927 M16 5566 3288 M16 5618 3378 M16 5618 2545 M16 5645 2270 M16 5671 2598 M16
5677 2989 M16 5709 2701 M16 5749 3041 M16 5798 3246 M16 5807 2817 M16 5832 3295 M16 5911 2135 M16 5944 4032 M16 5987 3923 M16
6067 2787 M16 6148 2615 M16 6175 2382 M16 6220 2668 M16 6269 2726 M16 6271 2646 M16 6327 2756 M16 6364 3628 M16 6364 2722 M16
6399 2592 M16 6435 2586 M16 6441 2534 M16 6505 2980 M16 6524 1836 M16 6622 2914 M16 6659 2679 M16 6733 3331 M16 6816 3094 M16
6854 6174 M16 6863 2831 M16 6887 2787 M16 6940 2668 M16 7114 2879 M16 7167 2440 M16 7343 2697 M16 7406 3152 M16 7464 3223 M16
7517 2304 M16 7598 2633 M16 7627 2660 M16 7635 2800 M16 7681 2864 M16 7733 2680 M16 7796 2736 M16 7801 2553 M16 7806 2729 M16
7829 2440 M16 7920 2529 M16 7930 2230 M16 7980 2877 M16 8011 2809 M16 8023 2729 M16 8031 2312 M16 8046 2841 M16 8064 2240 M16
8126 2825 M16 8141 2532 M16 8174 2717 M16 8193 1837 M16 8237 2650 M16 8270 2991 M16 8277 2817 M16 8298 3275 M16 8349 2046 M16
8386 2840 M16 8394 2586 M16 8422 2368 M16 8489 2706 M16 8571 3026 M16
45 0 1643 2725 L 0 252 1665 2725 L 45 0 1643 2977 L 45 0 1648 2875 L 0 281 1670 2875 L 45 0 1648 3156 L 45 0 1658 2585 L
0 260 1681 2585 L 45 0 1658 2845 L 45 0 1661 2368 L 0 273 1683 2368 L 45 0 1661 2641 L 45 0 1706 2599 L 0 266 1728 2599 L
45 0 1706 2865 L 45 0 1792 2473 L 0 286 1814 2473 L 45 0 1792 2759 L 45 0 1993 2800 L 0 310 2016 2800 L 45 0 1993 3110 L
45 0 2084 2362 L 0 841 2107 2362 L 45 0 2084 3203 L 45 0 2140 2189 L 0 720 2162 2189 L 45 0 2140 2909 L 45 0 2198 2700 L
0 432 2220 2700 L 45 0 2198 3132 L 45 0 2349 2299 L 0 648 2371 2299 L 45 0 2349 2947 L 44 0 2377 2476 L 0 569 2399 2476 L
44 0 2377 3045 L 45 0 2498 2154 L 0 519 2520 2154 L 45 0 2498 2673 L 45 0 2724 2671 L 0 321 2747 2671 L 45 0 2724 2992 L
45 0 2803 2530 L 0 228 2825 2530 L 45 0 2803 2758 L 45 0 2913 2553 L 0 245 2936 2553 L 45 0 2913 2798 L 45 0 3052 2698 L
0 377 3075 2698 L 45 0 3052 3075 L 45 0 3183 2411 L 0 482 3206 2411 L 45 0 3183 2893 L 45 0 3234 1888 L 0 1043 3256 1888 L
45 0 3234 2931 L 45 0 3234 2480 L 0 236 3256 2480 L 45 0 3234 2716 L 45 0 3292 2268 L 0 320 3314 2268 L 45 0 3292 2588 L
45 0 3402 2745 L 0 283 3425 2745 L 45 0 3402 3028 L 45 0 3566 2498 L 0 517 3589 2498 L 45 0 3566 3015 L 45 0 3670 2390 L
0 229 3692 2390 L 45 0 3670 2619 L 45 0 3750 2558 L 0 163 3773 2558 L 45 0 3750 2721 L 45 0 3754 2372 L 0 469 3776 2372 L
45 0 3754 2841 L 45 0 3809 2932 L 0 820 3831 2932 L 45 0 3809 3752 L 45 0 3816 2709 L 0 183 3838 2709 L 45 0 3816 2892 L
45 0 3854 1812 L 0 1201 3876 1812 L 45 0 3854 3013 L 45 0 3876 2561 L 0 282 3899 2561 L 45 0 3876 2843 L 45 0 3947 2531 L
0 202 3970 2531 L 45 0 3947 2733 L 45 0 3977 2597 L 0 181 4000 2597 L 45 0 3977 2778 L 45 0 4043 2619 L 0 166 4065 2619 L
45 0 4043 2785 L 45 0 4058 2406 L 0 585 4081 2406 L 45 0 4058 2991 L 45 0 4126 2521 L 0 181 4148 2521 L 45 0 4126 2702 L
45 0 4138 3318 L 0 1062 4161 3318 L 45 0 4138 4380 L 45 0 4169 2747 L 0 176 4191 2747 L 45 0 4169 2923 L 45 0 4242 2388 L
0 276 4264 2388 L 45 0 4242 2664 L 45 0 4280 1991 L 0 866 4303 1991 L 45 0 4280 2857 L 45 0 4373 2698 L 0 174 4396 2698 L
45 0 4373 2872 L 45 0 4386 2715 L 0 912 4409 2715 L 45 0 4386 3627 L 45 0 4417 1742 L 0 1325 4439 1742 L 45 0 4417 3067 L
45 0 4457 2242 L 0 496 4479 2242 L 45 0 4457 2738 L 45 0 4534 2541 L 0 164 4557 2541 L 45 0 4534 2705 L 45 0 4558 2176 L
0 726 4580 2176 L 45 0 4558 2902 L 45 0 4610 2691 L 0 174 4632 2691 L 45 0 4610 2865 L 45 0 4684 1552 L 0 1295 4706 1552 L
45 0 4684 2847 L 45 0 4718 2780 L 0 161 4741 2780 L 45 0 4718 2941 L 45 0 4748 2476 L 0 1018 4771 2476 L 45 0 4748 3494 L
0 1218 4887 1170 L 45 0 4864 2388 L 45 0 4925 2588 L 0 291 4948 2588 L 45 0 4925 2879 L 45 0 4932 2474 L 0 931 4955 2474 L
45 0 4932 3405 L 45 0 4978 1188 L 0 1249 5000 1188 L 45 0 4978 2437 L 0 1293 5043 1170 L 45 0 5020 2463 L 45 0 5064 2063 L
0 1184 5087 2063 L 45 0 5064 3247 L 45 0 5074 2601 L 0 229 5096 2601 L 45 0 5074 2830 L 45 0 5112 2283 L 0 837 5135 2283 L
45 0 5112 3120 L 45 0 5119 2706 L 0 198 5142 2706 L 45 0 5119 2904 L 45 0 5158 1644 L 0 908 5180 1644 L 45 0 5158 2552 L
45 0 5172 2687 L 0 172 5195 2687 L 45 0 5172 2859 L 45 0 5303 2802 L 0 341 5326 2802 L 45 0 5303 3143 L 45 0 5330 2786 L
0 787 5353 2786 L 45 0 5330 3573 L 45 0 5369 2399 L 0 1019 5392 2399 L 45 0 5369 3418 L 45 0 5407 2713 L 0 1606 5430 2713 L
45 0 5407 4319 L 45 0 5455 2875 L 0 1078 5478 2875 L 45 0 5455 3953 L 45 0 5477 2143 L 0 858 5500 2143 L 45 0 5477 3001 L
45 0 5495 2649 L 0 555 5517 2649 L 45 0 5495 3204 L 45 0 5543 2765 L 0 1045 5566 2765 L 45 0 5543 3810 L 45 0 5595 2575 L
0 1605 5618 2575 L 45 0 5595 4180 L 45 0 5595 2006 L 0 1078 5618 2006 L 45 0 5595 3084 L 45 0 5623 1523 L 0 1494 5645 1523 L
45 0 5623 3017 L 45 0 5649 2456 L 0 284 5671 2456 L 45 0 5649 2740 L 45 0 5654 2618 L 0 742 5677 2618 L 45 0 5654 3360 L
45 0 5687 2162 L 0 1078 5709 2162 L 45 0 5687 3240 L 45 0 5726 2199 L 0 1685 5749 2199 L 45 0 5726 3884 L 45 0 5775 2396 L
0 1700 5798 2396 L 45 0 5775 4096 L 45 0 5785 2697 L 0 241 5807 2697 L 45 0 5785 2938 L 45 0 5809 2746 L 0 1098 5832 2746 L
45 0 5809 3844 L 45 0 5889 1439 L 0 1391 5911 1439 L 45 0 5889 2830 L 45 0 5922 2727 L 0 2610 5944 2727 L 45 0 5922 5337 L
45 0 5964 3459 L 0 928 5987 3459 L 45 0 5964 4387 L 45 0 6045 2288 L 0 998 6067 2288 L 45 0 6045 3286 L 45 0 6125 2490 L
0 250 6148 2490 L 45 0 6125 2740 L 45 0 6152 1419 L 0 1926 6175 1419 L 45 0 6152 3345 L 45 0 6198 2247 L 0 842 6220 2247 L
45 0 6198 3089 L 45 0 6246 2363 L 0 727 6269 2363 L 45 0 6246 3090 L 45 0 6249 1781 L 0 1731 6271 1781 L 45 0 6249 3512 L
45 0 6305 2081 L 0 1350 6327 2081 L 45 0 6305 3431 L 45 0 6341 2799 L 0 1657 6364 2799 L 45 0 6341 4456 L 45 0 6342 2425 L
0 593 6364 2425 L 45 0 6342 3018 L 45 0 6377 2053 L 0 1079 6399 2053 L 45 0 6377 3132 L 45 0 6412 2482 L 0 207 6435 2482 L
45 0 6412 2689 L 45 0 6418 2267 L 0 534 6441 2267 L 45 0 6418 2801 L 45 0 6483 2745 L 0 470 6505 2745 L 45 0 6483 3215 L
0 1579 6524 1170 L 45 0 6501 2749 L 45 0 6600 2704 L 0 419 6622 2704 L 45 0 6600 3123 L 45 0 6637 2599 L 0 159 6659 2599 L
45 0 6637 2758 L 45 0 6711 2881 L 0 900 6733 2881 L 45 0 6711 3781 L 45 0 6794 2401 L 0 1386 6816 2401 L 45 0 6794 3787 L
45 0 6832 4705 L 0 1924 6854 4705 L 45 0 6841 2615 L 0 431 6863 2615 L 45 0 6841 3046 L 45 0 6864 2551 L 0 472 6887 2551 L
45 0 6864 3023 L 45 0 6917 2222 L 0 892 6940 2222 L 45 0 6917 3114 L 45 0 7091 2540 L 0 678 7114 2540 L 45 0 7091 3218 L
45 0 7144 2054 L 0 772 7167 2054 L 45 0 7144 2826 L 45 0 7321 2319 L 0 755 7343 2319 L 45 0 7321 3074 L 45 0 7384 2664 L
0 977 7406 2664 L 45 0 7384 3641 L 45 0 7442 2709 L 0 1028 7464 2709 L 45 0 7442 3737 L 45 0 7494 1548 L 0 1512 7517 1548 L
45 0 7494 3060 L 45 0 7575 2242 L 0 782 7598 2242 L 45 0 7575 3024 L 45 0 7605 2539 L 0 241 7627 2539 L 45 0 7605 2780 L
45 0 7612 2667 L 0 266 7635 2667 L 45 0 7612 2933 L 45 0 7658 2649 L 0 429 7681 2649 L 45 0 7658 3078 L 45 0 7711 2256 L
0 847 7733 2256 L 45 0 7711 3103 L 45 0 7774 2215 L 0 1042 7796 2215 L 45 0 7774 3257 L 45 0 7779 2345 L 0 416 7801 2345 L
45 0 7779 2761 L 45 0 7784 2593 L 0 272 7806 2593 L 45 0 7784 2865 L 45 0 7806 2277 L 0 327 7829 2277 L 45 0 7806 2604 L
45 0 7897 2145 L 0 767 7920 2145 L 45 0 7897 2912 L 45 0 7908 1530 L 0 1400 7930 1530 L 45 0 7908 2930 L 45 0 7958 2695 L
0 363 7980 2695 L 45 0 7958 3058 L 45 0 7989 2557 L 0 504 8011 2557 L 45 0 7989 3061 L 45 0 8001 2670 L 0 118 8023 2670 L
45 0 8001 2788 L 45 0 8008 2062 L 0 500 8031 2062 L 45 0 8008 2562 L 45 0 8023 2735 L 0 212 8046 2735 L 45 0 8023 2947 L
45 0 8042 1992 L 0 497 8064 1992 L 45 0 8042 2489 L 45 0 8104 2653 L 0 344 8126 2653 L 45 0 8104 2997 L 45 0 8119 2232 L
0 600 8141 2232 L 45 0 8119 2832 L 45 0 8152 2472 L 0 490 8174 2472 L 45 0 8152 2962 L 45 0 8170 1498 L 0 679 8193 1498 L
45 0 8170 2177 L 45 0 8215 2517 L 0 266 8237 2517 L 45 0 8215 2783 L 45 0 8248 2819 L 0 345 8270 2819 L 45 0 8248 3164 L
45 0 8255 2620 L 0 395 8277 2620 L 45 0 8255 3015 L 45 0 8275 3045 L 0 460 8298 3045 L 45 0 8275 3505 L 45 0 8326 1641 L
0 809 8349 1641 L 45 0 8326 2450 L 45 0 8364 2514 L 0 652 8386 2514 L 45 0 8364 3166 L 45 0 8371 2445 L 0 283 8394 2445 L
45 0 8371 2728 L 45 0 8400 2107 L 0 521 8422 2107 L 45 0 8400 2628 L 45 0 8467 2593 L 0 227 8489 2593 L 45 0 8467 2820 L
45 0 8548 2647 L 0 758 8571 2647 L 45 0 8548 3405 L
1024 0 1024 K 0 1024 1024 K 0 0 0 K
PGPLOT restore showpage
%%PageTrailer
%%PageBoundingBox: 24 17 588 721
 
%%Trailer
%%BoundingBox: 24 17 588 721
%%DocumentFonts: 
%%Pages: 1
%%EOF
