%!PS-Adobe-3.0 EPSF-3.0
%%For: bperera
%%Title: PGPLOT PostScript plot
%%Creator: PGPLOT [PSDRIV 6.6]
%%CreationDate: 26-May-2016 15:22
%%BoundingBox: (atend)
%%DocumentFonts: (atend)
%%LanguageLevel: 1
%%Orientation: Landscape
%%Pages: (atend)
%%EndComments
%%BeginProlog
/L {moveto rlineto currentpoint stroke moveto} bind def
/C {rlineto currentpoint stroke moveto} bind def
/D {moveto 0 0 rlineto currentpoint stroke moveto} bind def
/LW {5 mul setlinewidth} bind def
/BP {newpath moveto} bind def
/LP /rlineto load def
/EP {rlineto closepath eofill} bind def
/MB {gsave translate MFAC dup scale 1 setlinewidth 2 setlinecap 0 setlinejoin newpath} bind def
/ME /grestore load def
/CC {0 360 arc stroke} bind def
/FC {0 360 arc fill} bind def
/G {1024 div setgray} bind def
/K {3 -1 roll 1024 div 3 -1 roll 1024 div 3 -1 roll 1024 div setrgbcolor} bind def
% Uncomment next line to convert color to grey shades
%/K {3 -1 roll 3413 div 3 -1 roll 1739 div 3 -1 roll 9309 div add add setgray} bind def
%%EndProlog
%%BeginSetup
/#copies 1 def
%%EndSetup
 
%%Page: 1 1
%%BeginPageSetup
/PGPLOT save def
0.072 0.072 scale
8149 250 translate 90 rotate
1 setlinejoin 1 setlinecap 1 LW 1
%%EndPageSetup
%%PageBoundingBox: (atend)
1024 1024 1024 K 1 LW 0 0 BP 9749 0 LP 0 7799 LP -9749 0 EP 0 0 0 K
8286 0 975 1170 L -8286 0 9261 6629 L 0 -5459 C 0 45 1034 1170 L 0 45 1249 1170 L 0 45 1464 1170 L 0 45 1679 1170 L 0 90 1894 1170 L
0 45 2109 1170 L 0 45 2324 1170 L 0 45 2539 1170 L 0 45 2754 1170 L 0 90 2968 1170 L 0 45 3183 1170 L 0 45 3398 1170 L
0 45 3613 1170 L 0 45 3828 1170 L 0 90 4043 1170 L 0 45 4258 1170 L 0 45 4473 1170 L 0 45 4688 1170 L 0 45 4903 1170 L
0 90 5118 1170 L 0 45 5333 1170 L 0 45 5548 1170 L 0 45 5763 1170 L 0 45 5978 1170 L 0 90 6193 1170 L 0 45 6408 1170 L
0 45 6623 1170 L 0 45 6838 1170 L 0 45 7053 1170 L 0 90 7268 1170 L 0 45 7483 1170 L 0 45 7698 1170 L 0 45 7913 1170 L
0 45 8128 1170 L 0 90 8343 1170 L 0 45 8557 1170 L 0 45 8772 1170 L 0 45 8987 1170 L 0 45 9202 1170 L 0 45 1034 6584 L
0 45 1249 6584 L 0 45 1464 6584 L 0 45 1679 6584 L 0 90 1894 6539 L 0 45 2109 6584 L 0 45 2324 6584 L 0 45 2539 6584 L
0 45 2754 6584 L 0 90 2968 6539 L 0 45 3183 6584 L 0 45 3398 6584 L 0 45 3613 6584 L 0 45 3828 6584 L 0 90 4043 6539 L
0 45 4258 6584 L 0 45 4473 6584 L 0 45 4688 6584 L 0 45 4903 6584 L 0 90 5118 6539 L 0 45 5333 6584 L 0 45 5548 6584 L
0 45 5763 6584 L 0 45 5978 6584 L 0 90 6193 6539 L 0 45 6408 6584 L 0 45 6623 6584 L 0 45 6838 6584 L 0 45 7053 6584 L
0 90 7268 6539 L 0 45 7483 6584 L 0 45 7698 6584 L 0 45 7913 6584 L 0 45 8128 6584 L 0 90 8343 6539 L 0 45 8557 6584 L
0 45 8772 6584 L 0 45 8987 6584 L 0 45 9202 6584 L 108 0 1600 990 L 12 6 1768 1038 L 18 18 C 0 -126 C -60 0 1942 1062 L -6 -54 C
6 6 C 18 6 C 18 0 C 18 -6 C 12 -12 C 6 -18 C 0 -12 C -6 -18 C -12 -12 C -18 -6 C -18 0 C -18 6 C -6 6 C -6 12 C -18 -6 2026 1062 L
-12 -18 C -6 -30 C 0 -18 C 6 -30 C 12 -18 C 18 -6 C 12 0 C 18 6 C 12 18 C 6 30 C 0 18 C -6 30 C -12 18 C -18 6 C -12 0 C
-18 -6 2146 1062 L -12 -18 C -6 -30 C 0 -18 C 6 -30 C 12 -18 C 18 -6 C 12 0 C 18 6 C 12 18 C 6 30 C 0 18 C -6 30 C -12 18 C -18 6 C
-12 0 C 107 0 2675 990 L 12 6 2842 1038 L 18 18 C 0 -126 C -18 -6 2980 1062 L -12 -18 C -6 -30 C 0 -18 C 6 -30 C 12 -18 C 18 -6 C
12 0 C 18 6 C 12 18 C 6 30 C 0 18 C -6 30 C -12 18 C -18 6 C -12 0 C -18 -6 3100 1062 L -12 -18 C -6 -30 C 0 -18 C 6 -30 C 12 -18 C
18 -6 C 12 0 C 18 6 C 12 18 C 6 30 C 0 18 C -6 30 C -12 18 C -18 6 C -12 0 C -18 -6 3220 1062 L -12 -18 C -6 -30 C 0 -18 C 6 -30 C
12 -18 C 18 -6 C 12 0 C 18 6 C 12 18 C 6 30 C 0 18 C -6 30 C -12 18 C -18 6 C -12 0 C 108 0 3809 990 L -60 0 4031 1062 L -6 -54 C
6 6 C 18 6 C 18 0 C 18 -6 C 12 -12 C 6 -18 C 0 -12 C -6 -18 C -12 -12 C -18 -6 C -18 0 C -18 6 C -6 6 C -6 12 C -18 -6 4115 1062 L
-12 -18 C -6 -30 C 0 -18 C 6 -30 C 12 -18 C 18 -6 C 12 0 C 18 6 C 12 18 C 6 30 C 0 18 C -6 30 C -12 18 C -18 6 C -12 0 C
-18 -6 4235 1062 L -12 -18 C -6 -30 C 0 -18 C 6 -30 C 12 -18 C 18 -6 C 12 0 C 18 6 C 12 18 C 6 30 C 0 18 C -6 30 C -12 18 C -18 6 C
-12 0 C -18 -6 5112 1062 L -12 -18 C -6 -30 C 0 -18 C 6 -30 C 12 -18 C 18 -6 C 12 0 C 18 6 C 12 18 C 6 30 C 0 18 C -6 30 C -12 18 C
-18 6 C -12 0 C -60 0 6103 1062 L -6 -54 C 6 6 C 18 6 C 18 0 C 18 -6 C 12 -12 C 6 -18 C 0 -12 C -6 -18 C -12 -12 C -18 -6 C -18 0 C
-18 6 C -6 6 C -6 12 C -18 -6 6187 1062 L -12 -18 C -6 -30 C 0 -18 C 6 -30 C 12 -18 C 18 -6 C 12 0 C 18 6 C 12 18 C 6 30 C 0 18 C
-6 30 C -12 18 C -18 6 C -12 0 C -18 -6 6307 1062 L -12 -18 C -6 -30 C 0 -18 C 6 -30 C 12 -18 C 18 -6 C 12 0 C 18 6 C 12 18 C 6 30 C
0 18 C -6 30 C -12 18 C -18 6 C -12 0 C 12 6 7064 1038 L 18 18 C 0 -126 C -18 -6 7202 1062 L -12 -18 C -6 -30 C 0 -18 C 6 -30 C
12 -18 C 18 -6 C 12 0 C 18 6 C 12 18 C 6 30 C 0 18 C -6 30 C -12 18 C -18 6 C -12 0 C -18 -6 7322 1062 L -12 -18 C -6 -30 C 0 -18 C
6 -30 C 12 -18 C 18 -6 C 12 0 C 18 6 C 12 18 C 6 30 C 0 18 C -6 30 C -12 18 C -18 6 C -12 0 C -18 -6 7442 1062 L -12 -18 C -6 -30 C
0 -18 C 6 -30 C 12 -18 C 18 -6 C 12 0 C 18 6 C 12 18 C 6 30 C 0 18 C -6 30 C -12 18 C -18 6 C -12 0 C 12 6 8139 1038 L 18 18 C
0 -126 C -60 0 8313 1062 L -6 -54 C 6 6 C 18 6 C 18 0 C 18 -6 C 12 -12 C 6 -18 C 0 -12 C -6 -18 C -12 -12 C -18 -6 C -18 0 C -18 6 C
-6 6 C -6 12 C -18 -6 8397 1062 L -12 -18 C -6 -30 C 0 -18 C 6 -30 C 12 -18 C 18 -6 C 12 0 C 18 6 C 12 18 C 6 30 C 0 18 C -6 30 C
-12 18 C -18 6 C -12 0 C -18 -6 8517 1062 L -12 -18 C -6 -30 C 0 -18 C 6 -30 C 12 -18 C 18 -6 C 12 0 C 18 6 C 12 18 C 6 30 C 0 18 C
-6 30 C -12 18 C -18 6 C -12 0 C 45 0 975 1245 L 90 0 975 1642 L 45 0 975 2040 L 45 0 975 2438 L 45 0 975 2835 L 45 0 975 3233 L
90 0 975 3631 L 45 0 975 4029 L 45 0 975 4426 L 45 0 975 4824 L 45 0 975 5222 L 90 0 975 5619 L 45 0 975 6017 L 45 0 975 6415 L
0 108 784 1260 L 0 -60 712 1482 L 54 -6 C -6 6 C -6 18 C 0 18 C 6 18 C 12 12 C 18 6 C 12 0 C 18 -6 C 12 -12 C 6 -18 C 0 -18 C
-6 -18 C -6 -6 C -12 -6 C 84 84 742 1536 L 84 -84 742 1620 L -6 12 736 1680 L -18 18 C 126 0 C 6 -18 712 1818 L 18 -12 C 30 -6 C
18 0 C 30 6 C 18 12 C 6 18 C 0 12 C -6 18 C -18 12 C -30 6 C -18 0 C -30 -6 C -18 -12 C -6 -18 C 0 -12 C 0 81 702 1902 L
0 -45 648 2068 L 40 -4 C -4 4 C -5 14 C 0 13 C 5 14 C 9 9 C 13 4 C 9 0 C 14 -4 C 9 -9 C 4 -14 C 0 -13 C -4 -14 C -5 -4 C -9 -5 C
6 -18 712 3625 L 18 -12 C 30 -6 C 18 0 C 30 6 C 18 12 C 6 18 C 0 12 C -6 18 C -18 12 C -30 6 C -18 0 C -30 -6 C -18 -12 C -6 -18 C
0 -12 C 0 -60 712 5380 L 54 -6 C -6 6 C -6 18 C 0 18 C 6 18 C 12 12 C 18 6 C 12 0 C 18 -6 C 12 -12 C 6 -18 C 0 -18 C -6 -18 C
-6 -6 C -12 -6 C 84 84 742 5434 L 84 -84 742 5518 L -6 12 736 5578 L -18 18 C 126 0 C 6 -18 712 5716 L 18 -12 C 30 -6 C 18 0 C
30 6 C 18 12 C 6 18 C 0 12 C -6 18 C -18 12 C -30 6 C -18 0 C -30 -6 C -18 -12 C -6 -18 C 0 -12 C 0 81 702 5800 L 0 -45 648 5967 L
40 -5 C -4 5 C -5 13 C 0 14 C 5 13 C 9 9 C 13 5 C 9 0 C 14 -5 C 9 -9 C 4 -13 C 0 -14 C -4 -13 C -5 -5 C -9 -4 C
0 5459 9261 1170 L -48 0 9261 1324 L -48 0 9261 1612 L -48 0 9261 1901 L -97 0 9261 2189 L 0 108 9461 1925 L 6 -18 9389 2111 L
18 -12 C 30 -6 C 18 0 C 30 6 C 18 12 C 6 18 C 0 12 C -6 18 C -18 12 C -30 6 C -18 0 C -30 -6 C -18 -12 C -6 -18 C 0 -12 C
6 -6 9503 2207 L 6 6 C -6 6 C -6 -6 C 6 -18 9389 2291 L 18 -12 C 30 -6 C 18 0 C 30 6 C 18 12 C 6 18 C 0 12 C -6 18 C -18 12 C
-30 6 C -18 0 C -30 -6 C -18 -12 C -6 -18 C 0 -12 C -6 12 9413 2393 L -18 18 C 126 0 C -48 0 9261 2477 L -48 0 9261 2766 L
-48 0 9261 3054 L -48 0 9261 3342 L -97 0 9261 3631 L 6 -18 9389 3625 L 18 -12 C 30 -6 C 18 0 C 30 6 C 18 12 C 6 18 C 0 12 C -6 18 C
-18 12 C -30 6 C -18 0 C -30 -6 C -18 -12 C -6 -18 C 0 -12 C -48 0 9261 3919 L -48 0 9261 4208 L -48 0 9261 4496 L -48 0 9261 4784 L
-97 0 9261 5073 L 6 -18 9389 4917 L 18 -12 C 30 -6 C 18 0 C 30 6 C 18 12 C 6 18 C 0 12 C -6 18 C -18 12 C -30 6 C -18 0 C -30 -6 C
-18 -12 C -6 -18 C 0 -12 C 6 -6 9503 5013 L 6 6 C -6 6 C -6 -6 C 6 -18 9389 5097 L 18 -12 C 30 -6 C 18 0 C 30 6 C 18 12 C 6 18 C
0 12 C -6 18 C -18 12 C -30 6 C -18 0 C -30 -6 C -18 -12 C -6 -18 C 0 -12 C -6 12 9413 5199 L -18 18 C 126 0 C -48 0 9261 5361 L
-48 0 9261 5649 L -48 0 9261 5938 L -48 0 9261 6226 L -97 0 9261 6515 L 6 -18 9389 6359 L 18 -12 C 30 -6 C 18 0 C 30 6 C 18 12 C
6 18 C 0 12 C -6 18 C -18 12 C -30 6 C -18 0 C -30 -6 C -18 -12 C -6 -18 C 0 -12 C 6 -6 9503 6455 L 6 6 C -6 6 C -6 -6 C
6 -18 9389 6539 L 18 -12 C 30 -6 C 18 0 C 30 6 C 18 12 C 6 18 C 0 12 C -6 18 C -18 12 C -30 6 C -18 0 C -30 -6 C -18 -12 C -6 -18 C
0 -12 C -6 0 9419 6629 L -12 6 C -6 6 C -6 12 C 0 24 C 6 12 C 6 6 C 12 6 C 12 0 C 12 -6 C 18 -12 C 60 -60 C 0 84 C
61 0 9688 2730 L 0 54 9688 2730 L 6 18 C 6 6 C 12 6 C 12 0 C 12 -6 C 6 -6 C 6 -18 C 0 -54 C 1 0 9748 2772 L -7 -3 9749 2919 L
-6 -6 C -6 -12 C 0 -18 C 6 -12 C 12 -12 C 1 -1 C -12 -6 9748 3024 L -6 -18 C 0 -18 C 6 -18 C 12 -6 C 1 0 C 6 6 9688 3060 L -6 6 C
-6 -6 C 6 -6 C 19 0 9730 3066 L 61 0 9688 3180 L -12 -12 9748 3180 L -6 -12 C 0 -18 C 6 -12 C 12 -12 C 1 -1 C 19 0 9730 3228 L
19 0 9730 3294 L 19 0 9730 3408 L -12 -12 9748 3408 L -6 -12 C 0 -18 C 6 -12 C 12 -12 C 1 -1 C 61 0 9688 3456 L 6 6 9688 3594 L
-6 6 C -6 -6 C 6 -6 C 19 0 9730 3600 L 19 0 9730 3648 L -13 14 9749 3652 L -6 12 C 0 18 C 6 12 C 13 4 C 19 0 9730 3858 L
-12 12 9748 3858 L -6 12 C 0 18 C 6 11 C 12 12 C 1 1 C 19 0 9730 3971 L 19 0 9730 4037 L 61 0 9688 4085 L -12 -6 9748 4193 L
-6 -18 C 0 -18 C 6 -18 C 12 -6 C 1 1 C -7 -4 9749 4299 L -6 -6 C -6 -12 C 0 -18 C 6 -12 C 12 -12 C 1 0 C 19 0 9730 4439 L
-12 12 9748 4439 L -6 12 C 0 18 C 6 12 C 12 12 C 1 1 C -7 -4 9749 4617 L -6 -6 C -6 -12 C 0 -18 C 6 -12 C 12 -12 C 1 0 C
19 0 9730 4661 L -1 0 9749 4667 L -12 12 C -6 12 C 0 18 C 6 6 9688 4733 L -6 6 C -6 -6 C 6 -6 C 19 0 9730 4739 L 6 -12 9730 4811 L
12 -12 C 1 0 C -1 -1 9749 4854 L -12 -12 C -6 -12 C 0 -18 C 61 0 9688 4967 L -12 -12 9748 4967 L -6 -12 C 0 -18 C 6 -12 C 12 -12 C
1 0 C -12 -6 9748 5075 L -6 -18 C 0 -18 C 6 -18 C 12 -6 C 1 1 C
0 -96 3171 7145 L -6 -18 C -6 -6 C -12 -6 C -12 0 C -12 6 C -6 6 C -6 18 C 0 12 C 12 6 3231 7121 L 18 18 C 0 -126 C
-6 -18 3411 7103 L -12 -12 C -18 -6 C -6 0 C -18 6 C -12 12 C -6 18 C 0 6 C 6 18 C 12 12 C 18 6 C 6 0 C 18 -6 C 12 -12 C 6 -24 C
0 -30 C -6 -30 C -12 -18 C -18 -6 C -12 0 C -18 6 C -6 12 C 12 6 3471 7121 L 18 18 C 0 -126 C 12 6 3591 7121 L 18 18 C 0 -126 C
108 0 3699 7073 L 12 6 3867 7121 L 18 18 C 0 -126 C 12 6 3987 7121 L 18 18 C 0 -126 C 12 6 4107 7121 L 18 18 C 0 -126 C
-60 -84 4269 7145 L 90 0 C 0 -126 4269 7145 L -12 -12 4473 7169 L -12 -18 C -12 -24 C -6 -30 C 0 -24 C 6 -30 C 12 -24 C 12 -18 C
12 -12 C 30 -126 4503 7145 L -30 -126 4563 7145 L 30 -126 4563 7145 L -30 -126 4623 7145 L 0 -84 4659 7103 L 6 18 4659 7067 L
12 12 C 12 6 C 18 0 C 0 -84 4737 7103 L 18 18 4737 7079 L 12 6 C 18 0 C 12 -6 C 6 -18 C 0 -60 C 18 18 4803 7079 L 12 6 C 18 0 C
12 -6 C 6 -18 C 0 -60 C -6 12 4977 7085 L -18 6 C -18 0 C -18 -6 C -6 -12 C 6 -12 C 12 -6 C 30 -6 C 12 -6 C 6 -12 C 0 -6 C -6 -12 C
-18 -6 C -18 0 C -18 6 C -6 12 C 108 0 5115 7091 L 108 0 5115 7055 L -60 -84 5421 7145 L 90 0 C 0 -126 5421 7145 L -6 -6 5493 7031 L
6 -6 C 6 6 C -6 6 C -60 -126 5625 7145 L 84 0 5541 7145 L -6 -18 5739 7103 L -12 -12 C -18 -6 C -6 0 C -18 6 C -12 12 C -6 18 C
0 6 C 6 18 C 12 12 C 18 6 C 6 0 C 18 -6 C 12 -12 C 6 -24 C 0 -30 C -6 -30 C -12 -18 C -18 -6 C -12 0 C -18 6 C -6 12 C
-6 12 5859 7127 L -18 6 C -12 0 C -18 -6 C -12 -18 C -6 -30 C 0 -30 C 6 -24 C 12 -12 C 18 -6 C 6 0 C 18 6 C 12 12 C 6 18 C 0 6 C
-6 18 C -12 12 C -18 6 C -6 0 C -18 -6 C -12 -12 C -6 -18 C -36 -126 6021 7103 L -6 -30 6015 7079 L 0 -18 C 12 -12 C 12 0 C 12 6 C
12 12 C 12 24 C -12 -42 6081 7103 L -6 -24 C 0 -12 C 6 -6 C 12 0 C 12 12 C 6 12 C -6 12 6189 7085 L -18 6 C -18 0 C -18 -6 C
-6 -12 C 6 -12 C 12 -6 C 30 -6 C 12 -6 C 6 -12 C 0 -6 C -6 -12 C -18 -6 C -18 0 C -18 6 C -6 12 C 12 -12 6225 7169 L 12 -18 C
12 -24 C 6 -30 C 0 -24 C -6 -30 C -12 -24 C -12 -18 C -12 -12 C 0 -126 6411 7103 L 12 12 6411 7085 L 12 6 C 18 0 C 12 -6 C 12 -12 C
6 -18 C 0 -12 C -6 -18 C -12 -12 C -12 -6 C -18 0 C -12 6 C -12 12 C -12 -6 6549 7103 L -12 -12 C -6 -18 C 0 -12 C 6 -18 C 12 -12 C
12 -6 C 18 0 C 12 6 C 12 12 C 6 18 C 0 12 C -6 18 C -12 12 C -12 6 C -18 0 C -6 12 6699 7085 L -18 6 C -18 0 C -18 -6 C -6 -12 C
6 -12 C 12 -6 C 30 -6 C 12 -6 C 6 -12 C 0 -6 C -6 -12 C -18 -6 C -18 0 C -18 6 C -6 12 C 0 -102 6747 7145 L 6 -18 C 12 -6 C 12 0 C
42 0 6729 7103 L 108 0 6813 7073 L -12 0 7005 7145 L -12 -6 C -6 -18 C 0 -102 C 42 0 6957 7103 L 6 -6 7035 7145 L 6 6 C -6 6 C
-6 -6 C 0 -84 7041 7103 L 0 -102 7095 7145 L 6 -18 C 12 -6 C 12 0 C 42 0 7077 7103 L 0 -126 4491 672 L 48 -126 4491 672 L
-48 -126 4587 672 L 0 -126 4587 672 L 0 -96 4683 672 L -6 -18 C -6 -6 C -12 -6 C -12 0 C -12 6 C -6 6 C -6 18 C 0 12 C
0 -126 4731 672 L 42 0 4731 672 L 18 -6 C 12 -12 C 6 -12 C 6 -18 C 0 -30 C -6 -18 C -6 -12 C -12 -12 C -18 -6 C -42 0 C
108 0 4857 600 L -60 0 5079 672 L -6 -54 C 6 6 C 18 6 C 18 0 C 18 -6 C 12 -12 C 6 -18 C 0 -12 C -6 -18 C -12 -12 C -18 -6 C -18 0 C
-18 6 C -6 6 C -6 12 C -60 0 5199 672 L -6 -54 C 6 6 C 18 6 C 18 0 C 18 -6 C 12 -12 C 6 -18 C 0 -12 C -6 -18 C -12 -12 C -18 -6 C
-18 0 C -18 6 C -6 6 C -6 12 C -60 -84 5307 672 L 90 0 C 0 -126 5307 672 L 0 6 5373 642 L 6 12 C 6 6 C 12 6 C 24 0 C 12 -6 C 6 -6 C
6 -12 C 0 -12 C -6 -12 C -12 -18 C -60 -60 C 84 0 C 12 6 5505 648 L 18 18 C 0 -126 C -6 -6 5619 558 L 6 -6 C 6 6 C -6 6 C
-60 0 5739 672 L -6 -54 C 6 6 C 18 6 C 18 0 C 18 -6 C 12 -12 C 6 -18 C 0 -12 C -6 -18 C -12 -12 C -18 -6 C -18 0 C -18 6 C -6 6 C
-6 12 C 126 0 420 2895 L 0 54 420 2895 L 6 18 C 6 6 C 12 6 C 18 0 C 12 -6 C 6 -6 C 6 -18 C 0 -54 C 6 -12 462 3045 L 12 -12 C 18 -6 C
12 0 C 18 6 C 12 12 C 6 12 C 0 18 C -6 12 C -12 12 C -18 6 C -12 0 C -18 -6 C -12 -12 C -6 -12 C 0 -18 C -12 -6 480 3195 L -6 -18 C
0 -18 C 6 -18 C 12 -6 C 12 6 C 6 12 C 6 30 C 6 12 C 12 6 C 6 0 C 12 -6 C 6 -18 C 0 -18 C -6 -18 C -12 -6 C 102 0 420 3243 L 18 6 C
6 12 C 0 12 C 0 42 462 3225 L 0 -12 420 3345 L 6 -12 C 18 -6 C 102 0 C 0 42 462 3297 L 6 6 420 3375 L -6 6 C -6 -6 C 6 -6 C
84 0 462 3381 L 102 0 420 3435 L 18 6 C 6 12 C 0 12 C 0 42 462 3417 L 126 0 420 3597 L 0 54 420 3597 L 6 18 C 6 6 C 12 6 C 12 0 C
12 -6 C 6 -6 C 6 -18 C 0 -54 C 66 42 480 3639 L 0 72 498 3717 L -12 0 C -12 -6 C -6 -6 C -6 -12 C 0 -18 C 6 -12 C 12 -12 C 18 -6 C
12 0 C 18 6 C 12 12 C 6 12 C 0 18 C -6 12 C -12 12 C -12 -6 480 3891 L -6 -18 C 0 -18 C 6 -18 C 12 -6 C 12 6 C 6 12 C 6 30 C 6 12 C
12 6 C 6 0 C 12 -6 C 6 -18 C 0 -18 C -6 -18 C -12 -6 C 6 6 420 3926 L -6 6 C -6 -6 C 6 -6 C 84 0 462 3932 L 126 0 420 4046 L
-12 -12 480 4046 L -6 -12 C 0 -18 C 6 -12 C 12 -12 C 18 -6 C 12 0 C 18 6 C 12 12 C 6 12 C 0 18 C -6 12 C -12 12 C 60 0 462 4094 L
18 6 C 6 12 C 0 18 C -6 12 C -18 18 C 84 0 462 4160 L 84 0 462 4274 L -12 -12 480 4274 L -6 -12 C 0 -18 C 6 -12 C 12 -12 C 18 -6 C
12 0 C 18 6 C 12 12 C 6 12 C 0 18 C -6 12 C -12 12 C 126 0 420 4322 L 12 -12 396 4508 L 18 -12 C 24 -12 C 30 -6 C 24 0 C 30 6 C
24 12 C 18 12 C 12 12 C -12 -6 480 4610 L -6 -18 C 0 -18 C 6 -18 C 12 -6 C 12 6 C 6 12 C 6 30 C 6 12 C 12 6 C 6 0 C 12 -6 C 6 -18 C
0 -18 C -6 -18 C -12 -6 C 0 72 498 4646 L -12 0 C -12 -6 C -6 -6 C -6 -12 C 0 -18 C 6 -12 C 12 -12 C 18 -6 C 12 0 C 18 6 C 12 12 C
6 12 C 0 18 C -6 12 C -12 12 C -12 -12 480 4826 L -6 -12 C 0 -18 C 6 -12 C 12 -12 C 18 -6 C 12 0 C 18 6 C 12 12 C 6 12 C 0 18 C
-6 12 C -12 12 C 12 12 396 4862 L 18 12 C 24 12 C 30 6 C 24 0 C 30 -6 C 24 -12 C 18 -12 C 12 -12 C
1024 0 0 K 0 1024 0 K
/M16 {MB -4 -4 moveto 0 8 rlineto 8 0 rlineto 0 -8                              
rlineto closepath fill ME} bind def                                             
/MFAC      5.999 def    
1665 3680 M16 1743 3702 M16 1822 3786 M16 1854 3750 M16 1876 3100 M16 1936 3219 M16 1993 3904 M16 2028 3825 M16 2139 3898 M16
2186 3959 M16 2266 3545 M16 2334 2827 M16 2534 3389 M16 2540 3739 M16 2589 3769 M16 2671 3943 M16 2767 3102 M16 2866 3665 M16
3014 3405 M16 3185 4029 M16 3245 3711 M16 3329 3871 M16 3400 3268 M16 3507 3421 M16 3580 3864 M16 3644 3718 M16 3715 3676 M16
3783 3746 M16 3899 3220 M16 3949 3728 M16 4002 3634 M16 4050 3287 M16 4086 3787 M16 4101 4074 M16 4120 2726 M16 4137 3886 M16
4157 4144 M16 4236 3865 M16 4262 3475 M16 4341 3705 M16 4349 3571 M16 4356 3563 M16 4397 3696 M16 4454 3733 M16 4457 3665 M16
4547 3479 M16 4588 3451 M16 4624 6174 M16 4647 4170 M16 4774 3694 M16 4881 3547 M16 4913 3228 M16 4931 3680 M16 5014 4214 M16
5068 3840 M16 5089 4893 M16 5198 3666 M16 5227 4162 M16 5258 3850 M16 5267 3757 M16 5351 3702 M16 5411 4251 M16 5443 2971 M16
5466 3588 M16 5558 3600 M16 5589 3104 M16 5632 3671 M16 5655 3379 M16 5679 3734 M16 5692 3040 M16 5741 1625 M16 5816 2612 M16
5869 3718 M16 5878 3298 M16 5882 3805 M16 5921 2195 M16 6011 4132 M16 6082 3675 M16 6169 3968 M16 6232 4239 M16 6274 2771 M16
6303 3746 M16 6371 4497 M16 6403 4116 M16 6457 4554 M16 6493 3733 M16 6594 3590 M16 6699 3907 M16 6721 3800 M16 6729 3396 M16
6763 3257 M16 6922 3607 M16 7091 3553 M16 7149 3178 M16 7184 3895 M16 7235 3106 M16 7282 3718 M16 7315 4007 M16 7377 3254 M16
7402 3779 M16 7406 3867 M16 7430 3131 M16 7454 3588 M16 7484 3585 M16 7490 2652 M16 7520 3561 M16 7557 4020 M16 7589 3673 M16
7593 3458 M16 7672 3261 M16 7683 3762 M16 7698 3548 M16 7754 4929 M16 7779 3597 M16 7835 3679 M16 7863 4027 M16 7929 3487 M16
7949 3648 M16 7996 2536 M16 8035 2793 M16 8146 2884 M16 8260 3899 M16 8303 3350 M16 8328 3910 M16 8356 3886 M16 8416 3942 M16
8457 3764 M16 8496 3376 M16 8536 3399 M16 8571 3952 M16
45 0 1643 3530 L 0 300 1665 3530 L 45 0 1643 3830 L 45 0 1720 3431 L 0 542 1743 3431 L 45 0 1720 3973 L 45 0 1799 3609 L
0 355 1822 3609 L 45 0 1799 3964 L 45 0 1832 3591 L 0 317 1854 3591 L 45 0 1832 3908 L 45 0 1853 2605 L 0 991 1876 2605 L
45 0 1853 3596 L 45 0 1913 3072 L 0 293 1936 3072 L 45 0 1913 3365 L 45 0 1971 3589 L 0 631 1993 3589 L 45 0 1971 4220 L
45 0 2005 3722 L 0 206 2028 3722 L 45 0 2005 3928 L 45 0 2117 3740 L 0 316 2139 3740 L 45 0 2117 4056 L 45 0 2164 3768 L
0 383 2186 3768 L 45 0 2164 4151 L 45 0 2243 3282 L 0 527 2266 3282 L 45 0 2243 3809 L 45 0 2312 2407 L 0 841 2334 2407 L
45 0 2312 3248 L 45 0 2511 3004 L 0 771 2534 3004 L 45 0 2511 3775 L 45 0 2518 3576 L 0 325 2540 3576 L 45 0 2518 3901 L
45 0 2567 3502 L 0 533 2589 3502 L 45 0 2567 4035 L 45 0 2648 3648 L 0 591 2671 3648 L 45 0 2648 4239 L 45 0 2745 2765 L
0 673 2767 2765 L 45 0 2745 3438 L 45 0 2843 3439 L 0 453 2866 3439 L 45 0 2843 3892 L 45 0 2991 3205 L 0 399 3014 3205 L
45 0 2991 3604 L 45 0 3163 3154 L 0 1750 3185 3154 L 45 0 3163 4904 L 45 0 3223 3533 L 0 356 3245 3533 L 45 0 3223 3889 L
45 0 3306 3334 L 0 1074 3329 3334 L 45 0 3306 4408 L 45 0 3377 2920 L 0 695 3400 2920 L 45 0 3377 3615 L 45 0 3484 2719 L
0 1403 3507 2719 L 45 0 3484 4122 L 45 0 3557 3653 L 0 421 3580 3653 L 45 0 3557 4074 L 45 0 3622 3593 L 0 249 3644 3593 L
45 0 3622 3842 L 45 0 3692 3631 L 0 90 3715 3631 L 45 0 3692 3721 L 45 0 3761 3636 L 0 220 3783 3636 L 45 0 3761 3856 L
0 4562 3899 1170 L 45 0 3877 5732 L 45 0 3926 3666 L 0 124 3949 3666 L 45 0 3926 3790 L 45 0 3980 3553 L 0 163 4002 3553 L
45 0 3980 3716 L 45 0 4027 1929 L 0 2715 4050 1929 L 45 0 4027 4644 L 45 0 4063 3708 L 0 157 4086 3708 L 45 0 4063 3865 L
45 0 4078 2959 L 0 2230 4101 2959 L 45 0 4078 5189 L 45 0 4097 1921 L 0 1609 4120 1921 L 45 0 4097 3530 L 45 0 4115 3376 L
0 1020 4137 3376 L 45 0 4115 4396 L 45 0 4134 3592 L 0 1104 4157 3592 L 45 0 4134 4696 L 45 0 4213 3753 L 0 224 4236 3753 L
45 0 4213 3977 L 45 0 4239 3078 L 0 793 4262 3078 L 45 0 4239 3871 L 45 0 4318 1970 L 0 3471 4341 1970 L 45 0 4318 5441 L
45 0 4327 3464 L 0 214 4349 3464 L 45 0 4327 3678 L 45 0 4333 2731 L 0 1664 4356 2731 L 45 0 4333 4395 L 45 0 4374 3513 L
0 365 4397 3513 L 45 0 4374 3878 L 45 0 4432 3649 L 0 169 4454 3649 L 45 0 4432 3818 L 45 0 4434 3572 L 0 187 4457 3572 L
45 0 4434 3759 L 45 0 4524 3373 L 0 211 4547 3373 L 45 0 4524 3584 L 45 0 4565 2776 L 0 1351 4588 2776 L 45 0 4565 4127 L
45 0 4602 5155 L 0 1474 4624 5155 L 45 0 4625 3797 L 0 746 4647 3797 L 45 0 4625 4543 L 45 0 4751 3606 L 0 176 4774 3606 L
45 0 4751 3782 L 45 0 4858 2695 L 0 1705 4881 2695 L 45 0 4858 4400 L 45 0 4891 3001 L 0 453 4913 3001 L 45 0 4891 3454 L
45 0 4908 2637 L 0 2086 4931 2637 L 45 0 4908 4723 L 45 0 4991 3115 L 0 2199 5014 3115 L 45 0 4991 5314 L 45 0 5045 3672 L
0 336 5068 3672 L 45 0 5045 4008 L 45 0 5066 3928 L 0 1930 5089 3928 L 45 0 5066 5858 L 45 0 5176 3307 L 0 719 5198 3307 L
45 0 5176 4026 L 45 0 5204 3487 L 0 1350 5227 3487 L 45 0 5204 4837 L 45 0 5236 3731 L 0 237 5258 3731 L 45 0 5236 3968 L
45 0 5245 2878 L 0 1759 5267 2878 L 45 0 5245 4637 L 45 0 5328 3325 L 0 754 5351 3325 L 45 0 5328 4079 L 45 0 5388 3410 L
0 1682 5411 3410 L 45 0 5388 5092 L 45 0 5421 2518 L 0 906 5443 2518 L 45 0 5421 3424 L 45 0 5444 3443 L 0 290 5466 3443 L
45 0 5444 3733 L 45 0 5536 3396 L 0 407 5558 3396 L 45 0 5536 3803 L 45 0 5566 2087 L 0 2033 5589 2087 L 45 0 5566 4120 L
45 0 5609 3486 L 0 370 5632 3486 L 45 0 5609 3856 L 45 0 5632 2588 L 0 1582 5655 2588 L 45 0 5632 4170 L 45 0 5656 3517 L
0 434 5679 3517 L 45 0 5656 3951 L 45 0 5669 2545 L 0 991 5692 2545 L 45 0 5669 3536 L 0 1268 5741 1170 L 45 0 5719 2438 L
45 0 5793 1484 L 0 2255 5816 1484 L 45 0 5793 3739 L 45 0 5847 3584 L 0 268 5869 3584 L 45 0 5847 3852 L 45 0 5856 2779 L
0 1037 5878 2779 L 45 0 5856 3816 L 45 0 5860 2855 L 0 1899 5882 2855 L 45 0 5860 4754 L 0 2142 5921 1170 L 45 0 5899 3312 L
45 0 5988 3587 L 0 1089 6011 3587 L 45 0 5988 4676 L 45 0 6059 3559 L 0 233 6082 3559 L 45 0 6059 3792 L 45 0 6147 3634 L
0 667 6169 3634 L 45 0 6147 4301 L 45 0 6209 3880 L 0 718 6232 3880 L 45 0 6209 4598 L 45 0 6252 2206 L 0 1129 6274 2206 L
45 0 6252 3335 L 45 0 6280 3412 L 0 669 6303 3412 L 45 0 6280 4081 L 45 0 6348 4115 L 0 764 6371 4115 L 45 0 6348 4879 L
45 0 6381 3326 L 0 1581 6403 3326 L 45 0 6381 4907 L 45 0 6435 3515 L 0 2079 6457 3515 L 45 0 6435 5594 L 45 0 6471 3437 L
0 591 6493 3437 L 45 0 6471 4028 L 45 0 6571 3362 L 0 456 6594 3362 L 45 0 6571 3818 L 45 0 6676 3579 L 0 656 6699 3579 L
45 0 6676 4235 L 45 0 6698 3568 L 0 463 6721 3568 L 45 0 6698 4031 L 45 0 6706 3193 L 0 406 6729 3193 L 45 0 6706 3599 L
45 0 6741 2920 L 0 673 6763 2920 L 45 0 6741 3593 L 45 0 6900 2457 L 0 2300 6922 2457 L 45 0 6900 4757 L 45 0 7069 3234 L
0 637 7091 3234 L 45 0 7069 3871 L 45 0 7127 2704 L 0 949 7149 2704 L 45 0 7127 3653 L 45 0 7161 3721 L 0 348 7184 3721 L
45 0 7161 4069 L 45 0 7213 2011 L 0 2190 7235 2011 L 45 0 7213 4201 L 45 0 7260 2569 L 0 2299 7282 2569 L 45 0 7260 4868 L
45 0 7292 3794 L 0 425 7315 3794 L 45 0 7292 4219 L 45 0 7354 2692 L 0 1124 7377 2692 L 45 0 7354 3816 L 45 0 7379 3275 L
0 1009 7402 3275 L 45 0 7379 4284 L 45 0 7384 3599 L 0 535 7406 3599 L 45 0 7384 4134 L 45 0 7407 2441 L 0 1380 7430 2441 L
45 0 7407 3821 L 45 0 7431 3043 L 0 1090 7454 3043 L 45 0 7431 4133 L 45 0 7461 2842 L 0 1486 7484 2842 L 45 0 7461 4328 L
45 0 7468 1713 L 0 1878 7490 1713 L 45 0 7468 3591 L 45 0 7498 3185 L 0 752 7520 3185 L 45 0 7498 3937 L 45 0 7534 3779 L
0 481 7557 3779 L 45 0 7534 4260 L 45 0 7566 3484 L 0 378 7589 3484 L 45 0 7566 3862 L 45 0 7571 3104 L 0 708 7593 3104 L
45 0 7571 3812 L 45 0 7650 2889 L 0 743 7672 2889 L 45 0 7650 3632 L 45 0 7660 3552 L 0 419 7683 3552 L 45 0 7660 3971 L
45 0 7676 3204 L 0 688 7698 3204 L 45 0 7676 3892 L 45 0 7731 4467 L 0 924 7754 4467 L 45 0 7731 5391 L 45 0 7757 3319 L
0 555 7779 3319 L 45 0 7757 3874 L 45 0 7812 3363 L 0 631 7835 3363 L 45 0 7812 3994 L 45 0 7841 3696 L 0 662 7863 3696 L
45 0 7841 4358 L 45 0 7907 3245 L 0 485 7929 3245 L 45 0 7907 3730 L 45 0 7926 3544 L 0 209 7949 3544 L 45 0 7926 3753 L
45 0 7974 1554 L 0 1964 7996 1554 L 45 0 7974 3518 L 45 0 8012 2033 L 0 1520 8035 2033 L 45 0 8012 3553 L 45 0 8124 2408 L
0 953 8146 2408 L 45 0 8124 3361 L 45 0 8237 3183 L 0 1432 8260 3183 L 45 0 8237 4615 L 45 0 8280 3016 L 0 668 8303 3016 L
45 0 8280 3684 L 45 0 8306 3612 L 0 595 8328 3612 L 45 0 8306 4207 L 45 0 8334 3644 L 0 484 8356 3644 L 45 0 8334 4128 L
45 0 8394 3446 L 0 992 8416 3446 L 45 0 8394 4438 L 45 0 8435 3168 L 0 1192 8457 3168 L 45 0 8435 4360 L 45 0 8473 2606 L
0 1541 8496 2606 L 45 0 8473 4147 L 45 0 8514 2955 L 0 888 8536 2955 L 45 0 8514 3843 L 45 0 8548 3554 L 0 797 8571 3554 L
45 0 8548 4351 L
1024 0 1024 K 0 1024 1024 K 0 0 0 K
PGPLOT restore showpage
%%PageTrailer
%%PageBoundingBox: 24 17 588 721
 
%%Trailer
%%BoundingBox: 24 17 588 721
%%DocumentFonts: 
%%Pages: 1
%%EOF
