%!PS-Adobe-2.0
%%Title: dmoff_plot_benp.eps
%%Creator: gnuplot 4.2 patchlevel 6 
%%CreationDate: Fri Jun  3 23:10:43 2016
%%DocumentFonts: (atend)
%%BoundingBox: 50 50 626 410
%%Orientation: Portrait
%%Pages: (atend)
%%EndComments
%%BeginProlog
/gnudict 256 dict def
gnudict begin
%
% The following 6 true/false flags may be edited by hand if required
% The unit line width may also be changed
%
/Color true def
/Blacktext false def
/Solid false def
/Dashlength 1 def
/Landscape false def
/Level1 false def
/Rounded false def
/TransparentPatterns false def
/gnulinewidth 5.000 def
/userlinewidth gnulinewidth def
%
/vshift -46 def
/dl1 {
  10.0 Dashlength mul mul
  Rounded { currentlinewidth 0.75 mul sub dup 0 le { pop 0.01 } if } if
} def
/dl2 {
  10.0 Dashlength mul mul
  Rounded { currentlinewidth 0.75 mul add } if
} def
/hpt_ 31.5 def
/vpt_ 31.5 def
/hpt hpt_ def
/vpt vpt_ def
Level1 {} {
/SDict 10 dict def
systemdict /pdfmark known not {
  userdict /pdfmark systemdict /cleartomark get put
} if
SDict begin [
  /Title (dmoff_plot_benp.eps)
  /Subject (gnuplot plot)
  /Creator (gnuplot 4.2 patchlevel 6 )
  /Author (bperera)
%  /Producer (gnuplot)
%  /Keywords ()
  /CreationDate (Fri Jun  3 23:10:43 2016)
  /DOCINFO pdfmark
end
} ifelse
%
% Gnuplot Prolog Version 4.2 (August 2006)
%
/M {moveto} bind def
/L {lineto} bind def
/R {rmoveto} bind def
/V {rlineto} bind def
/N {newpath moveto} bind def
/Z {closepath} bind def
/C {setrgbcolor} bind def
/f {rlineto fill} bind def
/vpt2 vpt 2 mul def
/hpt2 hpt 2 mul def
/Lshow {currentpoint stroke M 0 vshift R 
	Blacktext {gsave 0 setgray show grestore} {show} ifelse} def
/Rshow {currentpoint stroke M dup stringwidth pop neg vshift R
	Blacktext {gsave 0 setgray show grestore} {show} ifelse} def
/Cshow {currentpoint stroke M dup stringwidth pop -2 div vshift R 
	Blacktext {gsave 0 setgray show grestore} {show} ifelse} def
/UP {dup vpt_ mul /vpt exch def hpt_ mul /hpt exch def
  /hpt2 hpt 2 mul def /vpt2 vpt 2 mul def} def
/DL {Color {setrgbcolor Solid {pop []} if 0 setdash}
 {pop pop pop 0 setgray Solid {pop []} if 0 setdash} ifelse} def
/BL {stroke userlinewidth 2 mul setlinewidth
	Rounded {1 setlinejoin 1 setlinecap} if} def
/AL {stroke userlinewidth 2 div setlinewidth
	Rounded {1 setlinejoin 1 setlinecap} if} def
/UL {dup gnulinewidth mul /userlinewidth exch def
	dup 1 lt {pop 1} if 10 mul /udl exch def} def
/PL {stroke userlinewidth setlinewidth
	Rounded {1 setlinejoin 1 setlinecap} if} def
% Default Line colors
/LCw {1 1 1} def
/LCb {0 0 0} def
/LCa {0 0 0} def
/LC0 {1 0 0} def
/LC1 {0 1 0} def
/LC2 {0 0 1} def
/LC3 {1 0 1} def
/LC4 {0 1 1} def
/LC5 {1 1 0} def
/LC6 {0 0 0} def
/LC7 {1 0.3 0} def
/LC8 {0.5 0.5 0.5} def
% Default Line Types
/LTw {PL [] 1 setgray} def
/LTb {BL [] LCb DL} def
/LTa {AL [1 udl mul 2 udl mul] 0 setdash LCa setrgbcolor} def
/LT0 {PL [] LC0 DL} def
/LT1 {PL [4 dl1 2 dl2] LC1 DL} def
/LT2 {PL [2 dl1 3 dl2] LC2 DL} def
/LT3 {PL [1 dl1 1.5 dl2] LC3 DL} def
/LT4 {PL [6 dl1 2 dl2 1 dl1 2 dl2] LC4 DL} def
/LT5 {PL [3 dl1 3 dl2 1 dl1 3 dl2] LC5 DL} def
/LT6 {PL [2 dl1 2 dl2 2 dl1 6 dl2] LC6 DL} def
/LT7 {PL [1 dl1 2 dl2 6 dl1 2 dl2 1 dl1 2 dl2] LC7 DL} def
/LT8 {PL [2 dl1 2 dl2 2 dl1 2 dl2 2 dl1 2 dl2 2 dl1 4 dl2] LC8 DL} def
/Pnt {stroke [] 0 setdash gsave 1 setlinecap M 0 0 V stroke grestore} def
/Dia {stroke [] 0 setdash 2 copy vpt add M
  hpt neg vpt neg V hpt vpt neg V
  hpt vpt V hpt neg vpt V closepath stroke
  Pnt} def
/Pls {stroke [] 0 setdash vpt sub M 0 vpt2 V
  currentpoint stroke M
  hpt neg vpt neg R hpt2 0 V stroke
 } def
/Box {stroke [] 0 setdash 2 copy exch hpt sub exch vpt add M
  0 vpt2 neg V hpt2 0 V 0 vpt2 V
  hpt2 neg 0 V closepath stroke
  Pnt} def
/Crs {stroke [] 0 setdash exch hpt sub exch vpt add M
  hpt2 vpt2 neg V currentpoint stroke M
  hpt2 neg 0 R hpt2 vpt2 V stroke} def
/TriU {stroke [] 0 setdash 2 copy vpt 1.12 mul add M
  hpt neg vpt -1.62 mul V
  hpt 2 mul 0 V
  hpt neg vpt 1.62 mul V closepath stroke
  Pnt} def
/Star {2 copy Pls Crs} def
/BoxF {stroke [] 0 setdash exch hpt sub exch vpt add M
  0 vpt2 neg V hpt2 0 V 0 vpt2 V
  hpt2 neg 0 V closepath fill} def
/TriUF {stroke [] 0 setdash vpt 1.12 mul add M
  hpt neg vpt -1.62 mul V
  hpt 2 mul 0 V
  hpt neg vpt 1.62 mul V closepath fill} def
/TriD {stroke [] 0 setdash 2 copy vpt 1.12 mul sub M
  hpt neg vpt 1.62 mul V
  hpt 2 mul 0 V
  hpt neg vpt -1.62 mul V closepath stroke
  Pnt} def
/TriDF {stroke [] 0 setdash vpt 1.12 mul sub M
  hpt neg vpt 1.62 mul V
  hpt 2 mul 0 V
  hpt neg vpt -1.62 mul V closepath fill} def
/DiaF {stroke [] 0 setdash vpt add M
  hpt neg vpt neg V hpt vpt neg V
  hpt vpt V hpt neg vpt V closepath fill} def
/Pent {stroke [] 0 setdash 2 copy gsave
  translate 0 hpt M 4 {72 rotate 0 hpt L} repeat
  closepath stroke grestore Pnt} def
/PentF {stroke [] 0 setdash gsave
  translate 0 hpt M 4 {72 rotate 0 hpt L} repeat
  closepath fill grestore} def
/Circle {stroke [] 0 setdash 2 copy
  hpt 0 360 arc stroke Pnt} def
/CircleF {stroke [] 0 setdash hpt 0 360 arc fill} def
/C0 {BL [] 0 setdash 2 copy moveto vpt 90 450 arc} bind def
/C1 {BL [] 0 setdash 2 copy moveto
	2 copy vpt 0 90 arc closepath fill
	vpt 0 360 arc closepath} bind def
/C2 {BL [] 0 setdash 2 copy moveto
	2 copy vpt 90 180 arc closepath fill
	vpt 0 360 arc closepath} bind def
/C3 {BL [] 0 setdash 2 copy moveto
	2 copy vpt 0 180 arc closepath fill
	vpt 0 360 arc closepath} bind def
/C4 {BL [] 0 setdash 2 copy moveto
	2 copy vpt 180 270 arc closepath fill
	vpt 0 360 arc closepath} bind def
/C5 {BL [] 0 setdash 2 copy moveto
	2 copy vpt 0 90 arc
	2 copy moveto
	2 copy vpt 180 270 arc closepath fill
	vpt 0 360 arc} bind def
/C6 {BL [] 0 setdash 2 copy moveto
	2 copy vpt 90 270 arc closepath fill
	vpt 0 360 arc closepath} bind def
/C7 {BL [] 0 setdash 2 copy moveto
	2 copy vpt 0 270 arc closepath fill
	vpt 0 360 arc closepath} bind def
/C8 {BL [] 0 setdash 2 copy moveto
	2 copy vpt 270 360 arc closepath fill
	vpt 0 360 arc closepath} bind def
/C9 {BL [] 0 setdash 2 copy moveto
	2 copy vpt 270 450 arc closepath fill
	vpt 0 360 arc closepath} bind def
/C10 {BL [] 0 setdash 2 copy 2 copy moveto vpt 270 360 arc closepath fill
	2 copy moveto
	2 copy vpt 90 180 arc closepath fill
	vpt 0 360 arc closepath} bind def
/C11 {BL [] 0 setdash 2 copy moveto
	2 copy vpt 0 180 arc closepath fill
	2 copy moveto
	2 copy vpt 270 360 arc closepath fill
	vpt 0 360 arc closepath} bind def
/C12 {BL [] 0 setdash 2 copy moveto
	2 copy vpt 180 360 arc closepath fill
	vpt 0 360 arc closepath} bind def
/C13 {BL [] 0 setdash 2 copy moveto
	2 copy vpt 0 90 arc closepath fill
	2 copy moveto
	2 copy vpt 180 360 arc closepath fill
	vpt 0 360 arc closepath} bind def
/C14 {BL [] 0 setdash 2 copy moveto
	2 copy vpt 90 360 arc closepath fill
	vpt 0 360 arc} bind def
/C15 {BL [] 0 setdash 2 copy vpt 0 360 arc closepath fill
	vpt 0 360 arc closepath} bind def
/Rec {newpath 4 2 roll moveto 1 index 0 rlineto 0 exch rlineto
	neg 0 rlineto closepath} bind def
/Square {dup Rec} bind def
/Bsquare {vpt sub exch vpt sub exch vpt2 Square} bind def
/S0 {BL [] 0 setdash 2 copy moveto 0 vpt rlineto BL Bsquare} bind def
/S1 {BL [] 0 setdash 2 copy vpt Square fill Bsquare} bind def
/S2 {BL [] 0 setdash 2 copy exch vpt sub exch vpt Square fill Bsquare} bind def
/S3 {BL [] 0 setdash 2 copy exch vpt sub exch vpt2 vpt Rec fill Bsquare} bind def
/S4 {BL [] 0 setdash 2 copy exch vpt sub exch vpt sub vpt Square fill Bsquare} bind def
/S5 {BL [] 0 setdash 2 copy 2 copy vpt Square fill
	exch vpt sub exch vpt sub vpt Square fill Bsquare} bind def
/S6 {BL [] 0 setdash 2 copy exch vpt sub exch vpt sub vpt vpt2 Rec fill Bsquare} bind def
/S7 {BL [] 0 setdash 2 copy exch vpt sub exch vpt sub vpt vpt2 Rec fill
	2 copy vpt Square fill Bsquare} bind def
/S8 {BL [] 0 setdash 2 copy vpt sub vpt Square fill Bsquare} bind def
/S9 {BL [] 0 setdash 2 copy vpt sub vpt vpt2 Rec fill Bsquare} bind def
/S10 {BL [] 0 setdash 2 copy vpt sub vpt Square fill 2 copy exch vpt sub exch vpt Square fill
	Bsquare} bind def
/S11 {BL [] 0 setdash 2 copy vpt sub vpt Square fill 2 copy exch vpt sub exch vpt2 vpt Rec fill
	Bsquare} bind def
/S12 {BL [] 0 setdash 2 copy exch vpt sub exch vpt sub vpt2 vpt Rec fill Bsquare} bind def
/S13 {BL [] 0 setdash 2 copy exch vpt sub exch vpt sub vpt2 vpt Rec fill
	2 copy vpt Square fill Bsquare} bind def
/S14 {BL [] 0 setdash 2 copy exch vpt sub exch vpt sub vpt2 vpt Rec fill
	2 copy exch vpt sub exch vpt Square fill Bsquare} bind def
/S15 {BL [] 0 setdash 2 copy Bsquare fill Bsquare} bind def
/D0 {gsave translate 45 rotate 0 0 S0 stroke grestore} bind def
/D1 {gsave translate 45 rotate 0 0 S1 stroke grestore} bind def
/D2 {gsave translate 45 rotate 0 0 S2 stroke grestore} bind def
/D3 {gsave translate 45 rotate 0 0 S3 stroke grestore} bind def
/D4 {gsave translate 45 rotate 0 0 S4 stroke grestore} bind def
/D5 {gsave translate 45 rotate 0 0 S5 stroke grestore} bind def
/D6 {gsave translate 45 rotate 0 0 S6 stroke grestore} bind def
/D7 {gsave translate 45 rotate 0 0 S7 stroke grestore} bind def
/D8 {gsave translate 45 rotate 0 0 S8 stroke grestore} bind def
/D9 {gsave translate 45 rotate 0 0 S9 stroke grestore} bind def
/D10 {gsave translate 45 rotate 0 0 S10 stroke grestore} bind def
/D11 {gsave translate 45 rotate 0 0 S11 stroke grestore} bind def
/D12 {gsave translate 45 rotate 0 0 S12 stroke grestore} bind def
/D13 {gsave translate 45 rotate 0 0 S13 stroke grestore} bind def
/D14 {gsave translate 45 rotate 0 0 S14 stroke grestore} bind def
/D15 {gsave translate 45 rotate 0 0 S15 stroke grestore} bind def
/DiaE {stroke [] 0 setdash vpt add M
  hpt neg vpt neg V hpt vpt neg V
  hpt vpt V hpt neg vpt V closepath stroke} def
/BoxE {stroke [] 0 setdash exch hpt sub exch vpt add M
  0 vpt2 neg V hpt2 0 V 0 vpt2 V
  hpt2 neg 0 V closepath stroke} def
/TriUE {stroke [] 0 setdash vpt 1.12 mul add M
  hpt neg vpt -1.62 mul V
  hpt 2 mul 0 V
  hpt neg vpt 1.62 mul V closepath stroke} def
/TriDE {stroke [] 0 setdash vpt 1.12 mul sub M
  hpt neg vpt 1.62 mul V
  hpt 2 mul 0 V
  hpt neg vpt -1.62 mul V closepath stroke} def
/PentE {stroke [] 0 setdash gsave
  translate 0 hpt M 4 {72 rotate 0 hpt L} repeat
  closepath stroke grestore} def
/CircE {stroke [] 0 setdash 
  hpt 0 360 arc stroke} def
/Opaque {gsave closepath 1 setgray fill grestore 0 setgray closepath} def
/DiaW {stroke [] 0 setdash vpt add M
  hpt neg vpt neg V hpt vpt neg V
  hpt vpt V hpt neg vpt V Opaque stroke} def
/BoxW {stroke [] 0 setdash exch hpt sub exch vpt add M
  0 vpt2 neg V hpt2 0 V 0 vpt2 V
  hpt2 neg 0 V Opaque stroke} def
/TriUW {stroke [] 0 setdash vpt 1.12 mul add M
  hpt neg vpt -1.62 mul V
  hpt 2 mul 0 V
  hpt neg vpt 1.62 mul V Opaque stroke} def
/TriDW {stroke [] 0 setdash vpt 1.12 mul sub M
  hpt neg vpt 1.62 mul V
  hpt 2 mul 0 V
  hpt neg vpt -1.62 mul V Opaque stroke} def
/PentW {stroke [] 0 setdash gsave
  translate 0 hpt M 4 {72 rotate 0 hpt L} repeat
  Opaque stroke grestore} def
/CircW {stroke [] 0 setdash 
  hpt 0 360 arc Opaque stroke} def
/BoxFill {gsave Rec 1 setgray fill grestore} def
/Density {
  /Fillden exch def
  currentrgbcolor
  /ColB exch def /ColG exch def /ColR exch def
  /ColR ColR Fillden mul Fillden sub 1 add def
  /ColG ColG Fillden mul Fillden sub 1 add def
  /ColB ColB Fillden mul Fillden sub 1 add def
  ColR ColG ColB setrgbcolor} def
/BoxColFill {gsave Rec PolyFill} def
/PolyFill {gsave Density fill grestore grestore} def
/h {rlineto rlineto rlineto gsave closepath fill grestore} bind def
%
% PostScript Level 1 Pattern Fill routine for rectangles
% Usage: x y w h s a XX PatternFill
%	x,y = lower left corner of box to be filled
%	w,h = width and height of box
%	  a = angle in degrees between lines and x-axis
%	 XX = 0/1 for no/yes cross-hatch
%
/PatternFill {gsave /PFa [ 9 2 roll ] def
  PFa 0 get PFa 2 get 2 div add PFa 1 get PFa 3 get 2 div add translate
  PFa 2 get -2 div PFa 3 get -2 div PFa 2 get PFa 3 get Rec
  gsave 1 setgray fill grestore clip
  currentlinewidth 0.5 mul setlinewidth
  /PFs PFa 2 get dup mul PFa 3 get dup mul add sqrt def
  0 0 M PFa 5 get rotate PFs -2 div dup translate
  0 1 PFs PFa 4 get div 1 add floor cvi
	{PFa 4 get mul 0 M 0 PFs V} for
  0 PFa 6 get ne {
	0 1 PFs PFa 4 get div 1 add floor cvi
	{PFa 4 get mul 0 2 1 roll M PFs 0 V} for
 } if
  stroke grestore} def
%
/languagelevel where
 {pop languagelevel} {1} ifelse
 2 lt
	{/InterpretLevel1 true def}
	{/InterpretLevel1 Level1 def}
 ifelse
%
% PostScript level 2 pattern fill definitions
%
/Level2PatternFill {
/Tile8x8 {/PaintType 2 /PatternType 1 /TilingType 1 /BBox [0 0 8 8] /XStep 8 /YStep 8}
	bind def
/KeepColor {currentrgbcolor [/Pattern /DeviceRGB] setcolorspace} bind def
<< Tile8x8
 /PaintProc {0.5 setlinewidth pop 0 0 M 8 8 L 0 8 M 8 0 L stroke} 
>> matrix makepattern
/Pat1 exch def
<< Tile8x8
 /PaintProc {0.5 setlinewidth pop 0 0 M 8 8 L 0 8 M 8 0 L stroke
	0 4 M 4 8 L 8 4 L 4 0 L 0 4 L stroke}
>> matrix makepattern
/Pat2 exch def
<< Tile8x8
 /PaintProc {0.5 setlinewidth pop 0 0 M 0 8 L
	8 8 L 8 0 L 0 0 L fill}
>> matrix makepattern
/Pat3 exch def
<< Tile8x8
 /PaintProc {0.5 setlinewidth pop -4 8 M 8 -4 L
	0 12 M 12 0 L stroke}
>> matrix makepattern
/Pat4 exch def
<< Tile8x8
 /PaintProc {0.5 setlinewidth pop -4 0 M 8 12 L
	0 -4 M 12 8 L stroke}
>> matrix makepattern
/Pat5 exch def
<< Tile8x8
 /PaintProc {0.5 setlinewidth pop -2 8 M 4 -4 L
	0 12 M 8 -4 L 4 12 M 10 0 L stroke}
>> matrix makepattern
/Pat6 exch def
<< Tile8x8
 /PaintProc {0.5 setlinewidth pop -2 0 M 4 12 L
	0 -4 M 8 12 L 4 -4 M 10 8 L stroke}
>> matrix makepattern
/Pat7 exch def
<< Tile8x8
 /PaintProc {0.5 setlinewidth pop 8 -2 M -4 4 L
	12 0 M -4 8 L 12 4 M 0 10 L stroke}
>> matrix makepattern
/Pat8 exch def
<< Tile8x8
 /PaintProc {0.5 setlinewidth pop 0 -2 M 12 4 L
	-4 0 M 12 8 L -4 4 M 8 10 L stroke}
>> matrix makepattern
/Pat9 exch def
/Pattern1 {PatternBgnd KeepColor Pat1 setpattern} bind def
/Pattern2 {PatternBgnd KeepColor Pat2 setpattern} bind def
/Pattern3 {PatternBgnd KeepColor Pat3 setpattern} bind def
/Pattern4 {PatternBgnd KeepColor Landscape {Pat5} {Pat4} ifelse setpattern} bind def
/Pattern5 {PatternBgnd KeepColor Landscape {Pat4} {Pat5} ifelse setpattern} bind def
/Pattern6 {PatternBgnd KeepColor Landscape {Pat9} {Pat6} ifelse setpattern} bind def
/Pattern7 {PatternBgnd KeepColor Landscape {Pat8} {Pat7} ifelse setpattern} bind def
} def
%
%
%End of PostScript Level 2 code
%
/PatternBgnd {
  TransparentPatterns {} {gsave 1 setgray fill grestore} ifelse
} def
%
% Substitute for Level 2 pattern fill codes with
% grayscale if Level 2 support is not selected.
%
/Level1PatternFill {
/Pattern1 {0.250 Density} bind def
/Pattern2 {0.500 Density} bind def
/Pattern3 {0.750 Density} bind def
/Pattern4 {0.125 Density} bind def
/Pattern5 {0.375 Density} bind def
/Pattern6 {0.625 Density} bind def
/Pattern7 {0.875 Density} bind def
} def
%
% Now test for support of Level 2 code
%
Level1 {Level1PatternFill} {Level2PatternFill} ifelse
%
/Symbol-Oblique /Symbol findfont [1 0 .167 1 0 0] makefont
dup length dict begin {1 index /FID eq {pop pop} {def} ifelse} forall
currentdict end definefont pop
/MFshow {
   { dup 5 get 3 ge
     { 5 get 3 eq {gsave} {grestore} ifelse }
     {dup dup 0 get findfont exch 1 get scalefont setfont
     [ currentpoint ] exch dup 2 get 0 exch R dup 5 get 2 ne {dup dup 6
     get exch 4 get {show} {stringwidth pop 0 R} ifelse }if dup 5 get 0 eq
     {dup 3 get {2 get neg 0 exch R pop} {pop aload pop M} ifelse} {dup 5
     get 1 eq {dup 2 get exch dup 3 get exch 6 get stringwidth pop -2 div
     dup 0 R} {dup 6 get stringwidth pop -2 div 0 R 6 get
     show 2 index {aload pop M neg 3 -1 roll neg R pop pop} {pop pop pop
     pop aload pop M} ifelse }ifelse }ifelse }
     ifelse }
   forall} bind def
/MFwidth {0 exch { dup 5 get 3 ge { 5 get 3 eq { 0 } { pop } ifelse }
 {dup 3 get{dup dup 0 get findfont exch 1 get scalefont setfont
     6 get stringwidth pop add} {pop} ifelse} ifelse} forall} bind def
/MLshow { currentpoint stroke M
  0 exch R
  Blacktext {gsave 0 setgray MFshow grestore} {MFshow} ifelse } bind def
/MRshow { currentpoint stroke M
  exch dup MFwidth neg 3 -1 roll R
  Blacktext {gsave 0 setgray MFshow grestore} {MFshow} ifelse } bind def
/MCshow { currentpoint stroke M
  exch dup MFwidth -2 div 3 -1 roll R
  Blacktext {gsave 0 setgray MFshow grestore} {MFshow} ifelse } bind def
/XYsave    { [( ) 1 2 true false 3 ()] } bind def
/XYrestore { [( ) 1 2 true false 4 ()] } bind def
end
%%EndProlog
%%Page: 1 1
gnudict begin
gsave
50 50 translate
0.100 0.100 scale
0 setgray
newpath
(Times-Roman) findfont 140 scalefont setfont
/Times-Roman findfont 140 scalefont setfont
1.000 UL
LTb
1106 448 M
63 0 V
4381 0 R
-63 0 V
stroke
1022 448 M
[ [(Times-Roman) 140.0 0.0 true true 0 (-0.0015)]
] -46.7 MRshow
1.000 UL
LTb
1106 945 M
63 0 V
4381 0 R
-63 0 V
stroke
1022 945 M
[ [(Times-Roman) 140.0 0.0 true true 0 (-0.001)]
] -46.7 MRshow
1.000 UL
LTb
1106 1443 M
63 0 V
4381 0 R
-63 0 V
stroke
1022 1443 M
[ [(Times-Roman) 140.0 0.0 true true 0 (-0.0005)]
] -46.7 MRshow
1.000 UL
LTb
1106 1940 M
63 0 V
4381 0 R
-63 0 V
stroke
1022 1940 M
[ [(Times-Roman) 140.0 0.0 true true 0 ( 0)]
] -46.7 MRshow
1.000 UL
LTb
1106 2437 M
63 0 V
4381 0 R
-63 0 V
stroke
1022 2437 M
[ [(Times-Roman) 140.0 0.0 true true 0 ( 0.0005)]
] -46.7 MRshow
1.000 UL
LTb
1106 2935 M
63 0 V
4381 0 R
-63 0 V
stroke
1022 2935 M
[ [(Times-Roman) 140.0 0.0 true true 0 ( 0.001)]
] -46.7 MRshow
1.000 UL
LTb
1106 3432 M
63 0 V
4381 0 R
-63 0 V
stroke
1022 3432 M
[ [(Times-Roman) 140.0 0.0 true true 0 ( 0.0015)]
] -46.7 MRshow
1.000 UL
LTb
1106 448 M
0 63 V
0 2921 R
0 -63 V
stroke
1106 308 M
[ [(Times-Roman) 140.0 0.0 true true 0 ( 51500)]
] -46.7 MCshow
1.000 UL
LTb
1510 448 M
0 63 V
0 2921 R
0 -63 V
stroke
1510 308 M
[ [(Times-Roman) 140.0 0.0 true true 0 ( 52000)]
] -46.7 MCshow
1.000 UL
LTb
1914 448 M
0 63 V
0 2921 R
0 -63 V
stroke
1914 308 M
[ [(Times-Roman) 140.0 0.0 true true 0 ( 52500)]
] -46.7 MCshow
1.000 UL
LTb
2318 448 M
0 63 V
0 2921 R
0 -63 V
stroke
2318 308 M
[ [(Times-Roman) 140.0 0.0 true true 0 ( 53000)]
] -46.7 MCshow
1.000 UL
LTb
2722 448 M
0 63 V
0 2921 R
0 -63 V
stroke
2722 308 M
[ [(Times-Roman) 140.0 0.0 true true 0 ( 53500)]
] -46.7 MCshow
1.000 UL
LTb
3126 448 M
0 63 V
0 2921 R
0 -63 V
stroke
3126 308 M
[ [(Times-Roman) 140.0 0.0 true true 0 ( 54000)]
] -46.7 MCshow
1.000 UL
LTb
3530 448 M
0 63 V
0 2921 R
0 -63 V
stroke
3530 308 M
[ [(Times-Roman) 140.0 0.0 true true 0 ( 54500)]
] -46.7 MCshow
1.000 UL
LTb
3934 448 M
0 63 V
0 2921 R
0 -63 V
stroke
3934 308 M
[ [(Times-Roman) 140.0 0.0 true true 0 ( 55000)]
] -46.7 MCshow
1.000 UL
LTb
4338 448 M
0 63 V
0 2921 R
0 -63 V
stroke
4338 308 M
[ [(Times-Roman) 140.0 0.0 true true 0 ( 55500)]
] -46.7 MCshow
1.000 UL
LTb
4742 448 M
0 63 V
0 2921 R
0 -63 V
stroke
4742 308 M
[ [(Times-Roman) 140.0 0.0 true true 0 ( 56000)]
] -46.7 MCshow
1.000 UL
LTb
5146 448 M
0 63 V
0 2921 R
0 -63 V
stroke
5146 308 M
[ [(Times-Roman) 140.0 0.0 true true 0 ( 56500)]
] -46.7 MCshow
1.000 UL
LTb
5550 448 M
0 63 V
0 2921 R
0 -63 V
stroke
5550 308 M
[ [(Times-Roman) 140.0 0.0 true true 0 ( 57000)]
] -46.7 MCshow
1.000 UL
LTb
1.000 UL
LTb
1106 3432 N
0 -2984 V
4444 0 V
0 2984 V
-4444 0 V
Z stroke
LCb setrgbcolor
280 1940 M
currentpoint gsave translate 90 rotate 0 0 moveto
[ [(Times-Roman) 140.0 0.0 true true 0 (DM offset \(cm)]
[(Times-Roman) 112.0 70.0 true true 0 (-3)]
[(Times-Roman) 140.0 0.0 true true 0 ( pc\))]
] -60.7 MCshow
grestore
LTb
LCb setrgbcolor
3328 98 M
[ [(Times-Roman) 140.0 0.0 true true 0 (MJD)]
] -46.7 MCshow
LTb
1.000 UP
1.000 UL
LTb
1.000 UP
1.000 UL
LT0
/Times-Roman findfont 140 scalefont setfont
LTb
4899 3299 M
('J0613-0200.dm' u 1:2:3) Rshow
LT0
4983 3299 M
399 0 V
-399 31 R
0 -62 V
399 62 R
0 -62 V
1325 2179 M
49 -449 V
48 270 V
97 -66 V
146 85 V
97 -467 V
48 726 V
49 508 V
48 -622 V
49 135 V
48 -583 V
49 406 V
48 152 V
49 330 V
48 -826 V
49 280 V
48 363 V
145 -686 V
97 653 V
49 -570 V
48 628 V
49 -546 V
48 99 V
49 267 V
48 -427 V
49 306 V
48 -215 V
49 -75 V
48 -22 V
49 93 V
48 335 V
49 7 V
48 -333 V
49 15 V
48 58 V
49 316 V
48 248 V
49 -290 V
48 14 V
49 -273 V
48 -5 V
48 348 V
49 86 V
48 -85 V
49 -85 V
48 -359 V
49 223 V
48 -239 V
49 193 V
48 -233 V
49 268 V
48 -290 V
49 42 V
48 -148 V
49 385 V
48 72 V
49 -402 V
48 21 V
49 -9 V
48 -66 V
49 91 V
48 -167 V
49 213 V
48 -334 V
49 -134 V
48 360 V
48 -140 V
49 156 V
48 -341 V
49 -330 V
48 -97 V
49 22 V
48 -96 V
49 131 V
48 -136 V
1325 2044 M
0 269 V
-31 -269 R
62 0 V
-62 269 R
62 0 V
18 -812 R
0 458 V
-31 -458 R
62 0 V
-62 458 R
62 0 V
17 -87 R
0 257 V
-31 -257 R
62 0 V
-62 257 R
62 0 V
66 -631 R
0 871 V
-31 -871 R
62 0 V
-62 871 R
62 0 V
stroke 1550 2369 M
115 -731 R
0 761 V
-31 -761 R
62 0 V
-62 761 R
62 0 V
66 -1222 R
0 751 V
-31 -751 R
62 0 V
-62 751 R
62 0 V
17 210 R
0 280 V
-31 -280 R
62 0 V
-62 280 R
62 0 V
18 -84 R
0 905 V
-31 -905 R
62 0 V
-62 905 R
62 0 V
17 -1321 R
0 492 V
-31 -492 R
62 0 V
-62 492 R
62 0 V
18 -243 R
0 263 V
-31 -263 R
62 0 V
-62 263 R
62 0 V
17 -1029 R
0 630 V
-31 -630 R
62 0 V
-62 630 R
62 0 V
18 -27 R
0 236 V
-31 -236 R
62 0 V
-62 236 R
62 0 V
17 -91 R
0 250 V
-31 -250 R
62 0 V
-62 250 R
62 0 V
18 -23 R
0 455 V
-31 -455 R
62 0 V
-62 455 R
62 0 V
17 -1177 R
0 248 V
-31 -248 R
62 0 V
-62 248 R
62 0 V
18 33 R
0 246 V
-31 -246 R
62 0 V
-62 246 R
62 0 V
17 70 R
0 341 V
-31 -341 R
62 0 V
-62 341 R
62 0 V
2440 1553 M
0 363 V
-31 -363 R
62 0 V
-62 363 R
62 0 V
66 365 R
0 214 V
-31 -214 R
62 0 V
-62 214 R
62 0 V
18 -804 R
0 254 V
-31 -254 R
62 0 V
-62 254 R
62 0 V
17 357 R
0 288 V
-31 -288 R
62 0 V
-62 288 R
62 0 V
18 -763 R
0 146 V
stroke 2683 1973 M
-31 -146 R
62 0 V
-62 146 R
62 0 V
17 -45 R
0 143 V
-31 -143 R
62 0 V
-62 143 R
62 0 V
18 126 R
0 139 V
-31 -139 R
62 0 V
-62 139 R
62 0 V
17 -582 R
0 169 V
-31 -169 R
62 0 V
-62 169 R
62 0 V
18 130 R
0 184 V
-31 -184 R
62 0 V
-62 184 R
62 0 V
17 -380 R
0 146 V
-31 -146 R
62 0 V
-62 146 R
62 0 V
18 -217 R
0 138 V
-31 -138 R
62 0 V
-62 138 R
62 0 V
17 -169 R
0 156 V
-31 -156 R
62 0 V
-62 156 R
62 0 V
18 -84 R
0 198 V
-31 -198 R
62 0 V
-62 198 R
62 0 V
17 148 R
0 176 V
-31 -176 R
62 0 V
-62 176 R
62 0 V
18 -179 R
0 196 V
-31 -196 R
62 0 V
-62 196 R
62 0 V
17 -503 R
0 144 V
-31 -144 R
62 0 V
-62 144 R
62 0 V
18 -143 R
0 172 V
-31 -172 R
62 0 V
-62 172 R
62 0 V
17 -116 R
0 176 V
-31 -176 R
62 0 V
-62 176 R
62 0 V
18 81 R
0 294 V
-31 -294 R
62 0 V
-62 294 R
62 0 V
17 -8 R
0 217 V
-31 -217 R
62 0 V
-62 217 R
62 0 V
18 -494 R
0 191 V
-31 -191 R
62 0 V
-62 191 R
62 0 V
17 -157 R
0 151 V
-31 -151 R
62 0 V
stroke 3538 2220 M
-62 151 R
62 0 V
18 -429 R
0 161 V
-31 -161 R
62 0 V
-62 161 R
62 0 V
17 -172 R
0 174 V
-31 -174 R
62 0 V
-62 174 R
62 0 V
17 178 R
0 166 V
-31 -166 R
62 0 V
-62 166 R
62 0 V
18 -105 R
0 215 V
-31 -215 R
62 0 V
-62 215 R
62 0 V
17 -278 R
0 173 V
-31 -173 R
62 0 V
-62 173 R
62 0 V
18 -253 R
0 161 V
-31 -161 R
62 0 V
-62 161 R
62 0 V
17 -517 R
0 156 V
-31 -156 R
62 0 V
-62 156 R
62 0 V
18 63 R
0 163 V
-31 -163 R
62 0 V
-62 163 R
62 0 V
17 -407 R
0 174 V
-31 -174 R
62 0 V
-62 174 R
62 0 V
18 21 R
0 171 V
-31 -171 R
62 0 V
-62 171 R
62 0 V
17 -417 R
0 195 V
-31 -195 R
62 0 V
-62 195 R
62 0 V
18 24 R
0 294 V
-31 -294 R
62 0 V
-62 294 R
62 0 V
17 -512 R
0 150 V
-31 -150 R
62 0 V
-62 150 R
62 0 V
18 -92 R
0 118 V
-31 -118 R
62 0 V
-62 118 R
62 0 V
17 -290 R
0 166 V
-31 -166 R
62 0 V
-62 166 R
62 0 V
18 238 R
0 129 V
-31 -129 R
62 0 V
-62 129 R
62 0 V
17 -60 R
0 134 V
-31 -134 R
62 0 V
-62 134 R
62 0 V
stroke 4362 2263 M
18 -525 R
0 113 V
-31 -113 R
62 0 V
-62 113 R
62 0 V
17 -95 R
0 118 V
-31 -118 R
62 0 V
-62 118 R
62 0 V
18 -155 R
0 174 V
-31 -174 R
62 0 V
-62 174 R
62 0 V
17 -229 R
0 151 V
-31 -151 R
62 0 V
-62 151 R
62 0 V
18 -39 R
0 110 V
-31 -110 R
62 0 V
-62 110 R
62 0 V
17 -280 R
0 116 V
-31 -116 R
62 0 V
-62 116 R
62 0 V
18 100 R
0 111 V
-31 -111 R
62 0 V
-62 111 R
62 0 V
17 -439 R
0 98 V
-31 -98 R
62 0 V
-62 98 R
62 0 V
18 -246 R
0 126 V
-31 -126 R
62 0 V
-62 126 R
62 0 V
17 228 R
0 138 V
-31 -138 R
62 0 V
-62 138 R
62 0 V
17 -263 R
0 107 V
-31 -107 R
62 0 V
-62 107 R
62 0 V
18 52 R
0 102 V
-31 -102 R
62 0 V
-62 102 R
62 0 V
17 -440 R
0 96 V
-31 -96 R
62 0 V
-62 96 R
62 0 V
18 -426 R
0 97 V
-31 -97 R
62 0 V
-62 97 R
62 0 V
17 -200 R
0 108 V
5027 963 M
62 0 V
-62 108 R
62 0 V
18 -79 R
0 95 V
-31 -95 R
62 0 V
-62 95 R
62 0 V
17 -190 R
0 93 V
-31 -93 R
62 0 V
-62 93 R
62 0 V
18 27 R
0 114 V
stroke 5204 1131 M
-31 -114 R
62 0 V
-62 114 R
62 0 V
17 -354 R
0 323 V
5221 777 M
62 0 V
-62 323 R
62 0 V
1325 2179 Pls
1374 1730 Pls
1422 2000 Pls
1519 1934 Pls
1665 2019 Pls
1762 1552 Pls
1810 2278 Pls
1859 2786 Pls
1907 2164 Pls
1956 2299 Pls
2004 1716 Pls
2053 2122 Pls
2101 2274 Pls
2150 2604 Pls
2198 1778 Pls
2247 2058 Pls
2295 2421 Pls
2440 1735 Pls
2537 2388 Pls
2586 1818 Pls
2634 2446 Pls
2683 1900 Pls
2731 1999 Pls
2780 2266 Pls
2828 1839 Pls
2877 2145 Pls
2925 1930 Pls
2974 1855 Pls
3022 1833 Pls
3071 1926 Pls
3119 2261 Pls
3168 2268 Pls
3216 1935 Pls
3265 1950 Pls
3313 2008 Pls
3362 2324 Pls
3410 2572 Pls
3459 2282 Pls
3507 2296 Pls
3556 2023 Pls
3604 2018 Pls
3652 2366 Pls
3701 2452 Pls
3749 2367 Pls
3798 2282 Pls
3846 1923 Pls
3895 2146 Pls
3943 1907 Pls
3992 2100 Pls
4040 1867 Pls
4089 2135 Pls
4137 1845 Pls
4186 1887 Pls
4234 1739 Pls
4283 2124 Pls
4331 2196 Pls
4380 1794 Pls
4428 1815 Pls
4477 1806 Pls
4525 1740 Pls
4574 1831 Pls
4622 1664 Pls
4671 1877 Pls
4719 1543 Pls
4768 1409 Pls
4816 1769 Pls
4864 1629 Pls
4913 1785 Pls
4961 1444 Pls
5010 1114 Pls
5058 1017 Pls
5107 1039 Pls
5155 943 Pls
5204 1074 Pls
5252 938 Pls
5182 3299 Pls
1.000 UL
LTb
1106 3432 N
0 -2984 V
4444 0 V
0 2984 V
-4444 0 V
Z stroke
1.000 UP
1.000 UL
LTb
stroke
grestore
end
showpage
%%Trailer
%%DocumentFonts: Times-Roman
%%Pages: 1
