%!PS-Adobe-3.0 EPSF-3.0
%%For: bperera
%%Title: PGPLOT PostScript plot
%%Creator: PGPLOT [PSDRIV 6.6]
%%CreationDate: 24-May-2016 16:32
%%BoundingBox: (atend)
%%DocumentFonts: (atend)
%%LanguageLevel: 1
%%Orientation: Landscape
%%Pages: (atend)
%%EndComments
%%BeginProlog
/L {moveto rlineto currentpoint stroke moveto} bind def
/C {rlineto currentpoint stroke moveto} bind def
/D {moveto 0 0 rlineto currentpoint stroke moveto} bind def
/LW {5 mul setlinewidth} bind def
/BP {newpath moveto} bind def
/LP /rlineto load def
/EP {rlineto closepath eofill} bind def
/MB {gsave translate MFAC dup scale 1 setlinewidth 2 setlinecap 0 setlinejoin newpath} bind def
/ME /grestore load def
/CC {0 360 arc stroke} bind def
/FC {0 360 arc fill} bind def
/G {1024 div setgray} bind def
/K {3 -1 roll 1024 div 3 -1 roll 1024 div 3 -1 roll 1024 div setrgbcolor} bind def
% Uncomment next line to convert color to grey shades
%/K {3 -1 roll 3413 div 3 -1 roll 1739 div 3 -1 roll 9309 div add add setgray} bind def
%%EndProlog
%%BeginSetup
/#copies 1 def
%%EndSetup
 
%%Page: 1 1
%%BeginPageSetup
/PGPLOT save def
0.072 0.072 scale
8149 250 translate 90 rotate
1 setlinejoin 1 setlinecap 1 LW 1
%%EndPageSetup
%%PageBoundingBox: (atend)
1024 1024 1024 K 1 LW 0 0 BP 9749 0 LP 0 7799 LP -9749 0 EP 0 0 0 K
8286 0 975 1170 L -8286 0 9261 6629 L 0 -5459 C 0 45 1040 1170 L 0 45 1267 1170 L 0 45 1493 1170 L 0 90 1720 1170 L 0 45 1946 1170 L
0 45 2173 1170 L 0 45 2400 1170 L 0 45 2626 1170 L 0 90 2853 1170 L 0 45 3079 1170 L 0 45 3306 1170 L 0 45 3532 1170 L
0 45 3759 1170 L 0 90 3985 1170 L 0 45 4212 1170 L 0 45 4438 1170 L 0 45 4665 1170 L 0 45 4892 1170 L 0 90 5118 1170 L
0 45 5345 1170 L 0 45 5571 1170 L 0 45 5798 1170 L 0 45 6024 1170 L 0 90 6251 1170 L 0 45 6477 1170 L 0 45 6704 1170 L
0 45 6930 1170 L 0 45 7157 1170 L 0 90 7384 1170 L 0 45 7610 1170 L 0 45 7837 1170 L 0 45 8063 1170 L 0 45 8290 1170 L
0 90 8516 1170 L 0 45 8743 1170 L 0 45 8969 1170 L 0 45 9196 1170 L 0 45 1040 6584 L 0 45 1267 6584 L 0 45 1493 6584 L
0 90 1720 6539 L 0 45 1946 6584 L 0 45 2173 6584 L 0 45 2400 6584 L 0 45 2626 6584 L 0 90 2853 6539 L 0 45 3079 6584 L
0 45 3306 6584 L 0 45 3532 6584 L 0 45 3759 6584 L 0 90 3985 6539 L 0 45 4212 6584 L 0 45 4438 6584 L 0 45 4665 6584 L
0 45 4892 6584 L 0 90 5118 6539 L 0 45 5345 6584 L 0 45 5571 6584 L 0 45 5798 6584 L 0 45 6024 6584 L 0 90 6251 6539 L
0 45 6477 6584 L 0 45 6704 6584 L 0 45 6930 6584 L 0 45 7157 6584 L 0 90 7384 6539 L 0 45 7610 6584 L 0 45 7837 6584 L
0 45 8063 6584 L 0 45 8290 6584 L 0 90 8516 6539 L 0 45 8743 6584 L 0 45 8969 6584 L 0 45 9196 6584 L 108 0 1426 990 L
66 0 1588 1062 L -36 -48 C 18 0 C 12 -6 C 6 -6 C 6 -18 C 0 -12 C -6 -18 C -12 -12 C -18 -6 C -18 0 C -18 6 C -6 6 C -6 12 C
-18 -6 1732 1062 L -12 -18 C -6 -30 C 0 -18 C 6 -30 C 12 -18 C 18 -6 C 12 0 C 18 6 C 12 18 C 6 30 C 0 18 C -6 30 C -12 18 C -18 6 C
-12 0 C -18 -6 1852 1062 L -12 -18 C -6 -30 C 0 -18 C 6 -30 C 12 -18 C 18 -6 C 12 0 C 18 6 C 12 18 C 6 30 C 0 18 C -6 30 C -12 18 C
-18 6 C -12 0 C -18 -6 1972 1062 L -12 -18 C -6 -30 C 0 -18 C 6 -30 C 12 -18 C 18 -6 C 12 0 C 18 6 C 12 18 C 6 30 C 0 18 C -6 30 C
-12 18 C -18 6 C -12 0 C 108 0 2559 990 L 0 6 2715 1032 L 6 12 C 6 6 C 12 6 C 24 0 C 12 -6 C 6 -6 C 6 -12 C 0 -12 C -6 -12 C
-12 -18 C -60 -60 C 84 0 C -18 -6 2865 1062 L -12 -18 C -6 -30 C 0 -18 C 6 -30 C 12 -18 C 18 -6 C 12 0 C 18 6 C 12 18 C 6 30 C
0 18 C -6 30 C -12 18 C -18 6 C -12 0 C -18 -6 2985 1062 L -12 -18 C -6 -30 C 0 -18 C 6 -30 C 12 -18 C 18 -6 C 12 0 C 18 6 C 12 18 C
6 30 C 0 18 C -6 30 C -12 18 C -18 6 C -12 0 C -18 -6 3105 1062 L -12 -18 C -6 -30 C 0 -18 C 6 -30 C 12 -18 C 18 -6 C 12 0 C 18 6 C
12 18 C 6 30 C 0 18 C -6 30 C -12 18 C -18 6 C -12 0 C 108 0 3691 990 L 12 6 3859 1038 L 18 18 C 0 -126 C -18 -6 3997 1062 L
-12 -18 C -6 -30 C 0 -18 C 6 -30 C 12 -18 C 18 -6 C 12 0 C 18 6 C 12 18 C 6 30 C 0 18 C -6 30 C -12 18 C -18 6 C -12 0 C
-18 -6 4117 1062 L -12 -18 C -6 -30 C 0 -18 C 6 -30 C 12 -18 C 18 -6 C 12 0 C 18 6 C 12 18 C 6 30 C 0 18 C -6 30 C -12 18 C -18 6 C
-12 0 C -18 -6 4237 1062 L -12 -18 C -6 -30 C 0 -18 C 6 -30 C 12 -18 C 18 -6 C 12 0 C 18 6 C 12 18 C 6 30 C 0 18 C -6 30 C -12 18 C
-18 6 C -12 0 C -18 -6 5112 1062 L -12 -18 C -6 -30 C 0 -18 C 6 -30 C 12 -18 C 18 -6 C 12 0 C 18 6 C 12 18 C 6 30 C 0 18 C -6 30 C
-12 18 C -18 6 C -12 0 C 12 6 6047 1038 L 18 18 C 0 -126 C -18 -6 6185 1062 L -12 -18 C -6 -30 C 0 -18 C 6 -30 C 12 -18 C 18 -6 C
12 0 C 18 6 C 12 18 C 6 30 C 0 18 C -6 30 C -12 18 C -18 6 C -12 0 C -18 -6 6305 1062 L -12 -18 C -6 -30 C 0 -18 C 6 -30 C 12 -18 C
18 -6 C 12 0 C 18 6 C 12 18 C 6 30 C 0 18 C -6 30 C -12 18 C -18 6 C -12 0 C -18 -6 6425 1062 L -12 -18 C -6 -30 C 0 -18 C 6 -30 C
12 -18 C 18 -6 C 12 0 C 18 6 C 12 18 C 6 30 C 0 18 C -6 30 C -12 18 C -18 6 C -12 0 C 0 6 7168 1032 L 6 12 C 6 6 C 12 6 C 24 0 C
12 -6 C 6 -6 C 6 -12 C 0 -12 C -6 -12 C -12 -18 C -60 -60 C 84 0 C -18 -6 7318 1062 L -12 -18 C -6 -30 C 0 -18 C 6 -30 C 12 -18 C
18 -6 C 12 0 C 18 6 C 12 18 C 6 30 C 0 18 C -6 30 C -12 18 C -18 6 C -12 0 C -18 -6 7438 1062 L -12 -18 C -6 -30 C 0 -18 C 6 -30 C
12 -18 C 18 -6 C 12 0 C 18 6 C 12 18 C 6 30 C 0 18 C -6 30 C -12 18 C -18 6 C -12 0 C -18 -6 7558 1062 L -12 -18 C -6 -30 C 0 -18 C
6 -30 C 12 -18 C 18 -6 C 12 0 C 18 6 C 12 18 C 6 30 C 0 18 C -6 30 C -12 18 C -18 6 C -12 0 C 66 0 8306 1062 L -36 -48 C 18 0 C
12 -6 C 6 -6 C 6 -18 C 0 -12 C -6 -18 C -12 -12 C -18 -6 C -18 0 C -18 6 C -6 6 C -6 12 C -18 -6 8450 1062 L -12 -18 C -6 -30 C
0 -18 C 6 -30 C 12 -18 C 18 -6 C 12 0 C 18 6 C 12 18 C 6 30 C 0 18 C -6 30 C -12 18 C -18 6 C -12 0 C -18 -6 8570 1062 L -12 -18 C
-6 -30 C 0 -18 C 6 -30 C 12 -18 C 18 -6 C 12 0 C 18 6 C 12 18 C 6 30 C 0 18 C -6 30 C -12 18 C -18 6 C -12 0 C -18 -6 8690 1062 L
-12 -18 C -6 -30 C 0 -18 C 6 -30 C 12 -18 C 18 -6 C 12 0 C 18 6 C 12 18 C 6 30 C 0 18 C -6 30 C -12 18 C -18 6 C -12 0 C
45 0 975 1634 L 90 0 975 2387 L 45 0 975 3139 L 90 0 975 3892 L 45 0 975 4644 L 90 0 975 5396 L 45 0 975 6149 L 0 108 784 2004 L
-6 0 742 2160 L -12 6 C -6 6 C -6 12 C 0 24 C 6 12 C 6 6 C 12 6 C 12 0 C 12 -6 C 18 -12 C 60 -60 C 0 84 C 84 84 742 2280 L
84 -84 742 2364 L -6 12 736 2424 L -18 18 C 126 0 C 6 -18 712 2562 L 18 -12 C 30 -6 C 18 0 C 30 6 C 18 12 C 6 18 C 0 12 C -6 18 C
-18 12 C -30 6 C -18 0 C -30 -6 C -18 -12 C -6 -18 C 0 -12 C 0 81 702 2646 L 0 -45 648 2812 L 40 -4 C -4 4 C -5 14 C 0 13 C 5 14 C
9 9 C 13 4 C 9 0 C 14 -4 C 9 -9 C 4 -14 C 0 -13 C -4 -14 C -5 -4 C -9 -5 C 6 -18 712 3886 L 18 -12 C 30 -6 C 18 0 C 30 6 C 18 12 C
6 18 C 0 12 C -6 17 C -18 12 C -30 6 C -18 0 C -30 -6 C -18 -12 C -6 -17 C 0 -12 C -6 0 742 5092 L -12 6 C -6 6 C -6 12 C 0 24 C
6 12 C 6 6 C 12 6 C 12 0 C 12 -6 C 18 -12 C 60 -60 C 0 84 C 84 84 742 5212 L 84 -84 742 5296 L -6 12 736 5356 L -18 18 C 126 0 C
6 -18 712 5494 L 18 -12 C 30 -6 C 18 0 C 30 6 C 18 12 C 6 18 C 0 12 C -6 18 C -18 12 C -30 6 C -18 0 C -30 -6 C -18 -12 C -6 -18 C
0 -12 C 0 81 702 5578 L 0 -45 648 5744 L 40 -4 C -4 4 C -5 14 C 0 13 C 5 14 C 9 9 C 13 4 C 9 0 C 14 -4 C 9 -9 C 4 -14 C 0 -13 C
-4 -14 C -5 -4 C -9 -5 C
0 5459 9261 1170 L -97 0 9261 1447 L 0 108 9461 1064 L 84 -60 9389 1274 L 0 90 C 126 0 9389 1274 L 84 84 9419 1340 L
84 -84 9419 1424 L -6 12 9413 1484 L -18 18 C 126 0 C 6 -18 9389 1622 L 18 -12 C 30 -6 C 18 0 C 30 6 C 18 12 C 6 18 C 0 12 C -6 18 C
-18 12 C -30 6 C -18 0 C -30 -6 C -18 -12 C -6 -18 C 0 -12 C 0 81 9378 1706 L 0 50 9324 1827 L 36 -27 C 0 13 C 5 9 C 4 5 C 14 4 C
9 0 C 13 -4 C 9 -9 C 5 -14 C 0 -13 C -5 -14 C -4 -4 C -9 -5 C -48 0 9261 2058 L -97 0 9261 2669 L 0 108 9461 2286 L -6 0 9419 2442 L
-12 6 C -6 6 C -6 12 C 0 24 C 6 12 C 6 6 C 12 6 C 12 0 C 12 -6 C 18 -12 C 60 -60 C 0 84 C 84 84 9419 2562 L 84 -84 9419 2646 L
-6 12 9413 2706 L -18 18 C 126 0 C 6 -18 9389 2844 L 18 -12 C 30 -6 C 18 0 C 30 6 C 18 12 C 6 18 C 0 12 C -6 18 C -18 12 C -30 6 C
-18 0 C -30 -6 C -18 -12 C -6 -18 C 0 -12 C 0 81 9378 2928 L 0 49 9324 3050 L 36 -27 C 0 14 C 5 9 C 4 4 C 14 5 C 9 0 C 13 -5 C
9 -9 C 5 -13 C 0 -14 C -5 -13 C -4 -5 C -9 -4 C -48 0 9261 3280 L -97 0 9261 3892 L 6 -18 9389 3886 L 18 -12 C 30 -6 C 18 0 C 30 6 C
18 12 C 6 18 C 0 12 C -6 17 C -18 12 C -30 6 C -18 0 C -30 -6 C -18 -12 C -6 -17 C 0 -12 C -48 0 9261 4503 L -97 0 9261 5114 L
-6 0 9419 4809 L -12 6 C -6 6 C -6 12 C 0 24 C 6 12 C 6 6 C 12 6 C 12 0 C 12 -6 C 18 -12 C 60 -60 C 0 84 C 84 84 9419 4929 L
84 -84 9419 5013 L -6 12 9413 5073 L -18 18 C 126 0 C 6 -18 9389 5211 L 18 -12 C 30 -6 C 18 0 C 30 6 C 18 12 C 6 18 C 0 12 C -6 18 C
-18 12 C -30 6 C -18 0 C -30 -6 C -18 -12 C -6 -18 C 0 -12 C 0 81 9378 5295 L 0 49 9324 5417 L 36 -27 C 0 14 C 5 9 C 4 4 C 14 5 C
9 0 C 13 -5 C 9 -9 C 5 -13 C 0 -14 C -5 -13 C -4 -5 C -9 -4 C -48 0 9261 5725 L -97 0 9261 6336 L 84 -60 9389 6085 L 0 90 C
126 0 9389 6085 L 84 84 9419 6151 L 84 -84 9419 6235 L -6 12 9413 6295 L -18 18 C 126 0 C 6 -18 9389 6433 L 18 -12 C 30 -6 C 18 0 C
30 6 C 18 12 C 6 18 C 0 12 C -6 18 C -18 12 C -30 6 C -18 0 C -30 -6 C -18 -12 C -6 -18 C 0 -12 C 0 81 9378 6517 L 0 49 9324 6639 L
36 -27 C 0 14 C 5 9 C 4 4 C 14 5 C 9 0 C 13 -5 C 9 -9 C 5 -13 C 0 -14 C -5 -13 C -4 -5 C -9 -4 C
61 0 9688 2730 L 0 54 9688 2730 L 6 18 C 6 6 C 12 6 C 12 0 C 12 -6 C 6 -6 C 6 -18 C 0 -54 C 1 0 9748 2772 L -7 -3 9749 2919 L
-6 -6 C -6 -12 C 0 -18 C 6 -12 C 12 -12 C 1 -1 C -12 -6 9748 3024 L -6 -18 C 0 -18 C 6 -18 C 12 -6 C 1 0 C 6 6 9688 3060 L -6 6 C
-6 -6 C 6 -6 C 19 0 9730 3066 L 61 0 9688 3180 L -12 -12 9748 3180 L -6 -12 C 0 -18 C 6 -12 C 12 -12 C 1 -1 C 19 0 9730 3228 L
19 0 9730 3294 L 19 0 9730 3408 L -12 -12 9748 3408 L -6 -12 C 0 -18 C 6 -12 C 12 -12 C 1 -1 C 61 0 9688 3456 L 6 6 9688 3594 L
-6 6 C -6 -6 C 6 -6 C 19 0 9730 3600 L 19 0 9730 3648 L -13 14 9749 3652 L -6 12 C 0 18 C 6 12 C 13 4 C 19 0 9730 3858 L
-12 12 9748 3858 L -6 12 C 0 17 C 6 12 C 12 12 C 1 1 C 19 0 9730 3971 L 19 0 9730 4037 L 61 0 9688 4085 L -12 -6 9748 4193 L
-6 -18 C 0 -18 C 6 -18 C 12 -6 C 1 1 C -7 -4 9749 4299 L -6 -6 C -6 -12 C 0 -18 C 6 -12 C 12 -12 C 1 0 C 19 0 9730 4439 L
-12 12 9748 4439 L -6 12 C 0 18 C 6 12 C 12 12 C 1 1 C -7 -4 9749 4617 L -6 -6 C -6 -12 C 0 -18 C 6 -12 C 12 -12 C 1 0 C
19 0 9730 4661 L -1 0 9749 4667 L -12 12 C -6 12 C 0 18 C 6 6 9688 4733 L -6 6 C -6 -6 C 6 -6 C 19 0 9730 4739 L 6 -12 9730 4811 L
12 -12 C 1 0 C -1 -1 9749 4854 L -12 -12 C -6 -12 C 0 -18 C 61 0 9688 4967 L -12 -12 9748 4967 L -6 -12 C 0 -18 C 6 -12 C 12 -12 C
1 0 C -12 -6 9748 5075 L -6 -18 C 0 -18 C 6 -18 C 12 -6 C 1 1 C
0 -96 3171 7145 L -6 -18 C -6 -6 C -12 -6 C -12 0 C -12 6 C -6 6 C -6 18 C 0 12 C 12 6 3231 7121 L 18 18 C 0 -126 C
-60 -126 3417 7145 L 84 0 3333 7145 L 66 0 3465 7145 L -36 -48 C 18 0 C 12 -6 C 6 -6 C 6 -18 C 0 -12 C -6 -18 C -12 -12 C -18 -6 C
-18 0 C -18 6 C -6 6 C -6 12 C -18 -6 3609 7145 L -12 -18 C -6 -30 C 0 -18 C 6 -30 C 12 -18 C 18 -6 C 12 0 C 18 6 C 12 18 C 6 30 C
0 18 C -6 30 C -12 18 C -18 6 C -12 0 C 108 0 3699 7073 L 0 6 3855 7115 L 6 12 C 6 6 C 12 6 C 24 0 C 12 -6 C 6 -6 C 6 -12 C 0 -12 C
-6 -12 C -12 -18 C -60 -60 C 84 0 C 66 0 3981 7145 L -36 -48 C 18 0 C 12 -6 C 6 -6 C 6 -18 C 0 -12 C -6 -18 C -12 -12 C -18 -6 C
-18 0 C -18 6 C -6 6 C -6 12 C -18 -6 4125 7145 L -12 -18 C -6 -30 C 0 -18 C 6 -30 C 12 -18 C 18 -6 C 12 0 C 18 6 C 12 18 C 6 30 C
0 18 C -6 30 C -12 18 C -18 6 C -12 0 C -60 -84 4269 7145 L 90 0 C 0 -126 4269 7145 L -12 -12 4473 7169 L -12 -18 C -12 -24 C
-6 -30 C 0 -24 C 6 -30 C 12 -24 C 12 -18 C 12 -12 C 30 -126 4503 7145 L -30 -126 4563 7145 L 30 -126 4563 7145 L
-30 -126 4623 7145 L 0 -84 4659 7103 L 6 18 4659 7067 L 12 12 C 12 6 C 18 0 C 0 -84 4737 7103 L 18 18 4737 7079 L 12 6 C 18 0 C
12 -6 C 6 -18 C 0 -60 C 18 18 4803 7079 L 12 6 C 18 0 C 12 -6 C 6 -18 C 0 -60 C -6 12 4977 7085 L -18 6 C -18 0 C -18 -6 C -6 -12 C
6 -12 C 12 -6 C 30 -6 C 12 -6 C 6 -12 C 0 -6 C -6 -12 C -18 -6 C -18 0 C -18 6 C -6 12 C 108 0 5115 7091 L 108 0 5115 7055 L
0 6 5367 7115 L 6 12 C 6 6 C 12 6 C 24 0 C 12 -6 C 6 -6 C 6 -12 C 0 -12 C -6 -12 C -12 -18 C -60 -60 C 84 0 C -6 -6 5493 7031 L
6 -6 C 6 6 C -6 6 C 0 6 5547 7115 L 6 12 C 6 6 C 12 6 C 24 0 C 12 -6 C 6 -6 C 6 -12 C 0 -12 C -6 -12 C -12 -18 C -60 -60 C 84 0 C
-18 -6 5697 7145 L -12 -18 C -6 -30 C 0 -18 C 6 -30 C 12 -18 C 18 -6 C 12 0 C 18 6 C 12 18 C 6 30 C 0 18 C -6 30 C -12 18 C -18 6 C
-12 0 C -60 -126 5865 7145 L 84 0 5781 7145 L -36 -126 6021 7103 L -6 -30 6015 7079 L 0 -18 C 12 -12 C 12 0 C 12 6 C 12 12 C 12 24 C
-12 -42 6081 7103 L -6 -24 C 0 -12 C 6 -6 C 12 0 C 12 12 C 6 12 C -6 12 6189 7085 L -18 6 C -18 0 C -18 -6 C -6 -12 C 6 -12 C
12 -6 C 30 -6 C 12 -6 C 6 -12 C 0 -6 C -6 -12 C -18 -6 C -18 0 C -18 6 C -6 12 C 12 -12 6225 7169 L 12 -18 C 12 -24 C 6 -30 C
0 -24 C -6 -30 C -12 -24 C -12 -18 C -12 -12 C 0 -126 6411 7103 L 12 12 6411 7085 L 12 6 C 18 0 C 12 -6 C 12 -12 C 6 -18 C 0 -12 C
-6 -18 C -12 -12 C -12 -6 C -18 0 C -12 6 C -12 12 C -12 -6 6549 7103 L -12 -12 C -6 -18 C 0 -12 C 6 -18 C 12 -12 C 12 -6 C 18 0 C
12 6 C 12 12 C 6 18 C 0 12 C -6 18 C -12 12 C -12 6 C -18 0 C -6 12 6699 7085 L -18 6 C -18 0 C -18 -6 C -6 -12 C 6 -12 C 12 -6 C
30 -6 C 12 -6 C 6 -12 C 0 -6 C -6 -12 C -18 -6 C -18 0 C -18 6 C -6 12 C 0 -102 6747 7145 L 6 -18 C 12 -6 C 12 0 C 42 0 6729 7103 L
108 0 6813 7073 L -12 0 7005 7145 L -12 -6 C -6 -18 C 0 -102 C 42 0 6957 7103 L 6 -6 7035 7145 L 6 6 C -6 6 C -6 -6 C
0 -84 7041 7103 L 0 -102 7095 7145 L 6 -18 C 12 -6 C 12 0 C 42 0 7077 7103 L 0 -126 4491 672 L 48 -126 4491 672 L
-48 -126 4587 672 L 0 -126 4587 672 L 0 -96 4683 672 L -6 -18 C -6 -6 C -12 -6 C -12 0 C -12 6 C -6 6 C -6 18 C 0 12 C
0 -126 4731 672 L 42 0 4731 672 L 18 -6 C 12 -12 C 6 -12 C 6 -18 C 0 -30 C -6 -18 C -6 -12 C -12 -12 C -18 -6 C -42 0 C
108 0 4857 600 L -60 0 5079 672 L -6 -54 C 6 6 C 18 6 C 18 0 C 18 -6 C 12 -12 C 6 -18 C 0 -12 C -6 -18 C -12 -12 C -18 -6 C -18 0 C
-18 6 C -6 6 C -6 12 C 66 0 5139 672 L -36 -48 C 18 0 C 12 -6 C 6 -6 C 6 -18 C 0 -12 C -6 -18 C -12 -12 C -18 -6 C -18 0 C -18 6 C
-6 6 C -6 12 C -60 -126 5331 672 L 84 0 5247 672 L -18 -6 5397 672 L -6 -12 C 0 -12 C 6 -12 C 12 -6 C 24 -6 C 18 -6 C 12 -12 C
6 -12 C 0 -18 C -6 -12 C -6 -6 C -18 -6 C -24 0 C -18 6 C -6 6 C -6 12 C 0 18 C 6 12 C 12 12 C 18 6 C 24 6 C 12 6 C 6 12 C 0 12 C
-6 12 C -18 6 C -24 0 C 0 6 5493 642 L 6 12 C 6 6 C 12 6 C 24 0 C 12 -6 C 6 -6 C 6 -12 C 0 -12 C -6 -12 C -12 -18 C -60 -60 C 84 0 C
-6 -6 5619 558 L 6 -6 C 6 6 C -6 6 C -18 -6 5697 672 L -6 -12 C 0 -12 C 6 -12 C 12 -6 C 24 -6 C 18 -6 C 12 -12 C 6 -12 C 0 -18 C
-6 -12 C -6 -6 C -18 -6 C -24 0 C -18 6 C -6 6 C -6 12 C 0 18 C 6 12 C 12 12 C 18 6 C 24 6 C 12 6 C 6 12 C 0 12 C -6 12 C -18 6 C
-24 0 C 126 0 420 2895 L 0 54 420 2895 L 6 18 C 6 6 C 12 6 C 18 0 C 12 -6 C 6 -6 C 6 -18 C 0 -54 C 6 -12 462 3045 L 12 -12 C 18 -6 C
12 0 C 18 6 C 12 12 C 6 12 C 0 18 C -6 12 C -12 12 C -18 6 C -12 0 C -18 -6 C -12 -12 C -6 -12 C 0 -18 C -12 -6 480 3195 L -6 -18 C
0 -18 C 6 -18 C 12 -6 C 12 6 C 6 12 C 6 30 C 6 12 C 12 6 C 6 0 C 12 -6 C 6 -18 C 0 -18 C -6 -18 C -12 -6 C 102 0 420 3243 L 18 6 C
6 12 C 0 12 C 0 42 462 3225 L 0 -12 420 3345 L 6 -12 C 18 -6 C 102 0 C 0 42 462 3297 L 6 6 420 3375 L -6 6 C -6 -6 C 6 -6 C
84 0 462 3381 L 102 0 420 3435 L 18 6 C 6 12 C 0 12 C 0 42 462 3417 L 126 0 420 3597 L 0 54 420 3597 L 6 18 C 6 6 C 12 6 C 12 0 C
12 -6 C 6 -6 C 6 -18 C 0 -54 C 66 42 480 3639 L 0 72 498 3717 L -12 0 C -12 -6 C -6 -6 C -6 -12 C 0 -18 C 6 -12 C 12 -12 C 18 -6 C
12 0 C 18 6 C 12 12 C 6 12 C 0 18 C -6 12 C -12 12 C -12 -6 480 3891 L -6 -18 C 0 -18 C 6 -18 C 12 -6 C 12 6 C 6 12 C 6 30 C 6 12 C
12 6 C 6 0 C 12 -6 C 6 -18 C 0 -18 C -6 -18 C -12 -6 C 6 6 420 3926 L -6 6 C -6 -6 C 6 -6 C 84 0 462 3932 L 126 0 420 4046 L
-12 -12 480 4046 L -6 -12 C 0 -18 C 6 -12 C 12 -12 C 18 -6 C 12 0 C 18 6 C 12 12 C 6 12 C 0 18 C -6 12 C -12 12 C 60 0 462 4094 L
18 6 C 6 12 C 0 18 C -6 12 C -18 18 C 84 0 462 4160 L 84 0 462 4274 L -12 -12 480 4274 L -6 -12 C 0 -18 C 6 -12 C 12 -12 C 18 -6 C
12 0 C 18 6 C 12 12 C 6 12 C 0 18 C -6 12 C -12 12 C 126 0 420 4322 L 12 -12 396 4508 L 18 -12 C 24 -12 C 30 -6 C 24 0 C 30 6 C
24 12 C 18 12 C 12 12 C -12 -6 480 4610 L -6 -18 C 0 -18 C 6 -18 C 12 -6 C 12 6 C 6 12 C 6 30 C 6 12 C 12 6 C 6 0 C 12 -6 C 6 -18 C
0 -18 C -6 -18 C -12 -6 C 0 72 498 4646 L -12 0 C -12 -6 C -6 -6 C -6 -12 C 0 -18 C 6 -12 C 12 -12 C 18 -6 C 12 0 C 18 6 C 12 12 C
6 12 C 0 18 C -6 12 C -12 12 C -12 -12 480 4826 L -6 -12 C 0 -18 C 6 -12 C 12 -12 C 18 -6 C 12 0 C 18 6 C 12 12 C 6 12 C 0 18 C
-6 12 C -12 12 C 12 12 396 4862 L 18 12 C 24 12 C 30 6 C 24 0 C 30 -6 C 24 -12 C 18 -12 C 12 -12 C
1024 0 0 K
/M16 {MB -4 -4 moveto 0 8 rlineto 8 0 rlineto 0 -8                              
rlineto closepath fill ME} bind def                                             
/MFAC      5.999 def    
4743 3811 M16 4743 3734 M16 4778 4142 M16 4875 4515 M16 4892 3622 M16 4918 3734 M16 5009 3774 M16 5030 2700 M16 5055 4073 M16
5069 3303 M16 5110 3879 M16 5159 3820 M16 5160 3711 M16 5176 4348 M16 5193 3800 M16 5229 4047 M16 5272 3609 M16 5273 3858 M16
5316 3939 M16 5316 3556 M16 5327 3870 M16 5394 4007 M16 5414 3951 M16 5463 3488 M16 5464 3580 M16 5481 3933 M16 5522 3994 M16
5534 3879 M16 5593 3988 M16 5617 3689 M16 5655 3997 M16 5698 4076 M16 5734 3970 M16 5768 3840 M16 5803 4252 M16 5830 4039 M16
5861 4066 M16 5877 4373 M16 5917 3934 M16 5940 4159 M16 5962 4320 M16 6011 4149 M16 6032 3811 M16 6057 3626 M16 6081 4102 M16
6122 4626 M16 6147 3741 M16 6215 4135 M16 6229 3936 M16 6334 4174 M16 6334 4094 M16 6364 3755 M16 6417 3920 M16 6437 3933 M16
6485 3658 M16 6545 3900 M16 6561 4029 M16 6581 3999 M16 6664 4009 M16 6682 3992 M16 6728 3952 M16 6760 3995 M16 6779 3991 M16
6803 3996 M16 6831 3951 M16 6849 3798 M16 6869 3820 M16 6892 3836 M16 6912 4003 M16 6937 3726 M16 6958 3140 M16 6981 3724 M16
7015 3814 M16 7016 3959 M16 7031 3756 M16 7053 3676 M16 7096 3966 M16 7143 3871 M16 7156 3625 M16 7175 3797 M16
45 0 4721 3395 L 0 832 4743 3395 L 45 0 4721 4227 L 45 0 4721 3345 L 0 777 4743 3345 L 45 0 4721 4122 L 45 0 4756 3711 L
0 861 4778 3711 L 45 0 4756 4572 L 45 0 4853 4060 L 0 909 4875 4060 L 45 0 4853 4969 L 45 0 4870 3411 L 0 422 4892 3411 L
45 0 4870 3833 L 45 0 4896 3271 L 0 927 4918 3271 L 45 0 4896 4198 L 45 0 4986 3502 L 0 545 5009 3502 L 45 0 4986 4047 L
45 0 5007 2056 L 0 1288 5030 2056 L 45 0 5007 3344 L 45 0 5032 3833 L 0 480 5055 3833 L 45 0 5032 4313 L 45 0 5046 3027 L
0 553 5069 3027 L 45 0 5046 3580 L 45 0 5088 3770 L 0 218 5110 3770 L 45 0 5088 3988 L 45 0 5136 3590 L 0 460 5159 3590 L
45 0 5136 4050 L 45 0 5137 3537 L 0 349 5160 3537 L 45 0 5137 3886 L 45 0 5153 4054 L 0 587 5176 4054 L 45 0 5153 4641 L
45 0 5170 3548 L 0 503 5193 3548 L 45 0 5170 4051 L 45 0 5207 3868 L 0 357 5229 3868 L 45 0 5207 4225 L 45 0 5250 3285 L
0 647 5272 3285 L 45 0 5250 3932 L 45 0 5251 3690 L 0 337 5273 3690 L 45 0 5251 4027 L 45 0 5293 3710 L 0 458 5316 3710 L
45 0 5293 4168 L 45 0 5293 3319 L 0 475 5316 3319 L 45 0 5293 3794 L 45 0 5305 3618 L 0 504 5327 3618 L 45 0 5305 4122 L
45 0 5371 3849 L 0 316 5394 3849 L 45 0 5371 4165 L 45 0 5392 3814 L 0 273 5414 3814 L 45 0 5392 4087 L 45 0 5440 2684 L
0 1608 5463 2684 L 45 0 5440 4292 L 45 0 5441 3122 L 0 916 5464 3122 L 45 0 5441 4038 L 45 0 5458 3694 L 0 479 5481 3694 L
45 0 5458 4173 L 45 0 5499 3876 L 0 236 5522 3876 L 45 0 5499 4112 L 45 0 5511 3698 L 0 361 5534 3698 L 45 0 5511 4059 L
45 0 5570 3875 L 0 227 5593 3875 L 45 0 5570 4102 L 45 0 5594 3488 L 0 402 5617 3488 L 45 0 5594 3890 L 45 0 5632 3854 L
0 286 5655 3854 L 45 0 5632 4140 L 45 0 5675 3926 L 0 301 5698 3926 L 45 0 5675 4227 L 45 0 5712 3442 L 0 1057 5734 3442 L
45 0 5712 4499 L 45 0 5745 3596 L 0 489 5768 3596 L 45 0 5745 4085 L 45 0 5780 4039 L 0 425 5803 4039 L 45 0 5780 4464 L
45 0 5807 3652 L 0 773 5830 3652 L 45 0 5807 4425 L 45 0 5838 3761 L 0 609 5861 3761 L 45 0 5838 4370 L 45 0 5855 3931 L
0 883 5877 3931 L 45 0 5855 4814 L 45 0 5894 3788 L 0 292 5917 3788 L 45 0 5894 4080 L 45 0 5918 3901 L 0 516 5940 3901 L
45 0 5918 4417 L 45 0 5939 4076 L 0 488 5962 4076 L 45 0 5939 4564 L 45 0 5988 3967 L 0 363 6011 3967 L 45 0 5988 4330 L
45 0 6010 3541 L 0 541 6032 3541 L 45 0 6010 4082 L 45 0 6035 3092 L 0 1068 6057 3092 L 45 0 6035 4160 L 45 0 6058 3843 L
0 517 6081 3843 L 45 0 6058 4360 L 45 0 6099 4142 L 0 968 6122 4142 L 45 0 6099 5110 L 45 0 6125 3234 L 0 1014 6147 3234 L
45 0 6125 4248 L 45 0 6193 3509 L 0 1252 6215 3509 L 45 0 6193 4761 L 45 0 6206 3729 L 0 414 6229 3729 L 45 0 6206 4143 L
45 0 6311 3691 L 0 965 6334 3691 L 45 0 6311 4656 L 45 0 6311 3610 L 0 968 6334 3610 L 45 0 6311 4578 L 45 0 6342 3509 L
0 493 6364 3509 L 45 0 6342 4002 L 45 0 6395 3655 L 0 530 6417 3655 L 45 0 6395 4185 L 45 0 6415 3707 L 0 452 6437 3707 L
45 0 6415 4159 L 45 0 6463 3417 L 0 482 6485 3417 L 45 0 6463 3899 L 45 0 6522 3786 L 0 229 6545 3786 L 45 0 6522 4015 L
45 0 6538 3927 L 0 203 6561 3927 L 45 0 6538 4130 L 45 0 6559 3887 L 0 225 6581 3887 L 45 0 6559 4112 L 45 0 6641 3862 L
0 294 6664 3862 L 45 0 6641 4156 L 45 0 6659 3880 L 0 224 6682 3880 L 45 0 6659 4104 L 45 0 6705 3785 L 0 334 6728 3785 L
45 0 6705 4119 L 45 0 6737 3853 L 0 284 6760 3853 L 45 0 6737 4137 L 45 0 6756 3840 L 0 301 6779 3840 L 45 0 6756 4141 L
45 0 6781 3837 L 0 318 6803 3837 L 45 0 6781 4155 L 45 0 6808 3832 L 0 238 6831 3832 L 45 0 6808 4070 L 45 0 6826 3645 L
0 306 6849 3645 L 45 0 6826 3951 L 45 0 6847 3705 L 0 229 6869 3705 L 45 0 6847 3934 L 45 0 6869 3727 L 0 218 6892 3727 L
45 0 6869 3945 L 45 0 6889 3868 L 0 271 6912 3868 L 45 0 6889 4139 L 45 0 6915 3571 L 0 309 6937 3571 L 45 0 6915 3880 L
45 0 6936 2791 L 0 697 6958 2791 L 45 0 6936 3488 L 45 0 6958 3609 L 0 229 6981 3609 L 45 0 6958 3838 L 45 0 6992 3671 L
0 287 7015 3671 L 45 0 6992 3958 L 45 0 6994 3828 L 0 262 7016 3828 L 45 0 6994 4090 L 45 0 7008 3693 L 0 126 7031 3693 L
45 0 7008 3819 L 45 0 7031 3589 L 0 174 7053 3589 L 45 0 7031 3763 L 45 0 7074 3866 L 0 201 7096 3866 L 45 0 7074 4067 L
45 0 7120 3676 L 0 390 7143 3676 L 45 0 7120 4066 L 45 0 7134 3527 L 0 196 7156 3527 L 45 0 7134 3723 L 45 0 7153 3654 L
0 285 7175 3654 L 45 0 7153 3939 L
0 1024 0 K 1665 2359 M16 1745 2548 M16 1889 3521 M16 1945 3321 M16 1999 3890 M16 2264 4016 M16 2264 4076 M16 2279 3966 M16
4681 3963 M16 4683 4038 M16 4685 3840 M16 4691 4237 M16 4697 3585 M16 4701 3310 M16 4704 2805 M16 4705 3915 M16 4714 3730 M16
4715 3690 M16 4720 3299 M16 4728 4000 M16 4729 3927 M16 4739 4790 M16 4753 4061 M16 4755 4853 M16 4762 3595 M16 4766 3975 M16
4770 4435 M16 4777 3778 M16 4777 4038 M16 4779 4059 M16 4779 3819 M16 4779 4006 M16 4780 4012 M16 4785 3907 M16 4789 4296 M16
4792 3911 M16 4793 3822 M16 4801 3843 M16 4815 4254 M16 4819 4033 M16 4819 4539 M16 4833 2957 M16 4834 3468 M16 4848 4016 M16
4851 4880 M16 4859 3993 M16 4874 4034 M16 4874 3705 M16 4888 4375 M16 4894 3907 M16 4898 3760 M16 4914 3426 M16 4918 3766 M16
4930 3348 M16 4966 3960 M16 4966 3601 M16 4979 3791 M16 5010 3405 M16 5010 3985 M16 5029 3928 M16 5032 3480 M16 5053 3766 M16
5067 3763 M16 5067 3640 M16 5067 3856 M16 5069 3633 M16 5085 3742 M16 5086 3581 M16 5096 3450 M16 5110 4251 M16 5112 3575 M16
5114 4044 M16 5130 4109 M16 5134 3829 M16 5157 4073 M16 5175 3994 M16 5175 3734 M16 5190 3902 M16 5193 4014 M16 5201 3386 M16
5212 4029 M16 5223 3700 M16 5231 3945 M16 5252 3523 M16 5254 3936 M16 5254 3759 M16 5271 3809 M16 5288 3874 M16 5312 4055 M16
5315 3707 M16 5315 3761 M16 5319 3801 M16 5326 4098 M16 5326 4222 M16 5326 3785 M16 5347 3761 M16 5358 3942 M16 5376 3848 M16
5377 4022 M16 5395 4034 M16 5413 3907 M16 5413 4452 M16 5419 3712 M16 5430 3900 M16 5439 3867 M16 5439 3926 M16 5462 3938 M16
5480 4131 M16 5480 3820 M16 5482 4151 M16 5500 3891 M16 5516 4015 M16 5520 3916 M16 5520 3938 M16 5533 3941 M16 5540 4072 M16
5556 4046 M16 5558 3919 M16 5574 3864 M16 5592 3888 M16 5592 3888 M16 5635 3913 M16 5678 4144 M16 5687 3904 M16 5707 4036 M16
5716 4145 M16 5724 4015 M16 5732 4216 M16 5732 4149 M16 5734 4261 M16 5766 3926 M16 5779 4084 M16 5779 3909 M16 5790 4201 M16
5829 4016 M16 5839 4793 M16 5855 4187 M16 5859 3996 M16 5891 3943 M16 5916 4147 M16 5918 3965 M16 5940 4195 M16 5941 4160 M16
5951 4156 M16 5951 4173 M16 5961 4222 M16 5964 4288 M16 5981 4060 M16 6009 3990 M16 6030 4096 M16 6048 3780 M16 6057 4018 M16
6079 4089 M16 6144 4185 M16 6148 3500 M16 6148 3878 M16 6161 4144 M16 6192 3832 M16 6192 3673 M16 6210 3784 M16 6214 3673 M16
6214 3492 M16 6231 3732 M16 6251 3880 M16 6285 4321 M16 6285 4068 M16 6305 3892 M16 6323 3851 M16 6330 3834 M16 6335 3767 M16
6350 3326 M16 6359 3794 M16 6365 3825 M16 6386 3706 M16 6392 3746 M16 6411 3918 M16 6413 3806 M16 6418 3763 M16 6428 3749 M16
6435 4672 M16 6438 3727 M16 6457 3712 M16 6465 3626 M16 6476 3422 M16 6487 3548 M16 6512 3852 M16 6522 3884 M16 6540 3958 M16
6543 3841 M16 6561 3850 M16 6565 4207 M16 6566 3976 M16 6568 3975 M16 6580 3852 M16 6581 3452 M16 6587 3959 M16 6605 4048 M16
6615 3985 M16 6623 3598 M16 6628 4146 M16 6638 3823 M16 6662 4111 M16 6675 3988 M16 6681 4159 M16 6705 3975 M16 6728 3922 M16
6731 3803 M16 6778 4051 M16 6778 4081 M16 6791 4038 M16 6805 4020 M16 6830 4038 M16 6845 5086 M16 6850 3915 M16 6854 3891 M16
6863 3901 M16 6868 3914 M16 6885 3971 M16 6888 3864 M16 6910 3775 M16 6917 3725 M16 6935 3838 M16 6936 3634 M16 6948 3635 M16
6957 4229 M16 6958 3854 M16 6960 2746 M16 6969 3919 M16 6980 3412 M16 6981 3840 M16 6994 3624 M16 7015 3814 M16 7027 3659 M16
7031 3692 M16 7032 3804 M16 7042 3766 M16 7042 3914 M16 7053 4227 M16 7055 3722 M16 7059 3712 M16 7076 3972 M16 7079 3892 M16
7095 3760 M16 7099 3850 M16 7126 3747 M16 7141 3670 M16 7143 3830 M16 7149 4395 M16 7150 4410 M16 7155 3196 M16 7157 3599 M16
7160 3362 M16 7171 3095 M16 7171 3625 M16 7174 3719 M16 7182 3737 M16 7182 3759 M16 7191 3994 M16 7201 3507 M16 7207 3679 M16
7221 4402 M16 7237 3053 M16 7244 3860 M16 7246 3897 M16 7252 4274 M16 7260 3771 M16 7276 3953 M16 7290 3514 M16 7303 3893 M16
7316 4549 M16 7318 1625 M16 7324 4771 M16 7327 3865 M16 7335 3659 M16 7345 4098 M16 7349 2549 M16 7372 3275 M16 7377 3929 M16
7379 3590 M16 7386 3730 M16 7388 4547 M16 7399 1825 M16 7406 3881 M16 7409 3797 M16 7429 4354 M16 7434 3946 M16 7437 3647 M16
7455 5041 M16 7463 3808 M16 7475 4325 M16 7491 3176 M16 7504 3623 M16 7522 4179 M16 7540 4229 M16 7543 3978 M16 7555 3640 M16
7555 3764 M16 7573 5381 M16 7585 2155 M16 7587 4038 M16 7599 3896 M16 7611 3933 M16 7619 4228 M16 7626 3743 M16 7630 3710 M16
7635 5015 M16 7643 3883 M16 7665 3690 M16 7672 3732 M16 7680 4067 M16 7693 4121 M16 7700 3892 M16 7713 3612 M16 7715 4179 M16
7737 3909 M16 7739 3683 M16 7755 4315 M16 7771 3779 M16 7777 4179 M16 7779 3929 M16 7790 3669 M16 7799 3949 M16 7800 3866 M16
7802 4244 M16 7812 4259 M16 7823 4086 M16 7831 3598 M16 7832 3798 M16 7842 3951 M16 7846 3984 M16 7875 4882 M16 7885 4287 M16
7903 4100 M16 7905 3758 M16 7916 3753 M16 7931 4530 M16 7968 4034 M16 8008 3657 M16 8012 3319 M16 8039 4151 M16 8043 4132 M16
8063 3952 M16 8084 3272 M16 8088 3680 M16 8099 3914 M16 8109 3620 M16 8156 4376 M16 8176 3915 M16 8180 4140 M16 8187 4964 M16
8200 4126 M16 8210 3944 M16 8232 3043 M16 8251 4078 M16 8264 4105 M16 8275 3970 M16 8301 4075 M16 8325 4409 M16 8370 4041 M16
8377 4012 M16 8417 3982 M16 8432 4080 M16 8459 4102 M16 8462 4108 M16 8483 4042 M16 8483 4280 M16 8487 4048 M16 8497 5117 M16
8501 3981 M16 8519 4171 M16 8521 3651 M16 8571 4338 M16
45 0 1643 1585 L 0 1547 1665 1585 L 45 0 1643 3132 L 45 0 1723 1491 L 0 2115 1745 1491 L 45 0 1723 3606 L 45 0 1867 3353 L
0 335 1889 3353 L 45 0 1867 3688 L 45 0 1923 2739 L 0 1164 1945 2739 L 45 0 1923 3903 L 45 0 1976 3699 L 0 382 1999 3699 L
45 0 1976 4081 L 45 0 2241 3872 L 0 288 2264 3872 L 45 0 2241 4160 L 45 0 2241 3905 L 0 341 2264 3905 L 45 0 2241 4246 L
45 0 2256 3800 L 0 331 2279 3800 L 45 0 2256 4131 L 45 0 4659 3820 L 0 285 4681 3820 L 45 0 4659 4105 L 45 0 4660 3630 L
0 816 4683 3630 L 45 0 4660 4446 L 45 0 4662 3641 L 0 397 4685 3641 L 45 0 4662 4038 L 45 0 4668 4042 L 0 391 4691 4042 L
45 0 4668 4433 L 45 0 4675 3301 L 0 568 4697 3301 L 45 0 4675 3869 L 45 0 4678 2374 L 0 1872 4701 2374 L 45 0 4678 4246 L
45 0 4682 2101 L 0 1408 4704 2101 L 45 0 4682 3509 L 45 0 4683 3856 L 0 119 4705 3856 L 45 0 4683 3975 L 45 0 4692 3659 L
0 142 4714 3659 L 45 0 4692 3801 L 45 0 4693 3583 L 0 213 4715 3583 L 45 0 4693 3796 L 45 0 4697 3053 L 0 493 4720 3053 L
45 0 4697 3546 L 45 0 4705 3545 L 0 911 4728 3545 L 45 0 4705 4456 L 45 0 4706 3640 L 0 574 4729 3640 L 45 0 4706 4214 L
45 0 4717 4331 L 0 918 4739 4331 L 45 0 4717 5249 L 45 0 4730 3876 L 0 369 4753 3876 L 45 0 4730 4245 L 45 0 4732 4364 L
0 978 4755 4364 L 45 0 4732 5342 L 45 0 4740 3380 L 0 430 4762 3380 L 45 0 4740 3810 L 45 0 4744 3820 L 0 311 4766 3820 L
45 0 4744 4131 L 45 0 4747 4031 L 0 809 4770 4031 L 45 0 4747 4840 L 45 0 4755 3552 L 0 452 4777 3552 L 45 0 4755 4004 L
45 0 4755 3819 L 0 439 4777 3819 L 45 0 4755 4258 L 45 0 4756 3988 L 0 142 4779 3988 L 45 0 4756 4130 L 45 0 4757 3605 L
0 428 4779 3605 L 45 0 4757 4033 L 45 0 4757 3797 L 0 417 4779 3797 L 45 0 4757 4214 L 45 0 4757 3794 L 0 435 4780 3794 L
45 0 4757 4229 L 45 0 4763 3809 L 0 195 4785 3809 L 45 0 4763 4004 L 45 0 4766 3886 L 0 820 4789 3886 L 45 0 4766 4706 L
45 0 4770 3829 L 0 164 4792 3829 L 45 0 4770 3993 L 45 0 4771 3399 L 0 847 4793 3399 L 45 0 4771 4246 L 45 0 4779 3615 L
0 457 4801 3615 L 45 0 4779 4072 L 45 0 4792 3896 L 0 717 4815 3896 L 45 0 4792 4613 L 45 0 4796 3769 L 0 528 4819 3769 L
45 0 4796 4297 L 45 0 4796 4293 L 0 491 4819 4293 L 45 0 4796 4784 L 45 0 4810 2324 L 0 1266 4833 2324 L 45 0 4810 3590 L
45 0 4811 3064 L 0 809 4834 3064 L 45 0 4811 3873 L 45 0 4825 3446 L 0 1141 4848 3446 L 45 0 4825 4587 L 45 0 4828 4194 L
0 1373 4851 4194 L 45 0 4828 5567 L 45 0 4836 3935 L 0 116 4859 3935 L 45 0 4836 4051 L 45 0 4852 3818 L 0 433 4874 3818 L
45 0 4852 4251 L 45 0 4852 3455 L 0 501 4874 3455 L 45 0 4852 3956 L 45 0 4866 4087 L 0 577 4888 4087 L 45 0 4866 4664 L
45 0 4872 3847 L 0 121 4894 3847 L 45 0 4872 3968 L 45 0 4876 3648 L 0 225 4898 3648 L 45 0 4876 3873 L 45 0 4892 2977 L
0 898 4914 2977 L 45 0 4892 3875 L 45 0 4895 3587 L 0 357 4918 3587 L 45 0 4895 3944 L 45 0 4907 3135 L 0 425 4930 3135 L
45 0 4907 3560 L 45 0 4943 3731 L 0 459 4966 3731 L 45 0 4943 4190 L 45 0 4943 3387 L 0 428 4966 3387 L 45 0 4943 3815 L
45 0 4957 3666 L 0 250 4979 3666 L 45 0 4957 3916 L 45 0 4987 3179 L 0 452 5010 3179 L 45 0 4987 3631 L 45 0 4987 3754 L
0 461 5010 3754 L 45 0 4987 4215 L 45 0 5006 3796 L 0 264 5029 3796 L 45 0 5006 4060 L 45 0 5009 2604 L 0 1751 5032 2604 L
45 0 5009 4355 L 45 0 5030 3532 L 0 468 5053 3532 L 45 0 5030 4000 L 45 0 5045 3538 L 0 449 5067 3538 L 45 0 5045 3987 L
45 0 5045 3431 L 0 419 5067 3431 L 45 0 5045 3850 L 45 0 5045 3756 L 0 199 5067 3756 L 45 0 5045 3955 L 45 0 5047 3514 L
0 238 5069 3514 L 45 0 5047 3752 L 45 0 5062 3507 L 0 470 5085 3507 L 45 0 5062 3977 L 45 0 5063 2978 L 0 1206 5086 2978 L
45 0 5063 4184 L 45 0 5074 3024 L 0 852 5096 3024 L 45 0 5074 3876 L 45 0 5087 3586 L 0 1331 5110 3586 L 45 0 5087 4917 L
45 0 5090 3438 L 0 275 5112 3438 L 45 0 5090 3713 L 45 0 5092 3334 L 0 1420 5114 3334 L 45 0 5092 4754 L 45 0 5107 3772 L
0 674 5130 3772 L 45 0 5107 4446 L 45 0 5111 3722 L 0 213 5134 3722 L 45 0 5111 3935 L 45 0 5134 3915 L 0 316 5157 3915 L
45 0 5134 4231 L 45 0 5152 3895 L 0 199 5175 3895 L 45 0 5152 4094 L 45 0 5153 2968 L 0 1531 5175 2968 L 45 0 5153 4499 L
45 0 5167 3805 L 0 195 5190 3805 L 45 0 5167 4000 L 45 0 5170 3883 L 0 261 5193 3883 L 45 0 5170 4144 L 45 0 5179 3206 L
0 359 5201 3206 L 45 0 5179 3565 L 45 0 5190 3922 L 0 214 5212 3922 L 45 0 5190 4136 L 45 0 5200 3398 L 0 604 5223 3398 L
45 0 5200 4002 L 45 0 5209 3845 L 0 200 5231 3845 L 45 0 5209 4045 L 45 0 5229 3100 L 0 847 5252 3100 L 45 0 5229 3947 L
45 0 5231 3832 L 0 208 5254 3832 L 45 0 5231 4040 L 45 0 5231 3542 L 0 433 5254 3542 L 45 0 5231 3975 L 45 0 5248 3684 L
0 249 5271 3684 L 45 0 5248 3933 L 45 0 5265 3757 L 0 234 5288 3757 L 45 0 5265 3991 L 45 0 5289 3661 L 0 788 5312 3661 L
45 0 5289 4449 L 45 0 5292 3479 L 0 457 5315 3479 L 45 0 5292 3936 L 45 0 5292 3544 L 0 434 5315 3544 L 45 0 5292 3978 L
45 0 5296 3709 L 0 183 5319 3709 L 45 0 5296 3892 L 45 0 5304 3867 L 0 461 5326 3867 L 45 0 5304 4328 L 45 0 5304 4010 L
0 423 5326 4010 L 45 0 5304 4433 L 45 0 5304 3576 L 0 418 5326 3576 L 45 0 5304 3994 L 45 0 5324 3364 L 0 794 5347 3364 L
45 0 5324 4158 L 45 0 5335 3754 L 0 377 5358 3754 L 45 0 5335 4131 L 45 0 5354 3778 L 0 139 5376 3778 L 45 0 5354 3917 L
44 0 5355 3927 L 0 191 5377 3927 L 44 0 5355 4118 L 44 0 5373 3922 L 0 224 5395 3922 L 44 0 5373 4146 L 45 0 5391 3699 L
0 416 5413 3699 L 45 0 5391 4115 L 45 0 5391 4232 L 0 439 5413 4232 L 45 0 5391 4671 L 45 0 5397 3319 L 0 787 5419 3319 L
45 0 5397 4106 L 45 0 5408 3644 L 0 511 5430 3644 L 45 0 5408 4155 L 45 0 5416 3759 L 0 216 5439 3759 L 45 0 5416 3975 L
45 0 5416 3826 L 0 201 5439 3826 L 45 0 5416 4027 L 45 0 5439 3790 L 0 295 5462 3790 L 45 0 5439 4085 L 45 0 5457 3982 L
0 297 5480 3982 L 45 0 5457 4279 L 45 0 5457 3711 L 0 217 5480 3711 L 45 0 5457 3928 L 45 0 5460 3972 L 0 357 5482 3972 L
45 0 5460 4329 L 45 0 5478 3792 L 0 198 5500 3792 L 45 0 5478 3990 L 45 0 5494 3772 L 0 487 5516 3772 L 45 0 5494 4259 L
45 0 5498 3807 L 0 217 5520 3807 L 45 0 5498 4024 L 45 0 5498 3838 L 0 201 5520 3838 L 45 0 5498 4039 L 45 0 5510 3837 L
0 208 5533 3837 L 45 0 5510 4045 L 45 0 5518 3967 L 0 211 5540 3967 L 45 0 5518 4178 L 45 0 5534 3932 L 0 228 5556 3932 L
45 0 5534 4160 L 45 0 5536 3769 L 0 301 5558 3769 L 45 0 5536 4070 L 45 0 5551 3787 L 0 153 5574 3787 L 45 0 5551 3940 L
45 0 5569 3680 L 0 415 5592 3680 L 45 0 5569 4095 L 45 0 5569 3671 L 0 433 5592 3671 L 45 0 5569 4104 L 45 0 5612 3808 L
0 209 5635 3808 L 45 0 5612 4017 L 45 0 5655 4045 L 0 199 5678 4045 L 45 0 5655 4244 L 45 0 5664 3758 L 0 292 5687 3758 L
45 0 5664 4050 L 45 0 5685 3796 L 0 480 5707 3796 L 45 0 5685 4276 L 45 0 5693 4020 L 0 249 5716 4020 L 45 0 5693 4269 L
45 0 5702 3935 L 0 161 5724 3935 L 45 0 5702 4096 L 45 0 5709 4007 L 0 419 5732 4007 L 45 0 5709 4426 L 45 0 5709 3935 L
0 428 5732 3935 L 45 0 5709 4363 L 45 0 5712 3809 L 0 905 5734 3809 L 45 0 5712 4714 L 45 0 5743 3821 L 0 209 5766 3821 L
45 0 5743 4030 L 45 0 5756 3968 L 0 232 5779 3968 L 45 0 5756 4200 L 45 0 5757 3783 L 0 253 5779 3783 L 45 0 5757 4036 L
45 0 5767 4116 L 0 169 5790 4116 L 45 0 5767 4285 L 45 0 5806 3878 L 0 275 5829 3878 L 45 0 5806 4153 L 45 0 5817 4334 L
0 918 5839 4334 L 45 0 5817 5252 L 45 0 5833 4132 L 0 109 5855 4132 L 45 0 5833 4241 L 45 0 5837 3900 L 0 192 5859 3900 L
45 0 5837 4092 L 45 0 5868 3839 L 0 208 5891 3839 L 45 0 5868 4047 L 45 0 5893 4045 L 0 204 5916 4045 L 45 0 5893 4249 L
45 0 5896 3836 L 0 257 5918 3836 L 45 0 5896 4093 L 45 0 5917 4087 L 0 215 5940 4087 L 45 0 5917 4302 L 45 0 5919 3977 L
0 366 5941 3977 L 45 0 5919 4343 L 45 0 5929 3832 L 0 648 5951 3832 L 45 0 5929 4480 L 45 0 5929 4029 L 0 287 5951 4029 L
45 0 5929 4316 L 45 0 5938 4097 L 0 251 5961 4097 L 45 0 5938 4348 L 45 0 5941 4217 L 0 142 5964 4217 L 45 0 5941 4359 L
45 0 5959 3909 L 0 303 5981 3909 L 45 0 5959 4212 L 45 0 5987 3877 L 0 225 6009 3877 L 45 0 5987 4102 L 45 0 6008 3865 L
0 462 6030 3865 L 45 0 6008 4327 L 45 0 6026 3522 L 0 517 6048 3522 L 45 0 6026 4039 L 45 0 6035 3856 L 0 323 6057 3856 L
45 0 6035 4179 L 45 0 6057 3985 L 0 209 6079 3985 L 45 0 6057 4194 L 45 0 6122 4102 L 0 166 6144 4102 L 45 0 6122 4268 L
45 0 6126 3169 L 0 662 6148 3169 L 45 0 6126 3831 L 45 0 6126 3643 L 0 470 6148 3643 L 45 0 6126 4113 L 45 0 6139 4021 L
0 245 6161 4021 L 45 0 6139 4266 L 45 0 6169 3625 L 0 414 6192 3625 L 45 0 6169 4039 L 45 0 6169 3454 L 0 439 6192 3454 L
45 0 6169 3893 L 45 0 6187 3596 L 0 377 6210 3596 L 45 0 6187 3973 L 45 0 6191 3443 L 0 460 6214 3443 L 45 0 6191 3903 L
45 0 6191 3224 L 0 536 6214 3224 L 45 0 6191 3760 L 45 0 6209 3643 L 0 179 6231 3643 L 45 0 6209 3822 L 45 0 6229 3766 L
0 228 6251 3766 L 45 0 6229 3994 L 45 0 6263 4066 L 0 510 6285 4066 L 45 0 6263 4576 L 45 0 6263 3878 L 0 381 6285 3878 L
45 0 6263 4259 L 45 0 6283 3765 L 0 254 6305 3765 L 45 0 6283 4019 L 45 0 6300 3618 L 0 466 6323 3618 L 45 0 6300 4084 L
45 0 6308 3726 L 0 215 6330 3726 L 45 0 6308 3941 L 45 0 6312 3660 L 0 215 6335 3660 L 45 0 6312 3875 L 45 0 6328 2710 L
0 1232 6350 2710 L 45 0 6328 3942 L 45 0 6336 3747 L 0 94 6359 3747 L 45 0 6336 3841 L 45 0 6343 3720 L 0 209 6365 3720 L
45 0 6343 3929 L 45 0 6364 3625 L 0 162 6386 3625 L 45 0 6364 3787 L 45 0 6370 3593 L 0 306 6392 3593 L 45 0 6370 3899 L
45 0 6389 2140 L 0 3556 6411 2140 L 45 0 6389 5696 L 45 0 6391 3719 L 0 175 6413 3719 L 45 0 6391 3894 L 45 0 6396 3663 L
0 199 6418 3663 L 45 0 6396 3862 L 45 0 6405 3675 L 0 148 6428 3675 L 45 0 6405 3823 L 45 0 6412 4053 L 0 1238 6435 4053 L
45 0 6412 5291 L 45 0 6415 3603 L 0 249 6438 3603 L 45 0 6415 3852 L 45 0 6435 3552 L 0 320 6457 3552 L 45 0 6435 3872 L
45 0 6442 3479 L 0 295 6465 3479 L 45 0 6442 3774 L 45 0 6454 2294 L 0 2256 6476 2294 L 45 0 6454 4550 L 45 0 6465 3454 L
0 188 6487 3454 L 45 0 6465 3642 L 45 0 6490 3735 L 0 234 6512 3735 L 45 0 6490 3969 L 45 0 6499 3700 L 0 368 6522 3700 L
45 0 6499 4068 L 45 0 6518 3856 L 0 205 6540 3856 L 45 0 6518 4061 L 45 0 6521 3692 L 0 297 6543 3692 L 45 0 6521 3989 L
45 0 6538 3715 L 0 270 6561 3715 L 45 0 6538 3985 L 45 0 6542 4088 L 0 237 6565 4088 L 45 0 6542 4325 L 45 0 6543 3938 L
0 76 6566 3938 L 45 0 6543 4014 L 45 0 6545 3888 L 0 173 6568 3888 L 45 0 6545 4061 L 45 0 6557 3691 L 0 323 6580 3691 L
45 0 6557 4014 L 45 0 6558 2322 L 0 2259 6581 2322 L 45 0 6558 4581 L 45 0 6565 3902 L 0 114 6587 3902 L 45 0 6565 4016 L
45 0 6582 3956 L 0 185 6605 3956 L 45 0 6582 4141 L 45 0 6593 3884 L 0 202 6615 3884 L 45 0 6593 4086 L 45 0 6601 3112 L
0 972 6623 3112 L 45 0 6601 4084 L 45 0 6606 4029 L 0 234 6628 4029 L 45 0 6606 4263 L 45 0 6616 3611 L 0 423 6638 3611 L
45 0 6616 4034 L 45 0 6640 3991 L 0 240 6662 3991 L 45 0 6640 4231 L 45 0 6653 3891 L 0 195 6675 3891 L 45 0 6653 4086 L
45 0 6659 4001 L 0 316 6681 4001 L 45 0 6659 4317 L 45 0 6682 3919 L 0 113 6705 3919 L 45 0 6682 4032 L 45 0 6705 3802 L
0 241 6728 3802 L 45 0 6705 4043 L 45 0 6708 3734 L 0 138 6731 3734 L 45 0 6708 3872 L 45 0 6755 3961 L 0 181 6778 3961 L
45 0 6755 4142 L 45 0 6756 3872 L 0 418 6778 3872 L 45 0 6756 4290 L 45 0 6768 3990 L 0 96 6791 3990 L 45 0 6768 4086 L
45 0 6782 3887 L 0 266 6805 3887 L 45 0 6782 4153 L 45 0 6807 3914 L 0 247 6830 3914 L 45 0 6807 4161 L 45 0 6822 4283 L
0 1607 6845 4283 L 45 0 6822 5890 L 45 0 6828 3801 L 0 227 6850 3801 L 45 0 6828 4028 L 45 0 6831 3751 L 0 279 6854 3751 L
45 0 6831 4030 L 45 0 6840 3383 L 0 1037 6863 3383 L 45 0 6840 4420 L 45 0 6845 3808 L 0 212 6868 3808 L 45 0 6845 4020 L
45 0 6863 3888 L 0 166 6885 3888 L 45 0 6863 4054 L 45 0 6866 3708 L 0 312 6888 3708 L 45 0 6866 4020 L 45 0 6887 3662 L
0 226 6910 3662 L 45 0 6887 3888 L 45 0 6895 3018 L 0 1414 6917 3018 L 45 0 6895 4432 L 45 0 6912 3743 L 0 189 6935 3743 L
45 0 6912 3932 L 45 0 6914 3415 L 0 438 6936 3415 L 45 0 6914 3853 L 45 0 6925 3255 L 0 761 6948 3255 L 45 0 6925 4016 L
45 0 6935 4014 L 0 430 6957 4014 L 45 0 6935 4444 L 45 0 6935 3763 L 0 183 6958 3763 L 45 0 6935 3946 L 45 0 6938 1782 L
0 1927 6960 1782 L 45 0 6938 3709 L 45 0 6947 3271 L 0 1296 6969 3271 L 45 0 6947 4567 L 45 0 6958 2508 L 0 1808 6980 2508 L
45 0 6958 4316 L 45 0 6958 3743 L 0 194 6981 3743 L 45 0 6958 3937 L 45 0 6971 3285 L 0 677 6994 3285 L 45 0 6971 3962 L
45 0 6992 3705 L 0 218 7015 3705 L 45 0 6992 3923 L 45 0 7004 3571 L 0 176 7027 3571 L 45 0 7004 3747 L 45 0 7009 3496 L
0 392 7031 3496 L 45 0 7009 3888 L 45 0 7009 3709 L 0 191 7032 3709 L 45 0 7009 3900 L 45 0 7020 3739 L 0 55 7042 3739 L
45 0 7020 3794 L 45 0 7020 3800 L 0 229 7042 3800 L 45 0 7020 4029 L 45 0 7030 3581 L 0 1293 7053 3581 L 45 0 7030 4874 L
45 0 7032 3595 L 0 255 7055 3595 L 45 0 7032 3850 L 45 0 7037 3626 L 0 172 7059 3626 L 45 0 7037 3798 L 45 0 7054 3848 L
0 247 7076 3848 L 45 0 7054 4095 L 45 0 7056 3740 L 0 304 7079 3740 L 45 0 7056 4044 L 45 0 7072 3669 L 0 183 7095 3669 L
45 0 7072 3852 L 45 0 7076 3768 L 0 164 7099 3768 L 45 0 7076 3932 L 45 0 7103 3496 L 0 502 7126 3496 L 45 0 7103 3998 L
45 0 7119 3560 L 0 220 7141 3560 L 45 0 7119 3780 L 45 0 7121 3577 L 0 506 7143 3577 L 45 0 7121 4083 L 45 0 7126 3464 L
0 1861 7149 3464 L 45 0 7126 5325 L 45 0 7127 3837 L 0 1147 7150 3837 L 45 0 7127 4984 L 45 0 7133 2908 L 0 576 7155 2908 L
45 0 7133 3484 L 45 0 7135 3388 L 0 422 7157 3388 L 45 0 7135 3810 L 45 0 7137 2605 L 0 1514 7160 2605 L 45 0 7137 4119 L
45 0 7149 2686 L 0 818 7171 2686 L 45 0 7149 3504 L 45 0 7149 3541 L 0 167 7171 3541 L 45 0 7149 3708 L 45 0 7152 3609 L
0 219 7174 3609 L 45 0 7152 3828 L 45 0 7159 3234 L 0 1007 7182 3234 L 45 0 7159 4241 L 45 0 7160 3617 L 0 283 7182 3617 L
45 0 7160 3900 L 45 0 7169 2938 L 0 2111 7191 2938 L 45 0 7169 5049 L 45 0 7178 3200 L 0 615 7201 3200 L 45 0 7178 3815 L
45 0 7185 3617 L 0 123 7207 3617 L 45 0 7185 3740 L 45 0 7198 3996 L 0 812 7221 3996 L 45 0 7198 4808 L 45 0 7214 2574 L
0 959 7237 2574 L 45 0 7214 3533 L 45 0 7221 3762 L 0 196 7244 3762 L 45 0 7221 3958 L 45 0 7223 3621 L 0 551 7246 3621 L
45 0 7223 4172 L 45 0 7230 3382 L 0 1783 7252 3382 L 45 0 7230 5165 L 45 0 7238 3198 L 0 1146 7260 3198 L 45 0 7238 4344 L
45 0 7254 3565 L 0 776 7276 3565 L 45 0 7254 4341 L 45 0 7267 3272 L 0 485 7290 3272 L 45 0 7267 3757 L 45 0 7281 3815 L
0 155 7303 3815 L 45 0 7281 3970 L 45 0 7293 3829 L 0 1441 7316 3829 L 45 0 7293 5270 L 0 1242 7318 1170 L 45 0 7296 2412 L
45 0 7301 3508 L 0 2526 7324 3508 L 45 0 7301 6034 L 45 0 7305 3779 L 0 172 7327 3779 L 45 0 7305 3951 L 45 0 7313 3363 L
0 593 7335 3363 L 45 0 7313 3956 L 45 0 7323 3729 L 0 738 7345 3729 L 45 0 7323 4467 L 45 0 7326 1407 L 0 2283 7349 1407 L
45 0 7326 3690 L 45 0 7350 2423 L 0 1705 7372 2423 L 45 0 7350 4128 L 45 0 7354 3872 L 0 115 7377 3872 L 45 0 7354 3987 L
45 0 7357 3254 L 0 673 7379 3254 L 45 0 7357 3927 L 45 0 7363 3263 L 0 933 7386 3263 L 45 0 7363 4196 L 45 0 7366 3953 L
0 1187 7388 3953 L 45 0 7366 5140 L 45 0 7377 1420 L 0 809 7399 1420 L 45 0 7377 2229 L 45 0 7384 3844 L 0 73 7406 3844 L
45 0 7384 3917 L 45 0 7387 3562 L 0 470 7409 3562 L 45 0 7387 4032 L 45 0 7406 3878 L 0 951 7429 3878 L 45 0 7406 4829 L
45 0 7412 3903 L 0 86 7434 3903 L 45 0 7412 3989 L 45 0 7414 3244 L 0 806 7437 3244 L 45 0 7414 4050 L 45 0 7432 1426 L
0 5203 7455 1426 L 45 0 7440 3767 L 0 82 7463 3767 L 45 0 7440 3849 L 45 0 7453 3211 L 0 2228 7475 3211 L 45 0 7453 5439 L
45 0 7468 2623 L 0 1106 7491 2623 L 45 0 7468 3729 L 45 0 7482 3390 L 0 465 7504 3390 L 45 0 7482 3855 L 45 0 7500 3590 L
0 1178 7522 3590 L 45 0 7500 4768 L 45 0 7517 3585 L 0 1289 7540 3585 L 45 0 7517 4874 L 45 0 7520 3713 L 0 529 7543 3713 L
45 0 7520 4242 L 45 0 7533 3230 L 0 820 7555 3230 L 45 0 7533 4050 L 45 0 7533 3506 L 0 516 7555 3506 L 45 0 7533 4022 L
45 0 7551 3434 L 0 3195 7573 3434 L 0 2207 7585 1170 L 45 0 7562 3377 L 45 0 7564 3669 L 0 738 7587 3669 L 45 0 7564 4407 L
45 0 7577 3736 L 0 320 7599 3736 L 45 0 7577 4056 L 45 0 7588 3133 L 0 1599 7611 3133 L 45 0 7588 4732 L 45 0 7596 3979 L
0 499 7619 3979 L 45 0 7596 4478 L 45 0 7604 3427 L 0 633 7626 3427 L 45 0 7604 4060 L 45 0 7607 3598 L 0 224 7630 3598 L
45 0 7607 3822 L 45 0 7613 4422 L 0 1187 7635 4422 L 45 0 7613 5609 L 45 0 7621 3765 L 0 235 7643 3765 L 45 0 7621 4000 L
45 0 7642 2205 L 0 2971 7665 2205 L 45 0 7642 5176 L 45 0 7649 3504 L 0 457 7672 3504 L 45 0 7649 3961 L 45 0 7657 3524 L
0 1085 7680 3524 L 45 0 7657 4609 L 45 0 7671 3714 L 0 813 7693 3714 L 45 0 7671 4527 L 45 0 7677 3784 L 0 217 7700 3784 L
45 0 7677 4001 L 45 0 7691 3501 L 0 222 7713 3501 L 45 0 7691 3723 L 45 0 7692 3576 L 0 1206 7715 3576 L 45 0 7692 4782 L
45 0 7715 3819 L 0 180 7737 3819 L 45 0 7715 3999 L 45 0 7717 3221 L 0 924 7739 3221 L 45 0 7717 4145 L 45 0 7733 3962 L
0 706 7755 3962 L 45 0 7733 4668 L 45 0 7749 3619 L 0 320 7771 3619 L 45 0 7749 3939 L 45 0 7754 3914 L 0 529 7777 3914 L
45 0 7754 4443 L 45 0 7756 3864 L 0 130 7779 3864 L 45 0 7756 3994 L 45 0 7768 2822 L 0 1693 7790 2822 L 45 0 7768 4515 L
45 0 7777 3839 L 0 219 7799 3839 L 45 0 7777 4058 L 45 0 7778 3781 L 0 170 7800 3781 L 45 0 7778 3951 L 45 0 7779 3894 L
0 699 7802 3894 L 45 0 7779 4593 L 45 0 7789 3897 L 0 725 7812 3897 L 45 0 7789 4622 L 45 0 7801 3920 L 0 331 7823 3920 L
45 0 7801 4251 L 45 0 7808 3343 L 0 510 7831 3343 L 45 0 7808 3853 L 45 0 7809 3677 L 0 241 7832 3677 L 45 0 7809 3918 L
45 0 7820 3833 L 0 235 7842 3833 L 45 0 7820 4068 L 45 0 7823 3646 L 0 677 7846 3646 L 45 0 7823 4323 L 45 0 7852 4083 L
0 1598 7875 4083 L 45 0 7852 5681 L 45 0 7863 3897 L 0 781 7885 3897 L 45 0 7863 4678 L 45 0 7881 3600 L 0 1000 7903 3600 L
45 0 7881 4600 L 45 0 7883 3610 L 0 296 7905 3610 L 45 0 7883 3906 L 45 0 7893 3286 L 0 933 7916 3286 L 45 0 7893 4219 L
45 0 7909 4014 L 0 1032 7931 4014 L 45 0 7909 5046 L 45 0 7945 3851 L 0 366 7968 3851 L 45 0 7945 4217 L 45 0 7986 3312 L
0 691 8008 3312 L 45 0 7986 4003 L 45 0 7989 2315 L 0 2007 8012 2315 L 45 0 7989 4322 L 45 0 8016 3835 L 0 631 8039 3835 L
45 0 8016 4466 L 45 0 8021 3624 L 0 1016 8043 3624 L 45 0 8021 4640 L 45 0 8040 3562 L 0 779 8063 3562 L 45 0 8040 4341 L
45 0 8062 2080 L 0 2385 8084 2080 L 45 0 8062 4465 L 45 0 8066 3527 L 0 307 8088 3527 L 45 0 8066 3834 L 45 0 8076 3756 L
0 316 8099 3756 L 45 0 8076 4072 L 45 0 8086 2863 L 0 1514 8109 2863 L 45 0 8086 4377 L 45 0 8134 3472 L 0 1808 8156 3472 L
45 0 8134 5280 L 45 0 8153 3662 L 0 506 8176 3662 L 45 0 8153 4168 L 45 0 8157 3668 L 0 945 8180 3668 L 45 0 8157 4613 L
45 0 8164 3950 L 0 2028 8187 3950 L 45 0 8164 5978 L 45 0 8178 3460 L 0 1331 8200 3460 L 45 0 8178 4791 L 45 0 8188 3760 L
0 367 8210 3760 L 45 0 8188 4127 L 45 0 8210 2373 L 0 1339 8232 2373 L 45 0 8210 3712 L 45 0 8229 3703 L 0 750 8251 3703 L
45 0 8229 4453 L 45 0 8241 3796 L 0 619 8264 3796 L 45 0 8241 4415 L 45 0 8252 3394 L 0 1151 8275 3394 L 45 0 8252 4545 L
45 0 8278 3942 L 0 265 8301 3942 L 45 0 8278 4207 L 45 0 8302 3532 L 0 1755 8325 3532 L 45 0 8302 5287 L 45 0 8347 3949 L
0 184 8370 3949 L 45 0 8347 4133 L 45 0 8354 3595 L 0 834 8377 3595 L 45 0 8354 4429 L 45 0 8395 3830 L 0 304 8417 3830 L
45 0 8395 4134 L 45 0 8409 3903 L 0 353 8432 3903 L 45 0 8409 4256 L 45 0 8437 3858 L 0 488 8459 3858 L 45 0 8437 4346 L
45 0 8440 3748 L 0 719 8462 3748 L 45 0 8440 4467 L 45 0 8460 3666 L 0 753 8483 3666 L 45 0 8460 4419 L 45 0 8460 3331 L
0 1898 8483 3331 L 45 0 8460 5229 L 45 0 8465 3967 L 0 163 8487 3967 L 45 0 8465 4130 L 45 0 8475 4253 L 0 1727 8497 4253 L
45 0 8475 5980 L 45 0 8478 3561 L 0 840 8501 3561 L 45 0 8478 4401 L 45 0 8496 4110 L 0 123 8519 4110 L 45 0 8496 4233 L
45 0 8499 3296 L 0 710 8521 3296 L 45 0 8499 4006 L 45 0 8548 3323 L 0 2029 8571 3323 L 45 0 8548 5352 L
1024 0 1024 K 5627 2948 M16 5751 3986 M16 6134 4148 M16 6333 3712 M16 6404 4060 M16 6754 3879 M16 6923 5732 M16 7376 3869 M16
7407 3850 M16
44 0 5605 1594 L 0 2708 5627 1594 L 44 0 5605 4302 L 45 0 5729 3516 L 0 941 5751 3516 L 45 0 5729 4457 L 45 0 6112 3942 L
0 412 6134 3942 L 45 0 6112 4354 L 45 0 6311 3377 L 0 669 6333 3377 L 45 0 6311 4046 L 45 0 6382 3797 L 0 527 6404 3797 L
45 0 6382 4324 L 45 0 6732 3717 L 0 324 6754 3717 L 45 0 6732 4041 L 45 0 6900 4703 L 0 1926 6923 4703 L 45 0 7353 3557 L
0 624 7376 3557 L 45 0 7353 4181 L 45 0 7385 3084 L 0 1533 7407 3084 L 45 0 7385 4617 L
0 1024 1024 K 4743 4398 M16 4778 3775 M16 4835 4700 M16 4875 3597 M16 4892 3584 M16 4918 3817 M16 4931 3471 M16 5030 3839 M16
5054 3597 M16 5069 3744 M16 5110 4077 M16 5136 4073 M16 5159 2482 M16 5160 4892 M16 5176 3836 M16 5193 3529 M16 5272 3599 M16
5273 4239 M16 5394 4199 M16 5414 3115 M16 5463 2806 M16 5463 3026 M16 5481 3710 M16 5522 3208 M16 5534 4434 M16 5557 3980 M16
5593 3895 M16 5617 3918 M16 5655 3171 M16 5698 3626 M16 5734 4737 M16 5768 3900 M16 5789 3901 M16 5803 3988 M16 5830 4238 M16
5861 3936 M16 5877 4529 M16 5877 3578 M16 5892 4120 M16 5917 3789 M16 5940 3242 M16 5962 4579 M16 5983 4151 M16 6011 3944 M16
6032 4075 M16 6057 3955 M16 6081 4341 M16 6215 4811 M16 6217 3925 M16 6254 2281 M16 6286 4454 M16 6334 3854 M16 6364 3967 M16
6391 4033 M16 6417 3843 M16 6437 4129 M16 6467 3716 M16 6485 3457 M16 6545 3896 M16 6561 4101 M16 6581 4331 M16 6664 5235 M16
6682 3596 M16 6728 4001 M16 6760 3971 M16 6779 4073 M16 6803 3896 M16 6831 3928 M16 6849 3926 M16 6869 5237 M16 6892 3737 M16
6912 3594 M16 6937 3693 M16 6958 3511 M16 6981 3759 M16 7015 3449 M16 7016 3743 M16 7031 3779 M16 7053 3945 M16 7096 3787 M16
7143 3811 M16 7151 1936 M16 7151 3056 M16 7156 3519 M16 7175 3420 M16 7214 4744 M16 7284 3633 M16 7355 3600 M16 7387 6174 M16
7625 3021 M16 7799 4588 M16 8038 2841 M16
45 0 4721 4028 L 0 740 4743 4028 L 45 0 4721 4768 L 45 0 4756 3238 L 0 1075 4778 3238 L 45 0 4756 4313 L 45 0 4812 3981 L
0 1439 4835 3981 L 45 0 4812 5420 L 45 0 4853 2868 L 0 1458 4875 2868 L 45 0 4853 4326 L 45 0 4870 3259 L 0 651 4892 3259 L
45 0 4870 3910 L 45 0 4896 3602 L 0 429 4918 3602 L 45 0 4896 4031 L 45 0 4908 3078 L 0 786 4931 3078 L 45 0 4908 3864 L
45 0 5007 3470 L 0 738 5030 3470 L 45 0 5007 4208 L 45 0 5031 2766 L 0 1663 5054 2766 L 45 0 5031 4429 L 45 0 5046 3656 L
0 176 5069 3656 L 45 0 5046 3832 L 45 0 5088 3710 L 0 735 5110 3710 L 45 0 5088 4445 L 45 0 5114 3505 L 0 1137 5136 3505 L
45 0 5114 4642 L 45 0 5136 1678 L 0 1608 5159 1678 L 45 0 5136 3286 L 45 0 5137 4078 L 0 1628 5160 4078 L 45 0 5137 5706 L
45 0 5153 3598 L 0 475 5176 3598 L 45 0 5153 4073 L 45 0 5170 2976 L 0 1106 5193 2976 L 45 0 5170 4082 L 45 0 5250 3045 L
0 1108 5272 3045 L 45 0 5250 4153 L 45 0 5251 3948 L 0 582 5273 3948 L 45 0 5251 4530 L 45 0 5371 4008 L 0 381 5394 4008 L
45 0 5371 4389 L 45 0 5392 2793 L 0 644 5414 2793 L 45 0 5392 3437 L 45 0 5440 1885 L 0 1843 5463 1885 L 45 0 5440 3728 L
45 0 5440 2152 L 0 1748 5463 2152 L 45 0 5440 3900 L 45 0 5458 3397 L 0 626 5481 3397 L 45 0 5458 4023 L 45 0 5499 1998 L
0 2420 5522 1998 L 45 0 5499 4418 L 45 0 5511 3400 L 0 2067 5534 3400 L 45 0 5511 5467 L 45 0 5534 3708 L 0 545 5557 3708 L
45 0 5534 4253 L 45 0 5570 3774 L 0 242 5593 3774 L 45 0 5570 4016 L 45 0 5594 3702 L 0 432 5617 3702 L 45 0 5594 4134 L
45 0 5632 2350 L 0 1643 5655 2350 L 45 0 5632 3993 L 45 0 5675 3042 L 0 1168 5698 3042 L 45 0 5675 4210 L 45 0 5712 4016 L
0 1443 5734 4016 L 45 0 5712 5459 L 45 0 5745 3728 L 0 344 5768 3728 L 45 0 5745 4072 L 45 0 5767 3308 L 0 1186 5789 3308 L
45 0 5767 4494 L 45 0 5780 3655 L 0 667 5803 3655 L 45 0 5780 4322 L 45 0 5807 4073 L 0 331 5830 4073 L 45 0 5807 4404 L
45 0 5838 3792 L 0 289 5861 3792 L 45 0 5838 4081 L 45 0 5855 3376 L 0 2306 5877 3376 L 45 0 5855 5682 L 45 0 5855 2990 L
0 1176 5877 2990 L 45 0 5855 4166 L 45 0 5869 3998 L 0 244 5892 3998 L 45 0 5869 4242 L 45 0 5894 3654 L 0 270 5917 3654 L
45 0 5894 3924 L 45 0 5918 2734 L 0 1015 5940 2734 L 45 0 5918 3749 L 45 0 5939 4282 L 0 595 5962 4282 L 45 0 5939 4877 L
45 0 5960 3618 L 0 1065 5983 3618 L 45 0 5960 4683 L 45 0 5988 3734 L 0 421 6011 3734 L 45 0 5988 4155 L 45 0 6010 3611 L
0 928 6032 3611 L 45 0 6010 4539 L 45 0 6035 3815 L 0 280 6057 3815 L 45 0 6035 4095 L 45 0 6058 3993 L 0 697 6081 3993 L
45 0 6058 4690 L 45 0 6193 4126 L 0 1371 6215 4126 L 45 0 6193 5497 L 45 0 6195 3794 L 0 261 6217 3794 L 45 0 6195 4055 L
45 0 6231 1220 L 0 2121 6254 1220 L 45 0 6231 3341 L 45 0 6264 4130 L 0 648 6286 4130 L 45 0 6264 4778 L 45 0 6311 3564 L
0 579 6334 3564 L 45 0 6311 4143 L 45 0 6342 3787 L 0 360 6364 3787 L 45 0 6342 4147 L 45 0 6369 3490 L 0 1086 6391 3490 L
45 0 6369 4576 L 45 0 6395 3727 L 0 232 6417 3727 L 45 0 6395 3959 L 45 0 6415 3840 L 0 577 6437 3840 L 45 0 6415 4417 L
45 0 6445 3659 L 0 115 6467 3659 L 45 0 6445 3774 L 45 0 6463 3246 L 0 422 6485 3246 L 45 0 6463 3668 L 45 0 6522 3836 L
0 121 6545 3836 L 45 0 6522 3957 L 45 0 6538 4012 L 0 178 6561 4012 L 45 0 6538 4190 L 45 0 6559 3701 L 0 1260 6581 3701 L
45 0 6559 4961 L 45 0 6641 4161 L 0 2148 6664 4161 L 45 0 6641 6309 L 45 0 6659 3265 L 0 662 6682 3265 L 45 0 6659 3927 L
45 0 6705 3954 L 0 95 6728 3954 L 45 0 6705 4049 L 45 0 6737 3803 L 0 335 6760 3803 L 45 0 6737 4138 L 45 0 6756 3881 L
0 383 6779 3881 L 45 0 6756 4264 L 45 0 6781 3809 L 0 174 6803 3809 L 45 0 6781 3983 L 45 0 6808 3897 L 0 63 6831 3897 L
45 0 6808 3960 L 45 0 6826 3851 L 0 150 6849 3851 L 45 0 6826 4001 L 45 0 6847 4162 L 0 2151 6869 4162 L 45 0 6847 6313 L
45 0 6869 3505 L 0 464 6892 3505 L 45 0 6869 3969 L 45 0 6889 3391 L 0 406 6912 3391 L 45 0 6889 3797 L 45 0 6915 3536 L
0 315 6937 3536 L 45 0 6915 3851 L 45 0 6936 3117 L 0 789 6958 3117 L 45 0 6936 3906 L 45 0 6958 3714 L 0 90 6981 3714 L
45 0 6958 3804 L 45 0 6992 3027 L 0 843 7015 3027 L 45 0 6992 3870 L 45 0 6994 3645 L 0 197 7016 3645 L 45 0 6994 3842 L
45 0 7008 3635 L 0 288 7031 3635 L 45 0 7008 3923 L 45 0 7031 3701 L 0 488 7053 3701 L 45 0 7031 4189 L 45 0 7074 3138 L
0 1299 7096 3138 L 45 0 7074 4437 L 45 0 7120 3756 L 0 110 7143 3756 L 45 0 7120 3866 L 0 2928 7151 1170 L 45 0 7128 4098 L
45 0 7128 1808 L 0 2497 7151 1808 L 45 0 7128 4305 L 45 0 7134 2787 L 0 1463 7156 2787 L 45 0 7134 4250 L 45 0 7153 2924 L
0 993 7175 2924 L 45 0 7153 3917 L 45 0 7192 4125 L 0 1238 7214 4125 L 45 0 7192 5363 L 45 0 7262 3185 L 0 897 7284 3185 L
45 0 7262 4082 L 45 0 7333 3084 L 0 1032 7355 3084 L 45 0 7333 4116 L 45 0 7364 3959 L 0 2670 7387 3959 L 0 4073 7625 1170 L
45 0 7603 5243 L 45 0 7777 3874 L 0 1427 7799 3874 L 45 0 7777 5301 L 45 0 8015 1970 L 0 1743 8038 1970 L 45 0 8015 3713 L
0 0 0 K
PGPLOT restore showpage
%%PageTrailer
%%PageBoundingBox: 24 17 588 721
 
%%Trailer
%%BoundingBox: 24 17 588 721
%%DocumentFonts: 
%%Pages: 1
%%EOF
