{
    "J1614-2230_Rcvr1_2_GASP_efac": 1.0689993364887433,
    "J1614-2230_Rcvr1_2_GASP_log10_ecorr": -8.1439199689618622,
    "J1614-2230_Rcvr1_2_GASP_log10_equad": -7.9479379307761047,
    "J1614-2230_Rcvr1_2_GUPPI_efac": 1.0606724520051716,
    "J1614-2230_Rcvr1_2_GUPPI_log10_ecorr": -8.168979944640606,
    "J1614-2230_Rcvr1_2_GUPPI_log10_equad": -8.5089531807956931,
    "J1614-2230_Rcvr_800_GASP_efac": 0.94068643642646332,
    "J1614-2230_Rcvr_800_GASP_log10_ecorr": -5.644450858970516,
    "J1614-2230_Rcvr_800_GASP_log10_equad": -8.0918391188909027,
    "J1614-2230_Rcvr_800_GUPPI_efac": 1.0134275076288921,
    "J1614-2230_Rcvr_800_GUPPI_log10_ecorr": -6.69373311076634,
    "J1614-2230_Rcvr_800_GUPPI_log10_equad": -8.3284115903351577,
    "J1614-2230_dm_gamma": 3.0003327247222398,
    "J1614-2230_dm_kappa": 5.4092064646560054,
    "J1614-2230_dm_lf0": -7.5276370505401093,
    "J1614-2230_dm_log10_A": -12.783392405879511,
    "J1614-2230_gamma": 3.2619755098813141,
    "J1614-2230_log10_A": -17.154758991618877
}