{
    "J1741+1351_430_ASP_efac": 1.0142926667916909,
    "J1741+1351_430_ASP_log10_ecorr": -7.3606061653547927,
    "J1741+1351_430_ASP_log10_equad": -7.4696686329498485,
    "J1741+1351_430_PUPPI_efac": 1.0627354471965973,
    "J1741+1351_430_PUPPI_log10_ecorr": -8.0419704468608391,
    "J1741+1351_430_PUPPI_log10_equad": -7.340591917711432,
    "J1741+1351_L-wide_ASP_efac": 0.9764381689256505,
    "J1741+1351_L-wide_ASP_log10_ecorr": -8.0496809228643009,
    "J1741+1351_L-wide_ASP_log10_equad": -8.1010448839926656,
    "J1741+1351_L-wide_PUPPI_efac": 1.0472128966902159,
    "J1741+1351_L-wide_PUPPI_log10_ecorr": -7.4347869254825891,
    "J1741+1351_L-wide_PUPPI_log10_equad": -7.6690898527978044,
    "J1741+1351_dm_gamma": 1.5755017461803358,
    "J1741+1351_dm_kappa": 3.3443538545159281,
    "J1741+1351_dm_lf0": -7.7513566841722561,
    "J1741+1351_dm_log10_A": -13.540203953227751,
    "J1741+1351_gamma": 3.4465245751399118,
    "J1741+1351_log10_A": -16.694610158366494
}